Wavenumbercm-1,06:43:53
2998.24357166583,0.178084073989253
2994.5144129946,0.209169909176847
2990.78525432337,0.243149140040923
2987.05609565215,0.295558653689031
2983.32693698092,0.326043262666071
2979.59777830969,0.308749273082771
2975.86861963847,0.277677132211518
2972.13946096724,0.258785544499486
2968.41030229601,0.255827773654843
2964.68114362479,0.256510486423808
2960.95198495356,0.268200663609015
2957.22282628234,0.281260694419399
2953.49366761111,0.295766593183044
2949.76450893988,0.301289090600513
2946.03535026866,0.288564380418195
2942.30619159743,0.27673172844369
2938.5770329262,0.28342194643638
2934.84787425498,0.289036504140559
2931.11871558375,0.283791347260289
2927.38955691253,0.280160005813908
2923.6603982413,0.292198246232147
2919.93123957007,0.299780569190133
2916.20208089885,0.284908785212084
2912.47292222762,0.265977227295037
2908.74376355639,0.259161066553486
2905.01460488517,0.26387130808638
2901.28544621394,0.27722681128175
2897.55628754272,0.286599432436881
2893.82712887149,0.291586226086185
2890.09797020026,0.302922684579077
2886.36881152904,0.318029129331584
2882.63965285781,0.341214083321834
2878.91049418658,0.363427692811646
2875.18133551536,0.354760258534807
2871.45217684413,0.337607786949919
2867.72301817291,0.34201002157538
2863.99385950168,0.342871551456642
2860.26470083045,0.328393695078259
2856.53554215923,0.312713406940405
2852.806383488,0.303892190853215
2849.07722481677,0.293925947882596
2845.34806614555,0.291617108187907
2841.61890747432,0.274370448462015
2837.88974880309,0.239323304775105
2834.16059013187,0.207739773463552
2830.43143146064,0.183474756118767
2826.70227278942,0.163216089941296
2822.97311411819,0.144891740023952
2819.24395544696,0.129875082492836
2815.51479677574,0.117712554988612
2811.78563810451,0.104856756509127
2808.05647943328,0.092880881741632
2804.32732076206,0.0860914582804776
2800.59816209083,0.080470764652324
2796.86900341961,0.074062106192256
2793.13984474838,0.0672321109797304
2789.41068607715,0.0591062941526764
2785.68152740593,0.0511423693634816
2781.9523687347,0.0460787637806441
2778.22321006347,0.0426239112819746
2774.49405139225,0.0390088930330185
2770.76489272102,0.0350989527795102
2767.0357340498,0.0315967254876325
2763.30657537857,0.0291871975205084
2759.57741670734,0.0282957297862092
2755.84825803612,0.0280161750838747
2752.11909936489,0.0281113295702318
2748.38994069366,0.0277771750338279
2744.66078202244,0.0282701682287882
2740.93162335121,0.0320694401732514
2737.20246467999,0.0384707072515676
2733.47330600876,0.0436418447042252
2729.74414733753,0.0448391220321834
2726.01498866631,0.0432067640199713
2722.28582999508,0.0395906035891683
2718.55667132385,0.0351688685793248
2714.82751265263,0.0310698043967574
2711.0983539814,0.0282996675626233
2707.36919531017,0.0271529951189214
2703.64003663895,0.0275988728330501
2699.91087796772,0.0292790201075652
2696.1817192965,0.0327661789102201
2692.45256062527,0.0375825100034732
2688.72340195404,0.0406666049950275
2684.99424328282,0.0404421729153979
2681.26508461159,0.0372998922884846
2677.53592594036,0.0325030106315685
2673.80676726914,0.0292052721478228
2670.07760859791,0.0278201504173572
2666.34844992669,0.027468936895575
2662.61929125546,0.0280123512291959
2658.89013258423,0.0279620057717651
2655.16097391301,0.0261918865127121
2651.43181524178,0.0232607953645465
2647.70265657055,0.0199217369555014
2643.97349789933,0.0170945268672916
2640.2443392281,0.016482883289166
2636.51518055688,0.017087576962005
2632.78602188565,0.0174164953724047
2629.05686321442,0.0178674429355408
2625.3277045432,0.0191459753418375
2621.59854587197,0.0215768547660237
2617.86938720074,0.0251185679392728
2614.14022852952,0.0281365834443206
2610.41106985829,0.0296354192567545
2606.68191118707,0.0307705662056608
2602.95275251584,0.032438386173549
2599.22359384461,0.0337679882134482
2595.49443517339,0.0360621953843634
2591.76527650216,0.0397624875005821
2588.03611783093,0.0432063987448823
2584.30695915971,0.0467290509474629
2580.57780048848,0.0497376530135096
2576.84864181725,0.0531260644046026
2573.11948314603,0.0592456270655537
2569.3903244748,0.0660002978344996
2565.66116580358,0.0679869723590109
2561.93200713235,0.0636349406939578
2558.20284846112,0.0562233995050959
2554.4736897899,0.0494769230156941
2550.74453111867,0.0432455215732529
2547.01537244744,0.0382337338130716
2543.28621377622,0.0354014953107914
2539.55705510499,0.032908888252866
2535.82789643377,0.0293751577196607
2532.09873776254,0.0270767976750881
2528.36957909131,0.0266232323358197
2524.64042042009,0.0263533615381364
2520.91126174886,0.0258371577974087
2517.18210307763,0.0259924345126886
2513.45294440641,0.0273894739802466
2509.72378573518,0.0286520950227772
2505.99462706396,0.0291510236222189
2502.26546839273,0.0297416654452872
2498.5363097215,0.0304616419301983
2494.80715105028,0.0314145723818786
2491.07799237905,0.0324541903482159
2487.34883370782,0.0324374524441441
2483.6196750366,0.0317400648405268
2479.89051636537,0.0302709246387102
2476.16135769415,0.0278500536098363
2472.43219902292,0.0251261011305956
2468.70304035169,0.0227881599862268
2464.97388168047,0.0206637583752635
2461.24472300924,0.0191593502113303
2457.51556433801,0.0180516892178055
2453.78640566679,0.0174021299956175
2450.05724699556,0.0172389541178986
2446.32808832433,0.0168530789851527
2442.59892965311,0.0163401701180775
2438.86977098188,0.0165081228357004
2435.14061231066,0.0167395582222957
2431.41145363943,0.0159149422593774
2427.6822949682,0.0150641271166093
2423.95313629698,0.0147154761296289
2420.22397762575,0.0142090271908419
2416.49481895452,0.0138476725303274
2412.7656602833,0.014316108357015
2409.03650161207,0.0140385116551735
2405.30734294085,0.0126823902354049
2401.57818426962,0.0116995327433321
2397.84902559839,0.0117086549484124
2394.11986692717,0.0118081477551917
2390.39070825594,0.0126035983514544
2386.66154958471,0.0158488192029785
2382.93239091349,0.023538656267366
2379.20323224226,0.037148337950002
2375.47407357104,0.053839295145406
2371.74491489981,0.0677101406546209
2368.01575622858,0.0762859066955346
2364.28659755736,0.079048575385732
2360.55743888613,0.0724969571754636
2356.8282802149,0.0553749218839419
2353.09912154368,0.0438675917787435
2349.36996287245,0.0550510569966601
2345.64080420122,0.0833883898889222
2341.91164553,0.103963502862392
2338.18248685877,0.0937772632618143
2334.45332818755,0.0674068896463658
2330.72416951632,0.0497920620162953
2326.99501084509,0.0396327421633243
2323.26585217387,0.0302448131231175
2319.53669350264,0.0215201721695205
2315.80753483141,0.0148191507398142
2312.07837616019,0.0102812070801246
2308.34921748896,0.00689178308271424
2304.62005881774,0.00472219814107089
2300.89090014651,0.0039845358325941
2297.16174147528,0.00416530537200922
2293.43258280406,0.00565779815536468
2289.70342413283,0.0091010801276333
2285.9742654616,0.0135639685062307
2282.24510679038,0.017566330155465
2278.51594811915,0.0197656093928231
2274.78678944793,0.0204972888498243
2271.0576307767,0.0205902241172687
2267.32847210547,0.0195760637513565
2263.59931343425,0.0182358401377129
2259.87015476302,0.0185504946795237
2256.14099609179,0.0193975345324005
2252.41183742057,0.0191268798286167
2248.68267874934,0.019627898628067
2244.95352007812,0.0205813945068789
2241.22436140689,0.0215319886827609
2237.49520273566,0.0230729298488146
2233.76604406444,0.0253848658045644
2230.03688539321,0.0276680752955057
2226.30772672198,0.0302023515446057
2222.57856805076,0.0325461523392108
2218.84940937953,0.0348116565392032
2215.1202507083,0.0378630280728553
2211.39109203708,0.041688958708451
2207.66193336585,0.0440444603273704
2203.93277469463,0.0459185963642018
2200.2036160234,0.0480511079887707
2196.47445735217,0.0505323734257876
2192.74529868095,0.0567280162909188
2189.01614000972,0.0660153139645185
2185.28698133849,0.0748336530511569
2181.55782266727,0.0806709428392566
2177.82866399604,0.084573638534569
2174.09950532482,0.0886183738916791
2170.37034665359,0.0995750139666942
2166.64118798236,0.121925653931263
2162.91202931114,0.148932998158285
2159.18287063991,0.152321343040796
2155.45371196868,0.138639486107168
2151.72455329746,0.124818426710092
2147.99539462623,0.11432422653144
2144.26623595501,0.104038652398681
2140.53707728378,0.0948848513136344
2136.80791861255,0.0834238634369186
2133.07875994133,0.0690492276739515
2129.3496012701,0.0551291740794973
2125.62044259887,0.0448506200101194
2121.89128392765,0.0378725482013291
2118.16212525642,0.0335581431575534
2114.4329665852,0.0321996749062128
2110.70380791397,0.032078545108949
2106.97464924274,0.0319264732364474
2103.24549057152,0.0314656353560675
2099.51633190029,0.0309433576806941
2095.78717322906,0.0279859261985796
2092.05801455784,0.0231559308611879
2088.32885588661,0.0188445753483631
2084.59969721538,0.0163695392471931
2080.87053854416,0.0147749530328937
2077.14137987293,0.0144526697124074
2073.41222120171,0.0151110352912934
2069.68306253048,0.0169824682609575
2065.95390385925,0.018693067222861
2062.22474518803,0.0192516536085931
2058.4955865168,0.0189151804003421
2054.76642784557,0.0209138827500078
2051.03726917435,0.0264930791064311
2047.30811050312,0.0318941591965361
2043.5789518319,0.0341453449235354
2039.84979316067,0.0374496181342146
2036.12063448944,0.0418080206712438
2032.39147581822,0.0424251315445029
2028.66231714699,0.0397930650461861
2024.93315847576,0.0364902682843767
2021.20399980454,0.0330579015774382
2017.47484113331,0.0299755526880974
2013.74568246209,0.0286315519826406
2010.01652379086,0.0272266155391762
2006.28736511963,0.0241041008117586
2002.55820644841,0.0195660196427605
1998.82904777718,0.0170868803125641
1995.09988910595,0.0175438623797584
1991.37073043473,0.018753131300031
1987.6415717635,0.019018239041507
1983.91241309228,0.0228038791143454
1980.18325442105,0.0290530733864197
1976.45409574982,0.0330962067431163
1972.7249370786,0.032590658870648
1968.99577840737,0.0307238614907539
1965.26661973614,0.0276460151967897
1961.53746106492,0.0235559699720431
1957.80830239369,0.0182059032514671
1954.07914372246,0.013573696563827
1950.34998505124,0.010494446379732
1946.62082638001,0.00869519682213485
1942.89166770879,0.00604090028609248
1939.16250903756,0.00269808078941164
1935.43335036633,-9.72093973812151E-05
1931.70419169511,-0.00204239338933973
1927.97503302388,-0.00257083324371236
1924.24587435265,-0.00219998727278209
1920.51671568143,-0.00257245634588159
1916.7875570102,-0.0044400848242468
1913.05839833898,-0.00582190787548527
1909.32923966775,-0.00674070967578299
1905.60008099652,-0.00772309777474935
1901.8709223253,-0.00797365791929917
1898.14176365407,-0.00742985481746913
1894.41260498284,-0.00671397126393559
1890.68344631162,-0.00713286713442498
1886.95428764039,-0.00889945405933637
1883.22512896917,-0.00987530076928451
1879.49597029794,-0.010085368927504
1875.76681162671,-0.00855429532048327
1872.03765295549,-0.00557669674699862
1868.30849428426,-0.00599312503168246
1864.57933561303,-0.00840264704362606
1860.85017694181,-0.0089883889569427
1857.12101827058,-0.00905043303262713
1853.39185959936,-0.00790372118729985
1849.66270092813,-0.00427079862243955
1845.9335422569,-0.00224393373411814
1842.20438358568,-0.00498344939985024
1838.47522491445,-0.00628458519004818
1834.74606624322,-0.00353439583074153
1831.016907572,-0.000558322965722005
1827.28774890077,-0.00121646597177963
1823.55859022954,-0.00342235275593229
1819.82943155832,-0.00373425588598282
1816.10027288709,-0.00272097219274858
1812.37111421587,-0.00217679585705395
1808.64195554464,-0.00248680228172941
1804.91279687341,-0.00119714804046376
1801.18363820219,8.45462502856762E-06
1797.45447953096,0.00145995750444601
1793.72532085973,0.00197648008674592
1789.99616218851,-0.000602176989368172
1786.26700351728,-0.00154655740110145
1782.53784484606,-0.000940697588812601
1778.80868617483,0.00141601697430905
1775.0795275036,0.00604506905070952
1771.35036883238,0.00465270980938746
1767.62121016115,0.00110896670585036
1763.89205148992,0.00109066189087542
1760.1628928187,0.00135320885032927
1756.43373414747,0.00263882009916156
1752.70457547625,0.00588065189000075
1748.97541680502,0.00601838751374772
1745.24625813379,0.00675519015468522
1741.51709946257,0.0129317073258024
1737.78794079134,0.0230384876047375
1734.05878212011,0.027851370221596
1730.32962344889,0.0235045466116165
1726.60046477766,0.0238181476328398
1722.87130610643,0.0314598801612314
1719.14214743521,0.0343471104730971
1715.41298876398,0.0209567794391625
1711.68383009276,0.0101358002206279
1707.95467142153,0.00956804786070424
1704.2255127503,0.0150394870157547
1700.49635407908,0.0158528593581856
1696.76719540785,0.0067081587687014
1693.03803673662,0.00113749508587446
1689.3088780654,0.00585215701380258
1685.57971939417,0.00959988310296764
1681.85056072295,0.00457375302139351
1678.12140205172,0.0041885401851977
1674.39224338049,0.0070843312579798
1670.66308470927,0.0056048881125345
1666.93392603804,0.00268157513866289
1663.20476736681,0.00210480021864064
1659.47560869559,0.00731922323304665
1655.74645002436,0.0187474420157226
1652.01729135314,0.0191179158011682
1648.28813268191,0.0117924347343336
1644.55897401068,0.00619663102142117
1640.82981533946,0.00832034836026497
1637.10065666823,0.0125175149296057
1633.371497997,0.00767044257761639
1629.64233932578,0.00722380911333437
1625.91318065455,0.0100279366256067
1622.18402198333,0.0116839142010637
1618.4548633121,0.0112115467155688
1614.72570464087,0.00622158750108563
1610.99654596965,0.00301919408483592
1607.26738729842,0.00227004956913431
1603.53822862719,0.00142751211958838
1599.80906995597,0.000991912062035679
1596.07991128474,0.000296924293284961
1592.35075261351,-0.00166606237516221
1588.62159394229,-0.00372532757045406
1584.89243527106,-0.00400374771893876
1581.16327659984,-0.00062950945417678
1577.43411792861,0.00263736220773417
1573.70495925738,0.00225738026253374
1569.97580058616,0.00194482625976385
1566.24664191493,0.00495092465002356
1562.5174832437,0.01711708964154
1558.78832457248,0.0196446708131856
1555.05916590125,0.00818391276305788
1551.33000723003,0.00508334670767431
1547.6008485588,0.0119443296436003
1543.87168988757,0.0240799592935474
1540.14253121635,0.0232420880635835
1536.41337254512,0.0181632736690176
1532.68421387389,0.0194188745419054
1528.95505520267,0.0236743814119011
1525.22589653144,0.0297175436660766
1521.49673786022,0.0301546408326515
1517.76757918899,0.0261194017248089
1514.03842051776,0.0278556104422227
1510.30926184654,0.0380057352849739
1506.58010317531,0.0386767471185309
1502.85094450408,0.0354742819901821
1499.12178583286,0.0416011060745375
1495.39262716163,0.0483243324025205
1491.66346849041,0.055608939245678
1487.93430981918,0.0596821762890027
1484.20515114795,0.0640293393200193
1480.47599247673,0.0764063591229579
1476.7468338055,0.0945063982531201
1473.01767513427,0.112816861177908
1469.28851646305,0.135714372341107
1465.55935779182,0.170029237611879
1461.83019912059,0.19127342146485
1458.10104044937,0.180681228762537
1454.37188177814,0.157847606913621
1450.64272310692,0.144558690034516
1446.91356443569,0.12240940906193
1443.18440576446,0.0956112615553755
1439.45524709324,0.0768155997246841
1435.72608842201,0.0611542796242742
1431.99692975078,0.0487613659218512
1428.26777107956,0.0412859518973921
1424.53861240833,0.038148869258218
1420.80945373711,0.0359126620971132
1417.08029506588,0.0282114726147808
1413.35113639465,0.0224899238462965
1409.62197772343,0.0222175698931358
1405.8928190522,0.0261669477311468
1402.16366038097,0.0337045676899484
1398.43450170975,0.0378169622827065
1394.70534303852,0.0307772209177867
1390.9761843673,0.0227735334064764
1387.24702569607,0.0191270580856644
1383.51786702484,0.0176723941887188
1379.78870835362,0.0217225629480367
1376.05954968239,0.0353556020929394
1372.33039101116,0.0664154136785047
1368.60123233994,0.108314003536156
1364.87207366871,0.115889074300033
1361.14291499749,0.0774747676133485
1357.41375632626,0.0449768962675642
1353.68459765503,0.0312564945186445
1349.95543898381,0.0266720630406484
1346.22628031258,0.02669951597899
1342.49712164135,0.0313322387032151
1338.76796297013,0.037168035112872
1335.0388042989,0.0409364489755068
1331.30964562767,0.0418447238288584
1327.58048695645,0.0399986389052438
1323.85132828522,0.0383035547451972
1320.122169614,0.0387155247093987
1316.39301094277,0.0435865517637832
1312.66385227154,0.0546715926522277
1308.93469360032,0.0688297846181051
1305.20553492909,0.0800158091204106
1301.47637625786,0.0936008755993893
1297.74721758664,0.116529557031283
1294.01805891541,0.147594688918608
1290.28890024419,0.18409383820979
1286.55974157296,0.222287737997496
1282.83058290173,0.219008181517809
1279.10142423051,0.16244158159731
1275.37226555928,0.114916511637393
1271.64310688805,0.0969885896578943
1267.91394821683,0.0925947282780294
1264.1847895456,0.0930245767921869
1260.45563087438,0.0982457327402641
1256.72647220315,0.108516959534918
1252.99731353192,0.122976934072349
1249.2681548607,0.139209497838771
1245.53899618947,0.149763747022134
1241.80983751824,0.146812245299792
1238.08067884702,0.133738893231403
1234.35152017579,0.122028273269753
1230.62236150457,0.115650137481437
1226.89320283334,0.113289994902266
1223.16404416211,0.113767748017653
1219.43488549089,0.116167018042873
1215.70572681966,0.120102719697848
1211.97656814843,0.12612150954465
1208.24740947721,0.133086779634614
1204.51825080598,0.139195079114372
1200.78909213475,0.147623970724446
1197.05993346353,0.161099615485816
1193.3307747923,0.176703268898347
1189.60161612108,0.189674409058563
1185.87245744985,0.20369716967371
1182.14329877862,0.226986738784008
1178.4141401074,0.246008565835338
1174.68498143617,0.231470901510904
1170.95582276494,0.193143670092344
1167.22666409372,0.15893033360341
1163.49750542249,0.137788794186276
1159.76834675127,0.129587146721123
1156.03918808004,0.133359748259613
1152.31002940881,0.147903302348975
1148.58087073759,0.171903925579498
1144.85171206636,0.189905362067615
1141.12255339513,0.18087287759928
1137.39339472391,0.153504795902817
1133.66423605268,0.128032703655997
1129.93507738146,0.111870277974146
1126.20591871023,0.103909345263885
1122.476760039,0.10207910098326
1118.74760136778,0.10532257011751
1115.01844269655,0.112407734850487
1111.28928402532,0.12080015573478
1107.5601253541,0.131517115467786
1103.83096668287,0.148454373409249
1100.10180801165,0.173563603328064
1096.37264934042,0.206803258824512
1092.64349066919,0.249824496412358
1088.91433199797,0.311400267572948
1085.18517332674,0.408872590338402
1081.45601465551,0.56655722412504
1077.72685598429,0.817729680531731
1073.99769731306,1.18994413632445
1070.26853864183,1.61416503989462
1066.53937997061,1.74679801997527
1062.81022129938,1.51510191438193
1059.08106262816,1.19862535802343
1055.35190395693,0.918653673482951
1051.6227452857,0.706600659798403
1047.89358661448,0.557746510067321
1044.16442794325,0.460557921865797
1040.43526927202,0.405656276571554
1036.7061106008,0.38629111106417
1032.97695192957,0.383970757635292
1029.24779325835,0.364849041138565
1025.51863458712,0.310714338083514
1021.78947591589,0.243411186187908
1018.06031724467,0.189196138570216
1014.33115857344,0.153699368174209
1010.60199990221,0.130676033984241
1006.87284123099,0.11479767834245
1003.14368255976,0.103178897560428
999.414523888535,0.094742978844369
995.685365217309,0.0887382038249948
991.956206546083,0.0850846235407244
988.227047874856,0.0832667621490959
984.49788920363,0.0830026931825027
980.768730532404,0.0840637494779313
977.039571861178,0.0865136588103754
973.310413189951,0.0906156350886886
969.581254518725,0.0965061340512305
965.852095847499,0.104564313025735
962.122937176272,0.115625950551609
958.393778505046,0.130016551077075
954.66461983382,0.147931913014131
950.935461162594,0.169720503094
947.206302491367,0.192205330939943
943.477143820141,0.214642993748507
939.747985148915,0.242997361440418
936.018826477688,0.282724188106845
932.289667806462,0.336877363516151
928.560509135236,0.410286549476672
924.83135046401,0.508692668944659
921.102191792783,0.637385973740595
917.373033121557,0.786923430138347
913.643874450331,0.922142788957864
909.914715779104,0.994266854911861
906.185557107878,0.989242862494357
902.456398436652,0.916244396695462
898.727239765426,0.803151779266129
894.998081094199,0.683036342105609
891.268922422973,0.577407903276065
887.539763751747,0.494058200332583
883.81060508052,0.434126887220667
880.081446409294,0.392835750909492
876.352287738068,0.363642153768109
872.623129066842,0.34121030758937
868.893970395615,0.320918434253106
865.164811724389,0.300911233399603
861.435653053163,0.281438473245122
857.706494381936,0.264482032154277
853.97733571071,0.252021496966356
850.248177039484,0.243819571065594
846.519018368258,0.232686747215478
842.789859697031,0.218899023792187
839.060701025805,0.206788329009417
835.331542354579,0.195943362391369
831.602383683352,0.184322830879585
827.873225012126,0.172561460050556
824.1440663409,0.161666206810482
820.414907669674,0.152311481095447
816.685748998447,0.141631196770939
812.956590327221,0.129094830130023
809.227431655995,0.116764946936377
805.498272984768,0.106735776630748
801.769114313542,0.0994418252855137
798.039955642316,0.0949975347295195
794.31079697109,0.0907944458035939
790.581638299863,0.0872116423830529
786.852479628637,0.0894174285756699
783.123320957411,0.107451082393219
779.394162286184,0.116158883797749
775.665003614958,0.0952358329197906
771.935844943732,0.0812258488559456
768.206686272506,0.0804929900513576
764.477527601279,0.0855274636832034
760.748368930053,0.0962575865501017
757.019210258827,0.104045822451462
753.2900515876,0.102310081085388
749.560892916374,0.0987275707541946
745.831734245148,0.0955279331541528
742.102575573922,0.0900968837582369
738.373416902695,0.0847557584042167
734.644258231469,0.0785076114266481
730.915099560243,0.071132091688801
727.185940889016,0.0636356237863943
723.45678221779,0.0599246632982475
719.727623546564,0.0618335760657911
715.998464875338,0.0755701030801955
712.269306204111,0.0922358981723084
708.540147532885,0.0906338004098126
704.810988861659,0.0881937181254084
701.081830190432,0.0908797578291679
697.352671519206,0.0878481309028417
693.62351284798,0.0898841005259486
689.894354176754,0.0982241904732569
686.165195505527,0.126935447271787
682.436036834301,0.162003216315328
678.706878163075,0.160979336477164
674.977719491848,0.158049340046446
671.248560820622,0.194286405368382
667.519402149396,0.243332200662768
663.790243478169,0.274271863097442
660.061084806943,0.276870042304236
656.331926135717,0.274504702460408
652.602767464491,0.268156125815476
648.873608793276,0.256697885571188
