Wavenumbercm-1,03:19:52
2998.24357166583,0.192042668218243
2994.5144129946,0.222630190143876
2990.78525432337,0.253723855288012
2987.05609565215,0.30533079639247
2983.32693698092,0.33978296399245
2979.59777830969,0.32337772934287
2975.86861963847,0.289897013767809
2972.13946096724,0.270145465923333
2968.41030229601,0.270866003131062
2964.68114362479,0.270180865363627
2960.95198495356,0.27873294058155
2957.22282628234,0.293123471731704
2953.49366761111,0.31180879277846
2949.76450893988,0.316494218465423
2946.03535026866,0.301727894333666
2942.30619159743,0.289993391939779
2938.5770329262,0.298473395796138
2934.84787425498,0.303673408045781
2931.11871558375,0.295689204984621
2927.38955691253,0.291452137555491
2923.6603982413,0.305224015850837
2919.93123957007,0.31505988240929
2916.20208089885,0.302458285684929
2912.47292222762,0.284050297775107
2908.74376355639,0.27482976472227
2905.01460488517,0.27681199786684
2901.28544621394,0.289496021136611
2897.55628754272,0.299615016835058
2893.82712887149,0.303230691954651
2890.09797020026,0.31447285323321
2886.36881152904,0.330127001569236
2882.63965285781,0.35426885258316
2878.91049418658,0.379165268053892
2875.18133551536,0.373913313478616
2871.45217684413,0.354841014422854
2867.72301817291,0.356205268344643
2863.99385950168,0.355569795033806
2860.26470083045,0.341742126707432
2856.53554215923,0.327009482104636
2852.806383488,0.320193673103955
2849.07722481677,0.309673373589089
2845.34806614555,0.308994979327776
2841.61890747432,0.294527528271132
2837.88974880309,0.256995263287476
2834.16059013187,0.221400402198639
2830.43143146064,0.195523682313408
2826.70227278942,0.175607332892784
2822.97311411819,0.15588721217237
2819.24395544696,0.138778880869661
2815.51479677574,0.12654419820729
2811.78563810451,0.11519324817183
2808.05647943328,0.103412841262557
2804.32732076206,0.0961635570813964
2800.59816209083,0.0891931496858761
2796.86900341961,0.0824615498037535
2793.13984474838,0.0768359168772153
2789.41068607715,0.0700886487380476
2785.68152740593,0.0620728574144713
2781.9523687347,0.0577097752183291
2778.22321006347,0.0554148136115564
2774.49405139225,0.0516123100178284
2770.76489272102,0.0478206756050896
2767.0357340498,0.0449216053034471
2763.30657537857,0.0425984315772313
2759.57741670734,0.0415027712419218
2755.84825803612,0.0410337792183344
2752.11909936489,0.0417028791728606
2748.38994069366,0.0424782102328228
2744.66078202244,0.0435526071544934
2740.93162335121,0.0462786504592384
2737.20246467999,0.0487897892621231
2733.47330600876,0.0509029128673652
2729.74414733753,0.0522475344298205
2726.01498866631,0.0521456010384529
2722.28582999508,0.0499117864280014
2718.55667132385,0.0464892442213804
2714.82751265263,0.042012768877516
2711.0983539814,0.0388162805904996
2707.36919531017,0.037870418621127
2703.64003663895,0.0380297948693076
2699.91087796772,0.0391380461025436
2696.1817192965,0.0429856627124632
2692.45256062527,0.047606657620382
2688.72340195404,0.0499429488940144
2684.99424328282,0.0498712090013085
2681.26508461159,0.0475260663364082
2677.53592594036,0.0432514756109877
2673.80676726914,0.0395923756122946
2670.07760859791,0.0372997211075892
2666.34844992669,0.0362414422137166
2662.61929125546,0.0366755942210035
2658.89013258423,0.03710268952573
2655.16097391301,0.0357451917586088
2651.43181524178,0.0330224987294869
2647.70265657055,0.0304029681920512
2643.97349789933,0.0280253930952306
2640.2443392281,0.0271648318339848
2636.51518055688,0.0269134624868893
2632.78602188565,0.0267239665188283
2629.05686321442,0.0273596272083278
2625.3277045432,0.0288335550192223
2621.59854587197,0.0301958783920524
2617.86938720074,0.0319759895330531
2614.14022852952,0.0339127112700403
2610.41106985829,0.0357772149249174
2606.68191118707,0.0372697924305669
2602.95275251584,0.0385892137398932
2599.22359384461,0.0394914001923676
2595.49443517339,0.040756079531514
2591.76527650216,0.0430672511918711
2588.03611783093,0.0461248018824587
2584.30695915971,0.0507214616666486
2580.57780048848,0.0564090459381994
2576.84864181725,0.0643819495798672
2573.11948314603,0.0766955203183702
2569.3903244748,0.0910695066621874
2565.66116580358,0.0999401408337643
2561.93200713235,0.0999105607184706
2558.20284846112,0.0927686898734129
2554.4736897899,0.083941292038253
2550.74453111867,0.0781822548180705
2547.01537244744,0.0766285962491942
2543.28621377622,0.0732595685600942
2539.55705510499,0.0643520685140636
2535.82789643377,0.0533611026977424
2532.09873776254,0.0463215050979889
2528.36957909131,0.0440371807858001
2524.64042042009,0.043588392450577
2520.91126174886,0.043290326580373
2517.18210307763,0.0434974718997612
2513.45294440641,0.0444099689588558
2509.72378573518,0.0456081462143971
2505.99462706396,0.0470044241386684
2502.26546839273,0.0485363425626342
2498.5363097215,0.0508451717249412
2494.80715105028,0.0526056238112082
2491.07799237905,0.052604500596857
2487.34883370782,0.0513177995913444
2483.6196750366,0.0499414165433279
2479.89051636537,0.0479496902505297
2476.16135769415,0.0458845681500911
2472.43219902292,0.0439041145622157
2468.70304035169,0.0414108935370235
2464.97388168047,0.038176091428341
2461.24472300924,0.0354412895476049
2457.51556433801,0.0331237010451092
2453.78640566679,0.0313856940182116
2450.05724699556,0.030672183604696
2446.32808832433,0.0299923865015468
2442.59892965311,0.0285897407472567
2438.86977098188,0.027495475792606
2435.14061231066,0.0266781282991052
2431.41145363943,0.0256012914892853
2427.6822949682,0.0245779457276857
2423.95313629698,0.0232989294500828
2420.22397762575,0.022739323103961
2416.49481895452,0.0229750162340471
2412.7656602833,0.0227076336001316
2409.03650161207,0.020946086278798
2405.30734294085,0.0191910336176515
2401.57818426962,0.0181130593086722
2397.84902559839,0.0177101859695462
2394.11986692717,0.017498807699672
2390.39070825594,0.0178004003890239
2386.66154958471,0.0201211001060155
2382.93239091349,0.0273264232516251
2379.20323224226,0.0409454836985895
2375.47407357104,0.0585004942507185
2371.74491489981,0.0748095798716452
2368.01575622858,0.0858178833793744
2364.28659755736,0.0886160769344798
2360.55743888613,0.0796422699133741
2356.8282802149,0.0585479225458831
2353.09912154368,0.0422700154215335
2349.36996287245,0.0462633592342661
2345.64080420122,0.0585701133051733
2341.91164553,0.06260271365476
2338.18248685877,0.0596100860068729
2334.45332818755,0.0531587980555301
2330.72416951632,0.0446694749295705
2326.99501084509,0.0361621171416638
2323.26585217387,0.0283417299239509
2319.53669350264,0.0214854811176842
2315.80753483141,0.0164812619064099
2312.07837616019,0.0137363132420433
2308.34921748896,0.0114059762350522
2304.62005881774,0.00944618032648289
2300.89090014651,0.00871363441212343
2297.16174147528,0.00929472195153017
2293.43258280406,0.0120099829057627
2289.70342413283,0.0175762039078485
2285.9742654616,0.0249723664640773
2282.24510679038,0.0324657502656727
2278.51594811915,0.0375034230211733
2274.78678944793,0.0389267821241579
2271.0576307767,0.0383326878996408
2267.32847210547,0.0369525147949776
2263.59931343425,0.0360320245308721
2259.87015476302,0.0350668536235424
2256.14099609179,0.0336521378961634
2252.41183742057,0.0317610770373562
2248.68267874934,0.0307828254001345
2244.95352007812,0.0296508367678255
2241.22436140689,0.0298766569714122
2237.49520273566,0.0309911565696119
2233.76604406444,0.03246981892557
2230.03688539321,0.0335644340570135
2226.30772672198,0.0349123324954921
2222.57856805076,0.0366417626646797
2218.84940937953,0.0396869921347068
2215.1202507083,0.043775157395658
2211.39109203708,0.0475705245757203
2207.66193336585,0.0487458520450965
2203.93277469463,0.0495331884206441
2200.2036160234,0.0510867755693878
2196.47445735217,0.0532873169221611
2192.74529868095,0.05898651431428
2189.01614000972,0.0680275357035435
2185.28698133849,0.0779452903774251
2181.55782266727,0.084546459304964
2177.82866399604,0.088597415888564
2174.09950532482,0.0919184148595137
2170.37034665359,0.103397616667137
2166.64118798236,0.127272317135079
2162.91202931114,0.156277055461145
2159.18287063991,0.16012400435374
2155.45371196868,0.144189591846293
2151.72455329746,0.127169196782397
2147.99539462623,0.11661111682929
2144.26623595501,0.106927240520884
2140.53707728378,0.0980951125171339
2136.80791861255,0.0865279310598929
2133.07875994133,0.0716403129374466
2129.3496012701,0.0570034019529873
2125.62044259887,0.0465529606855838
2121.89128392765,0.0401542373915313
2118.16212525642,0.0359828760959413
2114.4329665852,0.0336274597333036
2110.70380791397,0.0323785920619522
2106.97464924274,0.0319958052323225
2103.24549057152,0.0313824842365449
2099.51633190029,0.0312169249371659
2095.78717322906,0.0290445674141699
2092.05801455784,0.0246625380450445
2088.32885588661,0.0203459782313755
2084.59969721538,0.0182500821488324
2080.87053854416,0.0168530707890566
2077.14137987293,0.016534256968861
2073.41222120171,0.0167032025747954
2069.68306253048,0.018666265036519
2065.95390385925,0.0205025180245326
2062.22474518803,0.0213686928861377
2058.4955865168,0.0210452074665952
2054.76642784557,0.0226875977047323
2051.03726917435,0.0275916550603686
2047.30811050312,0.0338210781048801
2043.5789518319,0.0369947326453008
2039.84979316067,0.0390890394541329
2036.12063448944,0.0419700297287265
2032.39147581822,0.0435318989681056
2028.66231714699,0.0423416598110223
2024.93315847576,0.0391457340667957
2021.20399980454,0.0359606253236036
2017.47484113331,0.0326583328727395
2013.74568246209,0.0311321280049751
2010.01652379086,0.0297008357385244
2006.28736511963,0.0262754820737017
2002.55820644841,0.0213046045617321
1998.82904777718,0.0195163996093294
1995.09988910595,0.0203039371208003
1991.37073043473,0.0217164131641773
1987.6415717635,0.0216102637102717
1983.91241309228,0.0252761963610923
1980.18325442105,0.0317728414224296
1976.45409574982,0.0364805608294085
1972.7249370786,0.0356631333483117
1968.99577840737,0.0331840296152019
1965.26661973614,0.0290691891177332
1961.53746106492,0.0253734703730025
1957.80830239369,0.0204919780564747
1954.07914372246,0.0156898697450052
1950.34998505124,0.0127442499348699
1946.62082638001,0.0112274955535226
1942.89166770879,0.00820612878307183
1939.16250903756,0.00455159450994072
1935.43335036633,0.00199266767932274
1931.70419169511,0.000208159304561911
1927.97503302388,0.000170576292629319
1924.24587435265,0.000838279413066007
1920.51671568143,0.000455551927032764
1916.7875570102,-0.00157108097322778
1913.05839833898,-0.00258887095729249
1909.32923966775,-0.00360371876772518
1905.60008099652,-0.00487796014642924
1901.8709223253,-0.00529824159395209
1898.14176365407,-0.00452305446858815
1894.41260498284,-0.00363694238081796
1890.68344631162,-0.00407023292367851
1886.95428764039,-0.00606945173498332
1883.22512896917,-0.00697788404391559
1879.49597029794,-0.00712648408735916
1875.76681162671,-0.00481026468760791
1872.03765295549,-0.000842599605577703
1868.30849428426,-0.00185141525251348
1864.57933561303,-0.00539664984244842
1860.85017694181,-0.00634305789903274
1857.12101827058,-0.00640063477665677
1853.39185959936,-0.00493670023649924
1849.66270092813,-0.000404993242048937
1845.9335422569,0.0017631054422276
1842.20438358568,-0.00205770868736311
1838.47522491445,-0.00390231208903478
1834.74606624322,-0.000457641107563657
1831.016907572,0.00316289843562994
1827.28774890077,0.00217719217219345
1823.55859022954,-0.000844291808103734
1819.82943155832,-0.00130309460698319
1816.10027288709,-6.91617669375692E-05
1812.37111421587,0.000710568722218468
1808.64195554464,0.000350514498852069
1804.91279687341,0.00216025937806746
1801.18363820219,0.00375847916367101
1797.45447953096,0.00568215041852608
1793.72532085973,0.00610782408786228
1789.99616218851,0.0022916422544157
1786.26700351728,0.00081098022516235
1782.53784484606,0.00171059158069689
1778.80868617483,0.00507111000243985
1775.0795275036,0.0112002237662243
1771.35036883238,0.00939933139265326
1767.62121016115,0.00541924429337146
1763.89205148992,0.00764589018961355
1760.1628928187,0.011386014109288
1756.43373414747,0.0161622046326599
1752.70457547625,0.0219682203903457
1748.97541680502,0.0224740576678818
1745.24625813379,0.0241612296729875
1741.51709946257,0.036408988817955
1737.78794079134,0.0622624465658439
1734.05878212011,0.0899835321974791
1730.32962344889,0.0928796703892973
1726.60046477766,0.078925424382964
1722.87130610643,0.0620419761126685
1719.14214743521,0.0455370623188813
1715.41298876398,0.0236496054956615
1711.68383009276,0.0123336417990816
1707.95467142153,0.0144388929569447
1704.2255127503,0.02283889312983
1700.49635407908,0.0236384065265868
1696.76719540785,0.0110149512842683
1693.03803673662,0.00362645914827674
1689.3088780654,0.00993608381682984
1685.57971939417,0.0143599154077044
1681.85056072295,0.00677097044565634
1678.12140205172,0.00534261893374546
1674.39224338049,0.00804000538510313
1670.66308470927,0.00483763387802237
1666.93392603804,-0.000322331136849881
1663.20476736681,-0.00228523898334636
1659.47560869559,0.00354261196922137
1655.74645002436,0.0177420281340213
1652.01729135314,0.0174385024434773
1648.28813268191,0.00759026676779082
1644.55897401068,9.2754336847974E-05
1640.82981533946,0.00298021339534843
1637.10065666823,0.00855374998784809
1633.371497997,0.0034878717049605
1629.64233932578,0.0067022011840832
1625.91318065455,0.0145358662770097
1622.18402198333,0.0177272322044084
1618.4548633121,0.0159512125671989
1614.72570464087,0.00907841161207945
1610.99654596965,0.00591400468217043
1607.26738729842,0.00568711754630626
1603.53822862719,0.0045668030562539
1599.80906995597,0.00374971402929533
1596.07991128474,0.00219971221472262
1592.35075261351,-0.00155351183902917
1588.62159394229,-0.00544465310509109
1584.89243527106,-0.00621870362666986
1581.16327659984,-0.00178854434005529
1577.43411792861,0.0025383479669091
1573.70495925738,0.00184477374797831
1569.97580058616,0.00136315568044088
1566.24664191493,0.00524453507165622
1562.5174832437,0.0214677442174437
1558.78832457248,0.0244718037230921
1555.05916590125,0.00895929485540906
1551.33000723003,0.00470260614470941
1547.6008485588,0.0136522308166569
1543.87168988757,0.0287760035658499
1540.14253121635,0.0249420260093255
1536.41337254512,0.0145501349426247
1532.68421387389,0.0127582646814125
1528.95505520267,0.0178678978137845
1525.22589653144,0.0281059286933574
1521.49673786022,0.0307328342427586
1517.76757918899,0.0259775857454011
1514.03842051776,0.0281253186583357
1510.30926184654,0.0406880127331417
1506.58010317531,0.0395639321460963
1502.85094450408,0.0332333522656806
1499.12178583286,0.038796290944192
1495.39262716163,0.0445209004341317
1491.66346849041,0.0512540544829131
1487.93430981918,0.0532930507880093
1484.20515114795,0.0555877781289817
1480.47599247673,0.0675618374775944
1476.7468338055,0.0860970324192877
1473.01767513427,0.103982891026824
1469.28851646305,0.126947419092839
1465.55935779182,0.163833283568388
1461.83019912059,0.188983432558469
1458.10104044937,0.180690957172119
1454.37188177814,0.15598217870665
1450.64272310692,0.141500845641925
1446.91356443569,0.118984245156015
1443.18440576446,0.0928896684237666
1439.45524709324,0.0761380737061707
1435.72608842201,0.0609129221206094
1431.99692975078,0.0481593603832222
1428.26777107956,0.0410512542842937
1424.53861240833,0.0388767387334934
1420.80945373711,0.0372077889937926
1417.08029506588,0.027193229805872
1413.35113639465,0.0187592727053913
1409.62197772343,0.0161752400628849
1405.8928190522,0.0158893737548646
1402.16366038097,0.0171043814923832
1398.43450170975,0.0187243884698262
1394.70534303852,0.0166716680454913
1390.9761843673,0.0162471742963559
1387.24702569607,0.0182788689792885
1383.51786702484,0.0211443511049423
1379.78870835362,0.0315105826161603
1376.05954968239,0.0503988517354651
1372.33039101116,0.0758280417649719
1368.60123233994,0.101129028834747
1364.87207366871,0.102918033856993
1361.14291499749,0.0752106162199141
1357.41375632626,0.0506562909976097
1353.68459765503,0.0387228856432609
1349.95543898381,0.0332214342097177
1346.22628031258,0.0320303163303503
1342.49712164135,0.0353904765490282
1338.76796297013,0.0389063179097571
1335.0388042989,0.0393211879649463
1331.30964562767,0.0379554822041978
1327.58048695645,0.036089175554727
1323.85132828522,0.0354167624758717
1320.122169614,0.0367246252709009
1316.39301094277,0.0399371757715395
1312.66385227154,0.0444575870365063
1308.93469360032,0.0491426331458408
1305.20553492909,0.0534947745124256
1301.47637625786,0.060669975211914
1297.74721758664,0.0773857660265988
1294.01805891541,0.11384741400983
1290.28890024419,0.184772615876294
1286.55974157296,0.292512199491089
1282.83058290173,0.354128562063493
1279.10142423051,0.302321359937101
1275.37226555928,0.241233414889584
1271.64310688805,0.200914586253458
1267.91394821683,0.15781914407713
1264.1847895456,0.138663692857904
1260.45563087438,0.146639478263931
1256.72647220315,0.165760187906485
1252.99731353192,0.188423094501936
1249.2681548607,0.207653345157905
1245.53899618947,0.216607597142424
1241.80983751824,0.212921038827386
1238.08067884702,0.200790617356462
1234.35152017579,0.185646609197666
1230.62236150457,0.171594563112905
1226.89320283334,0.16051905518859
1223.16404416211,0.153561600474223
1219.43488549089,0.150014590911154
1215.70572681966,0.150710050513087
1211.97656814843,0.157059346917813
1208.24740947721,0.165318804398847
1204.51825080598,0.168690439348541
1200.78909213475,0.1727852519151
1197.05993346353,0.18413941916083
1193.3307747923,0.204663735599309
1189.60161612108,0.238484078820192
1185.87245744985,0.279276125801165
1182.14329877862,0.300100140968662
1178.4141401074,0.288565298264509
1174.68498143617,0.257834616344974
1170.95582276494,0.220196021574495
1167.22666409372,0.185981762240618
1163.49750542249,0.16588176177437
1159.76834675127,0.164323542711652
1156.03918808004,0.179219279045375
1152.31002940881,0.207923995453361
1148.58087073759,0.259058751783211
1144.85171206636,0.319545477274657
1141.12255339513,0.33084949756145
1137.39339472391,0.284333641035452
1133.66423605268,0.230531692037811
1129.93507738146,0.187890834667765
1126.20591871023,0.154181721177164
1122.476760039,0.133223451307704
1118.74760136778,0.123895613788044
1115.01844269655,0.123284994435071
1111.28928402532,0.129556631932214
1107.5601253541,0.139980382248567
1103.83096668287,0.153224158287186
1100.10180801165,0.17358624306932
1096.37264934042,0.204491924362145
1092.64349066919,0.249410734333119
1088.91433199797,0.315765091027366
1085.18517332674,0.418438466408967
1081.45601465551,0.581887322135902
1077.72685598429,0.840620696514597
1073.99769731306,1.22372577175617
1070.26853864183,1.65575803810905
1066.53937997061,1.75118920430641
1062.81022129938,1.46026855086612
1059.08106262816,1.1296321459937
1055.35190395693,0.868858235583194
1051.6227452857,0.686705379678711
1047.89358661448,0.559962438552144
1044.16442794325,0.470581206765434
1040.43526927202,0.413807531253099
1036.7061106008,0.389416066325134
1032.97695192957,0.379758754155175
1029.24779325835,0.351470720035878
1025.51863458712,0.292838784700751
1021.78947591589,0.22942439537465
1018.06031724467,0.180877901987499
1014.33115857344,0.148458459231374
1010.60199990221,0.126776906109218
1006.87284123099,0.111716257953305
1003.14368255976,0.100660638304961
999.414523888535,0.0926758876175678
995.685365217309,0.0873048280585211
991.956206546083,0.0842798709163424
988.227047874856,0.0830272416373444
984.49788920363,0.0833322149335488
980.768730532404,0.0850007307615795
977.039571861178,0.0880200297941149
973.310413189951,0.0927864066386947
969.581254518725,0.0992888061673409
965.852095847499,0.107869917167903
962.122937176272,0.119283647164153
958.393778505046,0.133694430551048
954.66461983382,0.150246170333554
950.935461162594,0.169039713613504
947.206302491367,0.19062418814566
943.477143820141,0.216258826017028
939.747985148915,0.247537747369515
936.018826477688,0.288421487907669
932.289667806462,0.343685392502488
928.560509135236,0.41918097726488
924.83135046401,0.519667705993759
921.102191792783,0.649150702898346
917.373033121557,0.799236225721846
913.643874450331,0.936896534465488
909.914715779104,1.00833518923824
906.185557107878,0.991797783034551
902.456398436652,0.904972581227285
898.727239765426,0.785327435780752
894.998081094199,0.667497689307968
891.268922422973,0.571876022860295
887.539763751747,0.502569950681536
883.81060508052,0.453336319036741
880.081446409294,0.416536488819099
876.352287738068,0.384875570974876
872.623129066842,0.356774658205663
868.893970395615,0.331373096359392
865.164811724389,0.308243120122766
861.435653053163,0.286410330019392
857.706494381936,0.267004582340038
853.97733571071,0.252918652506621
850.248177039484,0.249435135903935
846.519018368258,0.248664772897807
842.789859697031,0.231749244758316
839.060701025805,0.205115029032134
835.331542354579,0.185277894828829
831.602383683352,0.170060856512692
827.873225012126,0.156035434993398
824.1440663409,0.141760059495076
820.414907669674,0.128959030828897
816.685748998447,0.117587744635871
812.956590327221,0.107548993052172
809.227431655995,0.0988921920220257
805.498272984768,0.0912344202801514
801.769114313542,0.0851804154651438
798.039955642316,0.0808425232111865
794.31079697109,0.0764731649969938
790.581638299863,0.0714430507350241
786.852479628637,0.0671068796082709
783.123320957411,0.0658313693049485
779.394162286184,0.0722252709798499
775.665003614958,0.087694713632864
771.935844943732,0.0881226891501814
768.206686272506,0.0650892027749127
764.477527601279,0.0493693464958437
760.748368930053,0.0441223540763907
757.019210258827,0.0416162127815592
753.2900515876,0.0401499567149329
749.560892916374,0.0395259550369525
745.831734245148,0.0385179683118718
742.102575573922,0.0374822463574924
738.373416902695,0.0403004858285391
734.644258231469,0.0439357454828646
730.915099560243,0.0416866554353341
727.185940889016,0.0391165940031101
723.45678221779,0.0395076702887266
719.727623546564,0.0413827952226096
715.998464875338,0.0442934924371506
712.269306204111,0.0498939886522091
708.540147532885,0.0685058374117489
704.810988861659,0.100167175087588
701.081830190432,0.112902614190673
697.352671519206,0.0928030652573017
693.62351284798,0.0826895050447241
689.894354176754,0.0926175871358815
686.165195505527,0.142680162787111
682.436036834301,0.217484768093134
678.706878163075,0.241981668254758
674.977719491848,0.245769184384926
671.248560820622,0.253218101394342
667.519402149396,0.244622818884873
663.790243478169,0.236499024449435
660.061084806943,0.234708545956988
656.331926135717,0.239576736071658
652.602767464491,0.226994009530519
648.873608793276,0.21269001865613
