Wavenumbercm-1,04:41:52
2998.24357166583,0.186945893995448
2994.5144129946,0.215435453889629
2990.78525432337,0.245969307173366
2987.05609565215,0.298938195317738
2983.32693698092,0.336650673202401
2979.59777830969,0.32099343023031
2975.86861963847,0.284009433375712
2972.13946096724,0.261327508360466
2968.41030229601,0.261470504961714
2964.68114362479,0.261916743741724
2960.95198495356,0.272735493012535
2957.22282628234,0.286010867500086
2953.49366761111,0.30091661920322
2949.76450893988,0.307662859849456
2946.03535026866,0.296456075464674
2942.30619159743,0.283936400930552
2938.5770329262,0.292717008426571
2934.84787425498,0.300546447961013
2931.11871558375,0.293648882705226
2927.38955691253,0.286251195926511
2923.6603982413,0.29679577915979
2919.93123957007,0.309247939759104
2916.20208089885,0.298853289052179
2912.47292222762,0.278774085367246
2908.74376355639,0.269587439376112
2905.01460488517,0.274615607693009
2901.28544621394,0.289089933555759
2897.55628754272,0.296837526288551
2893.82712887149,0.298953447114085
2890.09797020026,0.309525053550969
2886.36881152904,0.325019780804926
2882.63965285781,0.351403211098128
2878.91049418658,0.376450789447092
2875.18133551536,0.368150791543623
2871.45217684413,0.348519802866968
2867.72301817291,0.352757172574977
2863.99385950168,0.353422140823154
2860.26470083045,0.338581830182866
2856.53554215923,0.323098997145723
2852.806383488,0.312753938301879
2849.07722481677,0.300012521792944
2845.34806614555,0.300286542686689
2841.61890747432,0.288633009969939
2837.88974880309,0.253125826765681
2834.16059013187,0.21779225957329
2830.43143146064,0.191919963996592
2826.70227278942,0.171901516015129
2822.97311411819,0.152755329831186
2819.24395544696,0.136262449250907
2815.51479677574,0.124451961367034
2811.78563810451,0.112823728477263
2808.05647943328,0.0993374722580217
2804.32732076206,0.0911953119098375
2800.59816209083,0.0852127880125573
2796.86900341961,0.0799063054252962
2793.13984474838,0.0741296578461973
2789.41068607715,0.0657191113105387
2785.68152740593,0.05726261102146
2781.9523687347,0.0534619520527234
2778.22321006347,0.0523762159144349
2774.49405139225,0.0501378234700832
2770.76489272102,0.0467622001580083
2767.0357340498,0.0431516555847556
2763.30657537857,0.0399915761870166
2759.57741670734,0.03895628699038
2755.84825803612,0.039063000154724
2752.11909936489,0.0392721071959446
2748.38994069366,0.0394080617467497
2744.66078202244,0.0406327810376954
2740.93162335121,0.0434543453222733
2737.20246467999,0.0459929037013713
2733.47330600876,0.0483369501411225
2729.74414733753,0.0498034399052452
2726.01498866631,0.0495795646377572
2722.28582999508,0.0474187456309874
2718.55667132385,0.0442494771762494
2714.82751265263,0.0404218670940239
2711.0983539814,0.0375566807382059
2707.36919531017,0.0359725177407369
2703.64003663895,0.0358178440257009
2699.91087796772,0.0373898881571406
2696.1817192965,0.0410797399297945
2692.45256062527,0.0453093075775886
2688.72340195404,0.0478525962726811
2684.99424328282,0.0477649928980096
2681.26508461159,0.0452958291716734
2677.53592594036,0.0408017934246546
2673.80676726914,0.0369769925871308
2670.07760859791,0.0351831591367197
2666.34844992669,0.0347729874786127
2662.61929125546,0.0355406422141953
2658.89013258423,0.0359648780158096
2655.16097391301,0.0343936491007378
2651.43181524178,0.0314412527209199
2647.70265657055,0.0287329089968027
2643.97349789933,0.0264959761816196
2640.2443392281,0.0257994367123528
2636.51518055688,0.0253636998441494
2632.78602188565,0.0245035210138832
2629.05686321442,0.0246585398301653
2625.3277045432,0.0262532779383743
2621.59854587197,0.0281909140112577
2617.86938720074,0.0305762890364742
2614.14022852952,0.0323651653533607
2610.41106985829,0.0334728194092146
2606.68191118707,0.034781756908031
2602.95275251584,0.036658353815873
2599.22359384461,0.0377568426491057
2595.49443517339,0.0389039496300011
2591.76527650216,0.0414112152299442
2588.03611783093,0.0440885688116424
2584.30695915971,0.0474253529291654
2580.57780048848,0.052667715934857
2576.84864181725,0.0615262369329371
2573.11948314603,0.0747403496492003
2569.3903244748,0.0892434251979537
2565.66116580358,0.0979885842478783
2561.93200713235,0.0982783796975021
2558.20284846112,0.0912035948528965
2554.4736897899,0.0823111025881695
2550.74453111867,0.0766836894941425
2547.01537244744,0.0747527441280628
2543.28621377622,0.0709742753665854
2539.55705510499,0.0624812202029412
2535.82789643377,0.0523447437884687
2532.09873776254,0.0458022135486219
2528.36957909131,0.0432590514917435
2524.64042042009,0.0420887729483939
2520.91126174886,0.0413605236128056
2517.18210307763,0.0414954238833046
2513.45294440641,0.0428412956308416
2509.72378573518,0.0447366885163267
2505.99462706396,0.0464693945340589
2502.26546839273,0.0479721646050451
2498.5363097215,0.0496984113474302
2494.80715105028,0.0507018977561937
2491.07799237905,0.0506179923028519
2487.34883370782,0.0495658099073402
2483.6196750366,0.0484674670578064
2479.89051636537,0.0469283665034723
2476.16135769415,0.044792263707445
2472.43219902292,0.0422261135139818
2468.70304035169,0.0396057286075816
2464.97388168047,0.0366622411683305
2461.24472300924,0.033904918356143
2457.51556433801,0.0314078722122702
2453.78640566679,0.0298160100911483
2450.05724699556,0.0289546326247642
2446.32808832433,0.0281405426704837
2442.59892965311,0.0275979800471832
2438.86977098188,0.0268665404812584
2435.14061231066,0.0255375871238428
2431.41145363943,0.0239757692853661
2427.6822949682,0.0227889349475113
2423.95313629698,0.0217026108521154
2420.22397762575,0.0209712773190254
2416.49481895452,0.0208993948562253
2412.7656602833,0.0208492402922685
2409.03650161207,0.0197457634632537
2405.30734294085,0.0185126301183453
2401.57818426962,0.0174239894451771
2397.84902559839,0.0166245182567152
2394.11986692717,0.0159400586389069
2390.39070825594,0.0163601729072894
2386.66154958471,0.0190368708014191
2382.93239091349,0.0259282860764634
2379.20323224226,0.0391125906529478
2375.47407357104,0.0564873607944384
2371.74491489981,0.0726737764846507
2368.01575622858,0.0837242590343319
2364.28659755736,0.0866376362152194
2360.55743888613,0.0775265344426717
2356.8282802149,0.0566207480989697
2353.09912154368,0.0408437617457063
2349.36996287245,0.0449398238390122
2345.64080420122,0.0569415391625189
2341.91164553,0.0605993031739658
2338.18248685877,0.0574762406661548
2334.45332818755,0.0510210867844638
2330.72416951632,0.042471721398902
2326.99501084509,0.0341147373271773
2323.26585217387,0.0267158146200071
2319.53669350264,0.0201238576524534
2315.80753483141,0.0152727058820534
2312.07837616019,0.0125632741973043
2308.34921748896,0.0101060264429157
2304.62005881774,0.0080138553766285
2300.89090014651,0.00710249965180912
2297.16174147528,0.00770225406286296
2293.43258280406,0.010558869009869
2289.70342413283,0.0159267077136986
2285.9742654616,0.0234298851577043
2282.24510679038,0.0313938752354956
2278.51594811915,0.0361359771082192
2274.78678944793,0.0370455597578069
2271.0576307767,0.0367463118867203
2267.32847210547,0.0356399765567209
2263.59931343425,0.0343831612638491
2259.87015476302,0.0334319052465547
2256.14099609179,0.0323326495701786
2252.41183742057,0.0302543941558262
2248.68267874934,0.0294497481910153
2244.95352007812,0.0286926194750668
2241.22436140689,0.0284805966923362
2237.49520273566,0.0292824583670841
2233.76604406444,0.0307825457478552
2230.03688539321,0.0319019289830686
2226.30772672198,0.0331658020123828
2222.57856805076,0.0349821199750418
2218.84940937953,0.0384740355087378
2215.1202507083,0.0427661872877812
2211.39109203708,0.0464632393254598
2207.66193336585,0.0479653512103858
2203.93277469463,0.0490265537318574
2200.2036160234,0.0504433033112157
2196.47445735217,0.0525998262482388
2192.74529868095,0.0581646065076654
2189.01614000972,0.0668627768608287
2185.28698133849,0.0767842193509104
2181.55782266727,0.0832547033894439
2177.82866399604,0.0875438614650678
2174.09950532482,0.0916754365208032
2170.37034665359,0.102877814792794
2166.64118798236,0.125655181873791
2162.91202931114,0.15339327504459
2159.18287063991,0.156710085688785
2155.45371196868,0.142346168926327
2151.72455329746,0.126989902127688
2147.99539462623,0.11586766048686
2144.26623595501,0.10541587135837
2140.53707728378,0.096574528014577
2136.80791861255,0.0854584223429452
2133.07875994133,0.0711595608590816
2129.3496012701,0.0564158771335119
2125.62044259887,0.0455407381468367
2121.89128392765,0.0391437052317071
2118.16212525642,0.0351483444609784
2114.4329665852,0.0329908049152817
2110.70380791397,0.0317159119972808
2106.97464924274,0.0311405996707416
2103.24549057152,0.0306320636259864
2099.51633190029,0.030275978080782
2095.78717322906,0.0275753629967066
2092.05801455784,0.0235381308065264
2088.32885588661,0.0199250382586442
2084.59969721538,0.0176909455893392
2080.87053854416,0.0159868762098263
2077.14137987293,0.0156995271958754
2073.41222120171,0.016089597982457
2069.68306253048,0.0183035981613381
2065.95390385925,0.0203213565749951
2062.22474518803,0.0206999759247589
2058.4955865168,0.0197044119897374
2054.76642784557,0.0216815784536994
2051.03726917435,0.0277244520436078
2047.30811050312,0.0335751181971979
2043.5789518319,0.0354673781011987
2039.84979316067,0.0381133122893297
2036.12063448944,0.0423575773520316
2032.39147581822,0.0434777816038623
2028.66231714699,0.0409744759625669
2024.93315847576,0.0375853450053519
2021.20399980454,0.0348360018210752
2017.47484113331,0.0317787868069699
2013.74568246209,0.029851132066889
2010.01652379086,0.0280377793540109
2006.28736511963,0.0249809379114975
2002.55820644841,0.0206536401066821
1998.82904777718,0.0191710452681749
1995.09988910595,0.019701641585549
1991.37073043473,0.0208679838869765
1987.6415717635,0.0210359769166202
1983.91241309228,0.0248544324716758
1980.18325442105,0.0309968203482049
1976.45409574982,0.0351681273128226
1972.7249370786,0.0343955314664083
1968.99577840737,0.0325797592939145
1965.26661973614,0.0292421362684776
1961.53746106492,0.0253342531903504
1957.80830239369,0.0200972381234003
1954.07914372246,0.0154246657953489
1950.34998505124,0.0122055470051727
1946.62082638001,0.0100831076166455
1942.89166770879,0.00707782933990607
1939.16250903756,0.00387030616548457
1935.43335036633,0.00163848243788726
1931.70419169511,-0.000207633308112807
1927.97503302388,-0.000452561583904518
1924.24587435265,0.00032110781126985
1920.51671568143,6.40749415347154E-05
1916.7875570102,-0.00208618939965875
1913.05839833898,-0.00333341857738872
1909.32923966775,-0.00426879391595405
1905.60008099652,-0.00533276717778066
1901.8709223253,-0.00578398802981756
1898.14176365407,-0.005145101143834
1894.41260498284,-0.00425746961404528
1890.68344631162,-0.00461431974702208
1886.95428764039,-0.00652543345376852
1883.22512896917,-0.00740223600280897
1879.49597029794,-0.00749959343827264
1875.76681162671,-0.00552936506341156
1872.03765295549,-0.00211998554680266
1868.30849428426,-0.0029570259229929
1864.57933561303,-0.00590558019626284
1860.85017694181,-0.0066604486728541
1857.12101827058,-0.00699003341930084
1853.39185959936,-0.00581146819182074
1849.66270092813,-0.00154013380331331
1845.9335422569,0.000590170060734057
1842.20438358568,-0.00279068594364556
1838.47522491445,-0.00446341470788212
1834.74606624322,-0.0013098088993887
1831.016907572,0.00203729935406093
1827.28774890077,0.00119102238273357
1823.55859022954,-0.00147249198065265
1819.82943155832,-0.00185209829032585
1816.10027288709,-0.000789291375331961
1812.37111421587,-8.56993032259168E-05
1808.64195554464,-0.000383241547480817
1804.91279687341,0.00127427689938891
1801.18363820219,0.00269735775338634
1797.45447953096,0.00439775674529417
1793.72532085973,0.00482123107447506
1789.99616218851,0.00139797984281317
1786.26700351728,1.37076081435268E-05
1782.53784484606,0.00077221925811904
1778.80868617483,0.00387809768565568
1775.0795275036,0.00957322672484099
1771.35036883238,0.00800881247819503
1767.62121016115,0.00444565575079563
1763.89205148992,0.00664395568779744
1760.1628928187,0.0103639934206068
1756.43373414747,0.0150110357370737
1752.70457547625,0.0204360439118357
1748.97541680502,0.0210490361918477
1745.24625813379,0.0230609096557083
1741.51709946257,0.0352395369155532
1737.78794079134,0.060746794149379
1734.05878212011,0.0887890607041538
1730.32962344889,0.0927596255571384
1726.60046477766,0.0790705295886577
1722.87130610643,0.061421320177667
1719.14214743521,0.044088444734873
1715.41298876398,0.0226755116330585
1711.68383009276,0.0116038491663543
1707.95467142153,0.0130447100197162
1704.2255127503,0.020381477740026
1700.49635407908,0.0209216871441163
1696.76719540785,0.00943729465134203
1693.03803673662,0.00268875908136487
1689.3088780654,0.00832919103721846
1685.57971939417,0.0122075106084991
1681.85056072295,0.00521335891582698
1678.12140205172,0.00387949839225833
1674.39224338049,0.00633669714031601
1670.66308470927,0.00345045641278883
1666.93392603804,-0.00121310288080758
1663.20476736681,-0.00293736685568725
1659.47560869559,0.00249117889546027
1655.74645002436,0.015486302832604
1652.01729135314,0.0151859618171821
1648.28813268191,0.00618295226301549
1644.55897401068,-0.000636716896056044
1640.82981533946,0.00203250692743983
1637.10065666823,0.00724469127742869
1633.371497997,0.00282517699267444
1629.64233932578,0.0061774128244723
1625.91318065455,0.0138291009055829
1622.18402198333,0.0168882459033921
1618.4548633121,0.0150427829912484
1614.72570464087,0.00851189352934056
1610.99654596965,0.00554954987819882
1607.26738729842,0.00534924681716031
1603.53822862719,0.00428071448234963
1599.80906995597,0.00345125988727599
1596.07991128474,0.00186803050117481
1592.35075261351,-0.0018903538084605
1588.62159394229,-0.00572390066720968
1584.89243527106,-0.00663773837325472
1581.16327659984,-0.0027524128101449
1577.43411792861,0.00111052870272854
1573.70495925738,0.000509124916183003
1569.97580058616,9.44832347262627E-05
1566.24664191493,0.00370069243353671
1562.5174832437,0.0185825569662597
1558.78832457248,0.0213779797469109
1555.05916590125,0.00724672948880366
1551.33000723003,0.00340192876379164
1547.6008485588,0.0116155611746385
1543.87168988757,0.0254449382311344
1540.14253121635,0.0220540559323693
1536.41337254512,0.0126891741846956
1532.68421387389,0.0111828346187421
1528.95505520267,0.015935833864516
1525.22589653144,0.0253981984444012
1521.49673786022,0.0280049430958645
1517.76757918899,0.023882590758378
1514.03842051776,0.0260059369461602
1510.30926184654,0.0376821928834524
1506.58010317531,0.0370890000406455
1502.85094450408,0.0317291915448299
1499.12178583286,0.0372617885684864
1495.39262716163,0.0429704440579128
1491.66346849041,0.0495665644535791
1487.93430981918,0.0520786480525198
1484.20515114795,0.0549000270273343
1480.47599247673,0.0665711608571128
1476.7468338055,0.0843512580865882
1473.01767513427,0.102326956709368
1469.28851646305,0.125965917100925
1465.55935779182,0.162830109252609
1461.83019912059,0.187291673647131
1458.10104044937,0.178601054894904
1454.37188177814,0.154720840309193
1450.64272310692,0.14064245252481
1446.91356443569,0.118303911342943
1443.18440576446,0.0921532468198931
1439.45524709324,0.0749073797492771
1435.72608842201,0.0597740016853927
1431.99692975078,0.0473910189647722
1428.26777107956,0.0403259995213366
1424.53861240833,0.0378331087496133
1420.80945373711,0.0358678495455197
1417.08029506588,0.0263317689689861
1413.35113639465,0.0182850718875339
1409.62197772343,0.0156095121427228
1405.8928190522,0.0151411383280466
1402.16366038097,0.0161133843116644
1398.43450170975,0.0175429875076679
1394.70534303852,0.0157362065698468
1390.9761843673,0.0155166119132197
1387.24702569607,0.0176656256929728
1383.51786702484,0.0207973737913153
1379.78870835362,0.0310979244721583
1376.05954968239,0.0498580684487742
1372.33039101116,0.0754163981966222
1368.60123233994,0.100724504254937
1364.87207366871,0.102260497079118
1361.14291499749,0.0746708170301005
1357.41375632626,0.0503101690783997
1353.68459765503,0.0383906031755717
1349.95543898381,0.0328855538458221
1346.22628031258,0.0316170144386059
1342.49712164135,0.0347506545661036
1338.76796297013,0.0382669029616218
1335.0388042989,0.038906629344746
1331.30964562767,0.0376265302423403
1327.58048695645,0.0357973187211516
1323.85132828522,0.0350790207657598
1320.122169614,0.0363237060505206
1316.39301094277,0.0395653726127721
1312.66385227154,0.0441407777913859
1308.93469360032,0.0488522405860312
1305.20553492909,0.0532466911905944
1301.47637625786,0.0604859494713453
1297.74721758664,0.0772986267599279
1294.01805891541,0.113919791652992
1290.28890024419,0.18527724933514
1286.55974157296,0.293972226097157
1282.83058290173,0.3565439438726
1279.10142423051,0.304527100646091
1275.37226555928,0.242802922545679
1271.64310688805,0.201928649021318
1267.91394821683,0.158441034648929
1264.1847895456,0.139143797747458
1260.45563087438,0.147169385210464
1256.72647220315,0.166367843354758
1252.99731353192,0.189050216955753
1249.2681548607,0.20822860679903
1245.53899618947,0.2170915411989
1241.80983751824,0.213298128152563
1238.08067884702,0.20106503717233
1234.35152017579,0.185852475283683
1230.62236150457,0.171754012505463
1226.89320283334,0.160653107722643
1223.16404416211,0.153665826335139
1219.43488549089,0.150075999992377
1215.70572681966,0.150693349358826
1211.97656814843,0.157038213518519
1208.24740947721,0.165370557907525
1204.51825080598,0.168757123821592
1200.78909213475,0.1728134239228
1197.05993346353,0.184198517141776
1193.3307747923,0.204867813587788
1189.60161612108,0.238933887984942
1185.87245744985,0.280003268971441
1182.14329877862,0.301024431833445
1178.4141401074,0.289490494409345
1174.68498143617,0.258613629923393
1170.95582276494,0.220792235662013
1167.22666409372,0.186439993060771
1163.49750542249,0.166329734737416
1159.76834675127,0.164906733627536
1156.03918808004,0.180024770841906
1152.31002940881,0.208996747440439
1148.58087073759,0.260536824917714
1144.85171206636,0.321552608121782
1141.12255339513,0.333102193274583
1137.39339472391,0.286317321179335
1133.66423605268,0.23202694726151
1129.93507738146,0.188898242219374
1126.20591871023,0.154787329053367
1122.476760039,0.133561705969035
1118.74760136778,0.124084637527082
1115.01844269655,0.123378080002745
1111.28928402532,0.129605376250525
1107.5601253541,0.139980053535631
1103.83096668287,0.153134077167938
1100.10180801165,0.173439759888529
1096.37264934042,0.204344287320121
1092.64349066919,0.249208779972397
1088.91433199797,0.315489909759468
1085.18517332674,0.418153405862931
1081.45601465551,0.58155902703634
1077.72685598429,0.840097902693806
1073.99769731306,1.22273925415335
1070.26853864183,1.65417942545019
1066.53937997061,1.74974402592435
1062.81022129938,1.45976903383147
1059.08106262816,1.13009921118721
1055.35190395693,0.869530031788118
1051.6227452857,0.68721432064735
1047.89358661448,0.560208002578855
1044.16442794325,0.470650461304276
1040.43526927202,0.41381064600492
1036.7061106008,0.389371489785071
1032.97695192957,0.379613273629462
1029.24779325835,0.351202339900241
1025.51863458712,0.292541427782344
1021.78947591589,0.22913026471865
1018.06031724467,0.180606326585601
1014.33115857344,0.148216136031185
1010.60199990221,0.12657042849237
1006.87284123099,0.111537991447706
1003.14368255976,0.100505508856413
999.414523888535,0.0925276146679327
995.685365217309,0.0871553038838864
991.956206546083,0.0841228563983848
988.227047874856,0.0828702334487992
984.49788920363,0.0831785619684953
980.768730532404,0.084855662592716
977.039571861178,0.0878807060390791
973.310413189951,0.0926212317631545
969.581254518725,0.0991085690833121
965.852095847499,0.107687006269609
962.122937176272,0.11908853300761
958.393778505046,0.133474214800218
954.66461983382,0.150012528904001
950.935461162594,0.168795494164833
947.206302491367,0.190360588271426
943.477143820141,0.215999165306514
939.747985148915,0.247281188640497
936.018826477688,0.288120583762304
932.289667806462,0.343357720737518
928.560509135236,0.418826312134751
924.83135046401,0.5192520734202
921.102191792783,0.648659635392795
917.373033121557,0.798755122508244
913.643874450331,0.936373781671534
909.914715779104,1.00766846446899
906.185557107878,0.991000385504289
902.456398436652,0.904342447929767
898.727239765426,0.785070075628332
894.998081094199,0.667523700833396
891.268922422973,0.572055755536521
887.539763751747,0.50279014987723
883.81060508052,0.453497864591311
880.081446409294,0.416600672916885
876.352287738068,0.384916016860919
872.623129066842,0.356760840988955
868.893970395615,0.331373196731552
865.164811724389,0.30828079822464
861.435653053163,0.286379832258411
857.706494381936,0.266956448314744
853.97733571071,0.252942893191331
850.248177039484,0.249565570411381
846.519018368258,0.24892374052638
842.789859697031,0.231913141121689
839.060701025805,0.205137786379492
835.331542354579,0.185347901741259
831.602383683352,0.17017022866346
827.873225012126,0.156134494421103
824.1440663409,0.141854455500787
820.414907669674,0.129038330359758
816.685748998447,0.117629664083051
812.956590327221,0.107561495433346
809.227431655995,0.0989179571343087
805.498272984768,0.0912603252557462
801.769114313542,0.0851772779378904
798.039955642316,0.0808324090513038
794.31079697109,0.0764634748952029
790.581638299863,0.071462372383638
786.852479628637,0.0671546823090651
783.123320957411,0.0659177236495889
779.394162286184,0.0724881632393929
775.665003614958,0.088105860060524
771.935844943732,0.0884721644769293
768.206686272506,0.065252586717627
764.477527601279,0.0494274496214313
760.748368930053,0.044147121091216
757.019210258827,0.0415910696478806
753.2900515876,0.0401649326313617
749.560892916374,0.0395080196806532
745.831734245148,0.038455274017753
742.102575573922,0.0375060578564802
738.373416902695,0.0403426400243592
734.644258231469,0.0438909603253946
730.915099560243,0.041640644516874
727.185940889016,0.0391371863302909
723.45678221779,0.0396698780958512
719.727623546564,0.0414788528578138
715.998464875338,0.0443065336079654
712.269306204111,0.0501161294287069
708.540147532885,0.0688440319118912
704.810988861659,0.100564366460969
701.081830190432,0.11324816985474
697.352671519206,0.092754528900785
693.62351284798,0.0824858255659504
689.894354176754,0.0926569930491397
686.165195505527,0.143154286763773
682.436036834301,0.218532243864567
678.706878163075,0.243038317214866
674.977719491848,0.246321052199966
671.248560820622,0.25288656565303
667.519402149396,0.243975870869703
663.790243478169,0.236218416819116
660.061084806943,0.23359607527362
656.331926135717,0.238301047114814
652.602767464491,0.227855973192669
648.873608793276,0.214235822337428
