Wavenumbercm-1,00:23:51
2998.24357166583,0.172911395902753
2994.5144129946,0.205000428075021
2990.78525432337,0.240858072623675
2987.05609565215,0.295062660229472
2983.32693698092,0.325821385359956
2979.59777830969,0.306513382598865
2975.86861963847,0.272868743496617
2972.13946096724,0.253826725245627
2968.41030229601,0.249869090423184
2964.68114362479,0.248626678614497
2960.95198495356,0.260317395202775
2957.22282628234,0.27537785844434
2953.49366761111,0.29086114451204
2949.76450893988,0.293205341921077
2946.03535026866,0.279319060151855
2942.30619159743,0.271823615960907
2938.5770329262,0.281861000234375
2934.84787425498,0.285683483313615
2931.11871558375,0.27919003033786
2927.38955691253,0.278334395701126
2923.6603982413,0.292966669162719
2919.93123957007,0.300246499747804
2916.20208089885,0.282860825262738
2912.47292222762,0.264206035685099
2908.74376355639,0.26079959435703
2905.01460488517,0.266413052022983
2901.28544621394,0.27963712510191
2897.55628754272,0.289299446513176
2893.82712887149,0.294163626827907
2890.09797020026,0.30580338380748
2886.36881152904,0.320945395626248
2882.63965285781,0.342973618005355
2878.91049418658,0.36213757359743
2875.18133551536,0.350961103327966
2871.45217684413,0.333820631855732
2867.72301817291,0.337103880773723
2863.99385950168,0.33561325609957
2860.26470083045,0.322781091656727
2856.53554215923,0.312138215386062
2852.806383488,0.3050251473344
2849.07722481677,0.294649885605424
2845.34806614555,0.293759469475746
2841.61890747432,0.278631074067634
2837.88974880309,0.244460419273893
2834.16059013187,0.212422245871547
2830.43143146064,0.186843466886285
2826.70227278942,0.165199588604755
2822.97311411819,0.14617399795673
2819.24395544696,0.130150897803488
2815.51479677574,0.117427331872846
2811.78563810451,0.105140473815787
2808.05647943328,0.0934316973471859
2804.32732076206,0.085640874010145
2800.59816209083,0.0782910287712665
2796.86900341961,0.0711473448022267
2793.13984474838,0.064482318104541
2789.41068607715,0.0566246383062325
2785.68152740593,0.049505651499782
2781.9523687347,0.0448302731629237
2778.22321006347,0.0410735930947704
2774.49405139225,0.0377343581401455
2770.76489272102,0.0345428234246636
2767.0357340498,0.0313264252343669
2763.30657537857,0.0292204698918144
2759.57741670734,0.0286449513622521
2755.84825803612,0.0281748400724121
2752.11909936489,0.0273645329930713
2748.38994069366,0.0262479100441175
2744.66078202244,0.0266639424096171
2740.93162335121,0.0295907640140334
2737.20246467999,0.0339780894822247
2733.47330600876,0.0377632860497898
2729.74414733753,0.039071713940692
2726.01498866631,0.0381802924918087
2722.28582999508,0.035988313663102
2718.55667132385,0.0333243963101301
2714.82751265263,0.030615868071631
2711.0983539814,0.0283964796161058
2707.36919531017,0.0272445325883396
2703.64003663895,0.0275561435757361
2699.91087796772,0.0295839492343453
2696.1817192965,0.0338291527484375
2692.45256062527,0.038714203074371
2688.72340195404,0.0413296189422477
2684.99424328282,0.0407375296379948
2681.26508461159,0.0378865690252447
2677.53592594036,0.0335603047686853
2673.80676726914,0.0299155295038976
2670.07760859791,0.0279766816942167
2666.34844992669,0.0273670049601678
2662.61929125546,0.0277455061045512
2658.89013258423,0.0277892660527398
2655.16097391301,0.0258553902596172
2651.43181524178,0.0224308449713197
2647.70265657055,0.0188052135963208
2643.97349789933,0.0158118742219809
2640.2443392281,0.0150896305387997
2636.51518055688,0.0157509850503013
2632.78602188565,0.0160520661296448
2629.05686321442,0.0166818455298311
2625.3277045432,0.0177470212826328
2621.59854587197,0.018589805274209
2617.86938720074,0.0196109957650193
2614.14022852952,0.0205307820893521
2610.41106985829,0.0213062265889603
2606.68191118707,0.0224251259671984
2602.95275251584,0.0237747783744014
2599.22359384461,0.0241768378929988
2595.49443517339,0.0244371092866205
2591.76527650216,0.0257942894898842
2588.03611783093,0.0285678988797732
2584.30695915971,0.0326102742179069
2580.57780048848,0.0352317111929621
2576.84864181725,0.0345406238943809
2573.11948314603,0.0324708060879204
2569.3903244748,0.0312991340029317
2565.66116580358,0.0301697724613017
2561.93200713235,0.0293295683814188
2558.20284846112,0.0299118528516931
2554.4736897899,0.0308130811657062
2550.74453111867,0.0307467281952851
2547.01537244744,0.0302081936117165
2543.28621377622,0.029010739092919
2539.55705510499,0.0271237126083704
2535.82789643377,0.0252865272014882
2532.09873776254,0.0248146122753994
2528.36957909131,0.0251821070048806
2524.64042042009,0.0245908398627274
2520.91126174886,0.0234199299307234
2517.18210307763,0.0232231125640687
2513.45294440641,0.0239811533010468
2509.72378573518,0.0243547271406387
2505.99462706396,0.024261206142803
2502.26546839273,0.0248946126953403
2498.5363097215,0.0257958712374636
2494.80715105028,0.0254762173640138
2491.07799237905,0.0248443027137091
2487.34883370782,0.0246720767162622
2483.6196750366,0.0242517695180347
2479.89051636537,0.0235561034833598
2476.16135769415,0.022910274117259
2472.43219902292,0.0217662234276048
2468.70304035169,0.0203619494794764
2464.97388168047,0.0189098524746458
2461.24472300924,0.0178018681527589
2457.51556433801,0.0174635930283081
2453.78640566679,0.0173812209113107
2450.05724699556,0.0170200288521052
2446.32808832433,0.0167674790818066
2442.59892965311,0.0168554001795053
2438.86977098188,0.0168086066405813
2435.14061231066,0.0162935035479959
2431.41145363943,0.0155872848777831
2427.6822949682,0.0148115091659627
2423.95313629698,0.0137948485437091
2420.22397762575,0.0127264046182945
2416.49481895452,0.0120383730170355
2412.7656602833,0.0119072591421145
2409.03650161207,0.0115401724535284
2405.30734294085,0.0109780891465179
2401.57818426962,0.0106708906857737
2397.84902559839,0.0106169360019353
2394.11986692717,0.0103012449482302
2390.39070825594,0.010006703555239
2386.66154958471,0.0109008891236868
2382.93239091349,0.0142143859950978
2379.20323224226,0.0208557132792889
2375.47407357104,0.029906893011118
2371.74491489981,0.038447220052095
2368.01575622858,0.0439432075706642
2364.28659755736,0.0446307036923029
2360.55743888613,0.0387210137417738
2356.8282802149,0.0264276323878877
2353.09912154368,0.0170538777612716
2349.36996287245,0.0192166883987176
2345.64080420122,0.0266221512864327
2341.91164553,0.029714506748762
2338.18248685877,0.0283874140764409
2334.45332818755,0.0243875189360197
2330.72416951632,0.0191094695266817
2326.99501084509,0.0139145660314371
2323.26585217387,0.00911182950514859
2319.53669350264,0.00518545900624551
2315.80753483141,0.00237393423248202
2312.07837616019,0.000147421515881997
2308.34921748896,-0.00148243753962954
2304.62005881774,-0.00238568958131019
2300.89090014651,-0.00301620393379148
2297.16174147528,-0.00358365465738143
2293.43258280406,-0.00350165829628293
2289.70342413283,-0.00263659838265089
2285.9742654616,-0.00113927057319986
2282.24510679038,0.00152633368824668
2278.51594811915,0.00412111962914267
2274.78678944793,0.00605122179539176
2271.0576307767,0.00778823562234076
2267.32847210547,0.00948576913520081
2263.59931343425,0.0109059773910838
2259.87015476302,0.0119342613437239
2256.14099609179,0.0129984713766206
2252.41183742057,0.0141668097450813
2248.68267874934,0.0159563614228417
2244.95352007812,0.017317408423741
2241.22436140689,0.0189864529595479
2237.49520273566,0.0210163557860248
2233.76604406444,0.022655069693213
2230.03688539321,0.0242015885087298
2226.30772672198,0.0259247659403494
2222.57856805076,0.027639256025714
2218.84940937953,0.0301364118769817
2215.1202507083,0.0336773163830687
2211.39109203708,0.0373753949254588
2207.66193336585,0.0392861745410377
2203.93277469463,0.0407777485878396
2200.2036160234,0.0436314638412873
2196.47445735217,0.0476419557719205
2192.74529868095,0.0533227104549853
2189.01614000972,0.0614013917964491
2185.28698133849,0.0713925011387779
2181.55782266727,0.0792434665571158
2177.82866399604,0.0836484001755213
2174.09950532482,0.0881172046165708
2170.37034665359,0.10050918437741
2166.64118798236,0.123850993994122
2162.91202931114,0.150663210321593
2159.18287063991,0.154562732657871
2155.45371196868,0.140593590193603
2151.72455329746,0.126148525111972
2147.99539462623,0.116086550440085
2144.26623595501,0.10541039353946
2140.53707728378,0.0955754698164621
2136.80791861255,0.0839778677343336
2133.07875994133,0.0694493521330646
2129.3496012701,0.0553562758508727
2125.62044259887,0.045296018521792
2121.89128392765,0.038933499409989
2118.16212525642,0.0346721412239456
2114.4329665852,0.0324265811636411
2110.70380791397,0.0312331478169741
2106.97464924274,0.0308871790430793
2103.24549057152,0.0307325167839624
2099.51633190029,0.0298526248276228
2095.78717322906,0.0262378363975635
2092.05801455784,0.0212637737990355
2088.32885588661,0.0172952464462057
2084.59969721538,0.0148664833413394
2080.87053854416,0.0132089152646762
2077.14137987293,0.0128666796367858
2073.41222120171,0.0131365054721728
2069.68306253048,0.0146936018651501
2065.95390385925,0.0165128794468426
2062.22474518803,0.0171946262854294
2058.4955865168,0.0171040069015494
2054.76642784557,0.0191381989677101
2051.03726917435,0.0240660254023004
2047.30811050312,0.0286898166248447
2043.5789518319,0.030840652403999
2039.84979316067,0.0337614821666291
2036.12063448944,0.0370970931266334
2032.39147581822,0.0378069307533576
2028.66231714699,0.0363113055503848
2024.93315847576,0.0332053010380576
2021.20399980454,0.0293913198833284
2017.47484113331,0.0260430328248295
2013.74568246209,0.0244606181073769
2010.01652379086,0.0231454838232862
2006.28736511963,0.0202813253718888
2002.55820644841,0.016504747896013
1998.82904777718,0.0145045524980108
1995.09988910595,0.0148552433247576
1991.37073043473,0.0162346355152095
1987.6415717635,0.0168262899232621
1983.91241309228,0.0207212691990997
1980.18325442105,0.0272189277453009
1976.45409574982,0.0311005318858646
1972.7249370786,0.0303443608194519
1968.99577840737,0.0279094389170999
1965.26661973614,0.0242887645502867
1961.53746106492,0.0202229985869176
1957.80830239369,0.0152354367285619
1954.07914372246,0.0107540175281744
1950.34998505124,0.00761434816590571
1946.62082638001,0.00551769588970651
1942.89166770879,0.0028472013413559
1939.16250903756,-0.000126173147423101
1935.43335036633,-0.00258553532164315
1931.70419169511,-0.00453799441343954
1927.97503302388,-0.00548013553914924
1924.24587435265,-0.00548489566586369
1920.51671568143,-0.00589011198399376
1916.7875570102,-0.00726842453692054
1913.05839833898,-0.00836741040737203
1909.32923966775,-0.00920772918854308
1905.60008099652,-0.0102300058597678
1901.8709223253,-0.0107662914102222
1898.14176365407,-0.0106419881861635
1894.41260498284,-0.0102228994786393
1890.68344631162,-0.0104536250301628
1886.95428764039,-0.0116972752488289
1883.22512896917,-0.0124529420046031
1879.49597029794,-0.0127207221786428
1875.76681162671,-0.0118488872333595
1872.03765295549,-0.00982403942388255
1868.30849428426,-0.0098457060498976
1864.57933561303,-0.0112840185288135
1860.85017694181,-0.0116330219787712
1857.12101827058,-0.011796038308024
1853.39185959936,-0.0111996876549375
1849.66270092813,-0.00860293546788945
1845.9335422569,-0.00669586462915004
1842.20438358568,-0.00842119558061741
1838.47522491445,-0.00946154988441798
1834.74606624322,-0.00755334484768105
1831.016907572,-0.00529831464120107
1827.28774890077,-0.00557835321442132
1823.55859022954,-0.00689629572899867
1819.82943155832,-0.00693750799295402
1816.10027288709,-0.00622735684933939
1812.37111421587,-0.00603849037818104
1808.64195554464,-0.0065929009736006
1804.91279687341,-0.00592618470935306
1801.18363820219,-0.00506960665161213
1797.45447953096,-0.00395047360079406
1793.72532085973,-0.00361973038533895
1789.99616218851,-0.00561132160916767
1786.26700351728,-0.00663957901827243
1782.53784484606,-0.00654366350534654
1778.80868617483,-0.00518325712471924
1775.0795275036,-0.00230251966172843
1771.35036883238,-0.00360811496140551
1767.62121016115,-0.00627021600715355
1763.89205148992,-0.00642396086015489
1760.1628928187,-0.00641104106953055
1756.43373414747,-0.00582759047232618
1752.70457547625,-0.00413353489355216
1748.97541680502,-0.00501844789486669
1745.24625813379,-0.0060860941110372
1741.51709946257,-0.00460701028342749
1737.78794079134,-0.00193634295584264
1734.05878212011,-0.00318384993427239
1730.32962344889,-0.00800967040927991
1726.60046477766,-0.00831733459151227
1722.87130610643,-0.00275183472550066
1719.14214743521,0.00214885548134081
1715.41298876398,-0.00287918056323933
1711.68383009276,-0.00743004130785893
1707.95467142153,-0.00571903011937055
1704.2255127503,-0.000518715881373818
1700.49635407908,0.000964492807385865
1696.76719540785,-0.00506647645911161
1693.03803673662,-0.00898846021497269
1689.3088780654,-0.00574286282666077
1685.57971939417,-0.00314285211523884
1681.85056072295,-0.00671227013791902
1678.12140205172,-0.00713479537039041
1674.39224338049,-0.005529024026756
1670.66308470927,-0.00701069430958715
1666.93392603804,-0.00955627819407742
1663.20476736681,-0.0106064880022769
1659.47560869559,-0.00752614689145845
1655.74645002436,-7.73135623136418E-05
1652.01729135314,-2.37225856956799E-08
1648.28813268191,-0.005128137861559
1644.55897401068,-0.00901780417459257
1640.82981533946,-0.00770018133798996
1637.10065666823,-0.00520007515416374
1633.371497997,-0.00915401935307334
1629.64233932578,-0.0101212641104146
1625.91318065455,-0.00895000047112839
1622.18402198333,-0.00834590946765346
1618.4548633121,-0.0082157590392524
1614.72570464087,-0.0105546086741108
1610.99654596965,-0.0120337971244351
1607.26738729842,-0.0120687719342344
1603.53822862719,-0.0121887453746807
1599.80906995597,-0.0120243289232703
1596.07991128474,-0.0116562980002832
1592.35075261351,-0.0115604466928092
1588.62159394229,-0.0114989781550148
1584.89243527106,-0.0105972302395087
1581.16327659984,-0.00734302402977678
1577.43411792861,-0.00453857806966522
1573.70495925738,-0.00474523686991295
1569.97580058616,-0.00504777326521979
1566.24664191493,-0.00287114264431494
1562.5174832437,0.005764446755584
1558.78832457248,0.00761412205482385
1555.05916590125,-0.000318169380438215
1551.33000723003,-0.0022520630665851
1547.6008485588,0.0028853446993501
1543.87168988757,0.0115939351697583
1540.14253121635,0.0105226933792268
1536.41337254512,0.00549026818871821
1532.68421387389,0.00481725531245741
1528.95505520267,0.00794991659311604
1525.22589653144,0.0138980194816686
1521.49673786022,0.016119009312229
1517.76757918899,0.0147682379845687
1514.03842051776,0.0171100201634776
1510.30926184654,0.0252939018491651
1506.58010317531,0.0270431762328366
1502.85094450408,0.0258240403471844
1499.12178583286,0.0309383144604082
1495.39262716163,0.0363911707572034
1491.66346849041,0.0419474905879014
1487.93430981918,0.0454733597492952
1484.20515114795,0.0493930679260235
1480.47599247673,0.0592925730616744
1476.7468338055,0.0745453684585764
1473.01767513427,0.0937557180510216
1469.28851646305,0.119804299048282
1465.55935779182,0.155440631802138
1461.83019912059,0.177094801798665
1458.10104044937,0.168441069237775
1454.37188177814,0.149740936889547
1450.64272310692,0.138498428213755
1446.91356443569,0.116831416038971
1443.18440576446,0.0890399722689959
1439.45524709324,0.0679528511112224
1435.72608842201,0.0514985795293057
1431.99692975078,0.0391941402390212
1428.26777107956,0.0313238755885837
1424.53861240833,0.0272598315550371
1420.80945373711,0.0243914850847446
1417.08029506588,0.0180955349405168
1413.35113639465,0.0131720065745169
1409.62197772343,0.0110943730898993
1405.8928190522,0.0101745342905405
1402.16366038097,0.0100080808720604
1398.43450170975,0.0102844089320252
1394.70534303852,0.00910674613949046
1390.9761843673,0.00896023950550772
1387.24702569607,0.00981886916595834
1383.51786702484,0.0105192066030697
1379.78870835362,0.0145263563377784
1376.05954968239,0.0252605337170277
1372.33039101116,0.0469446674848322
1368.60123233994,0.0745050415077443
1364.87207366871,0.0803699480676108
1361.14291499749,0.0566556535734442
1357.41375632626,0.0351477251672938
1353.68459765503,0.0251031688922863
1349.95543898381,0.0209493845685038
1346.22628031258,0.0204587944248462
1342.49712164135,0.0238399983080294
1338.76796297013,0.0286342617524094
1335.0388042989,0.0308013193317506
1331.30964562767,0.02897236336878
1327.58048695645,0.0258601237354743
1323.85132828522,0.0248486387244877
1320.122169614,0.0261097974189392
1316.39301094277,0.0288703224510618
1312.66385227154,0.0325312046706551
1308.93469360032,0.0360667128633051
1305.20553492909,0.0385557224620126
1301.47637625786,0.0428951501104854
1297.74721758664,0.0543926102463981
1294.01805891541,0.0724140716100738
1290.28890024419,0.0807011944185599
1286.55974157296,0.073332622148072
1282.83058290173,0.064922620499304
1279.10142423051,0.0619562224367987
1275.37226555928,0.0619670618224223
1271.64310688805,0.063177801388367
1267.91394821683,0.0652300035080302
1264.1847895456,0.0691570502802822
1260.45563087438,0.0745014527191517
1256.72647220315,0.0804657974898102
1252.99731353192,0.0869956030065889
1249.2681548607,0.0933568356392161
1245.53899618947,0.0981409739880579
1241.80983751824,0.100567535705053
1238.08067884702,0.101028219949435
1234.35152017579,0.100601950018479
1230.62236150457,0.100229362592898
1226.89320283334,0.100833597096723
1223.16404416211,0.103100028966944
1219.43488549089,0.106163056875249
1215.70572681966,0.109228697202809
1211.97656814843,0.112465841724031
1208.24740947721,0.116709476305244
1204.51825080598,0.122725402611552
1200.78909213475,0.130211201908386
1197.05993346353,0.137994332782631
1193.3307747923,0.145572240329079
1189.60161612108,0.151877474601734
1185.87245744985,0.156221809485227
1182.14329877862,0.157664774362231
1178.4141401074,0.154951222060439
1174.68498143617,0.146534801391216
1170.95582276494,0.133024981527293
1167.22666409372,0.116585261895367
1163.49750542249,0.100354855839847
1159.76834675127,0.086842229848954
1156.03918808004,0.0770380802420476
1152.31002940881,0.0707579507307312
1148.58087073759,0.0674835912255978
1144.85171206636,0.066892978767895
1141.12255339513,0.0685064409081015
1137.39339472391,0.0713963854771412
1133.66423605268,0.074267259639661
1129.93507738146,0.0767209643647699
1126.20591871023,0.0793724214661987
1122.476760039,0.0828995448540454
1118.74760136778,0.087698083158744
1115.01844269655,0.0946660824302722
1111.28928402532,0.104560321147984
1107.5601253541,0.11805926648168
1103.83096668287,0.13617605534918
1100.10180801165,0.16083051120662
1096.37264934042,0.194329518903605
1092.64349066919,0.241159102213271
1088.91433199797,0.309351091940949
1085.18517332674,0.413987276461604
1081.45601465551,0.579219479990003
1077.72685598429,0.839742669716361
1073.99769731306,1.22496155456659
1070.26853864183,1.66196721971745
1066.53937997061,1.76709954479334
1062.81022129938,1.48153588002676
1059.08106262816,1.13927820547372
1055.35190395693,0.860272403940724
1051.6227452857,0.660398508881722
1047.89358661448,0.52451161400678
1044.16442794325,0.436658532649008
1040.43526927202,0.387194648936243
1036.7061106008,0.369711271235115
1032.97695192957,0.365349462373702
1029.24779325835,0.341073489719753
1025.51863458712,0.284712333308043
1021.78947591589,0.222031212797545
1018.06031724467,0.173628917823872
1014.33115857344,0.141074114630746
1010.60199990221,0.11909802733044
1006.87284123099,0.103684608511315
1003.14368255976,0.0925016220542631
999.414523888535,0.0845449553274166
995.685365217309,0.0791314355571012
991.956206546083,0.0761356794836784
988.227047874856,0.0749934923778241
984.49788920363,0.0752949037413447
980.768730532404,0.0767984287191039
977.039571861178,0.0797206395433387
973.310413189951,0.084434825692314
969.581254518725,0.0908820083487938
965.852095847499,0.0993297297128564
962.122937176272,0.110678979916703
958.393778505046,0.125159347303826
954.66461983382,0.142050527878941
950.935461162594,0.161093599381515
947.206302491367,0.182476116636613
943.477143820141,0.207901614273993
939.747985148915,0.239898685924993
936.018826477688,0.281676885139063
932.289667806462,0.337327104549561
928.560509135236,0.413048741951361
924.83135046401,0.514232152992801
921.102191792783,0.645428297701896
917.373033121557,0.797541553961492
913.643874450331,0.935421014552887
909.914715779104,1.00666798553195
906.185557107878,0.993325557350788
902.456398436652,0.907525099384927
898.727239765426,0.783766700178932
894.998081094199,0.657708340225317
891.268922422973,0.551536867479623
887.539763751747,0.471789738777129
883.81060508052,0.415552338768092
880.081446409294,0.376908080389691
876.352287738068,0.348892367607702
872.623129066842,0.326452905230646
868.893970395615,0.305413118931435
865.164811724389,0.284898086256711
861.435653053163,0.264646172727819
857.706494381936,0.245857935903226
853.97733571071,0.229090105676014
850.248177039484,0.214805936301844
846.519018368258,0.202099449730187
842.789859697031,0.190432617301002
839.060701025805,0.177904292546744
835.331542354579,0.164450562343162
831.602383683352,0.150213267846208
827.873225012126,0.135901012309986
824.1440663409,0.122121486011577
820.414907669674,0.110594151491206
816.685748998447,0.101048076217293
812.956590327221,0.092990546374045
809.227431655995,0.0860057779161053
805.498272984768,0.0793901357294123
801.769114313542,0.073966086535394
798.039955642316,0.069980859576981
794.31079697109,0.0658751926664585
790.581638299863,0.0608015887413529
786.852479628637,0.0562674161982824
783.123320957411,0.0530815695307236
779.394162286184,0.0500729223329119
775.665003614958,0.0459812721705917
771.935844943732,0.0422074050174984
768.206686272506,0.0400281249446002
764.477527601279,0.038541518470213
760.748368930053,0.0364151119463357
757.019210258827,0.0339475440181168
753.2900515876,0.0325140455359699
749.560892916374,0.032626034937663
745.831734245148,0.0324114486580316
742.102575573922,0.0312336108465771
738.373416902695,0.0303254195768725
734.644258231469,0.0313476140756478
730.915099560243,0.0324898573745018
727.185940889016,0.0326399274407701
723.45678221779,0.0329352119000524
719.727623546564,0.0350416264159148
715.998464875338,0.0376499648258539
712.269306204111,0.0398951082260063
708.540147532885,0.042284350469565
704.810988861659,0.0463341649593123
701.081830190432,0.0522451995219734
697.352671519206,0.0584189534467381
693.62351284798,0.0651697841644449
689.894354176754,0.0732441113249064
686.165195505527,0.0845385359418493
682.436036834301,0.0973553564259829
678.706878163075,0.112686146311659
674.977719491848,0.130504343989584
671.248560820622,0.158117212558011
667.519402149396,0.184383872443879
663.790243478169,0.198214790649305
660.061084806943,0.206603021741431
656.331926135717,0.214296934171099
652.602767464491,0.209102787078256
648.873608793276,0.196580036805938
