Wavenumbercm-1,05:55:53
2998.24357166583,0.182929822241854
2994.5144129946,0.213795779146245
2990.78525432337,0.246398702917479
2987.05609565215,0.300742277331341
2983.32693698092,0.335468377781835
2979.59777830969,0.316343576722036
2975.86861963847,0.28044953619031
2972.13946096724,0.261027558594153
2968.41030229601,0.259610221045308
2964.68114362479,0.260139183082233
2960.95198495356,0.271039572486039
2957.22282628234,0.28522456660083
2953.49366761111,0.303009996371854
2949.76450893988,0.310535538042856
2946.03535026866,0.297832130907968
2942.30619159743,0.285555813373717
2938.5770329262,0.290376880725816
2934.84787425498,0.29279936454324
2931.11871558375,0.286289856959911
2927.38955691253,0.282284488891045
2923.6603982413,0.294776454847128
2919.93123957007,0.303679971166063
2916.20208089885,0.287286580516269
2912.47292222762,0.26615766086592
2908.74376355639,0.2603248752632
2905.01460488517,0.266237692482484
2901.28544621394,0.2803283908304
2897.55628754272,0.290035649318065
2893.82712887149,0.295121948321726
2890.09797020026,0.305228721174384
2886.36881152904,0.317374345234933
2882.63965285781,0.340663753309309
2878.91049418658,0.365596264460528
2875.18133551536,0.359420421209257
2871.45217684413,0.342591790109113
2867.72301817291,0.345459661969549
2863.99385950168,0.341726686970788
2860.26470083045,0.324096336529829
2856.53554215923,0.311150670916313
2852.806383488,0.305158165981451
2849.07722481677,0.294396427460525
2845.34806614555,0.291034255561301
2841.61890747432,0.274540983875971
2837.88974880309,0.241232736004294
2834.16059013187,0.211315301488884
2830.43143146064,0.187062525667382
2826.70227278942,0.164952825898793
2822.97311411819,0.144497219357734
2819.24395544696,0.128765437175262
2815.51479677574,0.118311487340768
2811.78563810451,0.108266361192131
2808.05647943328,0.0982001315902553
2804.32732076206,0.0928652369896213
2800.59816209083,0.0887117860099272
2796.86900341961,0.0828119630185769
2793.13984474838,0.0753645826955687
2789.41068607715,0.0669202720731308
2785.68152740593,0.0577425963871637
2781.9523687347,0.0503516680246494
2778.22321006347,0.0453134475743494
2774.49405139225,0.0411607533926507
2770.76489272102,0.0370245467779711
2767.0357340498,0.0332463480213636
2763.30657537857,0.0306057549819515
2759.57741670734,0.0295856086438415
2755.84825803612,0.0290227907468017
2752.11909936489,0.0285726302357298
2748.38994069366,0.0283729399795433
2744.66078202244,0.0294636111265392
2740.93162335121,0.0328587747855853
2737.20246467999,0.0381593257617677
2733.47330600876,0.0430879238062616
2729.74414733753,0.0450685250148438
2726.01498866631,0.0440502766063232
2722.28582999508,0.0402805297734775
2718.55667132385,0.0360155613557388
2714.82751265263,0.0321253127317321
2711.0983539814,0.028732623051964
2707.36919531017,0.0271997362895651
2703.64003663895,0.0276356464943697
2699.91087796772,0.0295184340892783
2696.1817192965,0.0334292531289873
2692.45256062527,0.0379688725300404
2688.72340195404,0.040272683020177
2684.99424328282,0.0397954852905547
2681.26508461159,0.0371944734772873
2677.53592594036,0.0329302637375548
2673.80676726914,0.0293463604755621
2670.07760859791,0.0275163708633216
2666.34844992669,0.0269589602277181
2662.61929125546,0.0275146066800969
2658.89013258423,0.0277929830147008
2655.16097391301,0.0261084975793125
2651.43181524178,0.0231250873830653
2647.70265657055,0.0199278875134751
2643.97349789933,0.0168817263821711
2640.2443392281,0.0159232704505499
2636.51518055688,0.0169692390443816
2632.78602188565,0.0186041292693191
2629.05686321442,0.0211502150446479
2625.3277045432,0.0241826742094945
2621.59854587197,0.0269071733915723
2617.86938720074,0.0297472290322697
2614.14022852952,0.0321595920157341
2610.41106985829,0.0333636115742504
2606.68191118707,0.0341961185499958
2602.95275251584,0.0362901577864409
2599.22359384461,0.0379712607061125
2595.49443517339,0.0390282899234075
2591.76527650216,0.0417185220766025
2588.03611783093,0.0455226481357714
2584.30695915971,0.0482394085042762
2580.57780048848,0.0502743146265437
2576.84864181725,0.0541673600241859
2573.11948314603,0.061051209283784
2569.3903244748,0.068458278948419
2565.66116580358,0.0698479434247624
2561.93200713235,0.0642454561443657
2558.20284846112,0.0566475506566027
2554.4736897899,0.0504927839369684
2550.74453111867,0.0450792935463318
2547.01537244744,0.0403110521397249
2543.28621377622,0.036488000343186
2539.55705510499,0.0333391149711663
2535.82789643377,0.0306605625121547
2532.09873776254,0.0292137589746397
2528.36957909131,0.0283446735483022
2524.64042042009,0.0270268744004684
2520.91126174886,0.0260617827133783
2517.18210307763,0.0263419814262808
2513.45294440641,0.02776399787637
2509.72378573518,0.028912298751325
2505.99462706396,0.0293843578765915
2502.26546839273,0.0305321069381848
2498.5363097215,0.0325097793382305
2494.80715105028,0.0338176835276566
2491.07799237905,0.0342699485237369
2487.34883370782,0.034547510613892
2483.6196750366,0.0342973761975594
2479.89051636537,0.0323669961081165
2476.16135769415,0.029642875422718
2472.43219902292,0.0269927956540433
2468.70304035169,0.0246278917274002
2464.97388168047,0.0223249400106677
2461.24472300924,0.0203098667347825
2457.51556433801,0.0187991783353574
2453.78640566679,0.0180489684456797
2450.05724699556,0.0179188148808624
2446.32808832433,0.0177493449352473
2442.59892965311,0.0175903194943239
2438.86977098188,0.0177607346075121
2435.14061231066,0.0179484332105295
2431.41145363943,0.0175144219540057
2427.6822949682,0.0164189571430731
2423.95313629698,0.0151642844698925
2420.22397762575,0.0144760176342611
2416.49481895452,0.0143107188061107
2412.7656602833,0.0142562350523912
2409.03650161207,0.0137654155167351
2405.30734294085,0.0130298955935367
2401.57818426962,0.012350249712149
2397.84902559839,0.0120808835547265
2394.11986692717,0.0120035930418129
2390.39070825594,0.0128030402773679
2386.66154958471,0.0160717754797609
2382.93239091349,0.0239830548949417
2379.20323224226,0.0378113561314792
2375.47407357104,0.0544830184275365
2371.74491489981,0.0686767677219115
2368.01575622858,0.0779472239331132
2364.28659755736,0.0807997102978996
2360.55743888613,0.0737247270565678
2356.8282802149,0.0562863662259401
2353.09912154368,0.0449269047647695
2349.36996287245,0.0564302261388824
2345.64080420122,0.0853370690297219
2341.91164553,0.106663226386774
2338.18248685877,0.0963795262614214
2334.45332818755,0.0691386768319823
2330.72416951632,0.0510332134676092
2326.99501084509,0.0407676344551581
2323.26585217387,0.0311893616449941
2319.53669350264,0.0223239615785567
2315.80753483141,0.0156290655785168
2312.07837616019,0.0108778888313436
2308.34921748896,0.00736537290598187
2304.62005881774,0.00529226569753723
2300.89090014651,0.00438404615428712
2297.16174147528,0.00451527540960387
2293.43258280406,0.00626819314507662
2289.70342413283,0.00957795186773167
2285.9742654616,0.0135361462418332
2282.24510679038,0.0177325120153022
2278.51594811915,0.0204423226623
2274.78678944793,0.0210242094094116
2271.0576307767,0.0203559663784185
2267.32847210547,0.0193307496387909
2263.59931343425,0.0186029588930887
2259.87015476302,0.0183500705218888
2256.14099609179,0.0183984531831311
2252.41183742057,0.0185577669131705
2248.68267874934,0.0194582162533901
2244.95352007812,0.0203865761982299
2241.22436140689,0.0222104026443377
2237.49520273566,0.0248032260502838
2233.76604406444,0.0270162619771245
2230.03688539321,0.0288084778960659
2226.30772672198,0.0311473008048363
2222.57856805076,0.0331465547849915
2218.84940937953,0.0352319237639778
2215.1202507083,0.0387815832969263
2211.39109203708,0.0427331076457658
2207.66193336585,0.044401592837981
2203.93277469463,0.0456059045904485
2200.2036160234,0.0486372168853023
2196.47445735217,0.0531496708092674
2192.74529868095,0.0589787648046095
2189.01614000972,0.0668145887351497
2185.28698133849,0.0757745408627131
2181.55782266727,0.0824651479711956
2177.82866399604,0.0867639771508137
2174.09950532482,0.0906275948153392
2170.37034665359,0.101059002137188
2166.64118798236,0.122803098585385
2162.91202931114,0.14953010287765
2159.18287063991,0.153232946593732
2155.45371196868,0.139269033856244
2151.72455329746,0.12459589116651
2147.99539462623,0.114104664998614
2144.26623595501,0.10461630549136
2140.53707728378,0.0959889925779106
2136.80791861255,0.0841811786747441
2133.07875994133,0.0694532568638816
2129.3496012701,0.055634777480681
2125.62044259887,0.0456873276497905
2121.89128392765,0.0391538551454402
2118.16212525642,0.0347696373980626
2114.4329665852,0.0325015697184631
2110.70380791397,0.031679600124242
2106.97464924274,0.0317319311579562
2103.24549057152,0.0320503721218249
2099.51633190029,0.0318952543029706
2095.78717322906,0.0286329539101628
2092.05801455784,0.0232760778107266
2088.32885588661,0.0187841657305188
2084.59969721538,0.0164754144978634
2080.87053854416,0.0150076998186342
2077.14137987293,0.0146916122978702
2073.41222120171,0.0152761708413796
2069.68306253048,0.0170653520019281
2065.95390385925,0.0187454178994558
2062.22474518803,0.0194602268108667
2058.4955865168,0.0193821977942772
2054.76642784557,0.0217730509571968
2051.03726917435,0.0278809397751632
2047.30811050312,0.0338959797572179
2043.5789518319,0.0365350199289738
2039.84979316067,0.0394031212843148
2036.12063448944,0.0427647906723956
2032.39147581822,0.0431014300463971
2028.66231714699,0.0408700679735199
2024.93315847576,0.038074916462992
2021.20399980454,0.0346751236491097
2017.47484113331,0.0316381102571339
2013.74568246209,0.0300546957038173
2010.01652379086,0.0281114648522594
2006.28736511963,0.0246153791667256
2002.55820644841,0.0201539592151089
1998.82904777718,0.0179030331374235
1995.09988910595,0.0182025620137008
1991.37073043473,0.0191353961833462
1987.6415717635,0.0195561079589105
1983.91241309228,0.0235086687336251
1980.18325442105,0.0299969644165928
1976.45409574982,0.0341968959478387
1972.7249370786,0.033536299106549
1968.99577840737,0.0313387523285129
1965.26661973614,0.0273219384294403
1961.53746106492,0.0231254643646189
1957.80830239369,0.018233014091645
1954.07914372246,0.0137428470256753
1950.34998505124,0.010532251590533
1946.62082638001,0.00857111077160212
1942.89166770879,0.00575461826060163
1939.16250903756,0.00258518133930294
1935.43335036633,8.74750251325242E-05
1931.70419169511,-0.00178999122673484
1927.97503302388,-0.00236405988865594
1924.24587435265,-0.00196404382002367
1920.51671568143,-0.00248798873524999
1916.7875570102,-0.00469944973640588
1913.05839833898,-0.00615566690008416
1909.32923966775,-0.00692384692524556
1905.60008099652,-0.00779501155620034
1901.8709223253,-0.00795188062225664
1898.14176365407,-0.00723868197850696
1894.41260498284,-0.00641484328559966
1890.68344631162,-0.00689808535029741
1886.95428764039,-0.00885001824153592
1883.22512896917,-0.0100372714866066
1879.49597029794,-0.010337673011061
1875.76681162671,-0.00844110330327205
1872.03765295549,-0.00518295807115083
1868.30849428426,-0.00586838533983487
1864.57933561303,-0.00850730465202407
1860.85017694181,-0.00904314589137157
1857.12101827058,-0.00921661282013254
1853.39185959936,-0.00810540405386758
1849.66270092813,-0.00412648211114242
1845.9335422569,-0.00181038316918156
1842.20438358568,-0.00466776161565571
1838.47522491445,-0.00613649195722923
1834.74606624322,-0.00339682590501397
1831.016907572,-0.000303819842737788
1827.28774890077,-0.00100811791274422
1823.55859022954,-0.00343611285333922
1819.82943155832,-0.00383942399600295
1816.10027288709,-0.00274511664852978
1812.37111421587,-0.00205180718959473
1808.64195554464,-0.00229431069760452
1804.91279687341,-0.000851044352995463
1801.18363820219,0.000516556255170629
1797.45447953096,0.00216624592012206
1793.72532085973,0.00270203401773762
1789.99616218851,-0.000114039915599849
1786.26700351728,-0.000978949816682977
1782.53784484606,4.36648880571724E-05
1778.80868617483,0.00320930847212446
1775.0795275036,0.00951943404445322
1771.35036883238,0.0107213577787129
1767.62121016115,0.0114557210236595
1763.89205148992,0.0169263487271047
1760.1628928187,0.0199815414747639
1756.43373414747,0.0194233860150625
1752.70457547625,0.0180411972622268
1748.97541680502,0.0135063510897484
1745.24625813379,0.0118740075402202
1741.51709946257,0.018118492020781
1737.78794079134,0.0298176533502517
1734.05878212011,0.035368396206403
1730.32962344889,0.0294896660531917
1726.60046477766,0.0281288536256996
1722.87130610643,0.0351848710473319
1719.14214743521,0.0377282053602945
1715.41298876398,0.0228760687217212
1711.68383009276,0.0111515970828321
1707.95467142153,0.0107710913445712
1704.2255127503,0.0169543589713891
1700.49635407908,0.0178546828985194
1696.76719540785,0.00766647401878034
1693.03803673662,0.00155742931177813
1689.3088780654,0.00692696113403616
1685.57971939417,0.0110926354720636
1681.85056072295,0.00550395802074017
1678.12140205172,0.00515633897350259
1674.39224338049,0.00848281725329511
1670.66308470927,0.00694620937283035
1666.93392603804,0.00387885324829426
1663.20476736681,0.00342286623204803
1659.47560869559,0.00933509978013855
1655.74645002436,0.022058442076148
1652.01729135314,0.0224766559340491
1648.28813268191,0.0143299165072802
1644.55897401068,0.00802441143911426
1640.82981533946,0.0102574634641624
1637.10065666823,0.0146015359153281
1633.371497997,0.00898649086477759
1629.64233932578,0.00841392704320621
1625.91318065455,0.0114062618602063
1622.18402198333,0.0130186528930628
1618.4548633121,0.0123463861034092
1614.72570464087,0.00682336233096632
1610.99654596965,0.00324466449534775
1607.26738729842,0.00228459772644219
1603.53822862719,0.00125568273639203
1599.80906995597,0.000691129247838705
1596.07991128474,-7.12010863783713E-05
1592.35075261351,-0.00209906575812819
1588.62159394229,-0.00423039273577463
1584.89243527106,-0.00444561217294525
1581.16327659984,-0.000623138338652742
1577.43411792861,0.00301997813498172
1573.70495925738,0.00258329099111058
1569.97580058616,0.00221892233780549
1566.24664191493,0.00552504437682932
1562.5174832437,0.0190052134250873
1558.78832457248,0.0216671268053463
1555.05916590125,0.00882621865995438
1551.33000723003,0.00532971600513436
1547.6008485588,0.0128401093694005
1543.87168988757,0.0260221919183235
1540.14253121635,0.0248135996483664
1536.41337254512,0.0193288803029638
1532.68421387389,0.0207810650537576
1528.95505520267,0.0249316449131009
1525.22589653144,0.0311510590244691
1521.49673786022,0.0316999852619954
1517.76757918899,0.0273708273512133
1514.03842051776,0.0293310468094307
1510.30926184654,0.0404965518118077
1506.58010317531,0.0408536768342548
1502.85094450408,0.0368533620230555
1499.12178583286,0.0431086577948566
1495.39262716163,0.0500563311701939
1491.66346849041,0.057901742512422
1487.93430981918,0.0621116547014577
1484.20515114795,0.0664306524004252
1480.47599247673,0.0795482319684343
1476.7468338055,0.0988805437034136
1473.01767513427,0.117545548747948
1469.28851646305,0.139747250264309
1465.55935779182,0.173383845680142
1461.83019912059,0.194191336863388
1458.10104044937,0.18298723825145
1454.37188177814,0.158965824577018
1450.64272310692,0.145213630731618
1446.91356443569,0.122886885181811
1443.18440576446,0.0958748223862483
1439.45524709324,0.0768731709010876
1435.72608842201,0.060498271587821
1431.99692975078,0.0476052185846297
1428.26777107956,0.0402781635423456
1424.53861240833,0.0379325963065172
1420.80945373711,0.036708624634116
1417.08029506588,0.0295867232604221
1413.35113639465,0.0253615763971208
1409.62197772343,0.0295310017537641
1405.8928190522,0.0427460502597046
1402.16366038097,0.0633672562835314
1398.43450170975,0.0736881750810602
1394.70534303852,0.0578326791940838
1390.9761843673,0.037455505554799
1387.24702569607,0.0260148728316655
1383.51786702484,0.0210333301985753
1379.78870835362,0.0239035288912692
1376.05954968239,0.0371445831078318
1372.33039101116,0.0682264900478255
1368.60123233994,0.110769955365936
1364.87207366871,0.118583939789708
1361.14291499749,0.0791049574031879
1357.41375632626,0.0457263060740835
1353.68459765503,0.0316227776610679
1349.95543898381,0.0267375148929148
1346.22628031258,0.0264567462725892
1342.49712164135,0.030814403950736
1338.76796297013,0.036068030001029
1335.0388042989,0.0388644020408784
1331.30964562767,0.0391375371508669
1327.58048695645,0.0375992723215476
1323.85132828522,0.0380396194645957
1320.122169614,0.0444466699219866
1316.39301094277,0.0588556678552855
1312.66385227154,0.0762964092787213
1308.93469360032,0.0900749912990453
1305.20553492909,0.0983849282966828
1301.47637625786,0.108827496768143
1297.74721758664,0.128474657031636
1294.01805891541,0.15676470068899
1290.28890024419,0.191442190736526
1286.55974157296,0.227856506254111
1282.83058290173,0.220907576774841
1279.10142423051,0.162281986811835
1275.37226555928,0.115467612181628
1271.64310688805,0.0984368219869522
1267.91394821683,0.0943139322758623
1264.1847895456,0.0945678263518319
1260.45563087438,0.0994277131437186
1256.72647220315,0.110198733263891
1252.99731353192,0.126946135324957
1249.2681548607,0.146349365539787
1245.53899618947,0.158552919211467
1241.80983751824,0.155063116948749
1238.08067884702,0.140344766545959
1234.35152017579,0.126624631025264
1230.62236150457,0.118714510206577
1226.89320283334,0.115931731633094
1223.16404416211,0.116675027074194
1219.43488549089,0.119382312296124
1215.70572681966,0.123430587125806
1211.97656814843,0.128705643955131
1208.24740947721,0.134251865178364
1204.51825080598,0.139545014357687
1200.78909213475,0.14785276495194
1197.05993346353,0.161481782062974
1193.3307747923,0.177245316519266
1189.60161612108,0.190026986862578
1185.87245744985,0.203681505744706
1182.14329877862,0.227224194964589
1178.4141401074,0.246937073732882
1174.68498143617,0.232083408498825
1170.95582276494,0.192849383006802
1167.22666409372,0.158285221973758
1163.49750542249,0.137206531968535
1159.76834675127,0.129165251382683
1156.03918808004,0.13334006720679
1152.31002940881,0.148686790808809
1148.58087073759,0.173368707801764
1144.85171206636,0.190312213192287
1141.12255339513,0.178172556677904
1137.39339472391,0.148585098019003
1133.66423605268,0.123440086243345
1129.93507738146,0.108748857631643
1126.20591871023,0.102058004613054
1122.476760039,0.101153888067715
1118.74760136778,0.105272585823334
1115.01844269655,0.113225965475527
1111.28928402532,0.122173791349824
1107.5601253541,0.133074742810541
1103.83096668287,0.150137526767913
1100.10180801165,0.175382004252444
1096.37264934042,0.208147061029237
1092.64349066919,0.249956110268109
1088.91433199797,0.31073529259744
1085.18517332674,0.408353567786065
1081.45601465551,0.566407345421288
1077.72685598429,0.817399247969864
1073.99769731306,1.18845426583436
1070.26853864183,1.61127353503925
1066.53937997061,1.74416771985459
1062.81022129938,1.51323234483951
1059.08106262816,1.19579768314508
1055.35190395693,0.914398162973195
1051.6227452857,0.702029012202315
1047.89358661448,0.553923412531878
1044.16442794325,0.4576552404613
1040.43526927202,0.403576018423203
1036.7061106008,0.385253707969573
1032.97695192957,0.385336043892967
1029.24779325835,0.37064337996987
1025.51863458712,0.320079266000032
1021.78947591589,0.251956710281278
1018.06031724467,0.194102902201158
1014.33115857344,0.155478976750616
1010.60199990221,0.130949935685648
1006.87284123099,0.114897916617942
1003.14368255976,0.104017601468413
999.414523888535,0.0959188062205782
995.685365217309,0.0889906768791155
991.956206546083,0.0843778366558159
988.227047874856,0.0822131647637916
984.49788920363,0.0818869676408383
980.768730532404,0.0829687872118249
977.039571861178,0.0854577340581024
973.310413189951,0.0896304547005677
969.581254518725,0.0956003847589017
965.852095847499,0.103732881267143
962.122937176272,0.114897860696896
958.393778505046,0.129420604186001
954.66461983382,0.14748290566903
950.935461162594,0.169538317811281
947.206302491367,0.192164965480032
943.477143820141,0.214346370198625
939.747985148915,0.242231423410208
936.018826477688,0.281430121890242
932.289667806462,0.335267594154638
928.560509135236,0.408739614740475
924.83135046401,0.507336988110398
921.102191792783,0.636244605854874
917.373033121557,0.78604779650953
913.643874450331,0.921540972857597
909.914715779104,0.993850577356599
906.185557107878,0.988178182970717
902.456398436652,0.914307162900124
898.727239765426,0.802136717734432
894.998081094199,0.683547324421436
891.268922422973,0.577435113337208
887.539763751747,0.492876928952496
883.81060508052,0.432490389839245
880.081446409294,0.391539870313886
876.352287738068,0.365257236339349
872.623129066842,0.351146587805616
868.893970395615,0.338190474148968
865.164811724389,0.313684062458906
861.435653053163,0.285668940105887
857.706494381936,0.265164935423636
853.97733571071,0.251913463158299
850.248177039484,0.243230632825104
846.519018368258,0.230983869881143
842.789859697031,0.216310184687821
839.060701025805,0.204048861115057
835.331542354579,0.193314282015627
831.602383683352,0.18158434052075
827.873225012126,0.169199634180626
824.1440663409,0.157157445163234
820.414907669674,0.146868860715324
816.685748998447,0.13583951271213
812.956590327221,0.123594515132242
809.227431655995,0.111736484816974
805.498272984768,0.102120006810122
801.769114313542,0.0950367977682014
798.039955642316,0.0905874224899749
794.31079697109,0.0861370065447555
790.581638299863,0.0823277542469365
786.852479628637,0.084873698440624
783.123320957411,0.104416427824899
779.394162286184,0.114218495284105
775.665003614958,0.0924232386643069
771.935844943732,0.0776400575662907
768.206686272506,0.07654619976669
764.477527601279,0.081624346169705
760.748368930053,0.0936321155201698
757.019210258827,0.105091376026424
753.2900515876,0.107579579780974
749.560892916374,0.104182582942502
745.831734245148,0.0973565940092729
742.102575573922,0.0881269059379202
738.373416902695,0.0802200276961523
734.644258231469,0.0735137277396207
730.915099560243,0.0673333512439486
727.185940889016,0.061041706684968
723.45678221779,0.0577721565797543
719.727623546564,0.0599504462917566
715.998464875338,0.0745344659495711
712.269306204111,0.0918739508018441
708.540147532885,0.0892962729745769
704.810988861659,0.0859162998790871
701.081830190432,0.0884375831624147
697.352671519206,0.0845318418620639
693.62351284798,0.086038923560358
689.894354176754,0.0951649564605293
686.165195505527,0.124848261095231
682.436036834301,0.159792348778285
678.706878163075,0.158846472922576
674.977719491848,0.155916229170422
671.248560820622,0.190592777696471
667.519402149396,0.234136848637501
663.790243478169,0.260690649492715
660.061084806943,0.266283586639756
656.331926135717,0.269985303605538
652.602767464491,0.270506382881783
648.873608793276,0.266163806059236
