Wavenumbercm-1,00:38:52
2998.24357166583,0.179033595577956
2994.5144129946,0.205988129171448
2990.78525432337,0.238615569714953
2987.05609565215,0.293700747147414
2983.32693698092,0.327793403484021
2979.59777830969,0.309987158132665
2975.86861963847,0.276259266977766
2972.13946096724,0.257623157420675
2968.41030229601,0.25815343160411
2964.68114362479,0.259720154339398
2960.95198495356,0.269948786419453
2957.22282628234,0.282059196823939
2953.49366761111,0.296784987684331
2949.76450893988,0.301659212394015
2946.03535026866,0.289712467856649
2942.30619159743,0.280209631118362
2938.5770329262,0.288030966117539
2934.84787425498,0.292955463390016
2931.11871558375,0.287991862149936
2927.38955691253,0.284617828448326
2923.6603982413,0.294352974203151
2919.93123957007,0.300165439936421
2916.20208089885,0.286127838844609
2912.47292222762,0.268212828928017
2908.74376355639,0.262436277631439
2905.01460488517,0.268651599398314
2901.28544621394,0.283787114178122
2897.55628754272,0.292894347917234
2893.82712887149,0.296945858613155
2890.09797020026,0.308408078734641
2886.36881152904,0.323565801792261
2882.63965285781,0.347022050702678
2878.91049418658,0.367211197701154
2875.18133551536,0.35491879056092
2871.45217684413,0.336201333006092
2867.72301817291,0.340013067833956
2863.99385950168,0.338199207841873
2860.26470083045,0.323934092643908
2856.53554215923,0.314082119198089
2852.806383488,0.30861951907843
2849.07722481677,0.29791312268835
2845.34806614555,0.297230598955751
2841.61890747432,0.282413051838158
2837.88974880309,0.246236940919677
2834.16059013187,0.212363917373438
2830.43143146064,0.186767666766615
2826.70227278942,0.166494624036836
2822.97311411819,0.147922524620648
2819.24395544696,0.131646350802103
2815.51479677574,0.118945559108529
2811.78563810451,0.105845575652877
2808.05647943328,0.0925522789583624
2804.32732076206,0.0847049547762222
2800.59816209083,0.0789193327681631
2796.86900341961,0.0720134367497732
2793.13984474838,0.0641574115440905
2789.41068607715,0.0565006081580049
2785.68152740593,0.0497757720044288
2781.9523687347,0.0448565886531793
2778.22321006347,0.0415849236305342
2774.49405139225,0.0388595187887201
2770.76489272102,0.0353100108813768
2767.0357340498,0.031665082299705
2763.30657537857,0.0297491790498181
2759.57741670734,0.0296110910892672
2755.84825803612,0.0289511678781798
2752.11909936489,0.0277265758068308
2748.38994069366,0.0266145452748585
2744.66078202244,0.0269738711772514
2740.93162335121,0.0293508122954995
2737.20246467999,0.0330027435031547
2733.47330600876,0.0372172215506903
2729.74414733753,0.03955394278187
2726.01498866631,0.0393907441547086
2722.28582999508,0.0372609727079923
2718.55667132385,0.0339430758619082
2714.82751265263,0.0302598680932926
2711.0983539814,0.0277544514415353
2707.36919531017,0.0271235946181727
2703.64003663895,0.0277650167499239
2699.91087796772,0.0295064070424849
2696.1817192965,0.0336098541864603
2692.45256062527,0.0388870264081969
2688.72340195404,0.0418961735655897
2684.99424328282,0.0412925610148664
2681.26508461159,0.0378456521721734
2677.53592594036,0.0333379073177089
2673.80676726914,0.0301386306380577
2670.07760859791,0.0279481706426035
2666.34844992669,0.0268735888466607
2662.61929125546,0.0276106174124548
2658.89013258423,0.0282138113381399
2655.16097391301,0.0262704094354802
2651.43181524178,0.0224118992037678
2647.70265657055,0.0189508019257029
2643.97349789933,0.0161447921760995
2640.2443392281,0.0150095982060235
2636.51518055688,0.0156907502366649
2632.78602188565,0.0162626909543144
2629.05686321442,0.0168204738204652
2625.3277045432,0.017854834096283
2621.59854587197,0.0184328054410936
2617.86938720074,0.0191908915776795
2614.14022852952,0.020388947215533
2610.41106985829,0.0216583656937093
2606.68191118707,0.0232003555992465
2602.95275251584,0.0244678205153768
2599.22359384461,0.0240867565005583
2595.49443517339,0.0236868044873956
2591.76527650216,0.0251342677475333
2588.03611783093,0.0280607731016327
2584.30695915971,0.0319246026767025
2580.57780048848,0.0350910437481066
2576.84864181725,0.0354592680979592
2573.11948314603,0.0336244906807087
2569.3903244748,0.031304766698037
2565.66116580358,0.0293388198039116
2561.93200713235,0.0289640717894027
2558.20284846112,0.0299525962947863
2554.4736897899,0.0314078088069938
2550.74453111867,0.0312745921299089
2547.01537244744,0.0301154702637058
2543.28621377622,0.0291122439194375
2539.55705510499,0.0272823597898194
2535.82789643377,0.0248632258856065
2532.09873776254,0.0242282445871168
2528.36957909131,0.0250288112335375
2524.64042042009,0.0247958754630332
2520.91126174886,0.0237113416688058
2517.18210307763,0.0235456024233754
2513.45294440641,0.0242025386018904
2509.72378573518,0.0245955936882784
2505.99462706396,0.0245731433418399
2502.26546839273,0.0247621441776742
2498.5363097215,0.0252733231595692
2494.80715105028,0.0252448632060577
2491.07799237905,0.0248545652616561
2487.34883370782,0.0246602285572482
2483.6196750366,0.0242280828179909
2479.89051636537,0.0232592459905606
2476.16135769415,0.0224000836282615
2472.43219902292,0.021522643834066
2468.70304035169,0.0205075226111002
2464.97388168047,0.0190093463346116
2461.24472300924,0.0176491308267722
2457.51556433801,0.0167580916792426
2453.78640566679,0.0166333616365479
2450.05724699556,0.0170468893596557
2446.32808832433,0.0171779220622414
2442.59892965311,0.0170818033354558
2438.86977098188,0.0170090609937309
2435.14061231066,0.0165689190863755
2431.41145363943,0.0157759366820856
2427.6822949682,0.0150358906221914
2423.95313629698,0.0145821772071811
2420.22397762575,0.0149479234420514
2416.49481895452,0.0157402064107858
2412.7656602833,0.0161266484412796
2409.03650161207,0.0149839363584356
2405.30734294085,0.0130422729459561
2401.57818426962,0.0117803577576616
2397.84902559839,0.0117006499726441
2394.11986692717,0.0117344612388201
2390.39070825594,0.0117567982564925
2386.66154958471,0.0129925887123255
2382.93239091349,0.0174114716805496
2379.20323224226,0.0263760223694311
2375.47407357104,0.0379770611943855
2371.74491489981,0.0483026145848624
2368.01575622858,0.0545800100671347
2364.28659755736,0.0553821341061182
2360.55743888613,0.0483122890619639
2356.8282802149,0.0332238300422183
2353.09912154368,0.0222386772380397
2349.36996287245,0.0256317907702879
2345.64080420122,0.0347417560223955
2341.91164553,0.0381867306040939
2338.18248685877,0.0367457548499715
2334.45332818755,0.0323634448095402
2330.72416951632,0.0260408069923031
2326.99501084509,0.0195676185674378
2323.26585217387,0.0137230123891403
2319.53669350264,0.00909793046628739
2315.80753483141,0.00639563201395251
2312.07837616019,0.00553526643290564
2308.34921748896,0.00516724429144964
2304.62005881774,0.00402039324356775
2300.89090014651,0.00189037644791942
2297.16174147528,-0.000500974580167121
2293.43258280406,-0.00182354805856564
2289.70342413283,-0.00144102441965739
2285.9742654616,0.000149219322984521
2282.24510679038,0.00274846329097937
2278.51594811915,0.00527463894606094
2274.78678944793,0.00720472133967919
2271.0576307767,0.00897829167322489
2267.32847210547,0.0103179300331134
2263.59931343425,0.0112640708594698
2259.87015476302,0.0124037698270137
2256.14099609179,0.013560538311467
2252.41183742057,0.0144858112296615
2248.68267874934,0.0164490127227495
2244.95352007812,0.0180898117699786
2241.22436140689,0.0196959981720557
2237.49520273566,0.0217731635211594
2233.76604406444,0.0234138596793782
2230.03688539321,0.0245150105421226
2226.30772672198,0.0270661920642147
2222.57856805076,0.0299387469705759
2218.84940937953,0.0318114886975342
2215.1202507083,0.0339936641973353
2211.39109203708,0.0373855526533224
2207.66193336585,0.0401784152751973
2203.93277469463,0.0429433732184555
2200.2036160234,0.0457534311132056
2196.47445735217,0.0481836329513709
2192.74529868095,0.0530182008995779
2189.01614000972,0.061892632642397
2185.28698133849,0.0728646319239073
2181.55782266727,0.080042494011359
2177.82866399604,0.0838578342274514
2174.09950532482,0.0881596408224073
2170.37034665359,0.100109441975911
2166.64118798236,0.124089063136615
2162.91202931114,0.152013651689657
2159.18287063991,0.15486291882452
2155.45371196868,0.140046568921864
2151.72455329746,0.125442423252593
2147.99539462623,0.115310984276101
2144.26623595501,0.105169384340693
2140.53707728378,0.0958764102275369
2136.80791861255,0.0839831760869861
2133.07875994133,0.0691083205073278
2129.3496012701,0.0551985220150167
2125.62044259887,0.0452839087536475
2121.89128392765,0.0391375981821961
2118.16212525642,0.0351353447452803
2114.4329665852,0.032544060412288
2110.70380791397,0.0312113986351178
2106.97464924274,0.0311362158513991
2103.24549057152,0.0308071334723575
2099.51633190029,0.0299097362446746
2095.78717322906,0.0265810052517661
2092.05801455784,0.0217523988561563
2088.32885588661,0.017567481774785
2084.59969721538,0.0150205871942965
2080.87053854416,0.013535133439917
2077.14137987293,0.0133303287574786
2073.41222120171,0.0136608902493486
2069.68306253048,0.0150191597035467
2065.95390385925,0.0163907225697225
2062.22474518803,0.0174136907732474
2058.4955865168,0.0176629671992879
2054.76642784557,0.0194243612902291
2051.03726917435,0.0242574468576504
2047.30811050312,0.0291061780025091
2043.5789518319,0.0308829680998797
2039.84979316067,0.0335442039291332
2036.12063448944,0.0375375957300659
2032.39147581822,0.0382216409819494
2028.66231714699,0.0356201171946751
2024.93315847576,0.0328577619453707
2021.20399980454,0.0298830453639358
2017.47484113331,0.0265313481968304
2013.74568246209,0.0251148859602451
2010.01652379086,0.0237384652082706
2006.28736511963,0.0209825233352425
2002.55820644841,0.0172920240568656
1998.82904777718,0.0152708765314882
1995.09988910595,0.0155475171602774
1991.37073043473,0.0167981319302161
1987.6415717635,0.0172251524928938
1983.91241309228,0.0208287974520993
1980.18325442105,0.0269384254005536
1976.45409574982,0.0311479565419467
1972.7249370786,0.0305447674047044
1968.99577840737,0.028022461526618
1965.26661973614,0.0244255143297192
1961.53746106492,0.0206669276906033
1957.80830239369,0.0156796220921048
1954.07914372246,0.0110627701429671
1950.34998505124,0.00770516926148271
1946.62082638001,0.0054845425599389
1942.89166770879,0.0028105132054264
1939.16250903756,-2.50269518275983E-05
1935.43335036633,-0.00222791942773715
1931.70419169511,-0.00405845665763026
1927.97503302388,-0.00487352787776219
1924.24587435265,-0.00481914310749871
1920.51671568143,-0.00529007483417054
1916.7875570102,-0.00696454930585335
1913.05839833898,-0.00812067700911131
1909.32923966775,-0.00890022725890977
1905.60008099652,-0.00986717532160078
1901.8709223253,-0.0103702489225581
1898.14176365407,-0.0101002928610798
1894.41260498284,-0.00958915644434647
1890.68344631162,-0.00992666323740971
1886.95428764039,-0.0114919366244293
1883.22512896917,-0.012429013877925
1879.49597029794,-0.0125929953275442
1875.76681162671,-0.0110933368755613
1872.03765295549,-0.00840673227278853
1868.30849428426,-0.00879334718740285
1864.57933561303,-0.0108702903830164
1860.85017694181,-0.0112849513864819
1857.12101827058,-0.0113472708407461
1853.39185959936,-0.0104654063371296
1849.66270092813,-0.00719647114534202
1845.9335422569,-0.00524699542938078
1842.20438358568,-0.00770359306121386
1838.47522491445,-0.0088343277888255
1834.74606624322,-0.00629739461465587
1831.016907572,-0.00366007955978471
1827.28774890077,-0.00430736431843999
1823.55859022954,-0.00619894411823831
1819.82943155832,-0.0063380143267278
1816.10027288709,-0.00548656461150195
1812.37111421587,-0.00518771289208935
1808.64195554464,-0.00571337320283224
1804.91279687341,-0.00467488252666796
1801.18363820219,-0.00347760887912519
1797.45447953096,-0.00196683229315526
1793.72532085973,-0.00158927737359607
1789.99616218851,-0.00431523109529516
1786.26700351728,-0.00558509822597438
1782.53784484606,-0.00532729977165382
1778.80868617483,-0.00340540860301659
1775.0795275036,0.000508379706193602
1771.35036883238,-0.00121126926549539
1767.62121016115,-0.00474647855401058
1763.89205148992,-0.00492986194199498
1760.1628928187,-0.00484391029284039
1756.43373414747,-0.0038383201602209
1752.70457547625,-0.00131553806293896
1748.97541680502,-0.00233285107012367
1745.24625813379,-0.00378822406469829
1741.51709946257,-0.00188209490192514
1737.78794079134,0.00154936100049303
1734.05878212011,-0.000209603132300141
1730.32962344889,-0.00663046366561363
1726.60046477766,-0.00711171185117732
1722.87130610643,8.17673096164924E-06
1719.14214743521,0.00632737987753059
1715.41298876398,-5.67625908298194E-05
1711.68383009276,-0.00540472932427522
1707.95467142153,-0.00260932183662861
1704.2255127503,0.00445284585903295
1700.49635407908,0.00637583925054693
1696.76719540785,-0.00168409764742724
1693.03803673662,-0.00670732450327574
1689.3088780654,-0.00226240480914292
1685.57971939417,0.00118458611416179
1681.85056072295,-0.00355344258353614
1678.12140205172,-0.00399462310990057
1674.39224338049,-0.00175124465249596
1670.66308470927,-0.00364881476137321
1666.93392603804,-0.00697913198815439
1663.20476736681,-0.00827277852237318
1659.47560869559,-0.00416267514089922
1655.74645002436,0.00570550175975028
1652.01729135314,0.0055927831353184
1648.28813268191,-0.00114871503049054
1644.55897401068,-0.00612913144570749
1640.82981533946,-0.00403631678219869
1637.10065666823,-0.000249187283871145
1633.371497997,-0.0045172912521717
1629.64233932578,-0.00378146847691621
1625.91318065455,0.000912165120997092
1622.18402198333,0.00481893883795825
1618.4548633121,0.00742566625014657
1614.72570464087,0.00660779913660373
1610.99654596965,0.0068995116061277
1607.26738729842,0.00816526345890723
1603.53822862719,0.00794168438474444
1599.80906995597,0.0075132606704881
1596.07991128474,0.00569346346546641
1592.35075261351,0.000918321511582046
1588.62159394229,-0.00399212573780499
1584.89243527106,-0.00558664925808213
1581.16327659984,-0.00271067820068042
1577.43411792861,7.36336116414513E-05
1573.70495925738,-0.000816620871198595
1569.97580058616,-0.00158565153817426
1566.24664191493,0.000973768321611211
1562.5174832437,0.0121600031876613
1558.78832457248,0.014163906291151
1555.05916590125,0.00339419320000804
1551.33000723003,0.000631520925261421
1547.6008485588,0.00720937221367885
1543.87168988757,0.0183253529180438
1540.14253121635,0.0162842755333436
1536.41337254512,0.00927716895430987
1532.68421387389,0.00812904772482915
1528.95505520267,0.0119602407854064
1525.22589653144,0.01936595713122
1521.49673786022,0.0215809648176912
1517.76757918899,0.0189605845166576
1514.03842051776,0.0213074130282853
1510.30926184654,0.0311753667567715
1506.58010317531,0.0319932594719498
1502.85094450408,0.0290520656474149
1499.12178583286,0.0345343218020933
1495.39262716163,0.0404212398412919
1491.66346849041,0.0470816400054938
1487.93430981918,0.0514683418481761
1484.20515114795,0.0564535722402041
1480.47599247673,0.0679929051254268
1476.7468338055,0.0838786343375885
1473.01767513427,0.101559942464411
1469.28851646305,0.126270232889572
1465.55935779182,0.162941100633852
1461.83019912059,0.186421011473109
1458.10104044937,0.177512101400703
1454.37188177814,0.155659585674495
1450.64272310692,0.142605993133252
1446.91356443569,0.120420880177075
1443.18440576446,0.0932827438383163
1439.45524709324,0.0738082137230703
1435.72608842201,0.0577781689589328
1431.99692975078,0.0451979871367791
1428.26777107956,0.0372732635264619
1424.53861240833,0.0333261539728617
1420.80945373711,0.0302862891308074
1417.08029506588,0.0222980343386852
1413.35113639465,0.0159590932475482
1409.62197772343,0.0134711405229915
1405.8928190522,0.0125146791709077
1402.16366038097,0.0125979599606641
1398.43450170975,0.0130946110563946
1394.70534303852,0.0113211168550519
1390.9761843673,0.0106767272637696
1387.24702569607,0.0112607110204099
1383.51786702484,0.0115392827851805
1379.78870835362,0.0157405177508677
1376.05954968239,0.0267442565426046
1372.33039101116,0.0481936597205004
1368.60123233994,0.0756707841684109
1364.87207366871,0.0818793535390878
1361.14291499749,0.05788215503334
1357.41375632626,0.0359883825718694
1353.68459765503,0.0258882199719361
1349.95543898381,0.0218700094267423
1346.22628031258,0.0217467914658087
1342.49712164135,0.0256013611184871
1338.76796297013,0.0301682045721231
1335.0388042989,0.0316823501080665
1331.30964562767,0.0296786249261402
1327.58048695645,0.0267727238505455
1323.85132828522,0.0261496809088026
1320.122169614,0.0275811466707731
1316.39301094277,0.0300690908052406
1312.66385227154,0.0333941824130002
1308.93469360032,0.0367254496199147
1305.20553492909,0.0391272138832015
1301.47637625786,0.0434432612795568
1297.74721758664,0.0549234982930397
1294.01805891541,0.0729278328062662
1290.28890024419,0.0812003215237529
1286.55974157296,0.0738064295355896
1282.83058290173,0.0653801585017217
1279.10142423051,0.0624353271777242
1275.37226555928,0.0624672167261051
1271.64310688805,0.0637048851060303
1267.91394821683,0.0657104721093158
1264.1847895456,0.0696914915841244
1260.45563087438,0.0751375332012368
1256.72647220315,0.0812847660733307
1252.99731353192,0.0880697642158427
1249.2681548607,0.0946493855210609
1245.53899618947,0.0992947008105573
1241.80983751824,0.101431428824238
1238.08067884702,0.101712198635597
1234.35152017579,0.101384552703584
1230.62236150457,0.101210855358068
1226.89320283334,0.102042033560418
1223.16404416211,0.104488506997735
1219.43488549089,0.108241056318456
1215.70572681966,0.114740884084466
1211.97656814843,0.127043035006033
1208.24740947721,0.139534713047808
1204.51825080598,0.141904967872881
1200.78909213475,0.142282485735046
1197.05993346353,0.148243345587034
1193.3307747923,0.153603817854172
1189.60161612108,0.156411559524923
1185.87245744985,0.158964232729576
1182.14329877862,0.159974585896934
1178.4141401074,0.157300266363956
1174.68498143617,0.149100427738682
1170.95582276494,0.136148448456507
1167.22666409372,0.121768075358446
1163.49750542249,0.11250913200785
1159.76834675127,0.114145293721851
1156.03918808004,0.119331448732469
1152.31002940881,0.108158950697182
1148.58087073759,0.086859477967641
1144.85171206636,0.0752533729087421
1141.12255339513,0.0731802296967338
1137.39339472391,0.0749164906112365
1133.66423605268,0.0770885404947088
1129.93507738146,0.0788810195277781
1126.20591871023,0.0809235427893642
1122.476760039,0.0840753465979542
1118.74760136778,0.0887186761876302
1115.01844269655,0.0956965439745073
1111.28928402532,0.105637540872219
1107.5601253541,0.119113997647894
1103.83096668287,0.137113251539127
1100.10180801165,0.161542977329971
1096.37264934042,0.194874449982416
1092.64349066919,0.241591940172282
1088.91433199797,0.309736188681989
1085.18517332674,0.414228717371768
1081.45601465551,0.579299880769436
1077.72685598429,0.839462310029258
1073.99769731306,1.22470099054066
1070.26853864183,1.66296011246395
1066.53937997061,1.77207157200909
1062.81022129938,1.48735842285094
1059.08106262816,1.14453749173445
1055.35190395693,0.86400527260471
1051.6227452857,0.663417107002732
1047.89358661448,0.52739968512836
1044.16442794325,0.439721559074262
1040.43526927202,0.390033249702356
1036.7061106008,0.371952345853348
1032.97695192957,0.367042495179737
1029.24779325835,0.342479563932679
1025.51863458712,0.28600750249646
1021.78947591589,0.223258252972454
1018.06031724467,0.17480792705224
1014.33115857344,0.14220739802815
1010.60199990221,0.12021965683492
1006.87284123099,0.104775110351449
1003.14368255976,0.0935737325463866
999.414523888535,0.0856728865727634
995.685365217309,0.0803987848854686
991.956206546083,0.0773608404858407
988.227047874856,0.0760168363709931
984.49788920363,0.0762140060154249
980.768730532404,0.0776962841061826
977.039571861178,0.0805808925555252
973.310413189951,0.0852649928835161
969.581254518725,0.0916833776930297
965.852095847499,0.10013816918754
962.122937176272,0.111502084875549
958.393778505046,0.125985042519177
954.66461983382,0.14294318466888
950.935461162594,0.162325832263193
947.206302491367,0.184495258855844
943.477143820141,0.210485470882666
939.747985148915,0.242012138847549
936.018826477688,0.283266404262582
932.289667806462,0.338820097372896
928.560509135236,0.414308596508659
924.83135046401,0.515046678478417
921.102191792783,0.645898896502318
917.373033121557,0.797823427406327
913.643874450331,0.935264924011336
909.914715779104,1.00620401908111
906.185557107878,0.992926955344251
902.456398436652,0.907600798108613
898.727239765426,0.783994243325541
894.998081094199,0.658008959288439
891.268922422973,0.551868909131303
887.539763751747,0.472205044857108
883.81060508052,0.415986364152414
880.081446409294,0.377385324735942
876.352287738068,0.349398216673208
872.623129066842,0.327058574408578
868.893970395615,0.306114188124912
865.164811724389,0.285676374581428
861.435653053163,0.265488631246316
857.706494381936,0.246793287544888
853.97733571071,0.230172221782522
850.248177039484,0.216188790924311
846.519018368258,0.203896885253325
842.789859697031,0.192775453717791
839.060701025805,0.181046111853847
835.331542354579,0.169020507678233
831.602383683352,0.157169752078882
827.873225012126,0.145448112308052
824.1440663409,0.132814339100023
820.414907669674,0.120863363662672
816.685748998447,0.11005805018785
812.956590327221,0.100318625957089
809.227431655995,0.0918106200852913
805.498272984768,0.083753672419201
801.769114313542,0.0772836137657262
798.039955642316,0.0726668794107032
794.31079697109,0.0681662385240464
790.581638299863,0.0628789717722133
786.852479628637,0.0582801734201285
783.123320957411,0.0549196076042241
779.394162286184,0.051698777674529
775.665003614958,0.0473868232037397
771.935844943732,0.043459070364087
768.206686272506,0.0412595428737128
764.477527601279,0.0398008613026622
760.748368930053,0.0376336316680364
757.019210258827,0.0351334110631351
753.2900515876,0.0337243117104223
749.560892916374,0.0338376686174784
745.831734245148,0.0335635619051672
742.102575573922,0.0322196294571469
738.373416902695,0.0313390725900397
734.644258231469,0.0325237314257999
730.915099560243,0.0337924199507662
727.185940889016,0.033884794677043
723.45678221779,0.034238017160084
719.727623546564,0.0364225177615216
715.998464875338,0.0391068943002609
712.269306204111,0.0414215158878538
708.540147532885,0.0438946287248194
704.810988861659,0.0479043597570183
701.081830190432,0.0539546421101504
697.352671519206,0.060564741819653
693.62351284798,0.068120229513032
689.894354176754,0.0778986357382148
686.165195505527,0.0918425802837387
682.436036834301,0.105364350394501
678.706878163075,0.118208633621873
674.977719491848,0.134160317122985
671.248560820622,0.163335727982564
667.519402149396,0.190302245087611
663.790243478169,0.201881241629082
660.061084806943,0.210349963248377
656.331926135717,0.218664762976896
652.602767464491,0.212869718875691
648.873608793276,0.200140357888736
