Wavenumbercm-1,01:51:52
2998.24357166583,0.190579823590201
2994.5144129946,0.219696670788367
2990.78525432337,0.252798389035654
2987.05609565215,0.307945725823294
2983.32693698092,0.341536727146432
2979.59777830969,0.319665889953468
2975.86861963847,0.283443221805819
2972.13946096724,0.264620118280004
2968.41030229601,0.264902601967901
2964.68114362479,0.264612069373402
2960.95198495356,0.274154498027194
2957.22282628234,0.289510368433524
2953.49366761111,0.309314154924929
2949.76450893988,0.313534285323135
2946.03535026866,0.297647784811874
2942.30619159743,0.287089275167341
2938.5770329262,0.296886490987081
2934.84787425498,0.302403619625265
2931.11871558375,0.295729605959298
2927.38955691253,0.291460374838494
2923.6603982413,0.304703928875336
2919.93123957007,0.315009730437369
2916.20208089885,0.299993238930663
2912.47292222762,0.279180182286467
2908.74376355639,0.272675500731645
2905.01460488517,0.277108521410057
2901.28544621394,0.288919144268106
2897.55628754272,0.29851404797883
2893.82712887149,0.304627807719007
2890.09797020026,0.316336456738873
2886.36881152904,0.33095775265277
2882.63965285781,0.356456630290148
2878.91049418658,0.380708092819745
2875.18133551536,0.370735303877353
2871.45217684413,0.351055646386104
2867.72301817291,0.353244618329191
2863.99385950168,0.350356612971312
2860.26470083045,0.336782122575413
2856.53554215923,0.326289031431599
2852.806383488,0.319457849781079
2849.07722481677,0.305504613175817
2845.34806614555,0.303597240160932
2841.61890747432,0.291378865430422
2837.88974880309,0.256249670756607
2834.16059013187,0.221495702601266
2830.43143146064,0.195410914688443
2826.70227278942,0.173391816078066
2822.97311411819,0.152450242047752
2819.24395544696,0.136037657930309
2815.51479677574,0.124391688020502
2811.78563810451,0.112294555124649
2808.05647943328,0.0996537764140551
2804.32732076206,0.0920349102828461
2800.59816209083,0.0856708179560459
2796.86900341961,0.0797960089084369
2793.13984474838,0.0736544219617732
2789.41068607715,0.06531420193652
2785.68152740593,0.0572444863079911
2781.9523687347,0.0535939671060011
2778.22321006347,0.0517174022391792
2774.49405139225,0.0483708881473514
2770.76489272102,0.044136439237489
2767.0357340498,0.0405936153139763
2763.30657537857,0.0382829415235776
2759.57741670734,0.0373878936575894
2755.84825803612,0.0370859413951373
2752.11909936489,0.0375777612634206
2748.38994069366,0.0374662165258495
2744.66078202244,0.0377222341747749
2740.93162335121,0.0403830653689361
2737.20246467999,0.0437068461046402
2733.47330600876,0.0466178027947135
2729.74414733753,0.048572325520706
2726.01498866631,0.0487421937824396
2722.28582999508,0.0461402710445909
2718.55667132385,0.042346205688627
2714.82751265263,0.0385321494937735
2711.0983539814,0.0357862547594364
2707.36919531017,0.0343785995155661
2703.64003663895,0.0351743105092612
2699.91087796772,0.037410849407779
2696.1817192965,0.0405060112937645
2692.45256062527,0.0441305740425994
2688.72340195404,0.0468943656647207
2684.99424328282,0.0470702428052152
2681.26508461159,0.0444357172150555
2677.53592594036,0.0403121286869022
2673.80676726914,0.0369937000532387
2670.07760859791,0.0347563406247342
2666.34844992669,0.0336175629297159
2662.61929125546,0.033869458304264
2658.89013258423,0.0345300630550584
2655.16097391301,0.03340682184632
2651.43181524178,0.0298618566939647
2647.70265657055,0.0263076505334741
2643.97349789933,0.0237205691271985
2640.2443392281,0.0227390711912368
2636.51518055688,0.0226143313436515
2632.78602188565,0.022637562361551
2629.05686321442,0.0232451731340511
2625.3277045432,0.025070911198444
2621.59854587197,0.0273295542879003
2617.86938720074,0.0293610027154749
2614.14022852952,0.0302916890657314
2610.41106985829,0.0308760922199617
2606.68191118707,0.0325692070829441
2602.95275251584,0.0345207253988448
2599.22359384461,0.0345435042556858
2595.49443517339,0.0346491383711588
2591.76527650216,0.0363145972176492
2588.03611783093,0.038863671107875
2584.30695915971,0.0430738842320683
2580.57780048848,0.0483944830374264
2576.84864181725,0.05486554318679
2573.11948314603,0.0642783770021052
2569.3903244748,0.0749604011410124
2565.66116580358,0.0804851251618039
2561.93200713235,0.0789505303290735
2558.20284846112,0.0728130742836147
2554.4736897899,0.06657888723648
2550.74453111867,0.0626508285741916
2547.01537244744,0.0611907781985571
2543.28621377622,0.0578333106539831
2539.55705510499,0.0503386642995212
2535.82789643377,0.042926869665413
2532.09873776254,0.0396245878165567
2528.36957909131,0.0381324915326961
2524.64042042009,0.0366024091138154
2520.91126174886,0.0359400764108185
2517.18210307763,0.036483225592358
2513.45294440641,0.0379022926496498
2509.72378573518,0.0390243186640583
2505.99462706396,0.0396947475290303
2502.26546839273,0.0409073722044183
2498.5363097215,0.0427386691920828
2494.80715105028,0.0438201449523695
2491.07799237905,0.0436431205369168
2487.34883370782,0.042684222268634
2483.6196750366,0.0419918383997227
2479.89051636537,0.0405798768697572
2476.16135769415,0.0382087294590036
2472.43219902292,0.035874211754342
2468.70304035169,0.0341196406687505
2464.97388168047,0.0318802482974096
2461.24472300924,0.0295031980276637
2457.51556433801,0.0275810544796806
2453.78640566679,0.0266941298937587
2450.05724699556,0.0263468273639552
2446.32808832433,0.0256257318073223
2442.59892965311,0.024924870139988
2438.86977098188,0.0243755817881924
2435.14061231066,0.023748599579349
2431.41145363943,0.0228679878167009
2427.6822949682,0.0215269288108291
2423.95313629698,0.0203573074801961
2420.22397762575,0.0201646746427117
2416.49481895452,0.020459088296686
2412.7656602833,0.020480228227161
2409.03650161207,0.0192917015731023
2405.30734294085,0.0177957392001812
2401.57818426962,0.0166227100357495
2397.84902559839,0.016293876567553
2394.11986692717,0.0160890579753614
2390.39070825594,0.0160474805360061
2386.66154958471,0.0179546836665364
2382.93239091349,0.0245917305876365
2379.20323224226,0.0375998854110296
2375.47407357104,0.0545081669912326
2371.74491489981,0.0699094859089458
2368.01575622858,0.0797753974577293
2364.28659755736,0.08146771751609
2360.55743888613,0.0721917368032352
2356.8282802149,0.0523283529189418
2353.09912154368,0.0375405775027911
2349.36996287245,0.0417947025377294
2345.64080420122,0.0536053397863832
2341.91164553,0.0573900823501785
2338.18248685877,0.0547381086611103
2334.45332818755,0.0488977441940389
2330.72416951632,0.0411146534483448
2326.99501084509,0.0331205991598769
2323.26585217387,0.0253485224679223
2319.53669350264,0.0186608428133189
2315.80753483141,0.0142234086681748
2312.07837616019,0.0118886530635128
2308.34921748896,0.0100549791811512
2304.62005881774,0.00824117761535998
2300.89090014651,0.00652883228970162
2297.16174147528,0.00584013594957611
2293.43258280406,0.00768343386741945
2289.70342413283,0.0123959283147836
2285.9742654616,0.0186304370380111
2282.24510679038,0.0246282987848589
2278.51594811915,0.0283258370140984
2274.78678944793,0.0292792691137905
2271.0576307767,0.0290305765294882
2267.32847210547,0.0285229778444388
2263.59931343425,0.0282702004329468
2259.87015476302,0.027973240968054
2256.14099609179,0.0271783985765514
2252.41183742057,0.0259809892570179
2248.68267874934,0.0260183309098726
2244.95352007812,0.0258909087913071
2241.22436140689,0.0266030699165147
2237.49520273566,0.0280950011436372
2233.76604406444,0.0295278595183757
2230.03688539321,0.030671676674538
2226.30772672198,0.0329109222815967
2222.57856805076,0.0351655028044271
2218.84940937953,0.0380587150859859
2215.1202507083,0.0417878291944407
2211.39109203708,0.0449386992748798
2207.66193336585,0.0464314677949316
2203.93277469463,0.0482969767171063
2200.2036160234,0.050376644877895
2196.47445735217,0.0525410293706641
2192.74529868095,0.0577537890240843
2189.01614000972,0.0665018927015085
2185.28698133849,0.076699131630344
2181.55782266727,0.0840746953651405
2177.82866399604,0.0886258888567749
2174.09950532482,0.0921096446064239
2170.37034665359,0.102928892197465
2166.64118798236,0.126212529940889
2162.91202931114,0.154407992473287
2159.18287063991,0.15769899103438
2155.45371196868,0.142987837043978
2151.72455329746,0.127656889822196
2147.99539462623,0.117462063313085
2144.26623595501,0.107355122702838
2140.53707728378,0.097711016664329
2136.80791861255,0.0856003931101864
2133.07875994133,0.0709550136617584
2129.3496012701,0.0566392315771758
2125.62044259887,0.0461764158683215
2121.89128392765,0.0397328063733935
2118.16212525642,0.0355685083475645
2114.4329665852,0.0333091577845348
2110.70380791397,0.0323739696041317
2106.97464924274,0.0321552733968295
2103.24549057152,0.0315471384069451
2099.51633190029,0.0309936636307593
2095.78717322906,0.0284793528232101
2092.05801455784,0.0240403138840873
2088.32885588661,0.0197687003838993
2084.59969721538,0.0174661602246372
2080.87053854416,0.0158507321259418
2077.14137987293,0.0155676627787802
2073.41222120171,0.0156155701354869
2069.68306253048,0.0171613184077814
2065.95390385925,0.018840337692419
2062.22474518803,0.0196868235740655
2058.4955865168,0.0197509356616389
2054.76642784557,0.0219902502292467
2051.03726917435,0.0269969874666217
2047.30811050312,0.032028189987737
2043.5789518319,0.0343627537395299
2039.84979316067,0.0374073000483272
2036.12063448944,0.0409410010749669
2032.39147581822,0.0416089321925115
2028.66231714699,0.0397160562350224
2024.93315847576,0.0373419112449385
2021.20399980454,0.0348619095385885
2017.47484113331,0.0314713363471571
2013.74568246209,0.0292344351888936
2010.01652379086,0.0272861759204696
2006.28736511963,0.0241788261381334
2002.55820644841,0.0199538052687439
1998.82904777718,0.0181578981161754
1995.09988910595,0.0186808804121721
1991.37073043473,0.0198896608356782
1987.6415717635,0.0200232942853271
1983.91241309228,0.0244772253249245
1980.18325442105,0.0313981251400065
1976.45409574982,0.0357162862176866
1972.7249370786,0.0349986780891965
1968.99577840737,0.0327329837006299
1965.26661973614,0.0284463904030794
1961.53746106492,0.0239627606448075
1957.80830239369,0.0188261603732812
1954.07914372246,0.0144832656993997
1950.34998505124,0.011689446696211
1946.62082638001,0.010093611189249
1942.89166770879,0.00672996776932846
1939.16250903756,0.00287956260343863
1935.43335036633,0.000464059223391969
1931.70419169511,-0.00116505612220707
1927.97503302388,-0.00136970982164275
1924.24587435265,-0.000819685172663538
1920.51671568143,-0.00125161559540685
1916.7875570102,-0.00351269080243137
1913.05839833898,-0.00478318914738843
1909.32923966775,-0.00551855721542222
1905.60008099652,-0.00655114708139088
1901.8709223253,-0.00704916182443322
1898.14176365407,-0.00640276988348631
1894.41260498284,-0.00551270702884024
1890.68344631162,-0.00589338010650931
1886.95428764039,-0.0079680982808758
1883.22512896917,-0.00901134415294948
1879.49597029794,-0.0089394002002363
1875.76681162671,-0.00655083533065094
1872.03765295549,-0.00284467421474836
1868.30849428426,-0.00383691715044319
1864.57933561303,-0.00719660010010364
1860.85017694181,-0.00812663801836547
1857.12101827058,-0.00825209512326342
1853.39185959936,-0.00675256403563797
1849.66270092813,-0.00225295645190384
1845.9335422569,-7.937524683237E-05
1842.20438358568,-0.00381086736085078
1838.47522491445,-0.00549805798824646
1834.74606624322,-0.00200231042986456
1831.016907572,0.00156926827010414
1827.28774890077,0.000608602163726748
1823.55859022954,-0.00231961248095805
1819.82943155832,-0.00287035717740152
1816.10027288709,-0.0017406860449836
1812.37111421587,-0.00104038697608377
1808.64195554464,-0.00143727366618638
1804.91279687341,0.000280201159684236
1801.18363820219,0.00184910500564596
1797.45447953096,0.0037993842980818
1793.72532085973,0.00424211118453075
1789.99616218851,0.000433707091783852
1786.26700351728,-0.00112791351606323
1782.53784484606,-0.000378571247311339
1778.80868617483,0.00278018502659537
1775.0795275036,0.00864003972181714
1771.35036883238,0.00658611800339349
1767.62121016115,0.00224484031359146
1763.89205148992,0.00350016186381594
1760.1628928187,0.00587255394997432
1756.43373414747,0.0094405984549358
1752.70457547625,0.0144571187828086
1748.97541680502,0.0142042467392788
1745.24625813379,0.01437159654121
1741.51709946257,0.0229050682570441
1737.78794079134,0.040817905859102
1734.05878212011,0.0572481750806466
1730.32962344889,0.0556781184165726
1726.60046477766,0.04649231653357
1722.87130610643,0.0393746015409289
1719.14214743521,0.0323665496219449
1715.41298876398,0.0157298461510327
1711.68383009276,0.00625391245920768
1707.95467142153,0.0092575526640858
1704.2255127503,0.0182407777270197
1700.49635407908,0.0196581929531941
1696.76719540785,0.00760161574943559
1693.03803673662,0.000515018026409073
1689.3088780654,0.00683317396526671
1685.57971939417,0.0113422456782018
1681.85056072295,0.00414727197399608
1678.12140205172,0.00304000362463202
1674.39224338049,0.00591137893729753
1670.66308470927,0.0029302971092603
1666.93392603804,-0.00205213552182081
1663.20476736681,-0.00397106939970477
1659.47560869559,0.00170380733253062
1655.74645002436,0.0154998731806759
1652.01729135314,0.015221415207281
1648.28813268191,0.00567027933415137
1644.55897401068,-0.00157839065615134
1640.82981533946,0.00131932155551978
1637.10065666823,0.00662440286841773
1633.371497997,0.00103231849851757
1629.64233932578,0.00306736680132042
1625.91318065455,0.00984663368115865
1622.18402198333,0.0133337675173819
1618.4548633121,0.0132373678538819
1614.72570464087,0.00832026705537983
1610.99654596965,0.00626550814968594
1607.26738729842,0.00657510230161265
1603.53822862719,0.00569168639949362
1599.80906995597,0.00502323959136425
1596.07991128474,0.00341077506248633
1592.35075261351,-0.00082043430591509
1588.62159394229,-0.00523445935434522
1584.89243527106,-0.0063210832011683
1581.16327659984,-0.00209094066262866
1577.43411792861,0.00206567288352026
1573.70495925738,0.00133988616005645
1569.97580058616,0.000829964770229528
1566.24664191493,0.00460929592373806
1562.5174832437,0.0204564325388075
1558.78832457248,0.0233075916328256
1555.05916590125,0.0080910506890985
1551.33000723003,0.00396436838820042
1547.6008485588,0.0127390969682794
1543.87168988757,0.0275199055430687
1540.14253121635,0.0238427408628659
1536.41337254512,0.0138556317863523
1532.68421387389,0.0122309210816419
1528.95505520267,0.0173110680755548
1525.22589653144,0.027340019197242
1521.49673786022,0.0298663796574491
1517.76757918899,0.0252521170556067
1514.03842051776,0.0274446864631661
1510.30926184654,0.039877409871322
1506.58010317531,0.0389142107421166
1502.85094450408,0.0328575168869232
1499.12178583286,0.0384917860154567
1495.39262716163,0.0443414673272165
1491.66346849041,0.0511450211790041
1487.93430981918,0.0534608973160064
1484.20515114795,0.0561610713419863
1480.47599247673,0.0682750528005292
1476.7468338055,0.0865289575901377
1473.01767513427,0.104202370349318
1469.28851646305,0.1272273068968
1465.55935779182,0.164214797164664
1461.83019912059,0.189545485974302
1458.10104044937,0.181389118798871
1454.37188177814,0.156813570425692
1450.64272310692,0.142455445778944
1446.91356443569,0.119886619406235
1443.18440576446,0.0934554171957373
1439.45524709324,0.0761654066650125
1435.72608842201,0.0605248058633236
1431.99692975078,0.0474593336496005
1428.26777107956,0.0399759147263416
1424.53861240833,0.037473642259759
1420.80945373711,0.0356071051197897
1417.08029506588,0.0258373209052374
1413.35113639465,0.0177571800085824
1409.62197772343,0.0153012819824046
1405.8928190522,0.0149678456855746
1402.16366038097,0.0160618596706456
1398.43450170975,0.0174834281435978
1394.70534303852,0.0152855153387495
1390.9761843673,0.0145553471049501
1387.24702569607,0.015918626528772
1383.51786702484,0.0175512747382577
1379.78870835362,0.0256887347323143
1376.05954968239,0.0417071842058708
1372.33039101116,0.0654409960634669
1368.60123233994,0.0915682061676623
1364.87207366871,0.0953500828638883
1361.14291499749,0.0689707729882143
1357.41375632626,0.0452568627853619
1353.68459765503,0.0340330822583385
1349.95543898381,0.0291034078903785
1346.22628031258,0.0283970206233704
1342.49712164135,0.0321913950519721
1338.76796297013,0.0361222585178147
1335.0388042989,0.036691199527738
1331.30964562767,0.0350151936090175
1327.58048695645,0.0327383191141072
1323.85132828522,0.0320939649953989
1320.122169614,0.0334208685141566
1316.39301094277,0.0363173513794154
1312.66385227154,0.0403482203392643
1308.93469360032,0.044584775541662
1305.20553492909,0.0482583511770993
1301.47637625786,0.05435177819849
1297.74721758664,0.0688509178940588
1294.01805891541,0.0985411893554086
1290.28890024419,0.148740777231633
1286.55974157296,0.217144859391432
1282.83058290173,0.250938168477324
1279.10142423051,0.213809594027602
1275.37226555928,0.172941824368205
1271.64310688805,0.148045860052832
1267.91394821683,0.122028545281803
1264.1847895456,0.11172712107464
1260.45563087438,0.118880607154889
1256.72647220315,0.133106026083297
1252.99731353192,0.149714366540769
1249.2681548607,0.164156373184624
1245.53899618947,0.171412719065225
1241.80983751824,0.169842084513193
1238.08067884702,0.162302227779066
1234.35152017579,0.152766101301319
1230.62236150457,0.144052372439052
1226.89320283334,0.137626139316621
1223.16404416211,0.134371130026441
1219.43488549089,0.133697664123798
1215.70572681966,0.136671861449122
1211.97656814843,0.145358491704244
1208.24740947721,0.155291936357727
1204.51825080598,0.158292693032357
1200.78909213475,0.160933302237412
1197.05993346353,0.170133904076664
1193.3307747923,0.184871371754548
1189.60161612108,0.207227694558925
1185.87245744985,0.233935079986922
1182.14329877862,0.247080673814963
1178.4141401074,0.238279646806601
1174.68498143617,0.215604451032638
1170.95582276494,0.187297580037845
1167.22666409372,0.160831285004305
1163.49750542249,0.145048266855884
1159.76834675127,0.144645615328097
1156.03918808004,0.155732176231064
1152.31002940881,0.170185479528948
1148.58087073759,0.196138657163271
1144.85171206636,0.230384204134975
1141.12255339513,0.23438938445562
1137.39339472391,0.202927600238245
1133.66423605268,0.168839833292558
1129.93507738146,0.143410644754312
1126.20591871023,0.124169478990223
1122.476760039,0.113133317975899
1118.74760136778,0.109540157672579
1115.01844269655,0.111965916806585
1111.28928402532,0.119677532335785
1107.5601253541,0.131383635228333
1103.83096668287,0.14666997480265
1100.10180801165,0.16880657982716
1096.37264934042,0.200760632423902
1092.64349066919,0.246421651294139
1088.91433199797,0.313440886178496
1085.18517332674,0.416808282607993
1081.45601465551,0.580857390220257
1077.72685598429,0.840230854838315
1073.99769731306,1.22446799424652
1070.26853864183,1.66038084768695
1066.53937997061,1.76261730572003
1062.81022129938,1.47254481044226
1059.08106262816,1.13613909902587
1055.35190395693,0.867270952597945
1051.6227452857,0.677664095419799
1047.89358661448,0.547162554018577
1044.16442794325,0.458474495342397
1040.43526927202,0.404561623027917
1036.7061106008,0.382710323206633
1032.97695192957,0.374939598398769
1029.24779325835,0.348111524118698
1025.51863458712,0.2902973353453
1021.78947591589,0.227115519159424
1018.06031724467,0.178574749313083
1014.33115857344,0.146085795458335
1010.60199990221,0.124276538481983
1006.87284123099,0.109041347404672
1003.14368255976,0.0979187610597912
999.414523888535,0.0899633779211792
995.685365217309,0.0846134823742317
991.956206546083,0.0815706457986117
988.227047874856,0.0802831814465768
984.49788920363,0.0805657679742475
980.768730532404,0.0821616569288414
977.039571861178,0.08513410051827
973.310413189951,0.0898785887160825
969.581254518725,0.0963551638452076
965.852095847499,0.104889174849838
962.122937176272,0.11627782274992
958.393778505046,0.130723819798717
954.66461983382,0.147458913825975
950.935461162594,0.166498820667298
947.206302491367,0.188300804521986
943.477143820141,0.214071990746935
939.747985148915,0.24546477771734
936.018826477688,0.286506711302026
932.289667806462,0.341900392825726
928.560509135236,0.41745967863158
924.83135046401,0.518094379683814
921.102191792783,0.648125920337784
917.373033121557,0.798900807983886
913.643874450331,0.936489574858329
909.914715779104,1.0078805530477
906.185557107878,0.992875585226438
902.456398436652,0.906571171878903
898.727239765426,0.78521953801249
894.998081094199,0.664008752754249
891.268922422973,0.564094685119522
887.539763751747,0.490690575108004
883.81060508052,0.438723855152653
880.081446409294,0.401205100325887
876.352287738068,0.370992023073418
872.623129066842,0.345129361923016
868.893970395615,0.321463838066106
865.164811724389,0.299358716569417
861.435653053163,0.278125719725797
857.706494381936,0.258989272204708
853.97733571071,0.24396212076103
850.248177039484,0.236398400060745
846.519018368258,0.231084629393907
842.789859697031,0.216441392655222
839.060701025805,0.195595297975578
835.331542354579,0.178847249456589
831.602383683352,0.165004094408373
827.873225012126,0.151915482446168
824.1440663409,0.138285632089974
820.414907669674,0.125851834070756
816.685748998447,0.114668300349995
812.956590327221,0.104730629029408
809.227431655995,0.0961187047396082
805.498272984768,0.0883085812617949
801.769114313542,0.0820679122340485
798.039955642316,0.077663480672328
794.31079697109,0.0732658120853809
790.581638299863,0.0681004746911772
786.852479628637,0.0636026865731416
783.123320957411,0.0614265843365554
779.394162286184,0.0640588110184322
775.665003614958,0.0718898103333414
771.935844943732,0.0707486578298994
768.206686272506,0.0558220248981548
764.477527601279,0.0455885385358437
760.748368930053,0.0415063900345009
757.019210258827,0.0389645059753721
753.2900515876,0.0375401692855444
749.560892916374,0.0372662594369191
745.831734245148,0.0365567551818798
742.102575573922,0.0354202915053718
738.373416902695,0.036720582546619
734.644258231469,0.0393284389739884
730.915099560243,0.0384647177967935
727.185940889016,0.0369583681486276
723.45678221779,0.0374197594413142
719.727623546564,0.0394140977542314
715.998464875338,0.0421677172238485
712.269306204111,0.0465115436317673
708.540147532885,0.059140942393036
704.810988861659,0.0802274105271069
701.081830190432,0.0902800104051057
697.352671519206,0.0803127421150191
693.62351284798,0.0769736733882708
689.894354176754,0.0870438837523906
686.165195505527,0.125041828694128
682.436036834301,0.177068148827579
678.706878163075,0.195097369933203
674.977719491848,0.202451580777708
671.248560820622,0.218535619751168
667.519402149396,0.223915554272834
663.790243478169,0.223145618628433
660.061084806943,0.22487285621953
656.331926135717,0.231598165620642
652.602767464491,0.222214215813221
648.873608793276,0.209079887958413
