Wavenumbercm-1,08:04:53
2998.24357166583,0.176201206629458
2994.5144129946,0.208043258421982
2990.78525432337,0.240812725238633
2987.05609565215,0.29299410771442
2983.32693698092,0.324417390934316
2979.59777830969,0.305863237182557
2975.86861963847,0.272008978925246
2972.13946096724,0.254433666656549
2968.41030229601,0.255199462416493
2964.68114362479,0.256909664193378
2960.95198495356,0.264483391585519
2957.22282628234,0.275773612308135
2953.49366761111,0.292831841861792
2949.76450893988,0.298511322557615
2946.03535026866,0.28457625597639
2942.30619159743,0.272695756846444
2938.5770329262,0.279920254637857
2934.84787425498,0.284638898979256
2931.11871558375,0.27815218141385
2927.38955691253,0.274625855923968
2923.6603982413,0.286414829770273
2919.93123957007,0.295507586058446
2916.20208089885,0.283403621842002
2912.47292222762,0.265357829569819
2908.74376355639,0.257723703276271
2905.01460488517,0.260480620748919
2901.28544621394,0.273148137200599
2897.55628754272,0.283782387353063
2893.82712887149,0.290295371540718
2890.09797020026,0.302338098675184
2886.36881152904,0.317675196619656
2882.63965285781,0.340303938809448
2878.91049418658,0.359835978773659
2875.18133551536,0.350820563226093
2871.45217684413,0.335805923924137
2867.72301817291,0.341080974486028
2863.99385950168,0.338170035270445
2860.26470083045,0.319904157774683
2856.53554215923,0.306252169200659
2852.806383488,0.300276283125604
2849.07722481677,0.292937751256603
2845.34806614555,0.292089452465022
2841.61890747432,0.275257111272003
2837.88974880309,0.240020434166155
2834.16059013187,0.20732397566417
2830.43143146064,0.182615540484418
2826.70227278942,0.162315124792779
2822.97311411819,0.143058912438474
2819.24395544696,0.126711364605776
2815.51479677574,0.114454591728675
2811.78563810451,0.103169868656612
2808.05647943328,0.0925921731600659
2804.32732076206,0.0852406483583458
2800.59816209083,0.0775319205272615
2796.86900341961,0.0699413133969409
2793.13984474838,0.063880509177043
2789.41068607715,0.0567906008970433
2785.68152740593,0.0491818282454658
2781.9523687347,0.0439944091279346
2778.22321006347,0.0403789741937691
2774.49405139225,0.0370286102932762
2770.76489272102,0.0340034660500724
2767.0357340498,0.0310213278891846
2763.30657537857,0.0284978574083106
2759.57741670734,0.0280804884633401
2755.84825803612,0.0281037144489214
2752.11909936489,0.0269610183994427
2748.38994069366,0.0259157157148022
2744.66078202244,0.0272339771256263
2740.93162335121,0.03140872146718
2737.20246467999,0.0371341851524376
2733.47330600876,0.0416008837685053
2729.74414733753,0.0424850006698193
2726.01498866631,0.0410974979573208
2722.28582999508,0.0383047639412879
2718.55667132385,0.0346182030259316
2714.82751265263,0.0309351218932239
2711.0983539814,0.0280334549857359
2707.36919531017,0.0266818947736415
2703.64003663895,0.0269540850129714
2699.91087796772,0.0284002502092166
2696.1817192965,0.0319768054196607
2692.45256062527,0.0369751238738639
2688.72340195404,0.040106573752059
2684.99424328282,0.0396168256862238
2681.26508461159,0.0366475751142833
2677.53592594036,0.0326689688948223
2673.80676726914,0.0294219536429141
2670.07760859791,0.0276662100082192
2666.34844992669,0.0273208379302953
2662.61929125546,0.0279730987716745
2658.89013258423,0.0280320006348498
2655.16097391301,0.0259111174415933
2651.43181524178,0.0225703928129962
2647.70265657055,0.0195786459877603
2643.97349789933,0.0166143522820778
2640.2443392281,0.0153940406913033
2636.51518055688,0.0160644777112945
2632.78602188565,0.0166455483329151
2629.05686321442,0.0175676978861529
2625.3277045432,0.0194190231865247
2621.59854587197,0.02171306168953
2617.86938720074,0.0244171858067976
2614.14022852952,0.0268974473348517
2610.41106985829,0.0283289191030784
2606.68191118707,0.029433280639102
2602.95275251584,0.0314416949696553
2599.22359384461,0.0329449857110444
2595.49443517339,0.034690163626989
2591.76527650216,0.0380573009106572
2588.03611783093,0.0414379369167481
2584.30695915971,0.044750472608459
2580.57780048848,0.0474716562538394
2576.84864181725,0.0502763474666654
2573.11948314603,0.0561228813300889
2569.3903244748,0.0636904588718533
2565.66116580358,0.0671699804609498
2561.93200713235,0.0640060374375915
2558.20284846112,0.0568814525157081
2554.4736897899,0.0502988700520959
2550.74453111867,0.0447233860302768
2547.01537244744,0.0396914534064811
2543.28621377622,0.035587482251323
2539.55705510499,0.0323596434187363
2535.82789643377,0.0296157438285718
2532.09873776254,0.0280830882040712
2528.36957909131,0.0272441064955497
2524.64042042009,0.0262319758706057
2520.91126174886,0.0256085100513886
2517.18210307763,0.0261904222135368
2513.45294440641,0.0275045406046044
2509.72378573518,0.0281037725449809
2505.99462706396,0.0283910140314694
2502.26546839273,0.0292036195579668
2498.5363097215,0.0304474420359413
2494.80715105028,0.0309391493147415
2491.07799237905,0.0309058519747124
2487.34883370782,0.0310938655930406
2483.6196750366,0.0309698030130764
2479.89051636537,0.0293314552282301
2476.16135769415,0.0265060291839056
2472.43219902292,0.0241253454857333
2468.70304035169,0.0226843597275108
2464.97388168047,0.0207715115495684
2461.24472300924,0.018902498292758
2457.51556433801,0.0180367346258705
2453.78640566679,0.0174727748141719
2450.05724699556,0.0171217396544851
2446.32808832433,0.0169495129249096
2442.59892965311,0.0166510012649101
2438.86977098188,0.0165195204434345
2435.14061231066,0.0163368724276173
2431.41145363943,0.0156241965253083
2427.6822949682,0.0147072989600737
2423.95313629698,0.0137199998808737
2420.22397762575,0.0130180480723071
2416.49481895452,0.0129688396355279
2412.7656602833,0.0132421113105411
2409.03650161207,0.0128869783310766
2405.30734294085,0.0120099206687453
2401.57818426962,0.0113451471022697
2397.84902559839,0.0111260839084571
2394.11986692717,0.01110285053447
2390.39070825594,0.0119814715426935
2386.66154958471,0.0150335814039735
2382.93239091349,0.0225893180792198
2379.20323224226,0.0359121649522803
2375.47407357104,0.0519953539834307
2371.74491489981,0.0657701484527229
2368.01575622858,0.0745274339774119
2364.28659755736,0.0770571989348978
2360.55743888613,0.0700686336482423
2356.8282802149,0.0524595820302069
2353.09912154368,0.0398696875918211
2349.36996287245,0.0479834932060511
2345.64080420122,0.0689712449580858
2341.91164553,0.0819511230018963
2338.18248685877,0.0749054884977807
2334.45332818755,0.0575608847950764
2330.72416951632,0.0443996415538997
2326.99501084509,0.0352398254650933
2323.26585217387,0.0265351828502742
2319.53669350264,0.0185696481133679
2315.80753483141,0.0126080214391928
2312.07837616019,0.00861145400524709
2308.34921748896,0.00567952877160747
2304.62005881774,0.00371524760040827
2300.89090014651,0.00246134965920538
2297.16174147528,0.0021641060313915
2293.43258280406,0.00404151389043551
2289.70342413283,0.00767800725830412
2285.9742654616,0.0119238357487339
2282.24510679038,0.0162077151255604
2278.51594811915,0.0188804034162903
2274.78678944793,0.0202933004221536
2271.0576307767,0.0210978238703556
2267.32847210547,0.0207216241378546
2263.59931343425,0.0196287994905236
2259.87015476302,0.0189852333562213
2256.14099609179,0.0187647666371102
2252.41183742057,0.0185620856809325
2248.68267874934,0.0197422491036912
2244.95352007812,0.0205014246896651
2241.22436140689,0.0212942499079935
2237.49520273566,0.0236303749993168
2233.76604406444,0.0261923168635872
2230.03688539321,0.0278313625950459
2226.30772672198,0.0297567975551109
2222.57856805076,0.0318271971409057
2218.84940937953,0.0346011589637477
2215.1202507083,0.0382592319667018
2211.39109203708,0.0413834229092161
2207.66193336585,0.0431228577943017
2203.93277469463,0.0448118567326719
2200.2036160234,0.0472405569797076
2196.47445735217,0.050357618082864
2192.74529868095,0.0561980979569467
2189.01614000972,0.0651858176824099
2185.28698133849,0.0749254432957381
2181.55782266727,0.0814510845669514
2177.82866399604,0.0853862295440196
2174.09950532482,0.0893205699548521
2170.37034665359,0.0998312670955489
2166.64118798236,0.120906181404391
2162.91202931114,0.147094486423602
2159.18287063991,0.151304103722245
2155.45371196868,0.137765328102757
2151.72455329746,0.124012325039896
2147.99539462623,0.113972701446107
2144.26623595501,0.103314360709319
2140.53707728378,0.0939302818094938
2136.80791861255,0.0830331331002691
2133.07875994133,0.0690672381026649
2129.3496012701,0.0550385754672983
2125.62044259887,0.0444455404486799
2121.89128392765,0.0377155981425391
2118.16212525642,0.0336668741482025
2114.4329665852,0.0319989222772109
2110.70380791397,0.0315368649343473
2106.97464924274,0.0314901580887605
2103.24549057152,0.0310110985550164
2099.51633190029,0.030400869172131
2095.78717322906,0.0275826017934365
2092.05801455784,0.0229142068086209
2088.32885588661,0.0187617954626191
2084.59969721538,0.0161510353276914
2080.87053854416,0.0147489216959868
2077.14137987293,0.0145915209016713
2073.41222120171,0.0148029543483376
2069.68306253048,0.0165405446361575
2065.95390385925,0.0185188831645448
2062.22474518803,0.0192748812785201
2058.4955865168,0.019286273896014
2054.76642784557,0.0215627744275176
2051.03726917435,0.0271992402988893
2047.30811050312,0.0324617882696142
2043.5789518319,0.0342981524788407
2039.84979316067,0.0369137984305486
2036.12063448944,0.0412785342519726
2032.39147581822,0.0426101636196321
2028.66231714699,0.0404679267516882
2024.93315847576,0.0372230820122713
2021.20399980454,0.0339124800021443
2017.47484113331,0.0310925324562958
2013.74568246209,0.0298347717465732
2010.01652379086,0.0277581961450245
2006.28736511963,0.023825163563847
2002.55820644841,0.0194286178068331
1998.82904777718,0.0174772475594758
1995.09988910595,0.0182940234744868
1991.37073043473,0.019763200642675
1987.6415717635,0.0198642495174331
1983.91241309228,0.0231764713590509
1980.18325442105,0.0296273826060817
1976.45409574982,0.0340207415246424
1972.7249370786,0.0335481231697535
1968.99577840737,0.0315165797949596
1965.26661973614,0.0282562726749621
1961.53746106492,0.0240724803158387
1957.80830239369,0.018696846537249
1954.07914372246,0.0142189521414452
1950.34998505124,0.0110815389582155
1946.62082638001,0.00867399894169834
1942.89166770879,0.00574243533033656
1939.16250903756,0.00257175273654094
1935.43335036633,0.000239750401569161
1931.70419169511,-0.00136094124524615
1927.97503302388,-0.00214606371077532
1924.24587435265,-0.00220504657425136
1920.51671568143,-0.00258699601838667
1916.7875570102,-0.00414986856281569
1913.05839833898,-0.00537420216300718
1909.32923966775,-0.00626228670610551
1905.60008099652,-0.00736377587960786
1901.8709223253,-0.0077866384886886
1898.14176365407,-0.00731146377073033
1894.41260498284,-0.00650776411632081
1890.68344631162,-0.00673979629530252
1886.95428764039,-0.00835635069475105
1883.22512896917,-0.00944651948563133
1879.49597029794,-0.00982906058542502
1875.76681162671,-0.00861133730545027
1872.03765295549,-0.00601874950661015
1868.30849428426,-0.00616671230945445
1864.57933561303,-0.008110673955844
1860.85017694181,-0.00859264646835676
1857.12101827058,-0.00860052315545153
1853.39185959936,-0.00770163628034974
1849.66270092813,-0.00468254888076399
1845.9335422569,-0.00270160540116227
1842.20438358568,-0.00481141600326359
1838.47522491445,-0.00598256012252619
1834.74606624322,-0.00369305792776369
1831.016907572,-0.001068603559354
1827.28774890077,-0.00142102032582266
1823.55859022954,-0.00311596781687992
1819.82943155832,-0.00336052473188916
1816.10027288709,-0.00250384334892602
1812.37111421587,-0.00194506522498588
1808.64195554464,-0.00221937716868444
1804.91279687341,-0.00124849195968869
1801.18363820219,-0.000209341184726648
1797.45447953096,0.00111718005676691
1793.72532085973,0.00164902294324591
1789.99616218851,-0.000539051025955127
1786.26700351728,-0.00138610269881622
1782.53784484606,-0.000884242474478107
1778.80868617483,0.00111620418648645
1775.0795275036,0.00509371135371724
1771.35036883238,0.00386489939952319
1767.62121016115,0.00065805598000058
1763.89205148992,0.000452593629841088
1760.1628928187,0.000610870636545114
1756.43373414747,0.00171619257562188
1752.70457547625,0.00460278109050357
1748.97541680502,0.00497424976047153
1745.24625813379,0.00583179948909491
1741.51709946257,0.0113021345176206
1737.78794079134,0.0201961631200575
1734.05878212011,0.0246367750089877
1730.32962344889,0.0211487793510378
1726.60046477766,0.0215426642494971
1722.87130610643,0.0281768437086043
1719.14214743521,0.0307433636451167
1715.41298876398,0.019287851044439
1711.68383009276,0.00979846452971296
1707.95467142153,0.00900823452818927
1704.2255127503,0.0134808091503209
1700.49635407908,0.0141294281995313
1696.76719540785,0.0062687304599898
1693.03803673662,0.00133545747912475
1689.3088780654,0.0051364246686685
1685.57971939417,0.00820711688575232
1681.85056072295,0.00386613986497757
1678.12140205172,0.00345600874358727
1674.39224338049,0.0058963570595872
1670.66308470927,0.00466851417717161
1666.93392603804,0.00226183180182267
1663.20476736681,0.001818776415656
1659.47560869559,0.0063298697210873
1655.74645002436,0.0161761707746295
1652.01729135314,0.0165214650323093
1648.28813268191,0.0102485506313915
1644.55897401068,0.00546674206091247
1640.82981533946,0.0072410624028918
1637.10065666823,0.0109767427141348
1633.371497997,0.00698869931548923
1629.64233932578,0.00664172626139887
1625.91318065455,0.00915442991736883
1622.18402198333,0.0106552665520749
1618.4548633121,0.0102120722796955
1614.72570464087,0.00593133562493311
1610.99654596965,0.00324296328074439
1607.26738729842,0.0026793374375595
1603.53822862719,0.00199054991648697
1599.80906995597,0.00155691496011349
1596.07991128474,0.000821696104755856
1592.35075261351,-0.00108492895888318
1588.62159394229,-0.0031006942559668
1584.89243527106,-0.00357858458647662
1581.16327659984,-0.000862924365143074
1577.43411792861,0.00188574225542785
1573.70495925738,0.00163079536999151
1569.97580058616,0.00138254468937768
1566.24664191493,0.00398206537050047
1562.5174832437,0.014405883043006
1558.78832457248,0.0166803595187596
1555.05916590125,0.00695721753597137
1551.33000723003,0.00437166775482121
1547.6008485588,0.010299686962022
1543.87168988757,0.0209054382495512
1540.14253121635,0.0205936626254649
1536.41337254512,0.0165358784678777
1532.68421387389,0.0178747216072921
1528.95505520267,0.0217127957777776
1525.22589653144,0.0269351888087744
1521.49673786022,0.0273467881674992
1517.76757918899,0.0240943179550268
1514.03842051776,0.0258646161982337
1510.30926184654,0.0350370238909451
1506.58010317531,0.0364136421129245
1502.85094450408,0.0343893903454785
1499.12178583286,0.0404241316425381
1495.39262716163,0.0470730030911012
1491.66346849041,0.0541184693153344
1487.93430981918,0.0586074877254481
1484.20515114795,0.0633314720689291
1480.47599247673,0.0749593919838654
1476.7468338055,0.0917826420481514
1473.01767513427,0.110102746867811
1469.28851646305,0.133964670972224
1465.55935779182,0.168471519693563
1461.83019912059,0.189288846840348
1458.10104044937,0.178776583421609
1454.37188177814,0.157298782556638
1450.64272310692,0.144615722127691
1446.91356443569,0.122714266817097
1443.18440576446,0.09580882089635
1439.45524709324,0.0763297659008204
1435.72608842201,0.0606969953848353
1431.99692975078,0.0487137348161314
1428.26777107956,0.0412152678215459
1424.53861240833,0.0375610956010205
1420.80945373711,0.0348584965225755
1417.08029506588,0.0276731380981628
1413.35113639465,0.022310352984998
1409.62197772343,0.0215543388566337
1405.8928190522,0.0243459133692154
1402.16366038097,0.0301250668453283
1398.43450170975,0.0333075405343414
1394.70534303852,0.0275632057453454
1390.9761843673,0.0211834554213532
1387.24702569607,0.01840693031643
1383.51786702484,0.0174426949942942
1379.78870835362,0.0213411417605696
1376.05954968239,0.0344402316461572
1372.33039101116,0.0644091499060463
1368.60123233994,0.104364509905718
1364.87207366871,0.111292779658268
1361.14291499749,0.0748942302073731
1357.41375632626,0.0441577708729408
1353.68459765503,0.0312167871384153
1349.95543898381,0.0271580905512702
1346.22628031258,0.0278293678711781
1342.49712164135,0.0331887118519855
1338.76796297013,0.0398831768835982
1335.0388042989,0.0441907924864231
1331.30964562767,0.0449747982905492
1327.58048695645,0.0427216519046894
1323.85132828522,0.0405267133689485
1320.122169614,0.0403295552679577
1316.39301094277,0.0443443659910199
1312.66385227154,0.0541833012615486
1308.93469360032,0.067009304587495
1305.20553492909,0.0773081756509569
1301.47637625786,0.0899573879497412
1297.74721758664,0.111691056396454
1294.01805891541,0.141787498449639
1290.28890024419,0.177693062014807
1286.55974157296,0.217253717332824
1282.83058290173,0.220272224042623
1279.10142423051,0.16774504314109
1275.37226555928,0.118802246650747
1271.64310688805,0.0993002883396706
1267.91394821683,0.0947177440713106
1264.1847895456,0.0955451759678449
1260.45563087438,0.100717319441396
1256.72647220315,0.110007044493931
1252.99731353192,0.122749642143883
1249.2681548607,0.137095509063303
1245.53899618947,0.146541389056732
1241.80983751824,0.14411887541374
1238.08067884702,0.132716361708063
1234.35152017579,0.122406680225102
1230.62236150457,0.116730334872114
1226.89320283334,0.114623397872034
1223.16404416211,0.115188357582207
1219.43488549089,0.11760646723454
1215.70572681966,0.121539653896794
1211.97656814843,0.127610294020032
1208.24740947721,0.134639744803951
1204.51825080598,0.140666694558517
1200.78909213475,0.148804845498077
1197.05993346353,0.161730215285053
1193.3307747923,0.176774292211115
1189.60161612108,0.189921933617579
1185.87245744985,0.204592082505737
1182.14329877862,0.227316232844596
1178.4141401074,0.244881310468143
1174.68498143617,0.230853217380657
1170.95582276494,0.194210898444507
1167.22666409372,0.160469484494656
1163.49750542249,0.138963605714003
1159.76834675127,0.130263823546872
1156.03918808004,0.13312335123684
1152.31002940881,0.145939240591442
1148.58087073759,0.168469160554224
1144.85171206636,0.188548519309372
1141.12255339513,0.185795238308288
1137.39339472391,0.16301006938024
1133.66423605268,0.137198755141957
1129.93507738146,0.118517732029027
1126.20591871023,0.108483124555415
1122.476760039,0.105402811302755
1118.74760136778,0.107702258352887
1115.01844269655,0.114012827291774
1111.28928402532,0.122145006519703
1107.5601253541,0.132993884882911
1103.83096668287,0.149857635590032
1100.10180801165,0.174634366825367
1096.37264934042,0.207723423808453
1092.64349066919,0.250973469065729
1088.91433199797,0.312797593009182
1085.18517332674,0.410276542925999
1081.45601465551,0.567821185010521
1077.72685598429,0.818831389665396
1073.99769731306,1.19105223076653
1070.26853864183,1.61608091960789
1066.53937997061,1.75039821006896
1062.81022129938,1.51849918526683
1059.08106262816,1.20188405079165
1055.35190395693,0.922116629680549
1051.6227452857,0.710287736665417
1047.89358661448,0.561375059750708
1044.16442794325,0.463969541294796
1040.43526927202,0.408883164677927
1036.7061106008,0.389270107861788
1032.97695192957,0.386275167016527
1029.24779325835,0.366041546101827
1025.51863458712,0.311431299202241
1021.78947591589,0.244945461618315
1018.06031724467,0.191871528573279
1014.33115857344,0.157095548685476
1010.60199990221,0.134413338359893
1006.87284123099,0.118595895804688
1003.14368255976,0.10693575788629
999.414523888535,0.098534066144508
995.685365217309,0.0925788254898693
991.956206546083,0.0888695811700518
988.227047874856,0.0869011129083323
984.49788920363,0.0864344760366553
980.768730532404,0.0872676405749063
977.039571861178,0.0894387859548572
973.310413189951,0.0932323007727704
969.581254518725,0.0988108537688819
965.852095847499,0.106581936354198
962.122937176272,0.117378324533306
958.393778505046,0.131461533678013
954.66461983382,0.148919775134682
950.935461162594,0.170048140215588
947.206302491367,0.192190881647396
943.477143820141,0.214955478158647
939.747985148915,0.243817608438848
936.018826477688,0.283865830904468
932.289667806462,0.338117798341355
928.560509135236,0.411535991216842
924.83135046401,0.509951809829689
921.102191792783,0.638643471637237
917.373033121557,0.788210777504993
913.643874450331,0.9233985723349
909.914715779104,0.995736726129829
906.185557107878,0.991074270075489
902.456398436652,0.917895216244845
898.727239765426,0.804508448995856
894.998081094199,0.684579422760188
891.268922422973,0.579308156180177
887.539763751747,0.49626901281319
883.81060508052,0.436435813423902
880.081446409294,0.395214846945162
876.352287738068,0.366011136852496
872.623129066842,0.343351314016491
868.893970395615,0.322875135798301
865.164811724389,0.303178781373383
861.435653053163,0.28419405038143
857.706494381936,0.267420915300027
853.97733571071,0.254849549935744
850.248177039484,0.246710962169292
846.519018368258,0.236664824763727
842.789859697031,0.223576552755337
839.060701025805,0.210866618149112
835.331542354579,0.199475452051858
831.602383683352,0.187685544828367
827.873225012126,0.175918546261596
824.1440663409,0.165019782094934
820.414907669674,0.155645359458978
816.685748998447,0.145073473346324
812.956590327221,0.13267074989623
809.227431655995,0.120465701008374
805.498272984768,0.110546793062077
801.769114313542,0.103363194210473
798.039955642316,0.099157999762262
794.31079697109,0.0955418108631247
790.581638299863,0.0924409561812535
786.852479628637,0.0943932914757362
783.123320957411,0.109925328623431
779.394162286184,0.11669413439715
775.665003614958,0.0977466634183544
771.935844943732,0.0853955774521902
768.206686272506,0.0848072733281995
764.477527601279,0.089306418959058
760.748368930053,0.0988418170119586
757.019210258827,0.105969577415648
753.2900515876,0.10500459166413
749.560892916374,0.102163782972461
745.831734245148,0.0991868750204688
742.102575573922,0.093951960786759
738.373416902695,0.0884672488179136
734.644258231469,0.0820055971495879
730.915099560243,0.0745071803353999
727.185940889016,0.0671846585575256
723.45678221779,0.063660218963435
719.727623546564,0.0653140003393087
715.998464875338,0.0774210522617022
712.269306204111,0.0923145095732694
708.540147532885,0.0923580610571066
704.810988861659,0.0922434519346696
701.081830190432,0.0956004532731791
697.352671519206,0.094244345066529
693.62351284798,0.0972902511270982
689.894354176754,0.104910595808322
686.165195505527,0.13235036680809
682.436036834301,0.166590178211824
678.706878163075,0.165564328621958
674.977719491848,0.162068690032584
671.248560820622,0.19732672247603
667.519402149396,0.245580788712363
663.790243478169,0.275958542356046
660.061084806943,0.277832478082451
656.331926135717,0.274143626495466
652.602767464491,0.26512429595182
648.873608793276,0.252471730870396
