Wavenumbercm-1,02:57:52
2998.24357166583,0.19191543923841
2994.5144129946,0.221982099597119
2990.78525432337,0.2540822814172
2987.05609565215,0.30906587390414
2983.32693698092,0.347730021675143
2979.59777830969,0.329054722773625
2975.86861963847,0.29096775317261
2972.13946096724,0.269365338680146
2968.41030229601,0.272250360509676
2964.68114362479,0.271622863810368
2960.95198495356,0.276938844104961
2957.22282628234,0.288813869613587
2953.49366761111,0.309715816008885
2949.76450893988,0.322771706522065
2946.03535026866,0.310264274442604
2942.30619159743,0.293062915190001
2938.5770329262,0.298236212242054
2934.84787425498,0.303660884367383
2931.11871558375,0.29751227490857
2927.38955691253,0.292509541556045
2923.6603982413,0.305094632044867
2919.93123957007,0.318453632569141
2916.20208089885,0.305422204413305
2912.47292222762,0.282282930625678
2908.74376355639,0.273682216655939
2905.01460488517,0.278567891965134
2901.28544621394,0.292031879396723
2897.55628754272,0.302116953473332
2893.82712887149,0.306118637322461
2890.09797020026,0.31741937279514
2886.36881152904,0.332254936963411
2882.63965285781,0.355138519162399
2878.91049418658,0.378507617004322
2875.18133551536,0.37190970543861
2871.45217684413,0.352684307795018
2867.72301817291,0.35604390628704
2863.99385950168,0.356107397207654
2860.26470083045,0.341854780640107
2856.53554215923,0.327805063869243
2852.806383488,0.320437456987003
2849.07722481677,0.308739283903772
2845.34806614555,0.308140690884046
2841.61890747432,0.294553470444019
2837.88974880309,0.257097675525603
2834.16059013187,0.221327636415007
2830.43143146064,0.195416436116314
2826.70227278942,0.174635403291611
2822.97311411819,0.154684737457904
2819.24395544696,0.138680133226576
2815.51479677574,0.126437108180071
2811.78563810451,0.113847135939373
2808.05647943328,0.101105521313234
2804.32732076206,0.0941406209898506
2800.59816209083,0.0883314129083405
2796.86900341961,0.082512581765903
2793.13984474838,0.0770046880238204
2789.41068607715,0.0695981736249846
2785.68152740593,0.06177950169052
2781.9523687347,0.0579548308966358
2778.22321006347,0.0559873477232802
2774.49405139225,0.052534177023966
2770.76489272102,0.0484706893484243
2767.0357340498,0.0453898872118304
2763.30657537857,0.0428749818376033
2759.57741670734,0.0416825983987598
2755.84825803612,0.0411699354830166
2752.11909936489,0.0410354688155132
2748.38994069366,0.041703894258526
2744.66078202244,0.0436726278939625
2740.93162335121,0.0467545402289894
2737.20246467999,0.0488978101459584
2733.47330600876,0.0507282277444523
2729.74414733753,0.0523106488538658
2726.01498866631,0.0525958758163298
2722.28582999508,0.0505558900313355
2718.55667132385,0.0470519853322654
2714.82751265263,0.0426480771245485
2711.0983539814,0.039115969933512
2707.36919531017,0.0373871764600221
2703.64003663895,0.03801265662044
2699.91087796772,0.0398523951838324
2696.1817192965,0.0430096698309684
2692.45256062527,0.0466840935912027
2688.72340195404,0.0490386182151094
2684.99424328282,0.049465520161994
2681.26508461159,0.0474039120763436
2677.53592594036,0.0431807372680974
2673.80676726914,0.0398107838477685
2670.07760859791,0.0376786232625151
2666.34844992669,0.0363975447991146
2662.61929125546,0.0367236016951513
2658.89013258423,0.0372888214524873
2655.16097391301,0.0362022310027693
2651.43181524178,0.0334614688333062
2647.70265657055,0.0305302997983168
2643.97349789933,0.0279292937503585
2640.2443392281,0.0270482134458094
2636.51518055688,0.0272876328378526
2632.78602188565,0.0280296919849342
2629.05686321442,0.0290028563561752
2625.3277045432,0.0300734093945481
2621.59854587197,0.0312075775452042
2617.86938720074,0.0326606405707811
2614.14022852952,0.0338952966662069
2610.41106985829,0.0354451424369288
2606.68191118707,0.0374721006156459
2602.95275251584,0.0396078172130558
2599.22359384461,0.0405020721820651
2595.49443517339,0.0412318214488431
2591.76527650216,0.0433172658865855
2588.03611783093,0.0463192094410234
2584.30695915971,0.050332956091661
2580.57780048848,0.0556623105792363
2576.84864181725,0.0641810325734039
2573.11948314603,0.0769943299865826
2569.3903244748,0.091547725138519
2565.66116580358,0.100789203491139
2561.93200713235,0.10073310565076
2558.20284846112,0.0925838068101197
2554.4736897899,0.0833749164160405
2550.74453111867,0.0783147845508409
2547.01537244744,0.0773904508686099
2543.28621377622,0.0732287310476427
2539.55705510499,0.062994216408437
2535.82789643377,0.0526373711485835
2532.09873776254,0.0471300879522546
2528.36957909131,0.0451223097543087
2524.64042042009,0.0442460161116203
2520.91126174886,0.0435013268486919
2517.18210307763,0.0435839703978666
2513.45294440641,0.0448880480785836
2509.72378573518,0.046135402269298
2505.99462706396,0.0474752486911244
2502.26546839273,0.0491324910808904
2498.5363097215,0.0508639411987699
2494.80715105028,0.0519529467799193
2491.07799237905,0.0521155996518074
2487.34883370782,0.0510724347993816
2483.6196750366,0.0498835877534693
2479.89051636537,0.048273689710331
2476.16135769415,0.0462303798583616
2472.43219902292,0.0438602540096459
2468.70304035169,0.0413381216737268
2464.97388168047,0.0383673719822543
2461.24472300924,0.0355563119512732
2457.51556433801,0.0330311141998489
2453.78640566679,0.0317554985240031
2450.05724699556,0.0315931391448024
2446.32808832433,0.0307274395748087
2442.59892965311,0.0291712712439802
2438.86977098188,0.0278718146168054
2435.14061231066,0.026940937417482
2431.41145363943,0.0258500304323827
2427.6822949682,0.0242350033079654
2423.95313629698,0.022652824536067
2420.22397762575,0.0221180792922116
2416.49481895452,0.022329624437648
2412.7656602833,0.0226486264091156
2409.03650161207,0.0215277432129195
2405.30734294085,0.019815195126156
2401.57818426962,0.0182565572992022
2397.84902559839,0.0171691357436245
2394.11986692717,0.0168102257349051
2390.39070825594,0.0175845510182643
2386.66154958471,0.0201491621833098
2382.93239091349,0.0270364804844138
2379.20323224226,0.0404422060179812
2375.47407357104,0.0581483346575055
2371.74491489981,0.0745616560622753
2368.01575622858,0.08550994357686
2364.28659755736,0.0881344520241231
2360.55743888613,0.0791168162242988
2356.8282802149,0.0583537894640669
2353.09912154368,0.0423081804820958
2349.36996287245,0.0464401586943265
2345.64080420122,0.0588716276558197
2341.91164553,0.0626656920003079
2338.18248685877,0.059342135228618
2334.45332818755,0.0527713044562598
2330.72416951632,0.0441566033618471
2326.99501084509,0.0356032031640103
2323.26585217387,0.028016335243961
2319.53669350264,0.0212262050821053
2315.80753483141,0.0159637478374611
2312.07837616019,0.0131334840673632
2308.34921748896,0.0112746634517508
2304.62005881774,0.00970969435425615
2300.89090014651,0.00873516560658483
2297.16174147528,0.00915810919409267
2293.43258280406,0.0119895296198005
2289.70342413283,0.0175923785149495
2285.9742654616,0.0250787947096567
2282.24510679038,0.0323233357403198
2278.51594811915,0.0368301061798585
2274.78678944793,0.0383688831595417
2271.0576307767,0.0381222637234824
2267.32847210547,0.0367674424017555
2263.59931343425,0.0359848606536769
2259.87015476302,0.0355739035125943
2256.14099609179,0.0345739374814865
2252.41183742057,0.0319129874899261
2248.68267874934,0.030240185002177
2244.95352007812,0.0293578471447372
2241.22436140689,0.0295792588253044
2237.49520273566,0.0308995561758395
2233.76604406444,0.0324044515768674
2230.03688539321,0.0328041274093073
2226.30772672198,0.0341385361658934
2222.57856805076,0.0361754853270417
2218.84940937953,0.0394350259612716
2215.1202507083,0.0436433152246827
2211.39109203708,0.0472677539039383
2207.66193336585,0.0487467062149115
2203.93277469463,0.0499188395485427
2200.2036160234,0.0517715967426582
2196.47445735217,0.0540335710408036
2192.74529868095,0.0591868270179792
2189.01614000972,0.0678814528146896
2185.28698133849,0.0777620834304886
2181.55782266727,0.0841154203089856
2177.82866399604,0.0879489827925298
2174.09950532482,0.0915258078819845
2170.37034665359,0.103388535322751
2166.64118798236,0.127137161738325
2162.91202931114,0.15568347197352
2159.18287063991,0.159467279199976
2155.45371196868,0.144538639940948
2151.72455329746,0.128675885156982
2147.99539462623,0.117421485839539
2144.26623595501,0.106353587185015
2140.53707728378,0.0970807647435134
2136.80791861255,0.0857132027745266
2133.07875994133,0.0713879741255772
2129.3496012701,0.0570347325860057
2125.62044259887,0.0464996502601326
2121.89128392765,0.0399185357349285
2118.16212525642,0.0354904905926859
2114.4329665852,0.0330439016392228
2110.70380791397,0.0321066216416647
2106.97464924274,0.0320467978812147
2103.24549057152,0.0315187296694817
2099.51633190029,0.0313679880741984
2095.78717322906,0.0287623846274443
2092.05801455784,0.0239982613250967
2088.32885588661,0.0197856564694044
2084.59969721538,0.0181206757134119
2080.87053854416,0.0170400739080971
2077.14137987293,0.0164991096558618
2073.41222120171,0.0161511435303481
2069.68306253048,0.0178457026321902
2065.95390385925,0.0201433093915742
2062.22474518803,0.0214112633378867
2058.4955865168,0.0209501412363306
2054.76642784557,0.0227580254831454
2051.03726917435,0.0284271101393451
2047.30811050312,0.0342373419115186
2043.5789518319,0.0363522337875936
2039.84979316067,0.0389637112300298
2036.12063448944,0.0426946553349394
2032.39147581822,0.0438005345015787
2028.66231714699,0.0418221605048966
2024.93315847576,0.0387351579099603
2021.20399980454,0.0358794984972907
2017.47484113331,0.032767933701935
2013.74568246209,0.0314940799997303
2010.01652379086,0.0297243389858789
2006.28736511963,0.026053879349929
2002.55820644841,0.0211609650490228
1998.82904777718,0.01906989082152
1995.09988910595,0.0197536632415944
1991.37073043473,0.021369793632775
1987.6415717635,0.0216349203054837
1983.91241309228,0.0256065383598574
1980.18325442105,0.0320717142775139
1976.45409574982,0.0366797632029662
1972.7249370786,0.0358923893873125
1968.99577840737,0.0334895553030642
1965.26661973614,0.0293198832531143
1961.53746106492,0.0253792818080984
1957.80830239369,0.0202707062389711
1954.07914372246,0.0153246425300182
1950.34998505124,0.0120748783176923
1946.62082638001,0.0105483003603435
1942.89166770879,0.0079856793534961
1939.16250903756,0.00462716438063519
1935.43335036633,0.00202640690789139
1931.70419169511,0.000170375739761777
1927.97503302388,0.000123949454459643
1924.24587435265,0.000861578687145731
1920.51671568143,0.000512888711835816
1916.7875570102,-0.00178513596947037
1913.05839833898,-0.0030386316724714
1909.32923966775,-0.00388649539620087
1905.60008099652,-0.00497418606723504
1901.8709223253,-0.00545822531687681
1898.14176365407,-0.00480628458194915
1894.41260498284,-0.00391019409396208
1890.68344631162,-0.00415667906542749
1886.95428764039,-0.00609719062579291
1883.22512896917,-0.00712092682898699
1879.49597029794,-0.0073012054134873
1875.76681162671,-0.00508078611341747
1872.03765295549,-0.001308436419163
1868.30849428426,-0.00228267949887845
1864.57933561303,-0.00553108967433159
1860.85017694181,-0.00637343186023934
1857.12101827058,-0.00666017202691354
1853.39185959936,-0.00523376444238876
1849.66270092813,-0.000506326767550565
1845.9335422569,0.0016403705236055
1842.20438358568,-0.00231838257890583
1838.47522491445,-0.00414494830744882
1834.74606624322,-0.000626080078140545
1831.016907572,0.00301836185610357
1827.28774890077,0.00201492308226166
1823.55859022954,-0.00104578850857143
1819.82943155832,-0.00150578145040628
1816.10027288709,-0.000254875404861086
1812.37111421587,0.000522303574297246
1808.64195554464,0.000140953228538073
1804.91279687341,0.00196543279452165
1801.18363820219,0.00360396121060633
1797.45447953096,0.0055121967407306
1793.72532085973,0.00593278747222803
1789.99616218851,0.00208351366159213
1786.26700351728,0.000569157482167876
1782.53784484606,0.00146657538712923
1778.80868617483,0.00483678072776927
1775.0795275036,0.0110011945212056
1771.35036883238,0.00920782748366197
1767.62121016115,0.00524168168686351
1763.89205148992,0.00751264314033373
1760.1628928187,0.0112425360704394
1756.43373414747,0.0159360582747004
1752.70457547625,0.0216719339278657
1748.97541680502,0.0221338528403073
1745.24625813379,0.0238535576983459
1741.51709946257,0.0361782545760521
1737.78794079134,0.0620171575490558
1734.05878212011,0.089614468447549
1730.32962344889,0.0924375363486546
1726.60046477766,0.0784855340854001
1722.87130610643,0.0616105821059774
1719.14214743521,0.0450865912102405
1715.41298876398,0.0232166035332025
1711.68383009276,0.011979849443919
1707.95467142153,0.0141632194797153
1704.2255127503,0.0225824078827677
1700.49635407908,0.0233314325428106
1696.76719540785,0.0107089441256543
1693.03803673662,0.0033589366733777
1689.3088780654,0.00967681144708852
1685.57971939417,0.0140951094447376
1681.85056072295,0.00646798631952562
1678.12140205172,0.00500789704607291
1674.39224338049,0.00772687355370784
1670.66308470927,0.00454033309686245
1666.93392603804,-0.000654756370376029
1663.20476736681,-0.00263100310905901
1659.47560869559,0.00322376602419803
1655.74645002436,0.0174210427153608
1652.01729135314,0.0170731015877151
1648.28813268191,0.00717959356075286
1644.55897401068,-0.000291319256218199
1640.82981533946,0.00266161752215196
1637.10065666823,0.00824638360837277
1633.371497997,0.00316091092170501
1629.64233932578,0.00638305060248191
1625.91318065455,0.0142072521366135
1622.18402198333,0.0173784316280899
1618.4548633121,0.0156276589006615
1614.72570464087,0.00878440764185252
1610.99654596965,0.00564427459638933
1607.26738729842,0.00543651942801847
1603.53822862719,0.0042781168341104
1599.80906995597,0.0034365365515604
1596.07991128474,0.00191800552666368
1592.35075261351,-0.00179280853913435
1588.62159394229,-0.0056592565420034
1584.89243527106,-0.00645134786665728
1581.16327659984,-0.00204092396156071
1577.43411792861,0.00228457902414766
1573.70495925738,0.00159954682678154
1569.97580058616,0.00111792665512194
1566.24664191493,0.00502113589824405
1562.5174832437,0.0212819039321539
1558.78832457248,0.024285033885028
1555.05916590125,0.00874906428493376
1551.33000723003,0.00448934902794646
1547.6008485588,0.0134681836971098
1543.87168988757,0.0285996320160562
1540.14253121635,0.0247308496068865
1536.41337254512,0.0143478647245776
1532.68421387389,0.0126001191921762
1528.95505520267,0.0177271483613864
1525.22589653144,0.0279484324449249
1521.49673786022,0.030573633979179
1517.76757918899,0.0258345595978222
1514.03842051776,0.0279565007133754
1510.30926184654,0.0404775652062099
1506.58010317531,0.0393487759121572
1502.85094450408,0.0330230238331762
1499.12178583286,0.0386011803660773
1495.39262716163,0.0443682907161951
1491.66346849041,0.0511129774541483
1487.93430981918,0.0531010365217454
1484.20515114795,0.0553800793207161
1480.47599247673,0.0673898561652765
1476.7468338055,0.0859347192242471
1473.01767513427,0.103807439025907
1469.28851646305,0.126790173539038
1465.55935779182,0.163710705749869
1461.83019912059,0.188868701180226
1458.10104044937,0.180541551188326
1454.37188177814,0.155797639074276
1450.64272310692,0.141312845386962
1446.91356443569,0.11879031222855
1443.18440576446,0.0927025771800111
1439.45524709324,0.0759719815905962
1435.72608842201,0.0607346921086171
1431.99692975078,0.0479487143736509
1428.26777107956,0.0408374068546927
1424.53861240833,0.0386866679889071
1420.80945373711,0.0370141893565488
1417.08029506588,0.0269883670717886
1413.35113639465,0.0185537012942314
1409.62197772343,0.0159682727569663
1405.8928190522,0.01567640563277
1402.16366038097,0.0168822236511359
1398.43450170975,0.0184990450777862
1394.70534303852,0.0164495691431664
1390.9761843673,0.0160138314608984
1387.24702569607,0.0180440888036326
1383.51786702484,0.0209202514086818
1379.78870835362,0.0312893257854901
1376.05954968239,0.0501714362844868
1372.33039101116,0.075582200014128
1368.60123233994,0.100883376047258
1364.87207366871,0.102667502053004
1361.14291499749,0.0749657481452879
1357.41375632626,0.0504164504214597
1353.68459765503,0.0384640492890871
1349.95543898381,0.0329447290199193
1346.22628031258,0.0317672406406609
1342.49712164135,0.0351604069181993
1338.76796297013,0.0386738546190929
1335.0388042989,0.0390761617231434
1331.30964562767,0.0377180168541059
1327.58048695645,0.0358541266562532
1323.85132828522,0.0351737992497148
1320.122169614,0.0364934286535572
1316.39301094277,0.0397395817759766
1312.66385227154,0.0442672114623274
1308.93469360032,0.0489196092330288
1305.20553492909,0.0532473654814857
1301.47637625786,0.0604160332407642
1297.74721758664,0.0771155678839211
1294.01805891541,0.113547126881781
1290.28890024419,0.184367834827494
1286.55974157296,0.29185464882413
1282.83058290173,0.353182407789607
1279.10142423051,0.301372960121916
1275.37226555928,0.240453196621146
1271.64310688805,0.200301930044425
1267.91394821683,0.157328785903664
1264.1847895456,0.138201129180258
1260.45563087438,0.146163307233417
1256.72647220315,0.165292416689709
1252.99731353192,0.187973576178935
1249.2681548607,0.207212020355681
1245.53899618947,0.216180394356836
1241.80983751824,0.212520304966248
1238.08067884702,0.200412591823202
1234.35152017579,0.185302716363526
1230.62236150457,0.171255469475296
1226.89320283334,0.160152775545672
1223.16404416211,0.153185053090976
1219.43488549089,0.149660339595523
1215.70572681966,0.150369330839931
1211.97656814843,0.156716001814773
1208.24740947721,0.164969417021108
1204.51825080598,0.16834503634756
1200.78909213475,0.172466142816202
1197.05993346353,0.183813103186341
1193.3307747923,0.20428016153033
1189.60161612108,0.238030257523391
1185.87245744985,0.278723742852353
1182.14329877862,0.299487419985668
1178.4141401074,0.287981800110526
1174.68498143617,0.257291391260286
1170.95582276494,0.219698832657134
1167.22666409372,0.18552146619031
1163.49750542249,0.165431761761429
1159.76834675127,0.163834801811556
1156.03918808004,0.17867272849844
1152.31002940881,0.207321284730437
1148.58087073759,0.258336490870329
1144.85171206636,0.318656815059056
1141.12255339513,0.329879394040176
1137.39339472391,0.283420078474657
1133.66423605268,0.229747944319507
1129.93507738146,0.187253774683029
1126.20591871023,0.153666824850948
1122.476760039,0.132786698235359
1118.74760136778,0.12350574268332
1115.01844269655,0.122924830170501
1111.28928402532,0.129204346928132
1107.5601253541,0.139623097830011
1103.83096668287,0.152877124408264
1100.10180801165,0.173292248536385
1096.37264934042,0.204259635187627
1092.64349066919,0.249200402958593
1088.91433199797,0.315557001859648
1085.18517332674,0.418278762584872
1081.45601465551,0.581872560961942
1077.72685598429,0.840772312906814
1073.99769731306,1.22372302574202
1070.26853864183,1.65568898938642
1066.53937997061,1.75197156983543
1062.81022129938,1.46021734762854
1059.08106262816,1.12914416506092
1055.35190395693,0.868237106237834
1051.6227452857,0.686091065019883
1047.89358661448,0.559420367502623
1044.16442794325,0.47013607393361
1040.43526927202,0.413448823150952
1036.7061106008,0.389124969897328
1032.97695192957,0.379500248236782
1029.24779325835,0.351223204107675
1025.51863458712,0.292576227163723
1021.78947591589,0.229152374329715
1018.06031724467,0.18062780304659
1014.33115857344,0.148212663590603
1010.60199990221,0.126516098556867
1006.87284123099,0.111452202698372
1003.14368255976,0.100404214893853
999.414523888535,0.0924132753282588
995.685365217309,0.087040722720242
991.956206546083,0.084011553824203
988.227047874856,0.0827588823233869
984.49788920363,0.083074908360901
980.768730532404,0.0847478828480944
977.039571861178,0.0877703663050615
973.310413189951,0.0925389697473533
969.581254518725,0.0990505486757055
965.852095847499,0.107641138648941
962.122937176272,0.119062645766854
958.393778505046,0.133484304838881
954.66461983382,0.150058452083046
950.935461162594,0.168850439170277
947.206302491367,0.190411641442609
943.477143820141,0.216049550947654
939.747985148915,0.247336297999962
936.018826477688,0.288205529458523
932.289667806462,0.343473186328445
928.560509135236,0.419057226861087
924.83135046401,0.519605610469773
921.102191792783,0.649135357647412
917.373033121557,0.799350362240447
913.643874450331,0.937071366143411
909.914715779104,1.00854643719366
906.185557107878,0.991991139367623
902.456398436652,0.90494429882707
898.727239765426,0.785063842359007
894.998081094199,0.667173732863637
891.268922422973,0.571520442856816
887.539763751747,0.502220627944025
883.81060508052,0.453021200821159
880.081446409294,0.416202303682733
876.352287738068,0.384519170641228
872.623129066842,0.356428383370051
868.893970395615,0.331060614160375
865.164811724389,0.307973241652799
861.435653053163,0.286099646173639
857.706494381936,0.266653970492
853.97733571071,0.252557367406744
850.248177039484,0.249015816762745
846.519018368258,0.248276071802518
842.789859697031,0.231415093037071
839.060701025805,0.204800725813175
835.331542354579,0.184971316450569
831.602383683352,0.169744775766637
827.873225012126,0.155710184863358
824.1440663409,0.141431057476139
820.414907669674,0.128631707031805
816.685748998447,0.117263350002753
812.956590327221,0.107278773473322
809.227431655995,0.098606368166458
805.498272984768,0.0908713630073062
801.769114313542,0.0848214372011514
798.039955642316,0.0805436230083178
794.31079697109,0.0761670519940977
790.581638299863,0.0711093697085781
786.852479628637,0.0667887182117297
783.123320957411,0.065484789647657
779.394162286184,0.0717839452747664
775.665003614958,0.0871933106368348
771.935844943732,0.0877427900710395
768.206686272506,0.0647528526648469
764.477527601279,0.0490046555395937
760.748368930053,0.0437470459575729
757.019210258827,0.0411699297435447
753.2900515876,0.03976789151506
749.560892916374,0.0392483380771575
745.831734245148,0.0382106117117691
742.102575573922,0.0370995866782905
738.373416902695,0.0398802049638164
734.644258231469,0.043552218735294
730.915099560243,0.0413766954895979
727.185940889016,0.0389110748922398
723.45678221779,0.0393596351181073
719.727623546564,0.0410987177126464
715.998464875338,0.0438672121037824
712.269306204111,0.0495170366004789
708.540147532885,0.068090106706653
704.810988861659,0.0995594690373069
701.081830190432,0.112282643928111
697.352671519206,0.0921242523895923
693.62351284798,0.0819599889778308
689.894354176754,0.0920206076370026
686.165195505527,0.142089012939015
682.436036834301,0.216716788561986
678.706878163075,0.24127700877271
674.977719491848,0.245152568414216
671.248560820622,0.25259434688703
667.519402149396,0.243942387128708
663.790243478169,0.235857897330778
660.061084806943,0.233829912126559
656.331926135717,0.239091835688168
652.602767464491,0.227904848803742
648.873608793276,0.213084563738656
