Wavenumbercm-1,05:48:52
2998.24357166583,0.181974869772634
2994.5144129946,0.212939674025048
2990.78525432337,0.24384957170715
2987.05609565215,0.299695347646667
2983.32693698092,0.336427451473236
2979.59777830969,0.317823661377721
2975.86861963847,0.282855611611266
2972.13946096724,0.261409568431562
2968.41030229601,0.257854696932288
2964.68114362479,0.258049003250103
2960.95198495356,0.268450122267345
2957.22282628234,0.281553427823546
2953.49366761111,0.298917474827529
2949.76450893988,0.309232977321154
2946.03535026866,0.298680820172277
2942.30619159743,0.285268491481953
2938.5770329262,0.290194513486498
2934.84787425498,0.295219057627851
2931.11871558375,0.287549967843814
2927.38955691253,0.279831749442154
2923.6603982413,0.292537019914242
2919.93123957007,0.305351443563628
2916.20208089885,0.291639246223465
2912.47292222762,0.271131815137755
2908.74376355639,0.263821292777822
2905.01460488517,0.265687854924979
2901.28544621394,0.276260983803725
2897.55628754272,0.286375219073765
2893.82712887149,0.292420917116595
2890.09797020026,0.305154886315276
2886.36881152904,0.3222206661999
2882.63965285781,0.344757801541913
2878.91049418658,0.365115083773074
2875.18133551536,0.357810227283215
2871.45217684413,0.34248052543758
2867.72301817291,0.345590003559864
2863.99385950168,0.343867154171745
2860.26470083045,0.328643418384511
2856.53554215923,0.313577853884149
2852.806383488,0.304276266968814
2849.07722481677,0.293200235371898
2845.34806614555,0.292320310412578
2841.61890747432,0.278201083066651
2837.88974880309,0.243857190032868
2834.16059013187,0.211255528811646
2830.43143146064,0.18607064902727
2826.70227278942,0.164450563530519
2822.97311411819,0.144795352598657
2819.24395544696,0.129727297146352
2815.51479677574,0.119361423650541
2811.78563810451,0.108762332741405
2808.05647943328,0.0982222069214305
2804.32732076206,0.0931075701867039
2800.59816209083,0.0899182881208906
2796.86900341961,0.085239068542606
2793.13984474838,0.0782708630862719
2789.41068607715,0.0691813399202318
2785.68152740593,0.058812781354456
2781.9523687347,0.0509335406851079
2778.22321006347,0.0460789884515173
2774.49405139225,0.0415786757660263
2770.76489272102,0.036681525547714
2767.0357340498,0.0321859533604571
2763.30657537857,0.0291290254507896
2759.57741670734,0.0282591602621692
2755.84825803612,0.0283699044483705
2752.11909936489,0.0282797023162499
2748.38994069366,0.0275074190292623
2744.66078202244,0.0284008249707801
2740.93162335121,0.0323877749928519
2737.20246467999,0.0381367279213057
2733.47330600876,0.0431767057983354
2729.74414733753,0.0450358325402214
2726.01498866631,0.0439543376918754
2722.28582999508,0.0402025362170845
2718.55667132385,0.0354710756454032
2714.82751265263,0.0315642427161004
2711.0983539814,0.0285111494490438
2707.36919531017,0.0266600187056227
2703.64003663895,0.0270870645281759
2699.91087796772,0.0295612777321642
2696.1817192965,0.0334836225914614
2692.45256062527,0.0378190051559311
2688.72340195404,0.0400826606637205
2684.99424328282,0.0391718042275203
2681.26508461159,0.0365605806661151
2677.53592594036,0.0327328431771064
2673.80676726914,0.0293324550654076
2670.07760859791,0.0271379797944369
2666.34844992669,0.0261968461300196
2662.61929125546,0.0269961150933996
2658.89013258423,0.0277219166524277
2655.16097391301,0.025924147425457
2651.43181524178,0.0226202951622547
2647.70265657055,0.0196900442544928
2643.97349789933,0.0168278617114909
2640.2443392281,0.015808516862173
2636.51518055688,0.0170373009408611
2632.78602188565,0.0190606129911538
2629.05686321442,0.0219064433264834
2625.3277045432,0.0250971815946145
2621.59854587197,0.0280329351497026
2617.86938720074,0.0312779624434989
2614.14022852952,0.0339226785740259
2610.41106985829,0.0353088431456674
2606.68191118707,0.0363262640269932
2602.95275251584,0.0374880397059288
2599.22359384461,0.0381038447612963
2595.49443517339,0.0396345937723009
2591.76527650216,0.0424901040993509
2588.03611783093,0.0449354568665904
2584.30695915971,0.0478515611952238
2580.57780048848,0.0513491618225449
2576.84864181725,0.0553403904754783
2573.11948314603,0.0616475754913815
2569.3903244748,0.0685220849909118
2565.66116580358,0.0697593129253251
2561.93200713235,0.0644475065284911
2558.20284846112,0.0571141371900876
2554.4736897899,0.0505986968253068
2550.74453111867,0.0447564284283036
2547.01537244744,0.0399661205719964
2543.28621377622,0.0364069468487015
2539.55705510499,0.0335659679916053
2535.82789643377,0.0304838797485325
2532.09873776254,0.0284910170941374
2528.36957909131,0.0280510787794368
2524.64042042009,0.0274452702224994
2520.91126174886,0.0264799472326459
2517.18210307763,0.0264551120951792
2513.45294440641,0.0273066272337436
2509.72378573518,0.0281263484208111
2505.99462706396,0.0292285379208909
2502.26546839273,0.0308807970344971
2498.5363097215,0.0325315149357807
2494.80715105028,0.03377187528606
2491.07799237905,0.0348372889248726
2487.34883370782,0.0352868871193677
2483.6196750366,0.0344120085015176
2479.89051636537,0.0323174203842256
2476.16135769415,0.0302862414217582
2472.43219902292,0.0282597112832852
2468.70304035169,0.0256001816892095
2464.97388168047,0.0226223227496224
2461.24472300924,0.0206360987168254
2457.51556433801,0.0196317839534489
2453.78640566679,0.019164569622456
2450.05724699556,0.0184906008808175
2446.32808832433,0.0176747808232906
2442.59892965311,0.0176722175428284
2438.86977098188,0.0182319097398695
2435.14061231066,0.0180299026633157
2431.41145363943,0.0170282840634408
2427.6822949682,0.0162243927243101
2423.95313629698,0.0151739728803117
2420.22397762575,0.0142154552207566
2416.49481895452,0.0141349867783838
2412.7656602833,0.014293130649897
2409.03650161207,0.0137119860937756
2405.30734294085,0.0129782561029757
2401.57818426962,0.0123014209295262
2397.84902559839,0.0117098305121747
2394.11986692717,0.0113857112278486
2390.39070825594,0.0123433352400441
2386.66154958471,0.0157336723490914
2382.93239091349,0.0234216238979549
2379.20323224226,0.0371691491175705
2375.47407357104,0.0542240152804386
2371.74491489981,0.0687004597351989
2368.01575622858,0.077787002445421
2364.28659755736,0.0805075368556694
2360.55743888613,0.073549065266609
2356.8282802149,0.0558769491421967
2353.09912154368,0.0439620219883569
2349.36996287245,0.0547061708049169
2345.64080420122,0.0822684216834006
2341.91164553,0.102284395389105
2338.18248685877,0.0925279945892825
2334.45332818755,0.0670948703650804
2330.72416951632,0.0500884397125949
2326.99501084509,0.0400544527311104
2323.26585217387,0.0303899879543795
2319.53669350264,0.0212980512512
2315.80753483141,0.0147181629497417
2312.07837616019,0.0105053042157164
2308.34921748896,0.00706312893851265
2304.62005881774,0.00453865024460598
2300.89090014651,0.00347445703742061
2297.16174147528,0.00399294119046569
2293.43258280406,0.00626732972404424
2289.70342413283,0.00994674952131668
2285.9742654616,0.0141809683746083
2282.24510679038,0.0181635474811483
2278.51594811915,0.0200879706578773
2274.78678944793,0.0202647861221157
2271.0576307767,0.0197605485033981
2267.32847210547,0.0189382967557672
2263.59931343425,0.0185800836511673
2259.87015476302,0.0184158843441691
2256.14099609179,0.0180053866736798
2252.41183742057,0.018224257539805
2248.68267874934,0.0196966073829241
2244.95352007812,0.0205028154715758
2241.22436140689,0.0219783754192105
2237.49520273566,0.0245441652062412
2233.76604406444,0.0269944997778965
2230.03688539321,0.0292164960902632
2226.30772672198,0.0313932424585534
2222.57856805076,0.0331576305724103
2218.84940937953,0.035846950451449
2215.1202507083,0.0394430328280758
2211.39109203708,0.0428614254015834
2207.66193336585,0.0448183072024461
2203.93277469463,0.0461450299742563
2200.2036160234,0.0487216229270935
2196.47445735217,0.0528228382935553
2192.74529868095,0.058591832566805
2189.01614000972,0.0668693553888043
2185.28698133849,0.0765105459095553
2181.55782266727,0.0826441037425499
2177.82866399604,0.0855807614835937
2174.09950532482,0.0890978587768536
2170.37034665359,0.0999952830638072
2166.64118798236,0.122289463678235
2162.91202931114,0.149620391519141
2159.18287063991,0.154147265544072
2155.45371196868,0.140115667048149
2151.72455329746,0.125368512795624
2147.99539462623,0.114512923878783
2144.26623595501,0.104015352579798
2140.53707728378,0.0952806021021415
2136.80791861255,0.0840843749290288
2133.07875994133,0.0697767158677465
2129.3496012701,0.0558570063129661
2125.62044259887,0.045690346632159
2121.89128392765,0.0390139522599803
2118.16212525642,0.0347688602053654
2114.4329665852,0.0329073904705518
2110.70380791397,0.0320224091779509
2106.97464924274,0.031680462154258
2103.24549057152,0.031729985422047
2099.51633190029,0.0314781391949644
2095.78717322906,0.0281128112519511
2092.05801455784,0.0229730209376226
2088.32885588661,0.0188581925288088
2084.59969721538,0.0163963188751387
2080.87053854416,0.0149851456962093
2077.14137987293,0.0148441106781006
2073.41222120171,0.015148487820632
2069.68306253048,0.0166836825140167
2065.95390385925,0.0181720442901916
2062.22474518803,0.0187394551966279
2058.4955865168,0.0188623975918552
2054.76642784557,0.021537561455663
2051.03726917435,0.0278591863633027
2047.30811050312,0.0340674905241492
2043.5789518319,0.0364611378779084
2039.84979316067,0.0394242161858362
2036.12063448944,0.0433847689964776
2032.39147581822,0.0441635025700875
2028.66231714699,0.0412927459541581
2024.93315847576,0.0373316020098841
2021.20399980454,0.0338088326141308
2017.47484113331,0.0307865370752615
2013.74568246209,0.0290664602048745
2010.01652379086,0.0274484157675857
2006.28736511963,0.0241946392614001
2002.55820644841,0.0199642478738966
1998.82904777718,0.0180291236941533
1995.09988910595,0.0183421802544652
1991.37073043473,0.0191018703013159
1987.6415717635,0.0190510178986041
1983.91241309228,0.022706526302707
1980.18325442105,0.0293480978677868
1976.45409574982,0.0336482315742189
1972.7249370786,0.0329405770165076
1968.99577840737,0.0307807439738545
1965.26661973614,0.0270125635856973
1961.53746106492,0.0228099190146929
1957.80830239369,0.0179539218019084
1954.07914372246,0.0137628256262747
1950.34998505124,0.0107498827616543
1946.62082638001,0.0086162236318103
1942.89166770879,0.00558236679393864
1939.16250903756,0.00250562088618623
1935.43335036633,6.93649313527484E-05
1931.70419169511,-0.00192525228918003
1927.97503302388,-0.0025932858179748
1924.24587435265,-0.00231568485652127
1920.51671568143,-0.00295168395504461
1916.7875570102,-0.0050457688415677
1913.05839833898,-0.00630037985726056
1909.32923966775,-0.00702500792654427
1905.60008099652,-0.00812379964927338
1901.8709223253,-0.00843290432328936
1898.14176365407,-0.0076632024732439
1894.41260498284,-0.0067951264506449
1890.68344631162,-0.00718163580986717
1886.95428764039,-0.00895400496433506
1883.22512896917,-0.0100886028947994
1879.49597029794,-0.0105487905883802
1875.76681162671,-0.0088058903656996
1872.03765295549,-0.00547898786182792
1868.30849428426,-0.00607481033323704
1864.57933561303,-0.00881020382625386
1860.85017694181,-0.00939185351704735
1857.12101827058,-0.00951521588030104
1853.39185959936,-0.00831905500876709
1849.66270092813,-0.00428192754465918
1845.9335422569,-0.00207153492854366
1842.20438358568,-0.00506486306051441
1838.47522491445,-0.00648320849520581
1834.74606624322,-0.00357631797160738
1831.016907572,-0.000409755388166491
1827.28774890077,-0.00122618474085455
1823.55859022954,-0.0037815710240072
1819.82943155832,-0.00415355482137995
1816.10027288709,-0.0029542558907961
1812.37111421587,-0.00227798077320562
1808.64195554464,-0.00254678416902343
1804.91279687341,-0.00104206924542122
1801.18363820219,0.000304491528719869
1797.45447953096,0.0019306004163945
1793.72532085973,0.00255148423017922
1789.99616218851,-0.000172869893156104
1786.26700351728,-0.000976994231001795
1782.53784484606,0.000130531801197139
1778.80868617483,0.00349810941043113
1775.0795275036,0.0102825036091388
1771.35036883238,0.0125102778016131
1767.62121016115,0.0150515161688084
1763.89205148992,0.0226408859506707
1760.1628928187,0.0267191403660035
1756.43373414747,0.0254105524733051
1752.70457547625,0.0221675822165124
1748.97541680502,0.0158576250283014
1745.24625813379,0.0133399331413006
1741.51709946257,0.0195095050401307
1737.78794079134,0.0316504922700374
1734.05878212011,0.0374514896076621
1730.32962344889,0.0311536495574266
1726.60046477766,0.0291889295293
1722.87130610643,0.0358613917993215
1719.14214743521,0.038170935568152
1715.41298876398,0.0230600329701889
1711.68383009276,0.0111814459362241
1707.95467142153,0.0107716452087838
1704.2255127503,0.0170018376339608
1700.49635407908,0.0178791954171852
1696.76719540785,0.00761923451216598
1693.03803673662,0.00143970074984229
1689.3088780654,0.00685143426198001
1685.57971939417,0.0111117282417608
1681.85056072295,0.00546393163725355
1678.12140205172,0.00508010869203776
1674.39224338049,0.00847466812678462
1670.66308470927,0.00700964006356597
1666.93392603804,0.00401216328231041
1663.20476736681,0.00363184487579022
1659.47560869559,0.00965309054092448
1655.74645002436,0.0225082222234377
1652.01729135314,0.0228922717697604
1648.28813268191,0.0146580939440742
1644.55897401068,0.00824443290744912
1640.82981533946,0.0104435264285497
1637.10065666823,0.0148466394491313
1633.371497997,0.00916837413886166
1629.64233932578,0.00850129702673248
1625.91318065455,0.0114508164616659
1622.18402198333,0.0130389930536826
1618.4548633121,0.012307731204495
1614.72570464087,0.00666017237436208
1610.99654596965,0.003005912012944
1607.26738729842,0.00205477776582381
1603.53822862719,0.00104675195973493
1599.80906995597,0.000444485684753352
1596.07991128474,-0.000385666104878958
1592.35075261351,-0.00244717213607775
1588.62159394229,-0.00457810620520456
1584.89243527106,-0.00479657049466078
1581.16327659984,-0.000945789763615309
1577.43411792861,0.00277391722346229
1573.70495925738,0.00234210518774985
1569.97580058616,0.00192041221996532
1566.24664191493,0.00525310430271076
1562.5174832437,0.0188975216155944
1558.78832457248,0.0216084806620335
1555.05916590125,0.00862935965725662
1551.33000723003,0.00503657586119033
1547.6008485588,0.0125232282011441
1543.87168988757,0.0257799470711171
1540.14253121635,0.0246174460182782
1536.41337254512,0.0192205652792231
1532.68421387389,0.0207117224039616
1528.95505520267,0.0246963984129809
1525.22589653144,0.0308369767856117
1521.49673786022,0.0314699979847474
1517.76757918899,0.027215771546294
1514.03842051776,0.0292374031327
1510.30926184654,0.0405234189333238
1506.58010317531,0.0409355652193369
1502.85094450408,0.0369361293583888
1499.12178583286,0.0432668218361787
1495.39262716163,0.0503139317959807
1491.66346849041,0.0583287665451275
1487.93430981918,0.0626765643794854
1484.20515114795,0.067063700436095
1480.47599247673,0.0803457511248232
1476.7468338055,0.0999439840865344
1473.01767513427,0.118791494110864
1469.28851646305,0.140930201434357
1465.55935779182,0.174349390276431
1461.83019912059,0.194902892866429
1458.10104044937,0.183441411671888
1454.37188177814,0.159248436146681
1450.64272310692,0.145476963227785
1446.91356443569,0.123078633871143
1443.18440576446,0.095860660675434
1439.45524709324,0.0766109658619138
1435.72608842201,0.0600037845878675
1431.99692975078,0.0469938669939084
1428.26777107956,0.0396712648065648
1424.53861240833,0.0374730593080736
1420.80945373711,0.0365340710837776
1417.08029506588,0.0297678732943727
1413.35113639465,0.026222505923231
1409.62197772343,0.032022225340386
1405.8928190522,0.0485484969030176
1402.16366038097,0.073825160319582
1398.43450170975,0.0863241398537284
1394.70534303852,0.0673334989195723
1390.9761843673,0.0425824869695059
1387.24702569607,0.0283062236045645
1383.51786702484,0.0220515662310672
1379.78870835362,0.0244398276406485
1376.05954968239,0.0374347583991963
1372.33039101116,0.0683944371618074
1368.60123233994,0.110935238315149
1364.87207366871,0.118687787081096
1361.14291499749,0.0790744053599001
1357.41375632626,0.0456510113331325
1353.68459765503,0.0315407362336032
1349.95543898381,0.0266290925024545
1346.22628031258,0.026327594993928
1342.49712164135,0.0306808255191462
1338.76796297013,0.0358576122264354
1335.0388042989,0.0384096894691613
1331.30964562767,0.0384291819500359
1327.58048695645,0.0369411557045183
1323.85132828522,0.03811826164919
1320.122169614,0.04670468509772
1316.39301094277,0.064619664023905
1312.66385227154,0.0843261336836503
1308.93469360032,0.0977884311636654
1305.20553492909,0.104894487912331
1301.47637625786,0.114003109816924
1297.74721758664,0.13220355755171
1294.01805891541,0.159287348644914
1290.28890024419,0.193227322301157
1286.55974157296,0.229206016458772
1282.83058290173,0.221813930603601
1279.10142423051,0.162999272591313
1275.37226555928,0.116213273056106
1271.64310688805,0.0992718996790289
1267.91394821683,0.0952450225617902
1264.1847895456,0.0955140627293075
1260.45563087438,0.100235967100229
1256.72647220315,0.111034461212479
1252.99731353192,0.128396358116999
1249.2681548607,0.1487307862095
1245.53899618947,0.161355918104398
1241.80983751824,0.157723155086066
1238.08067884702,0.142650000970038
1234.35152017579,0.128365165454119
1230.62236150457,0.119957651880105
1226.89320283334,0.117069389293317
1223.16404416211,0.117948118617458
1219.43488549089,0.120775904940877
1215.70572681966,0.124889972912562
1211.97656814843,0.129905687695779
1208.24740947721,0.134905475035502
1204.51825080598,0.139857669914762
1200.78909213475,0.14806686918983
1197.05993346353,0.161675710336658
1193.3307747923,0.177422725112418
1189.60161612108,0.190190221361866
1185.87245744985,0.203835401774265
1182.14329877862,0.227405327824413
1178.4141401074,0.247170553507455
1174.68498143617,0.232266002765835
1170.95582276494,0.192898667212014
1167.22666409372,0.158214711816476
1163.49750542249,0.137074782009063
1159.76834675127,0.129000277056716
1156.03918808004,0.133133155369379
1152.31002940881,0.1484553156347
1148.58087073759,0.173193124105702
1144.85171206636,0.190195726925493
1141.12255339513,0.177967961994323
1137.39339472391,0.14824818875108
1133.66423605268,0.12313290249154
1129.93507738146,0.108561086749907
1126.20591871023,0.101983570068764
1122.476760039,0.101213667413844
1118.74760136778,0.105509856573813
1115.01844269655,0.113644209042835
1111.28928402532,0.122734158024592
1107.5601253541,0.133721204098803
1103.83096668287,0.150814563468509
1100.10180801165,0.17604469416136
1096.37264934042,0.208574049414086
1092.64349066919,0.249881675454996
1088.91433199797,0.310313420735795
1085.18517332674,0.407931799816272
1081.45601465551,0.566085389492364
1077.72685598429,0.817153382098293
1073.99769731306,1.18852836054585
1070.26853864183,1.61235489197646
1066.53937997061,1.74552664166823
1062.81022129938,1.51392154210691
1059.08106262816,1.19559807681162
1055.35190395693,0.913551601153659
1051.6227452857,0.700988072138235
1047.89358661448,0.55314172332136
1044.16442794325,0.457211454139435
1040.43526927202,0.403432365341176
1036.7061106008,0.3854932791257
1032.97695192957,0.386422284850367
1029.24779325835,0.373302641392112
1025.51863458712,0.324008211355253
1021.78947591589,0.255567944443484
1018.06031724467,0.196419837102088
1014.33115857344,0.156697791808922
1010.60199990221,0.131602816554709
1006.87284123099,0.115468251524719
1003.14368255976,0.10487913153084
999.414523888535,0.0969301759518277
995.685365217309,0.0896386286910968
991.956206546083,0.0846467043400877
988.227047874856,0.0823325735688383
984.49788920363,0.0819251919692221
980.768730532404,0.0829743755434171
977.039571861178,0.0854544565007457
973.310413189951,0.0896019087548645
969.581254518725,0.0955362163254194
965.852095847499,0.103647049447842
962.122937176272,0.11479110651681
958.393778505046,0.129319992107827
954.66461983382,0.147427256958012
950.935461162594,0.169505569882708
947.206302491367,0.19211713851286
943.477143820141,0.214254346760195
939.747985148915,0.242051556024655
936.018826477688,0.281163520593759
932.289667806462,0.334951633461202
928.560509135236,0.408451756908436
924.83135046401,0.507165343522872
921.102191792783,0.636284904470443
917.373033121557,0.786379974149637
913.643874450331,0.922047290687307
909.914715779104,0.994342463820198
906.185557107878,0.988628954978953
902.456398436652,0.914791142321476
898.727239765426,0.802895309748068
894.998081094199,0.684587273629759
891.268922422973,0.578143541767322
887.539763751747,0.49306151528769
883.81060508052,0.432458238873484
880.081446409294,0.391677837924637
876.352287738068,0.366539886122129
872.623129066842,0.355535777390046
868.893970395615,0.34531725780895
865.164811724389,0.319173115899453
861.435653053163,0.287982314881877
857.706494381936,0.266113649297022
853.97733571071,0.252519958940636
850.248177039484,0.243607470131548
846.519018368258,0.23104532039055
842.789859697031,0.216110624205774
839.060701025805,0.203642093047494
835.331542354579,0.192837662163595
831.602383683352,0.181112469260034
827.873225012126,0.168498203229076
824.1440663409,0.15604363327834
820.414907669674,0.145347514862487
816.685748998447,0.134093444347131
812.956590327221,0.121916529073477
809.227431655995,0.110226651528733
805.498272984768,0.100772653842774
801.769114313542,0.0938481594968257
798.039955642316,0.0894686812902999
794.31079697109,0.0849626190237968
790.581638299863,0.0811678199400259
786.852479628637,0.0838375622985685
783.123320957411,0.103506632295997
779.394162286184,0.11332592360493
775.665003614958,0.0914932596019889
771.935844943732,0.0766665381352292
768.206686272506,0.0755190191228593
764.477527601279,0.0805967368873037
760.748368930053,0.0929306164783576
757.019210258827,0.105735478323914
753.2900515876,0.11004321067173
749.560892916374,0.106762118282251
745.831734245148,0.0984134469936556
742.102575573922,0.0876648825075233
738.373416902695,0.0786958529887869
734.644258231469,0.0718403693030808
730.915099560243,0.0661345077541191
727.185940889016,0.0602803946386319
723.45678221779,0.0572007324479876
719.727623546564,0.0593040456139446
715.998464875338,0.0737305490177995
712.269306204111,0.0912396546557813
708.540147532885,0.08905847651776
704.810988861659,0.0859240916499915
701.081830190432,0.0882338476204155
697.352671519206,0.0840744962188936
693.62351284798,0.0856245115602599
689.894354176754,0.0947881220925336
686.165195505527,0.12458858438619
682.436036834301,0.159594628844567
678.706878163075,0.158697461961851
674.977719491848,0.155654982825377
671.248560820622,0.189860979635583
667.519402149396,0.231522200484776
663.790243478169,0.255492885237436
660.061084806943,0.261494187086134
656.331926135717,0.267773061054211
652.602767464491,0.270351423309182
648.873608793276,0.267615104153853
