Wavenumbercm-1,07:01:53
2998.24357166583,0.175433136076467
2994.5144129946,0.207440126648782
2990.78525432337,0.239175586722047
2987.05609565215,0.291405846429298
2983.32693698092,0.325764773724985
2979.59777830969,0.309802755517607
2975.86861963847,0.277155575671638
2972.13946096724,0.25744492000643
2968.41030229601,0.255643203951748
2964.68114362479,0.258320285434275
2960.95198495356,0.26955907040521
2957.22282628234,0.280844173913886
2953.49366761111,0.294854458483923
2949.76450893988,0.300130156064224
2946.03535026866,0.287187707499133
2942.30619159743,0.275591746071357
2938.5770329262,0.282511598873004
2934.84787425498,0.28607588284049
2931.11871558375,0.278258940874255
2927.38955691253,0.275762344029282
2923.6603982413,0.291012545477886
2919.93123957007,0.300963140059553
2916.20208089885,0.284908596046968
2912.47292222762,0.265192981416569
2908.74376355639,0.259343732530854
2905.01460488517,0.263214091246264
2901.28544621394,0.274935159400223
2897.55628754272,0.284791443029156
2893.82712887149,0.290831768168958
2890.09797020026,0.302013766376848
2886.36881152904,0.318075469844347
2882.63965285781,0.342986488094716
2878.91049418658,0.363478607782748
2875.18133551536,0.353946351911266
2871.45217684413,0.338583961906017
2867.72301817291,0.340982076888209
2863.99385950168,0.338560390906258
2860.26470083045,0.324783948285193
2856.53554215923,0.311898486137645
2852.806383488,0.302941333067532
2849.07722481677,0.289983725687866
2845.34806614555,0.287139446109968
2841.61890747432,0.272898734293172
2837.88974880309,0.240245143143318
2834.16059013187,0.209141155492012
2830.43143146064,0.184468305047626
2826.70227278942,0.163306995615864
2822.97311411819,0.144040873945376
2819.24395544696,0.128799440073665
2815.51479677574,0.11745143495572
2811.78563810451,0.105414013999261
2808.05647943328,0.0937285104323138
2804.32732076206,0.0871628114440891
2800.59816209083,0.0808450744959918
2796.86900341961,0.073396216310036
2793.13984474838,0.0668527696265475
2789.41068607715,0.059412538334907
2785.68152740593,0.0508129954933673
2781.9523687347,0.0450247472976958
2778.22321006347,0.0417928332672703
2774.49405139225,0.0382470056941085
2770.76489272102,0.0345961779791305
2767.0357340498,0.0313964635471499
2763.30657537857,0.0288999332133914
2759.57741670734,0.0284179282336614
2755.84825803612,0.0286351431491634
2752.11909936489,0.0279316492806266
2748.38994069366,0.0269321259647189
2744.66078202244,0.0283069267806471
2740.93162335121,0.0324554337002716
2737.20246467999,0.037956838998998
2733.47330600876,0.0428491957950489
2729.74414733753,0.0445273967134303
2726.01498866631,0.0434538689946942
2722.28582999508,0.0405212404107411
2718.55667132385,0.0364756584610441
2714.82751265263,0.0320262825250847
2711.0983539814,0.0284436802707859
2707.36919531017,0.0267580409985914
2703.64003663895,0.0268941476559128
2699.91087796772,0.0290448059076423
2696.1817192965,0.0335558431571083
2692.45256062527,0.0382373994847334
2688.72340195404,0.0404084885439696
2684.99424328282,0.0396438225401236
2681.26508461159,0.0366946329046948
2677.53592594036,0.0326635556059927
2673.80676726914,0.0294034131494261
2670.07760859791,0.0272445646004422
2666.34844992669,0.0265734659101589
2662.61929125546,0.027469151567797
2658.89013258423,0.0283518209511505
2655.16097391301,0.0272682289875184
2651.43181524178,0.0239189829533398
2647.70265657055,0.0198644619101955
2643.97349789933,0.0166129308746604
2640.2443392281,0.0160050646178419
2636.51518055688,0.0166707417373173
2632.78602188565,0.0170299300804837
2629.05686321442,0.0181015865495685
2625.3277045432,0.019865384413433
2621.59854587197,0.0222563068803666
2617.86938720074,0.0249591088870205
2614.14022852952,0.0266922628685261
2610.41106985829,0.0285321066852005
2606.68191118707,0.0311578745341807
2602.95275251584,0.03357863661568
2599.22359384461,0.0347387527654871
2595.49443517339,0.0359541995687204
2591.76527650216,0.0387161296137612
2588.03611783093,0.0425993861435335
2584.30695915971,0.0466647631864306
2580.57780048848,0.049825561734161
2576.84864181725,0.0536490034737058
2573.11948314603,0.0601020656870651
2569.3903244748,0.0666556980606385
2565.66116580358,0.0680093486615402
2561.93200713235,0.0635382193303788
2558.20284846112,0.0565832596068377
2554.4736897899,0.0500414161182677
2550.74453111867,0.0439374880879776
2547.01537244744,0.0388019849706129
2543.28621377622,0.0351078978785923
2539.55705510499,0.0322960543376738
2535.82789643377,0.0296334025643196
2532.09873776254,0.0281552978516748
2528.36957909131,0.027623333280664
2524.64042042009,0.0267181151299371
2520.91126174886,0.0259335752283546
2517.18210307763,0.0262013816274292
2513.45294440641,0.027179530581086
2509.72378573518,0.0280084385695888
2505.99462706396,0.0287259271456589
2502.26546839273,0.0298168988882919
2498.5363097215,0.0312324411290683
2494.80715105028,0.0317910542817383
2491.07799237905,0.0317400900273252
2487.34883370782,0.0318630191915707
2483.6196750366,0.0318567734920836
2479.89051636537,0.0304157202427957
2476.16135769415,0.0278793390049316
2472.43219902292,0.0254297896221342
2468.70304035169,0.0231870483715764
2464.97388168047,0.020670394929243
2461.24472300924,0.0187201637538687
2457.51556433801,0.0177801935251026
2453.78640566679,0.01752274255726
2450.05724699556,0.0172223812712602
2446.32808832433,0.0168786425010146
2442.59892965311,0.0171035890784183
2438.86977098188,0.0174523660529347
2435.14061231066,0.0172647900968904
2431.41145363943,0.0164940129956654
2427.6822949682,0.0153035855268461
2423.95313629698,0.0139932445204133
2420.22397762575,0.0134904384544256
2416.49481895452,0.013816867585363
2412.7656602833,0.0143116876020749
2409.03650161207,0.013751185351484
2405.30734294085,0.0125421664904777
2401.57818426962,0.0116529082790884
2397.84902559839,0.0113521061445918
2394.11986692717,0.0113124683095726
2390.39070825594,0.01228815269885
2386.66154958471,0.0158203331174675
2382.93239091349,0.02374926102804
2379.20323224226,0.0372860455192714
2375.47407357104,0.0533974944480938
2371.74491489981,0.0671519722389888
2368.01575622858,0.0762987423120902
2364.28659755736,0.0789469591133116
2360.55743888613,0.0718182602688057
2356.8282802149,0.0545737310456026
2353.09912154368,0.0430268919268869
2349.36996287245,0.0536667294853991
2345.64080420122,0.0803822676095669
2341.91164553,0.0988989932485592
2338.18248685877,0.0892978175549503
2334.45332818755,0.0652383600920717
2330.72416951632,0.0485667685373008
2326.99501084509,0.0382796713832382
2323.26585217387,0.0289243342077294
2319.53669350264,0.0205991817641784
2315.80753483141,0.0143646683395949
2312.07837616019,0.0100971324927075
2308.34921748896,0.00674130317372234
2304.62005881774,0.004499993230669
2300.89090014651,0.00369130436619715
2297.16174147528,0.00397070550322417
2293.43258280406,0.0057007340438135
2289.70342413283,0.00921292104549543
2285.9742654616,0.0136826150808692
2282.24510679038,0.0176596937815423
2278.51594811915,0.0197624215642895
2274.78678944793,0.0206509054925026
2271.0576307767,0.0209824649435591
2267.32847210547,0.0203670658466856
2263.59931343425,0.0192855588308288
2259.87015476302,0.0186009672780782
2256.14099609179,0.0182744051092274
2252.41183742057,0.0181036229793216
2248.68267874934,0.0192869600668095
2244.95352007812,0.020728664226119
2241.22436140689,0.022099574553049
2237.49520273566,0.0238437359173647
2233.76604406444,0.0260053792871965
2230.03688539321,0.0280500435377483
2226.30772672198,0.0302710181097494
2222.57856805076,0.0323307919857341
2218.84940937953,0.03473343731999
2215.1202507083,0.0384712305538699
2211.39109203708,0.0421590412594847
2207.66193336585,0.0436354959141915
2203.93277469463,0.0451235500166956
2200.2036160234,0.0482267456352943
2196.47445735217,0.0521029769560323
2192.74529868095,0.0576490460825766
2189.01614000972,0.0656040779147866
2185.28698133849,0.0745536393109518
2181.55782266727,0.0811900451759819
2177.82866399604,0.0855422655104642
2174.09950532482,0.0896478818822025
2170.37034665359,0.100384328057588
2166.64118798236,0.122471865299805
2162.91202931114,0.149718297978406
2159.18287063991,0.153276695513699
2155.45371196868,0.138823997084294
2151.72455329746,0.124067691980791
2147.99539462623,0.113485162043251
2144.26623595501,0.103707219502415
2140.53707728378,0.0950703646353371
2136.80791861255,0.0836748944044993
2133.07875994133,0.0691669426016711
2129.3496012701,0.0552489281153926
2125.62044259887,0.045029692871592
2121.89128392765,0.0388187843487793
2118.16212525642,0.0349568687270227
2114.4329665852,0.0324392252044897
2110.70380791397,0.0312299398998501
2106.97464924274,0.0315647360014609
2103.24549057152,0.0321571972998311
2099.51633190029,0.031885525227057
2095.78717322906,0.0286671394078334
2092.05801455784,0.0239833920481614
2088.32885588661,0.0197661932729095
2084.59969721538,0.0169167196901893
2080.87053854416,0.0152365358034641
2077.14137987293,0.0148006831727262
2073.41222120171,0.0149084814709229
2069.68306253048,0.0167870486902009
2065.95390385925,0.0186006275415201
2062.22474518803,0.0190595662190545
2058.4955865168,0.0193652693951351
2054.76642784557,0.0218881876235635
2051.03726917435,0.0271533843401001
2047.30811050312,0.0321305645429129
2043.5789518319,0.0346194018997942
2039.84979316067,0.0383581591985816
2036.12063448944,0.0426632388652409
2032.39147581822,0.0430967733221924
2028.66231714699,0.0404517445110909
2024.93315847576,0.0369065558791441
2021.20399980454,0.0334419318379167
2017.47484113331,0.0306616588236118
2013.74568246209,0.0292251160933354
2010.01652379086,0.027394733866276
2006.28736511963,0.0240102862483516
2002.55820644841,0.0195545064641885
1998.82904777718,0.0174432543635075
1995.09988910595,0.0177664851842174
1991.37073043473,0.0186175169900403
1987.6415717635,0.0193425665854175
1983.91241309228,0.0233362726008106
1980.18325442105,0.0293940790440006
1976.45409574982,0.0332069437290439
1972.7249370786,0.0323997836008432
1968.99577840737,0.030414484939284
1965.26661973614,0.0275676639771702
1961.53746106492,0.0240724346020124
1957.80830239369,0.0190968607093814
1954.07914372246,0.0143847555125462
1950.34998505124,0.0108842051184637
1946.62082638001,0.00862043142763495
1942.89166770879,0.00577425976657381
1939.16250903756,0.00264209363341516
1935.43335036633,0.000200752367992707
1931.70419169511,-0.00168400398958633
1927.97503302388,-0.0023561628064894
1924.24587435265,-0.0021906578595387
1920.51671568143,-0.00256773082956458
1916.7875570102,-0.00426649314763961
1913.05839833898,-0.00554113163015265
1909.32923966775,-0.0064313536370939
1905.60008099652,-0.00749333062593786
1901.8709223253,-0.00779933617978899
1898.14176365407,-0.00730869845455712
1894.41260498284,-0.00659683643570975
1890.68344631162,-0.00695222970428518
1886.95428764039,-0.0086315228466291
1883.22512896917,-0.00966058011006365
1879.49597029794,-0.00995038945903773
1875.76681162671,-0.0083926314705148
1872.03765295549,-0.0054976225505572
1868.30849428426,-0.00592186280717363
1864.57933561303,-0.00821045912225858
1860.85017694181,-0.00876261864162405
1857.12101827058,-0.00875362864729276
1853.39185959936,-0.00765952539992037
1849.66270092813,-0.00432432981985841
1845.9335422569,-0.00234394354495202
1842.20438358568,-0.00479363253067406
1838.47522491445,-0.00603881699972785
1834.74606624322,-0.00350134094822655
1831.016907572,-0.000623903202068826
1827.28774890077,-0.00110481337165247
1823.55859022954,-0.00313223336562847
1819.82943155832,-0.00349829978939366
1816.10027288709,-0.00258183100465925
1812.37111421587,-0.00204172813973587
1808.64195554464,-0.00233826086595967
1804.91279687341,-0.00109606491527098
1801.18363820219,0.000112439007269314
1797.45447953096,0.0015433198062057
1793.72532085973,0.00200288185398828
1789.99616218851,-0.000555682786093845
1786.26700351728,-0.00148485642770419
1782.53784484606,-0.000822781297446397
1778.80868617483,0.00148365968141909
1775.0795275036,0.00588109040522414
1771.35036883238,0.00450617666234376
1767.62121016115,0.00100222627470143
1763.89205148992,0.000792730296174029
1760.1628928187,0.000908478857701251
1756.43373414747,0.00213271373606359
1752.70457547625,0.005376080304108
1748.97541680502,0.00569039114033868
1745.24625813379,0.00652676954464472
1741.51709946257,0.0125426645454293
1737.78794079134,0.0223637016389409
1734.05878212011,0.0271072880305645
1730.32962344889,0.0229570753427514
1726.60046477766,0.0232802418171059
1722.87130610643,0.0307538167635
1719.14214743521,0.0336559385724107
1715.41298876398,0.0207164140792471
1711.68383009276,0.010151688973759
1707.95467142153,0.00946761017442901
1704.2255127503,0.0146721647223885
1700.49635407908,0.0154571410745278
1696.76719540785,0.0066457759812175
1693.03803673662,0.00126564548370018
1689.3088780654,0.00574152643783857
1685.57971939417,0.00926646593374966
1681.85056072295,0.00442715892416404
1678.12140205172,0.0040497082850586
1674.39224338049,0.00682459648172188
1670.66308470927,0.00544082693391318
1666.93392603804,0.00268570169864591
1663.20476736681,0.00214251837485205
1659.47560869559,0.00716630816475675
1655.74645002436,0.0181673027003829
1652.01729135314,0.018532152149658
1648.28813268191,0.0114899353118507
1644.55897401068,0.00608032766840769
1640.82981533946,0.00809217316423387
1637.10065666823,0.0121791995403604
1633.371497997,0.00754811296812613
1629.64233932578,0.00711278141413034
1625.91318065455,0.00986872982016618
1622.18402198333,0.0115243423959442
1618.4548633121,0.0110896882430548
1614.72570464087,0.0062877631022837
1610.99654596965,0.00317804393737763
1607.26738729842,0.00244464249494834
1603.53822862719,0.00167128657757705
1599.80906995597,0.00124928775199472
1596.07991128474,0.0005240697680279
1592.35075261351,-0.00139283603004672
1588.62159394229,-0.00341342062083895
1584.89243527106,-0.00376680370231162
1581.16327659984,-0.000585496396173819
1577.43411792861,0.00252973348898114
1573.70495925738,0.0021835277291254
1569.97580058616,0.00187568515252933
1566.24664191493,0.00477559672393607
1562.5174832437,0.0165115484223752
1558.78832457248,0.018977413778854
1555.05916590125,0.0079703373324027
1551.33000723003,0.00500855921507955
1547.6008485588,0.0116217750350231
1543.87168988757,0.023354479356807
1540.14253121635,0.0226705399924822
1536.41337254512,0.017856496497189
1532.68421387389,0.0191213296860397
1528.95505520267,0.0232774347879233
1525.22589653144,0.0291336997812674
1521.49673786022,0.0295660115185031
1517.76757918899,0.0257201472397568
1514.03842051776,0.0274310598647099
1510.30926184654,0.0373026028837126
1506.58010317531,0.0381802381969512
1502.85094450408,0.0353221771295352
1499.12178583286,0.0414350256136633
1495.39262716163,0.0481100210727054
1491.66346849041,0.0553075130704985
1487.93430981918,0.0594839476205771
1484.20515114795,0.0639430108380043
1480.47599247673,0.076123245845561
1476.7468338055,0.0938779747409606
1473.01767513427,0.112182387448158
1469.28851646305,0.135331439348345
1465.55935779182,0.16970583712207
1461.83019912059,0.19086330249953
1458.10104044937,0.180316738456208
1454.37188177814,0.157833418755205
1450.64272310692,0.144693329607166
1446.91356443569,0.122628700220136
1443.18440576446,0.0958247828895922
1439.45524709324,0.0768408116594004
1435.72608842201,0.0611586129906969
1431.99692975078,0.048862581939661
1428.26777107956,0.0413808169371102
1424.53861240833,0.0380917918373772
1420.80945373711,0.0357218123168459
1417.08029506588,0.0281498548703507
1413.35113639465,0.0224769028937837
1409.62197772343,0.0219957212462632
1405.8928190522,0.0254871374658498
1402.16366038097,0.0323228391896415
1398.43450170975,0.0360977104732932
1394.70534303852,0.0295577425594255
1390.9761843673,0.0221884111899824
1387.24702569607,0.0189152282156806
1383.51786702484,0.0176611299658418
1379.78870835362,0.0216952572414788
1376.05954968239,0.0352075558317824
1372.33039101116,0.0660370014985989
1368.60123233994,0.107516846956966
1364.87207366871,0.114935602440667
1361.14291499749,0.0769610848561015
1357.41375632626,0.0448754545568659
1353.68459765503,0.0313471385142624
1349.95543898381,0.0268841213388285
1346.22628031258,0.0270483392323619
1342.49712164135,0.0318356514786001
1338.76796297013,0.0378768453232338
1335.0388042989,0.0417992494641004
1331.30964562767,0.042690316443847
1327.58048695645,0.0407464643227268
1323.85132828522,0.0388981522780223
1320.122169614,0.0390392563568321
1316.39301094277,0.0435097409717723
1312.66385227154,0.0541907643304276
1308.93469360032,0.0680819526857443
1305.20553492909,0.0791375531601522
1301.47637625786,0.092590153166231
1297.74721758664,0.115337258322885
1294.01805891541,0.146239289852579
1290.28890024419,0.18265339709975
1286.55974157296,0.221215668103822
1282.83058290173,0.21939997909025
1279.10142423051,0.163727681486953
1275.37226555928,0.115852956059438
1271.64310688805,0.097562476494255
1267.91394821683,0.0931275327180284
1264.1847895456,0.0936441492348747
1260.45563087438,0.0988660483861463
1256.72647220315,0.108931073297516
1252.99731353192,0.12298290033936
1249.2681548607,0.13873540718701
1245.53899618947,0.149005109338066
1241.80983751824,0.14617529470856
1238.08067884702,0.133495540217265
1234.35152017579,0.122141406293654
1230.62236150457,0.115960251361861
1226.89320283334,0.113662996833198
1223.16404416211,0.114146459805824
1219.43488549089,0.116528237960462
1215.70572681966,0.120452554667257
1211.97656814843,0.126498892024931
1208.24740947721,0.133503291257799
1204.51825080598,0.139610363294204
1200.78909213475,0.148002369554873
1197.05993346353,0.16135994476362
1193.3307747923,0.176819019822965
1189.60161612108,0.189833601369153
1185.87245744985,0.204029081793585
1182.14329877862,0.227217301268899
1178.4141401074,0.245915128732289
1174.68498143617,0.231488808404215
1170.95582276494,0.193529596790554
1167.22666409372,0.159396228212909
1163.49750542249,0.138159845265277
1159.76834675127,0.129853889230944
1156.03918808004,0.133425596206249
1152.31002940881,0.147580161327087
1148.58087073759,0.171245237769028
1144.85171206636,0.189729832465269
1141.12255339513,0.182142096344645
1137.39339472391,0.155805487974769
1133.66423605268,0.130250805297139
1129.93507738146,0.113515051154145
1126.20591871023,0.105071202287304
1122.476760039,0.1029507975212
1118.74760136778,0.105954950399731
1115.01844269655,0.112836829354306
1111.28928402532,0.121170598922485
1107.5601253541,0.131915396111908
1103.83096668287,0.148828848242557
1100.10180801165,0.173848863670341
1096.37264934042,0.207064207041239
1092.64349066919,0.25018599721932
1088.91433199797,0.311842794027931
1085.18517332674,0.409301875817666
1081.45601465551,0.566914968820809
1077.72685598429,0.818007785235806
1073.99769731306,1.1901969503215
1070.26853864183,1.61478348603115
1066.53937997061,1.74879843012545
1062.81022129938,1.51709286622568
1059.08106262816,1.20000787504852
1055.35190395693,0.919763347015736
1051.6227452857,0.707709641450894
1047.89358661448,0.558791676934816
1044.16442794325,0.461501413899571
1040.43526927202,0.406543942409497
1036.7061106008,0.387089326740435
1032.97695192957,0.384567811410909
1029.24779325835,0.365155055310185
1025.51863458712,0.310840827677858
1021.78947591589,0.243701825740579
1018.06031724467,0.189809174851506
1014.33115857344,0.154542001743828
1010.60199990221,0.131626403939557
1006.87284123099,0.115747015029643
1003.14368255976,0.104090690093323
999.414523888535,0.0956539680544502
995.685365217309,0.0896730591065523
991.956206546083,0.0860228373260389
988.227047874856,0.0841913611993159
984.49788920363,0.0839042625174643
980.768730532404,0.0849116912273469
977.039571861178,0.0872737234065435
973.310413189951,0.09129911654852
969.581254518725,0.097125564927806
965.852095847499,0.10512486660781
962.122937176272,0.116142211615904
958.393778505046,0.130472036505672
954.66461983382,0.148266871402823
950.935461162594,0.169900349971764
947.206302491367,0.192331741725308
943.477143820141,0.214856039960881
939.747985148915,0.243331021652762
936.018826477688,0.283130722244431
932.289667806462,0.337328533276132
928.560509135236,0.410779606037416
924.83135046401,0.509236311631235
921.102191792783,0.637961392239602
917.373033121557,0.787454722907209
913.643874450331,0.922608985385197
909.914715779104,0.99495902169453
906.185557107878,0.990080271368661
902.456398436652,0.916792553177178
898.727239765426,0.803615751658495
894.998081094199,0.683592979530627
891.268922422973,0.578053974039519
887.539763751747,0.494751543985532
883.81060508052,0.434869351916813
880.081446409294,0.393614921721543
876.352287738068,0.364292921700382
872.623129066842,0.341602817055148
868.893970395615,0.321130384126679
865.164811724389,0.301295998635495
861.435653053163,0.282125237706907
857.706494381936,0.26525857517996
853.97733571071,0.252781314403646
850.248177039484,0.24458722169351
846.519018368258,0.233720206982647
842.789859697031,0.220156742196304
839.060701025805,0.207904629141143
835.331542354579,0.196890553669899
831.602383683352,0.185228458999534
827.873225012126,0.17348404129919
824.1440663409,0.162610272479929
820.414907669674,0.153300784081516
816.685748998447,0.14266749909932
812.956590327221,0.130131413288082
809.227431655995,0.117802591962684
805.498272984768,0.107832375307901
801.769114313542,0.100548965439624
798.039955642316,0.096113254367862
794.31079697109,0.0920232036445992
790.581638299863,0.0885467686540118
786.852479628637,0.0907097249753099
783.123320957411,0.108159515207503
779.394162286184,0.11643440465561
775.665003614958,0.0959711329708398
771.935844943732,0.0823152794407124
768.206686272506,0.0815991779592687
764.477527601279,0.0865299556974736
760.748368930053,0.0969987828894696
757.019210258827,0.104595599615171
753.2900515876,0.102916685662027
749.560892916374,0.0994689718211001
745.831734245148,0.0963753435969532
742.102575573922,0.0911347392632878
738.373416902695,0.0858667257058736
734.644258231469,0.0794376928287131
730.915099560243,0.0719751327267699
727.185940889016,0.0645134282528159
723.45678221779,0.0607385910252118
719.727623546564,0.0626526121549163
715.998464875338,0.076288702512196
712.269306204111,0.0925635100635289
708.540147532885,0.0911452221485981
704.810988861659,0.0891399193695082
701.081830190432,0.0919029538282829
697.352671519206,0.089208158915905
693.62351284798,0.0915371741675464
689.894354176754,0.0999938830990209
686.165195505527,0.128398470102783
682.436036834301,0.16288219754978
678.706878163075,0.1620908503215
674.977719491848,0.159148718310731
671.248560820622,0.195087389880035
667.519402149396,0.244260892063746
663.790243478169,0.275417382462102
660.061084806943,0.278089526822337
656.331926135717,0.274981101432114
652.602767464491,0.268469192716893
648.873608793276,0.257287142455035
