Wavenumbercm-1,00:01:52
2998.24357166583,-0.0024336527227326
2994.5144129946,-0.00142132423051351
2990.78525432337,-0.00191864175066779
2987.05609565215,-0.00167659458635678
2983.32693698092,-0.000631825783165059
2979.59777830969,-0.000920528771241343
2975.86861963847,-0.00187689955536079
2972.13946096724,-0.00195934614345643
2968.41030229601,-0.00130581540855777
2964.68114362479,-0.00106053550056316
2960.95198495356,-0.0017606182472633
2957.22282628234,-0.00204321228202183
2953.49366761111,-0.00168985566160583
2949.76450893988,-0.00145942280236999
2946.03535026866,-0.000894119735586099
2942.30619159743,-0.00153531690220321
2938.5770329262,-0.00301059223732868
2934.84787425498,-0.00228964769378876
2931.11871558375,-4.52494762596665E-06
2927.38955691253,-0.000117707270817171
2923.6603982413,-0.00100695213341345
2919.93123957007,-0.00156085223648595
2916.20208089885,-0.00319768123288067
2912.47292222762,-0.00310895650576866
2908.74376355639,-0.00254971592607928
2905.01460488517,-0.00295459663136793
2901.28544621394,-0.00211537132123254
2897.55628754272,-0.000829390006237276
2893.82712887149,-0.00117324362846213
2890.09797020026,-0.00180898377597013
2886.36881152904,-0.000449701213928183
2882.63965285781,0.0013578731686663
2878.91049418658,0.00130310298037612
2875.18133551536,8.84501028984586E-05
2871.45217684413,-0.0002600455866944
2867.72301817291,-0.000973266366026169
2863.99385950168,-0.00246926915265832
2860.26470083045,-0.00220441574278266
2856.53554215923,-0.00149497183296286
2852.806383488,-0.00200783171585895
2849.07722481677,-0.00178864645879019
2845.34806614555,-0.00143818327611776
2841.61890747432,-0.00229437261221995
2837.88974880309,-0.00181844929199366
2834.16059013187,-0.000478035680034917
2830.43143146064,-0.00064589493120419
2826.70227278942,-0.00191862369238527
2822.97311411819,-0.002345407944733
2819.24395544696,-0.00133817731373713
2815.51479677574,-0.00073565186669974
2811.78563810451,-0.000954213700910463
2808.05647943328,-0.00101507256401653
2804.32732076206,-0.00107957798146925
2800.59816209083,-0.00137491143419358
2796.86900341961,-0.00159611553679893
2793.13984474838,-0.00158172967457441
2789.41068607715,-0.0012177980370991
2785.68152740593,-0.00104206577894496
2781.9523687347,-0.0015659459575095
2778.22321006347,-0.00222078423667035
2774.49405139225,-0.0018621735959376
2770.76489272102,-0.00112498881933286
2767.0357340498,-0.00159987630886191
2763.30657537857,-0.00227250531663421
2759.57741670734,-0.00145029950813377
2755.84825803612,-0.000780880399877662
2752.11909936489,-0.00175760521264177
2748.38994069366,-0.00252150308418219
2744.66078202244,-0.00181522128735957
2740.93162335121,-0.00132176558352344
2737.20246467999,-0.00161027379051207
2733.47330600876,-0.00173909719769729
2729.74414733753,-0.00196217351708579
2726.01498866631,-0.00209106026194728
2722.28582999508,-0.00148132746866291
2718.55667132385,-0.000698642664995873
2714.82751265263,-0.00107038848469026
2711.0983539814,-0.00199126201640832
2707.36919531017,-0.00248711904982991
2703.64003663895,-0.00301170602398071
2699.91087796772,-0.0029695873408055
2696.1817192965,-0.00255483479044878
2692.45256062527,-0.00214486263524491
2688.72340195404,-0.00193548640132957
2684.99424328282,-0.00210670569093159
2681.26508461159,-0.00160108691300959
2677.53592594036,-0.00111194846194285
2673.80676726914,-0.000916439951736553
2670.07760859791,-0.000737575467776227
2666.34844992669,-0.00138333582879577
2662.61929125546,-0.00220969011917686
2658.89013258423,-0.00228628033964102
2655.16097391301,-0.00186344471755804
2651.43181524178,-0.00134814049033987
2647.70265657055,-0.00143413108087757
2643.97349789933,-0.00240653970365349
2640.2443392281,-0.00294201600802815
2636.51518055688,-0.00270370855000124
2632.78602188565,-0.00241247863669214
2629.05686321442,-0.00224009146419638
2625.3277045432,-0.00225071328073205
2621.59854587197,-0.00231921755447298
2617.86938720074,-0.00236384670521753
2614.14022852952,-0.0021790942652617
2610.41106985829,-0.00168965466278263
2606.68191118707,-0.000949645244315537
2602.95275251584,-0.000419371901993526
2599.22359384461,-0.000950630792402336
2595.49443517339,-0.00186616188790963
2591.76527650216,-0.00239475049921073
2588.03611783093,-0.0031243053147599
2584.30695915971,-0.00301890960891962
2580.57780048848,-0.00169608014839822
2576.84864181725,-0.00135361600039139
2573.11948314603,-0.00167465387112385
2569.3903244748,-0.0016387955349563
2565.66116580358,-0.0023255134570714
2561.93200713235,-0.00293180411502814
2558.20284846112,-0.00200028053596515
2554.4736897899,-0.000663779432745596
2550.74453111867,-0.000571296747629968
2547.01537244744,-0.00136301009517359
2543.28621377622,-0.00140842631469555
2539.55705510499,-0.00110280651055342
2535.82789643377,-0.00145986689786079
2532.09873776254,-0.00156163947933168
2528.36957909131,-0.00131740566550494
2524.64042042009,-0.00151090594401851
2520.91126174886,-0.00213620030208692
2517.18210307763,-0.00260047501642803
2513.45294440641,-0.00225474078148316
2509.72378573518,-0.00164227158459449
2505.99462706396,-0.00170330959968177
2502.26546839273,-0.00178274126467037
2498.5363097215,-0.00152961728242796
2494.80715105028,-0.00178574194495925
2491.07799237905,-0.00227584291524912
2487.34883370782,-0.00231452270495601
2483.6196750366,-0.00202179818494629
2479.89051636537,-0.00171058115926829
2476.16135769415,-0.00144832123092987
2472.43219902292,-0.00118927737334676
2468.70304035169,-0.00155925096793304
2464.97388168047,-0.00234887832937887
2461.24472300924,-0.00237360383562054
2457.51556433801,-0.00185168696580012
2453.78640566679,-0.00184253435851674
2450.05724699556,-0.00213403386897875
2446.32808832433,-0.0018716797936117
2442.59892965311,-0.00154867351923267
2438.86977098188,-0.00148647440577295
2435.14061231066,-0.00134701085852902
2431.41145363943,-0.00107213173779522
2427.6822949682,-0.00114308877827395
2423.95313629698,-0.00171450651688699
2420.22397762575,-0.00222268707103628
2416.49481895452,-0.00206269928399727
2412.7656602833,-0.00148727024434611
2409.03650161207,-0.00154522905560343
2405.30734294085,-0.00178160795070664
2401.57818426962,-0.00155517443074873
2397.84902559839,-0.00120079474621465
2394.11986692717,-0.00119534155000254
2390.39070825594,-0.00133245744644086
2386.66154958471,-0.00113561400338733
2382.93239091349,-0.00089932232436998
2379.20323224226,-0.000484598954612367
2375.47407357104,0.000343520578428066
2371.74491489981,0.00102410307817418
2368.01575622858,0.00128245507665327
2364.28659755736,0.00126603421086828
2360.55743888613,0.000807146945542707
2356.8282802149,-0.000294140658599745
2353.09912154368,-0.000865992400614452
2349.36996287245,-0.000164813416511304
2345.64080420122,0.000674712193506705
2341.91164553,0.000924336456964396
2338.18248685877,0.000670984531210752
2334.45332818755,0.0003160457775538
2330.72416951632,0.000116056730914848
2326.99501084509,-0.000230723645365103
2323.26585217387,-0.00071345537288707
2319.53669350264,-0.00106611215456616
2315.80753483141,-0.00130464554418819
2312.07837616019,-0.0014650482247664
2308.34921748896,-0.00146560417448563
2304.62005881774,-0.00126049347522578
2300.89090014651,-0.00118968586233547
2297.16174147528,-0.00166618474375787
2293.43258280406,-0.00204517319724893
2289.70342413283,-0.0022039301796323
2285.9742654616,-0.00210235698820183
2282.24510679038,-0.0016651621407858
2278.51594811915,-0.00217585097540602
2274.78678944793,-0.00259349670848195
2271.0576307767,-0.00186990323617577
2267.32847210547,-0.00139965013189769
2263.59931343425,-0.00155281797808417
2259.87015476302,-0.00160214629623566
2256.14099609179,-0.0020007216900443
2252.41183742057,-0.00266133501287989
2248.68267874934,-0.0022419635860097
2244.95352007812,-0.00173097948189839
2241.22436140689,-0.00145413360166896
2237.49520273566,-0.000678720370098216
2233.76604406444,-0.000248350983245541
2230.03688539321,-0.000320590037288685
2226.30772672198,-0.000830493989627702
2222.57856805076,-0.00172142604438268
2218.84940937953,-0.0015410546182752
2215.1202507083,-0.000257555741507571
2211.39109203708,0.000124658761904928
2207.66193336585,-0.000672062203028586
2203.93277469463,-0.00151607423105149
2200.2036160234,-0.0025983301726496
2196.47445735217,-0.00311205726491679
2192.74529868095,-0.00200607570372291
2189.01614000972,-0.000910301792652614
2185.28698133849,-0.000353834508799273
2181.55782266727,-7.05150692231127E-05
2177.82866399604,-0.000413775542967009
2174.09950532482,-0.000350072279027817
2170.37034665359,2.81756857717308E-05
2166.64118798236,-0.000514743834078137
2162.91202931114,-0.00143896103192163
2159.18287063991,-0.00177178208483983
2155.45371196868,-0.00146995712963836
2151.72455329746,-0.00170063597047677
2147.99539462623,-0.0021047987190339
2144.26623595501,-0.00146289752799892
2140.53707728378,-0.000874148698979402
2136.80791861255,-0.00083919818689642
2133.07875994133,-0.00103884831607113
2129.3496012701,-0.00157329060087947
2125.62044259887,-0.00182699200522555
2121.89128392765,-0.00164608170228004
2118.16212525642,-0.00156568568144381
2114.4329665852,-0.00176416729047076
2110.70380791397,-0.00193229456264109
2106.97464924274,-0.00169489652405026
2103.24549057152,-0.00142162911782528
2099.51633190029,-0.00150875047821889
2095.78717322906,-0.00190360911900138
2092.05801455784,-0.0022652423083002
2088.32885588661,-0.00188768519530598
2084.59969721538,-0.00116389095604826
2080.87053854416,-0.00110848139096575
2077.14137987293,-0.00153654506282666
2073.41222120171,-0.00165238840996525
2069.68306253048,-0.00134409242011446
2065.95390385925,-0.00111383613057433
2062.22474518803,-0.00158653941380731
2058.4955865168,-0.00231632233503891
2054.76642784557,-0.00203749221338936
2051.03726917435,-0.00207248438537381
2047.30811050312,-0.00338576765351748
2043.5789518319,-0.00422397358794442
2039.84979316067,-0.00330306073659351
2036.12063448944,-0.00184817040496092
2032.39147581822,-0.00163013059027302
2028.66231714699,-0.0016890717853148
2024.93315847576,-0.00137465946934528
2021.20399980454,-0.00143714465522993
2017.47484113331,-0.00184662438595739
2013.74568246209,-0.00196958228492269
2010.01652379086,-0.00205262610920435
2006.28736511963,-0.00186058358545543
2002.55820644841,-0.00156013658195975
1998.82904777718,-0.00188643001915317
1995.09988910595,-0.00208703217527544
1991.37073043473,-0.00190596115367882
1987.6415717635,-0.00178986368210009
1983.91241309228,-0.00123546003948007
1980.18325442105,-0.00111900958076438
1976.45409574982,-0.00193618171991071
1972.7249370786,-0.00253394001701229
1968.99577840737,-0.0023223208084291
1965.26661973614,-0.00173316735570008
1961.53746106492,-0.00158605885723915
1957.80830239369,-0.00164521316907804
1954.07914372246,-0.00161219636986327
1950.34998505124,-0.00177956329295855
1946.62082638001,-0.0019950470933493
1942.89166770879,-0.00196402103599424
1939.16250903756,-0.00186825781494474
1935.43335036633,-0.00176990853057556
1931.70419169511,-0.00171498648474999
1927.97503302388,-0.00191423309847548
1924.24587435265,-0.00197061014600339
1920.51671568143,-0.00163316058994511
1916.7875570102,-0.00149987487363009
1913.05839833898,-0.00170864417965842
1909.32923966775,-0.00191368287622133
1905.60008099652,-0.002018274105495
1901.8709223253,-0.00194828717036829
1898.14176365407,-0.0018679499764239
1894.41260498284,-0.0018421925634175
1890.68344631162,-0.0017829580634934
1886.95428764039,-0.00180775734647667
1883.22512896917,-0.0017740949751157
1879.49597029794,-0.00174278862689761
1875.76681162671,-0.00167240422193227
1872.03765295549,-0.00151323126197794
1868.30849428426,-0.00156573621111718
1864.57933561303,-0.00171738882794035
1860.85017694181,-0.0017448958846994
1857.12101827058,-0.00184642083446368
1853.39185959936,-0.0019191005682835
1849.66270092813,-0.00176489779068267
1845.9335422569,-0.00160145333646647
1842.20438358568,-0.00164600272820565
1838.47522491445,-0.00174484503014799
1834.74606624322,-0.00173340779654369
1831.016907572,-0.00167073521985883
1827.28774890077,-0.00170433409863006
1823.55859022954,-0.00178421482401531
1819.82943155832,-0.00178378851027166
1816.10027288709,-0.0017409846331449
1812.37111421587,-0.00170789553845805
1808.64195554464,-0.00167809445371276
1804.91279687341,-0.00162563330238999
1801.18363820219,-0.00163361233854016
1797.45447953096,-0.00158112567160525
1793.72532085973,-0.00157259265016957
1789.99616218851,-0.0016778339837689
1786.26700351728,-0.00176328490057412
1782.53784484606,-0.00174555098198746
1778.80868617483,-0.00154538457897759
1775.0795275036,-0.00137912265907248
1771.35036883238,-0.00153492270283598
1767.62121016115,-0.00172641062028836
1763.89205148992,-0.00174144421144152
1760.1628928187,-0.00171486267170309
1756.43373414747,-0.00162501196461722
1752.70457547625,-0.00156209532319463
1748.97541680502,-0.00160649929541106
1745.24625813379,-0.00154328935382233
1741.51709946257,-0.00136253387540401
1737.78794079134,-0.00127075429400603
1734.05878212011,-0.00140741883604341
1730.32962344889,-0.00161851539713123
1726.60046477766,-0.00161323296434319
1722.87130610643,-0.00140537088201828
1719.14214743521,-0.00126983928869534
1715.41298876398,-0.00145656065797337
1711.68383009276,-0.00154839940298174
1707.95467142153,-0.00143398568374906
1704.2255127503,-0.00123241968845354
1700.49635407908,-0.00116778333829217
1696.76719540785,-0.00139201679128994
1693.03803673662,-0.00154916217314562
1689.3088780654,-0.00141234763383979
1685.57971939417,-0.00131389142360939
1681.85056072295,-0.00151811884469485
1678.12140205172,-0.00155019453259153
1674.39224338049,-0.00148278949410653
1670.66308470927,-0.00150843405490355
1666.93392603804,-0.0015425894691073
1663.20476736681,-0.00158750394087054
1659.47560869559,-0.00152228134574045
1655.74645002436,-0.0012013415667861
1652.01729135314,-0.00114286212182044
1648.28813268191,-0.00136707248096206
1644.55897401068,-0.00155155276390389
1640.82981533946,-0.00147992799956115
1637.10065666823,-0.00137994083772624
1633.371497997,-0.0015468581992267
1629.64233932578,-0.00156721168602898
1625.91318065455,-0.00155575507118127
1622.18402198333,-0.00156672600303084
1618.4548633121,-0.00154620186311839
1614.72570464087,-0.00170611536046507
1610.99654596965,-0.00183966390091506
1607.26738729842,-0.00181976230294548
1603.53822862719,-0.00176285487109253
1599.80906995597,-0.00172445270346472
1596.07991128474,-0.00175931117456731
1592.35075261351,-0.00181087244330164
1588.62159394229,-0.00180544323048952
1584.89243527106,-0.00173749402234099
1581.16327659984,-0.00155842067250172
1577.43411792861,-0.0014225394412377
1573.70495925738,-0.00144839390889739
1569.97580058616,-0.00148160267446418
1566.24664191493,-0.0014342348950529
1562.5174832437,-0.00111062061294846
1558.78832457248,-0.00107557729017365
1555.05916590125,-0.00142381647149385
1551.33000723003,-0.00156481555652191
1547.6008485588,-0.00138526860090835
1543.87168988757,-0.000992153456481542
1540.14253121635,-0.00104894366245276
1536.41337254512,-0.00134848292104527
1532.68421387389,-0.00144275492314189
1528.95505520267,-0.0013751193349616
1525.22589653144,-0.00120122632023153
1521.49673786022,-0.00122520975212719
1517.76757918899,-0.00140482966118698
1514.03842051776,-0.00141040428972236
1510.30926184654,-0.00123373718797808
1506.58010317531,-0.00130331941316198
1502.85094450408,-0.00149020461147812
1499.12178583286,-0.00147177823910214
1495.39262716163,-0.00147307645012056
1491.66346849041,-0.00147068029836396
1487.93430981918,-0.00159541005181193
1484.20515114795,-0.00170872036894398
1480.47599247673,-0.00164446074355728
1476.7468338055,-0.00145632408072995
1473.01767513427,-0.00143995578057441
1469.28851646305,-0.0015879350918472
1465.55935779182,-0.00159972019732865
1461.83019912059,-0.00147814166816909
1458.10104044937,-0.00140905842292466
1454.37188177814,-0.00158518054893212
1450.64272310692,-0.00164062888583516
1446.91356443569,-0.00166041074483746
1443.18440576446,-0.00166530639067186
1439.45524709324,-0.00158858090960178
1435.72608842201,-0.00160500373360927
1431.99692975078,-0.00164195382479964
1428.26777107956,-0.00163422126694627
1424.53861240833,-0.00156414925062622
1420.80945373711,-0.00150130156058517
1417.08029506588,-0.00160654340755099
1413.35113639465,-0.00168236571825799
1409.62197772343,-0.00165503160465287
1405.8928190522,-0.00162887081478877
1402.16366038097,-0.00159808227273302
1398.43450170975,-0.00155318800883454
1394.70534303852,-0.00157648091785388
1390.9761843673,-0.00161215071589961
1387.24702569607,-0.00164571647512583
1383.51786702484,-0.00168879998860481
1379.78870835362,-0.00164964610543261
1376.05954968239,-0.00162170850446184
1372.33039101116,-0.00163409188349681
1368.60123233994,-0.00161374786396246
1364.87207366871,-0.00159621816319591
1361.14291499749,-0.00163469630468309
1357.41375632626,-0.00166285276182889
1353.68459765503,-0.00167147423057167
1349.95543898381,-0.00166606018753515
1346.22628031258,-0.00165928214930459
1342.49712164135,-0.00164879683502476
1338.76796297013,-0.00165368686296845
1335.0388042989,-0.00166032345125679
1331.30964562767,-0.00165684785144654
1327.58048695645,-0.00165941536992393
1323.85132828522,-0.00165651146312018
1320.122169614,-0.00165693153498166
1316.39301094277,-0.00166340043239689
1312.66385227154,-0.00165750790120224
1308.93469360032,-0.00164756443421643
1305.20553492909,-0.00166123349464103
1301.47637625786,-0.00165755297711055
1297.74721758664,-0.00162421448022791
1294.01805891541,-0.0016117267680385
1290.28890024419,-0.00163412539728627
1286.55974157296,-0.0016549405122389
1282.83058290173,-0.00167058124835108
1279.10142423051,-0.00166814348534762
1275.37226555928,-0.00165143278333223
1271.64310688805,-0.00162784643397606
1267.91394821683,-0.00162062662295711
1264.1847895456,-0.00163038605702102
1260.45563087438,-0.00163922661478093
1256.72647220315,-0.0016271630389434
1252.99731353192,-0.0016285437483283
1249.2681548607,-0.00165576077584978
1245.53899618947,-0.00165102553693687
1241.80983751824,-0.00162429934768915
1238.08067884702,-0.00161598892986718
1234.35152017579,-0.00163454720937755
1230.62236150457,-0.0016626325168713
1226.89320283334,-0.00165315967618824
1223.16404416211,-0.00162519262124083
1219.43488549089,-0.00163185813425879
1215.70572681966,-0.00167143454683027
1211.97656814843,-0.00174528521617574
1208.24740947721,-0.00178794724194731
1204.51825080598,-0.00175879253665674
1200.78909213475,-0.0017162494366357
1197.05993346353,-0.00168851720284662
1193.3307747923,-0.00166894245396324
1189.60161612108,-0.00166267840910896
1185.87245744985,-0.00165086995411471
1182.14329877862,-0.00163998099026236
1178.4141401074,-0.00164107913311853
1174.68498143617,-0.0016477419065131
1170.95582276494,-0.00164903759983492
1167.22666409372,-0.00166081128617598
1163.49750542249,-0.0017002615351803
1159.76834675127,-0.00177384842409497
1156.03918808004,-0.00183341466395848
1152.31002940881,-0.00182586544115049
1148.58087073759,-0.00177224481593237
1144.85171206636,-0.00170945978605693
1141.12255339513,-0.00165628046305643
1137.39339472391,-0.00161764462908439
1133.66423605268,-0.00160795790034604
1129.93507738146,-0.00160920348767825
1126.20591871023,-0.00162051425360801
1122.476760039,-0.00163392045930702
1118.74760136778,-0.0016250639553778
1115.01844269655,-0.00161309517853827
1111.28928402532,-0.0016003325824395
1107.5601253541,-0.00159109514612427
1103.83096668287,-0.00158851613103633
1100.10180801165,-0.00158656795107411
1096.37264934042,-0.00158293380052652
1092.64349066919,-0.00157176432382165
1088.91433199797,-0.00157667385191248
1085.18517332674,-0.00156285304582254
1081.45601465551,-0.00154305848874081
1077.72685598429,-0.00153091260897263
1073.99769731306,-0.00153347946160636
1070.26853864183,-0.00155264264109157
1066.53937997061,-0.00156805644140282
1062.81022129938,-0.00157923402245461
1059.08106262816,-0.00158988730053004
1055.35190395693,-0.00160915621166676
1051.6227452857,-0.00161349522156181
1047.89358661448,-0.00160050275395812
1044.16442794325,-0.00159093992970457
1040.43526927202,-0.00158888538382137
1036.7061106008,-0.00156939765887661
1032.97695192957,-0.00155886706422091
1029.24779325835,-0.00156819465242966
1025.51863458712,-0.00155937608200631
1021.78947591589,-0.00156387618909237
1018.06031724467,-0.00158859376709527
1014.33115857344,-0.00159421377321792
1010.60199990221,-0.00158869127660507
1006.87284123099,-0.00156954605845289
1003.14368255976,-0.00153489617898614
999.414523888535,-0.00150735972915896
995.685365217309,-0.00153232110495519
991.956206546083,-0.00156182281793768
988.227047874856,-0.00156539870956218
984.49788920363,-0.00153499917880575
980.768730532404,-0.00150857411877784
977.039571861178,-0.00152717446877603
973.310413189951,-0.00154543800282417
969.581254518725,-0.00155116930002018
965.852095847499,-0.00154093789692374
962.122937176272,-0.00151914509920585
958.393778505046,-0.00148755827360669
954.66461983382,-0.0014957384656778
950.935461162594,-0.00151812687154733
947.206302491367,-0.00153051436908187
943.477143820141,-0.00154389128813144
939.747985148915,-0.00153688997673703
936.018826477688,-0.00150491879682913
932.289667806462,-0.00148865255286116
928.560509135236,-0.00148879094993018
924.83135046401,-0.00146302099167699
921.102191792783,-0.00142008361144854
917.373033121557,-0.0014000177963005
913.643874450331,-0.00140449434294168
909.914715779104,-0.00142197171646662
906.185557107878,-0.00144910079865888
902.456398436652,-0.00144632411472031
898.727239765426,-0.00142769466273902
894.998081094199,-0.00143241446665317
891.268922422973,-0.00144797198859927
887.539763751747,-0.00143855693744336
883.81060508052,-0.00141492651478494
880.081446409294,-0.00142502003707516
876.352287738068,-0.0014500047364379
872.623129066842,-0.00144688306551248
868.893970395615,-0.00143920004053593
865.164811724389,-0.00143573199953239
861.435653053163,-0.00143185638990001
857.706494381936,-0.00145204370039173
853.97733571071,-0.00148173455153168
850.248177039484,-0.00146351319260511
846.519018368258,-0.00142530058174559
842.789859697031,-0.0014019549716398
839.060701025805,-0.00141844189460765
835.331542354579,-0.00143251789899441
831.602383683352,-0.00140768565341028
827.873225012126,-0.00139836475192961
824.1440663409,-0.00142403177768838
820.414907669674,-0.00143036477862402
816.685748998447,-0.0014457808747792
812.956590327221,-0.00144425478162943
809.227431655995,-0.00141179357897777
805.498272984768,-0.00145065384282768
801.769114313542,-0.00149033808580423
798.039955642316,-0.00143563772568691
794.31079697109,-0.00134640781669325
790.581638299863,-0.00138389956640553
786.852479628637,-0.00141650603908702
783.123320957411,-0.00135252602452356
779.394162286184,-0.00135933644362894
775.665003614958,-0.00143205901636108
771.935844943732,-0.00140010181717925
768.206686272506,-0.00132191181265647
764.477527601279,-0.00132611888485914
760.748368930053,-0.00142294215908399
757.019210258827,-0.00145972915820314
753.2900515876,-0.0014092840977406
749.560892916374,-0.00135378414630027
745.831734245148,-0.00128624230442942
742.102575573922,-0.00126521470682201
738.373416902695,-0.00124531253957556
734.644258231469,-0.00124293675382566
730.915099560243,-0.00130677749568212
727.185940889016,-0.0013392526224725
723.45678221779,-0.0012715210722497
719.727623546564,-0.00128256891737437
715.998464875338,-0.00138327434497323
712.269306204111,-0.00145149001446041
708.540147532885,-0.00128367191304081
704.810988861659,-0.00110879491080426
701.081830190432,-0.00110429060255226
697.352671519206,-0.00122873820558343
693.62351284798,-0.00132260544556475
689.894354176754,-0.00122304508496169
686.165195505527,-0.00107744001687212
682.436036834301,-0.000977311873621994
678.706878163075,-0.00160745346652409
674.977719491848,-0.00177500785245099
671.248560820622,-0.000630167342803752
667.519402149396,-0.000385681356390254
663.790243478169,-0.00162891306081824
660.061084806943,-0.0018996002858113
656.331926135717,-0.000897548116921646
652.602767464491,-0.000749418278955895
648.873608793276,-0.0019624854284447
