Wavenumbercm-1,07:46:53
2998.24357166583,0.177977435575039
2994.5144129946,0.208444972394347
2990.78525432337,0.240761443780681
2987.05609565215,0.28903900365212
2983.32693698092,0.319229774119698
2979.59777830969,0.307642378049569
2975.86861963847,0.277115646025917
2972.13946096724,0.2567673732037
2968.41030229601,0.254803709823056
2964.68114362479,0.253663912899113
2960.95198495356,0.261673897862695
2957.22282628234,0.275560164886191
2953.49366761111,0.292797081009478
2949.76450893988,0.298784388674927
2946.03535026866,0.286753425662042
2942.30619159743,0.277759368863405
2938.5770329262,0.284770501404794
2934.84787425498,0.285008267001151
2931.11871558375,0.277375878540853
2927.38955691253,0.276955212457665
2923.6603982413,0.290152963038947
2919.93123957007,0.297228193351318
2916.20208089885,0.282577611867752
2912.47292222762,0.263389745725809
2908.74376355639,0.256535781764943
2905.01460488517,0.2619064324408
2901.28544621394,0.274267738261941
2897.55628754272,0.282151837911521
2893.82712887149,0.288601658423817
2890.09797020026,0.301733839476327
2886.36881152904,0.316906114380919
2882.63965285781,0.338820972621654
2878.91049418658,0.359591455044404
2875.18133551536,0.352230149084179
2871.45217684413,0.336690019867167
2867.72301817291,0.338928555574749
2863.99385950168,0.33558576231841
2860.26470083045,0.322058991601893
2856.53554215923,0.310673829704553
2852.806383488,0.302585719614766
2849.07722481677,0.291032453468471
2845.34806614555,0.288563087571143
2841.61890747432,0.273992620652069
2837.88974880309,0.239917691164136
2834.16059013187,0.207447568385508
2830.43143146064,0.183491016153491
2826.70227278942,0.163548067432691
2822.97311411819,0.144412985818234
2819.24395544696,0.128578286456151
2815.51479677574,0.116755682347573
2811.78563810451,0.104838446958734
2808.05647943328,0.0927921943915178
2804.32732076206,0.0847952224339815
2800.59816209083,0.0781689033072572
2796.86900341961,0.07156765808476
2793.13984474838,0.0651365894055529
2789.41068607715,0.0573891745643446
2785.68152740593,0.0496197884666512
2781.9523687347,0.0452103639256764
2778.22321006347,0.0425825400849882
2774.49405139225,0.0389173472896762
2770.76489272102,0.0350176428734678
2767.0357340498,0.0319229993062347
2763.30657537857,0.0290493339500106
2759.57741670734,0.0272887422149271
2755.84825803612,0.0269990162216138
2752.11909936489,0.0271370195315566
2748.38994069366,0.0265770666639128
2744.66078202244,0.0278265062301942
2740.93162335121,0.032412946096743
2737.20246467999,0.0377520419556247
2733.47330600876,0.0421351563982546
2729.74414733753,0.0441488414041448
2726.01498866631,0.0429476182866903
2722.28582999508,0.0393502385663306
2718.55667132385,0.0349216344676944
2714.82751265263,0.0304963141649983
2711.0983539814,0.0272047622877266
2707.36919531017,0.0257697609621481
2703.64003663895,0.0265995187893534
2699.91087796772,0.0292611159497106
2696.1817192965,0.0331738203676786
2692.45256062527,0.0373751695002706
2688.72340195404,0.0396787140451581
2684.99424328282,0.0390515972663075
2681.26508461159,0.0363391214608741
2677.53592594036,0.032760444006205
2673.80676726914,0.0301278950400468
2670.07760859791,0.028163071541201
2666.34844992669,0.0272629336997221
2662.61929125546,0.0285024430033834
2658.89013258423,0.0291115897284564
2655.16097391301,0.0265651574239952
2651.43181524178,0.0229949792864704
2647.70265657055,0.020121330939328
2643.97349789933,0.0171767440531617
2640.2443392281,0.0156360967497581
2636.51518055688,0.015639107879146
2632.78602188565,0.016264628965708
2629.05686321442,0.0178357234693364
2625.3277045432,0.0195714742246762
2621.59854587197,0.0214061076380357
2617.86938720074,0.0243844404889115
2614.14022852952,0.0272901713291045
2610.41106985829,0.0291047012116307
2606.68191118707,0.0305684231659458
2602.95275251584,0.0320594998782144
2599.22359384461,0.0331731007923631
2595.49443517339,0.0351693812852285
2591.76527650216,0.0382153213573517
2588.03611783093,0.0413082452223515
2584.30695915971,0.0447636716696547
2580.57780048848,0.0480389694667489
2576.84864181725,0.0516610911598941
2573.11948314603,0.0577090390064011
2569.3903244748,0.0647337734781469
2565.66116580358,0.0670284930267619
2561.93200713235,0.0633502718955868
2558.20284846112,0.0564540934692445
2554.4736897899,0.0499688231090971
2550.74453111867,0.0446520686748598
2547.01537244744,0.0399344012872742
2543.28621377622,0.0361144980438767
2539.55705510499,0.0327710942483373
2535.82789643377,0.0297009455929987
2532.09873776254,0.0279941839874372
2528.36957909131,0.0271057671103555
2524.64042042009,0.0264468026549872
2520.91126174886,0.0261533972742928
2517.18210307763,0.026517144047043
2513.45294440641,0.0277760816635909
2509.72378573518,0.0286722684490579
2505.99462706396,0.0289014241987742
2502.26546839273,0.0293889865743714
2498.5363097215,0.0303552165878309
2494.80715105028,0.0311867777504586
2491.07799237905,0.0318885388986809
2487.34883370782,0.0321779696242435
2483.6196750366,0.0313510190578888
2479.89051636537,0.0295663552941645
2476.16135769415,0.0275202731237552
2472.43219902292,0.0251991644208464
2468.70304035169,0.0231441826777362
2464.97388168047,0.0209850845484272
2461.24472300924,0.0191181623651057
2457.51556433801,0.0182048578518092
2453.78640566679,0.0176339198599386
2450.05724699556,0.0171013695795535
2446.32808832433,0.0168355434073058
2442.59892965311,0.0168820682791227
2438.86977098188,0.0171520118373477
2435.14061231066,0.0170030307435747
2431.41145363943,0.0160359768458952
2427.6822949682,0.014868965964611
2423.95313629698,0.013923116930397
2420.22397762575,0.0137611524792727
2416.49481895452,0.0142356281057352
2412.7656602833,0.0143541461636694
2409.03650161207,0.013239643955466
2405.30734294085,0.0118580360874305
2401.57818426962,0.0112101046287883
2397.84902559839,0.0111702606429225
2394.11986692717,0.0112430413707982
2390.39070825594,0.0121979929136158
2386.66154958471,0.0152801777159684
2382.93239091349,0.0227334069583319
2379.20323224226,0.0361751780096624
2375.47407357104,0.0523039051461552
2371.74491489981,0.0657406129490038
2368.01575622858,0.0743810693105928
2364.28659755736,0.0770046982017539
2360.55743888613,0.070181576492991
2356.8282802149,0.0528269757995194
2353.09912154368,0.0405611673938369
2349.36996287245,0.0493363913413862
2345.64080420122,0.0718045989425335
2341.91164553,0.0864385516190109
2338.18248685877,0.0788260598735005
2334.45332818755,0.059560522020298
2330.72416951632,0.0452762393736397
2326.99501084509,0.0356359368231355
2323.26585217387,0.0269471923522407
2319.53669350264,0.0194602361319213
2315.80753483141,0.0135511861421341
2312.07837616019,0.00913238336472491
2308.34921748896,0.00586608422337857
2304.62005881774,0.00381321078918376
2300.89090014651,0.0028736661928932
2297.16174147528,0.00286793979068682
2293.43258280406,0.00477407296069618
2289.70342413283,0.00854285147130564
2285.9742654616,0.0128232124118421
2282.24510679038,0.0168885381459674
2278.51594811915,0.0194575458336632
2274.78678944793,0.0207040642510731
2271.0576307767,0.0214082797530302
2267.32847210547,0.0209065108457493
2263.59931343425,0.0196072750316004
2259.87015476302,0.0189439197813595
2256.14099609179,0.0189092975052208
2252.41183742057,0.0187059767683904
2248.68267874934,0.0195914025203549
2244.95352007812,0.0204182971146878
2241.22436140689,0.0211333102941049
2237.49520273566,0.0229375378876028
2233.76604406444,0.0255062765562036
2230.03688539321,0.0278611991070589
2226.30772672198,0.0300910238143477
2222.57856805076,0.0321418677162531
2218.84940937953,0.0347457884297439
2215.1202507083,0.0385092777444351
2211.39109203708,0.0419821244523028
2207.66193336585,0.0436223183306519
2203.93277469463,0.0452475763858539
2200.2036160234,0.04786995148902
2196.47445735217,0.0511727725560086
2192.74529868095,0.0568601237313353
2189.01614000972,0.0657680185383282
2185.28698133849,0.0759590865013094
2181.55782266727,0.0825757444102474
2177.82866399604,0.0858511371255304
2174.09950532482,0.0891898808799231
2170.37034665359,0.0995235772975239
2166.64118798236,0.121157998040994
2162.91202931114,0.148117635118427
2159.18287063991,0.152560935616394
2155.45371196868,0.1387852211808
2151.72455329746,0.124189717336739
2147.99539462623,0.11355680884823
2144.26623595501,0.103642368007861
2140.53707728378,0.0950157161011153
2136.80791861255,0.0837683590464662
2133.07875994133,0.0690941719700106
2129.3496012701,0.0548843370909898
2125.62044259887,0.0446816456878411
2121.89128392765,0.0382880772327981
2118.16212525642,0.034240398053453
2114.4329665852,0.0323690557638476
2110.70380791397,0.0316540726559242
2106.97464924274,0.0314474852273404
2103.24549057152,0.0313822039883207
2099.51633190029,0.0310941981082149
2095.78717322906,0.0281599264151887
2092.05801455784,0.0233649786669182
2088.32885588661,0.019176479064395
2084.59969721538,0.0169429380588284
2080.87053854416,0.0154118409892586
2077.14137987293,0.0147973843590132
2073.41222120171,0.0151020445244552
2069.68306253048,0.0167628492802244
2065.95390385925,0.0185829688009586
2062.22474518803,0.0193871986994396
2058.4955865168,0.0190236367720629
2054.76642784557,0.0205305778204892
2051.03726917435,0.026112782481749
2047.30811050312,0.0323602905870674
2043.5789518319,0.0350123329599209
2039.84979316067,0.0376301256246685
2036.12063448944,0.0416925362667573
2032.39147581822,0.0428400297632818
2028.66231714699,0.0403672972654583
2024.93315847576,0.0369131495651222
2021.20399980454,0.0341672617324058
2017.47484113331,0.0317111125225331
2013.74568246209,0.0301539682581004
2010.01652379086,0.0280185207459993
2006.28736511963,0.0240193415528876
2002.55820644841,0.0193907186786774
1998.82904777718,0.0172939048417831
1995.09988910595,0.0178669724389038
1991.37073043473,0.0192975836963829
1987.6415717635,0.0200339678469358
1983.91241309228,0.023805871178387
1980.18325442105,0.030060553901113
1976.45409574982,0.0337886218082318
1972.7249370786,0.0329226818537266
1968.99577840737,0.0310261335055266
1965.26661973614,0.0278495816213008
1961.53746106492,0.0238893636721913
1957.80830239369,0.0187280788280144
1954.07914372246,0.014085822808838
1950.34998505124,0.0108873522175218
1946.62082638001,0.00886739054715183
1942.89166770879,0.0062271738598239
1939.16250903756,0.00301018163363765
1935.43335036633,0.000374288339737067
1931.70419169511,-0.00139211114478219
1927.97503302388,-0.0019607176434398
1924.24587435265,-0.00181920962748547
1920.51671568143,-0.00230310720447647
1916.7875570102,-0.00417362398251644
1913.05839833898,-0.00557297534562932
1909.32923966775,-0.00637005690482686
1905.60008099652,-0.00733013491979757
1901.8709223253,-0.00761948392758722
1898.14176365407,-0.00712137358145774
1894.41260498284,-0.00649827936498416
1890.68344631162,-0.00693079908791982
1886.95428764039,-0.00853425450129016
1883.22512896917,-0.00946230435068093
1879.49597029794,-0.00973246056325855
1875.76681162671,-0.00829216962602124
1872.03765295549,-0.00560009835356768
1868.30849428426,-0.00599648970832511
1864.57933561303,-0.00807074056008746
1860.85017694181,-0.00854517802994451
1857.12101827058,-0.00862263760230581
1853.39185959936,-0.00765918216622801
1849.66270092813,-0.00449865836062262
1845.9335422569,-0.00260192638471833
1842.20438358568,-0.0047902702539386
1838.47522491445,-0.00593376112425008
1834.74606624322,-0.00366366242566015
1831.016907572,-0.00100735328493866
1827.28774890077,-0.0013951019324697
1823.55859022954,-0.00314772183980008
1819.82943155832,-0.00329574215409921
1816.10027288709,-0.00236214745272841
1812.37111421587,-0.00183717854270162
1808.64195554464,-0.0021127439071083
1804.91279687341,-0.00108670456483363
1801.18363820219,-6.62078520072476E-05
1797.45447953096,0.00127314045737997
1793.72532085973,0.00180044245257671
1789.99616218851,-0.000505588819039608
1786.26700351728,-0.0014094051018911
1782.53784484606,-0.000879521092256227
1778.80868617483,0.00117505193854807
1775.0795275036,0.00522592245790448
1771.35036883238,0.00397380609868664
1767.62121016115,0.000729496443340103
1763.89205148992,0.000542707702117019
1760.1628928187,0.00069258898742347
1756.43373414747,0.00184453369672169
1752.70457547625,0.00484919459530167
1748.97541680502,0.00519907154785691
1745.24625813379,0.00600021936339262
1741.51709946257,0.0115994607888912
1737.78794079134,0.0207324468702422
1734.05878212011,0.025259018661066
1730.32962344889,0.0216721608497555
1726.60046477766,0.0220813892827361
1722.87130610643,0.028875619176405
1719.14214743521,0.0314726739700394
1715.41298876398,0.0196650746878214
1711.68383009276,0.00990941104408782
1707.95467142153,0.00912592306206695
1704.2255127503,0.0137348390798047
1700.49635407908,0.014406298001612
1696.76719540785,0.00636963004350727
1693.03803673662,0.00135807466675693
1689.3088780654,0.00528425649685579
1685.57971939417,0.00841905507018833
1681.85056072295,0.0039897234457988
1678.12140205172,0.00365377886671486
1674.39224338049,0.00619208332299581
1670.66308470927,0.00487953693852599
1666.93392603804,0.00235861855763698
1663.20476736681,0.00190094252257195
1659.47560869559,0.00654169304638304
1655.74645002436,0.0166159213191052
1652.01729135314,0.0169499587418587
1648.28813268191,0.0105412689769256
1644.55897401068,0.00567924066542708
1640.82981533946,0.00752926791532395
1637.10065666823,0.0113131690390529
1633.371497997,0.00714979551069882
1629.64233932578,0.00678538748666174
1625.91318065455,0.00933842329661651
1622.18402198333,0.0108594943324756
1618.4548633121,0.0104358771245788
1614.72570464087,0.00606306304858163
1610.99654596965,0.00328738915236261
1607.26738729842,0.00266379140416871
1603.53822862719,0.00192000252143334
1599.80906995597,0.00148396216298797
1596.07991128474,0.000758686845317897
1592.35075261351,-0.00114297488862668
1588.62159394229,-0.0031583901873571
1584.89243527106,-0.00362692295082222
1581.16327659984,-0.000792035593853081
1577.43411792861,0.00204540163549982
1573.70495925738,0.00176646037311459
1569.97580058616,0.00150207151654882
1566.24664191493,0.00416781216783386
1562.5174832437,0.0148800345789971
1558.78832457248,0.0172227010473981
1555.05916590125,0.00722360716639039
1551.33000723003,0.00455490709999165
1547.6008485588,0.0106241128366214
1543.87168988757,0.0214353670638527
1540.14253121635,0.0210457084579768
1536.41337254512,0.0168731866236662
1532.68421387389,0.0182423399696529
1528.95505520267,0.0221173424158948
1525.22589653144,0.0274229411336659
1521.49673786022,0.0278523047280611
1517.76757918899,0.0245154598133677
1514.03842051776,0.026280031507937
1510.30926184654,0.0355748894683099
1506.58010317531,0.0368359550908179
1502.85094450408,0.0346520361367525
1499.12178583286,0.0407011747819511
1495.39262716163,0.0473392764288484
1491.66346849041,0.0544100231998911
1487.93430981918,0.0588304753143893
1484.20515114795,0.0635070179386042
1480.47599247673,0.075286453017177
1476.7468338055,0.0923604124106865
1473.01767513427,0.11071525931191
1469.28851646305,0.134410627963134
1465.55935779182,0.168826993554986
1461.83019912059,0.18967672722731
1458.10104044937,0.179157688477516
1454.37188177814,0.157469445838492
1450.64272310692,0.144681592546461
1446.91356443569,0.122740379077344
1443.18440576446,0.095853315639956
1439.45524709324,0.0764866170126217
1435.72608842201,0.060860223381522
1431.99692975078,0.0488007743097164
1428.26777107956,0.0412997135614203
1424.53861240833,0.0377292019999343
1420.80945373711,0.0350875902679758
1417.08029506588,0.0278216557062271
1413.35113639465,0.0223872804176172
1409.62197772343,0.0216836157994796
1405.8928190522,0.0246468245910649
1402.16366038097,0.0306754256323855
1398.43450170975,0.0339852279053039
1394.70534303852,0.028047892120992
1390.9761843673,0.0214388588419405
1387.24702569607,0.0185739083479983
1383.51786702484,0.0175494933408031
1379.78870835362,0.0214627428240637
1376.05954968239,0.0346692625635213
1372.33039101116,0.0648845917532443
1368.60123233994,0.105263146149736
1364.87207366871,0.112314193231687
1361.14291499749,0.0754991169922107
1357.41375632626,0.0444075256192495
1353.68459765503,0.0313031095784387
1349.95543898381,0.0271167817529376
1346.22628031258,0.027634857980401
1342.49712164135,0.0328235019164911
1338.76796297013,0.039346645017227
1335.0388042989,0.0435822248020647
1331.30964562767,0.0443920912669177
1327.58048695645,0.042205441674984
1323.85132828522,0.0401095185837083
1320.122169614,0.0399979123449987
1316.39301094277,0.0441165757962526
1312.66385227154,0.0541844678197879
1308.93469360032,0.0673011326202494
1305.20553492909,0.0778121392785623
1301.47637625786,0.0907070091221649
1297.74721758664,0.112744209912827
1294.01805891541,0.143056894320078
1290.28890024419,0.179085339268246
1286.55974157296,0.218373070257387
1282.83058290173,0.220084246273196
1279.10142423051,0.166700549456759
1275.37226555928,0.11802762273189
1271.64310688805,0.0988421992273807
1267.91394821683,0.0943142638373874
1264.1847895456,0.0950651500824307
1260.45563087438,0.100246183792711
1256.72647220315,0.109752837975099
1252.99731353192,0.122868203194017
1249.2681548607,0.137597266584852
1245.53899618947,0.14726242517631
1241.80983751824,0.144739134730761
1238.08067884702,0.132986627390375
1234.35152017579,0.122365290883286
1230.62236150457,0.116557994198461
1226.89320283334,0.114413155707221
1223.16404416211,0.114944948786402
1219.43488549089,0.117340901930294
1215.70572681966,0.121256785812087
1211.97656814843,0.127334607305384
1208.24740947721,0.134390766894076
1204.51825080598,0.140451057843779
1200.78909213475,0.148625905089682
1197.05993346353,0.161661106457672
1193.3307747923,0.176836563233979
1189.60161612108,0.18994673373491
1185.87245744985,0.204494512990582
1182.14329877862,0.227356212986772
1178.4141401074,0.24523533729256
1174.68498143617,0.231097999842215
1170.95582276494,0.194062400690317
1167.22666409372,0.160192567948976
1163.49750542249,0.138785927498746
1159.76834675127,0.130209649605775
1156.03918808004,0.133258202950857
1152.31002940881,0.146435199517482
1148.58087073759,0.169271064505276
1144.85171206636,0.188915836732517
1141.12255339513,0.184847944176714
1137.39339472391,0.161080613135872
1133.66423605268,0.135327846635308
1129.93507738146,0.117173566224843
1126.20591871023,0.107580933202183
1122.476760039,0.104766192307194
1118.74760136778,0.107246845896576
1115.01844269655,0.113725853964015
1111.28928402532,0.12194322886018
1107.5601253541,0.132760821497946
1103.83096668287,0.149618583933602
1100.10180801165,0.174469918728967
1096.37264934042,0.207601198017668
1092.64349066919,0.250813907684663
1088.91433199797,0.312604825912939
1085.18517332674,0.410070615512367
1081.45601465551,0.567642956930759
1077.72685598429,0.818755319265968
1073.99769731306,1.19108686883177
1070.26853864183,1.6161193665231
1066.53937997061,1.75015537953738
1062.81022129938,1.51832173301715
1059.08106262816,1.20145971401907
1055.35190395693,0.921513677234066
1051.6227452857,0.709570475578028
1047.89358661448,0.560656877139734
1044.16442794325,0.463319602744848
1040.43526927202,0.408287463017145
1036.7061106008,0.388717936245163
1032.97695192957,0.385838623102688
1029.24779325835,0.365816990217435
1025.51863458712,0.311275167332693
1021.78947591589,0.244608975554347
1018.06031724467,0.191323883403357
1014.33115857344,0.156432201609566
1010.60199990221,0.133681843211024
1006.87284123099,0.117836377901637
1003.14368255976,0.10617938477744
999.414523888535,0.0977807539597227
995.685365217309,0.0918246897984015
991.956206546083,0.0881274529638647
988.227047874856,0.086193017222434
984.49788920363,0.0857748782887798
980.768730532404,0.0866610787771255
977.039571861178,0.0888847625665512
973.310413189951,0.0927369586675145
969.581254518725,0.0983844879465516
965.852095847499,0.10622506930553
962.122937176272,0.117081782915205
958.393778505046,0.131231146749871
954.66461983382,0.148780333398458
950.935461162594,0.170052542051602
947.206302491367,0.192292564795686
943.477143820141,0.214991130099285
939.747985148915,0.243731765369753
936.018826477688,0.283701562259006
932.289667806462,0.337932662001865
928.560509135236,0.411381442385438
924.83135046401,0.509842301434008
921.102191792783,0.638546290047529
917.373033121557,0.788065275801591
913.643874450331,0.923222962303847
909.914715779104,0.995616210015625
906.185557107878,0.990853931482172
902.456398436652,0.917606094037802
898.727239765426,0.804337111445608
894.998081094199,0.684420589495892
891.268922422973,0.579067862015586
887.539763751747,0.495940748021656
883.81060508052,0.436085035779468
880.081446409294,0.394826748032644
876.352287738068,0.365585730834215
872.623129066842,0.342907368048019
868.893970395615,0.322387141776803
865.164811724389,0.302666904790473
861.435653053163,0.283664607528844
857.706494381936,0.266839319984686
853.97733571071,0.254285585262706
850.248177039484,0.246169481318032
846.519018368258,0.235930009820773
842.789859697031,0.222675552617645
839.060701025805,0.209997825118469
835.331542354579,0.198692441256217
831.602383683352,0.187014474914081
827.873225012126,0.175310680202224
824.1440663409,0.164445359598027
820.414907669674,0.155102017667034
816.685748998447,0.144435164487432
812.956590327221,0.131946888138342
809.227431655995,0.119716211772248
805.498272984768,0.109745107261243
801.769114313542,0.102587586323077
798.039955642316,0.0983906161477834
794.31079697109,0.0946337772807765
790.581638299863,0.0914349237490451
786.852479628637,0.0934285905726536
783.123320957411,0.109456922003093
779.394162286184,0.116671367855889
775.665003614958,0.0973649545130033
771.935844943732,0.0846354874916177
768.206686272506,0.0839764273629193
764.477527601279,0.0886227036702666
760.748368930053,0.0983876431047655
757.019210258827,0.105562273245284
753.2900515876,0.104348128729289
749.560892916374,0.101382130837518
745.831734245148,0.0984271266592238
742.102575573922,0.0931912927375228
738.373416902695,0.0877230018726651
734.644258231469,0.0813142952153612
730.915099560243,0.0739547629801012
727.185940889016,0.0665884019690482
723.45678221779,0.0629654567880791
719.727623546564,0.0646285938833344
715.998464875338,0.0769895480538892
712.269306204111,0.092197422299752
708.540147532885,0.0919965482983894
704.810988861659,0.0914080840646093
701.081830190432,0.0945550582713044
697.352671519206,0.0927735257392343
693.62351284798,0.0956280575524694
689.894354176754,0.103519325992959
686.165195505527,0.131243486927801
682.436036834301,0.165664944923123
678.706878163075,0.164764369520413
674.977719491848,0.161369120213588
671.248560820622,0.196435393179946
667.519402149396,0.244941594422851
663.790243478169,0.276076869427364
660.061084806943,0.277948447596332
656.331926135717,0.274030227144428
652.602767464491,0.266012813413469
648.873608793276,0.254358720767351
