Wavenumbercm-1,05:45:53
2998.24357166583,0.18308369079322
2994.5144129946,0.212984626962666
2990.78525432337,0.244389286760904
2987.05609565215,0.300728550397048
2983.32693698092,0.338155001521869
2979.59777830969,0.319085198531751
2975.86861963847,0.28383843763365
2972.13946096724,0.266707986254987
2968.41030229601,0.267411814811555
2964.68114362479,0.266697776992736
2960.95198495356,0.275548902290173
2957.22282628234,0.289492256031484
2953.49366761111,0.306701981813211
2949.76450893988,0.312424095554814
2946.03535026866,0.296129870206842
2942.30619159743,0.281754484439048
2938.5770329262,0.289333064968992
2934.84787425498,0.296038879408422
2931.11871558375,0.290146274793266
2927.38955691253,0.285191961895654
2923.6603982413,0.29734909375793
2919.93123957007,0.305511554020523
2916.20208089885,0.289596538437902
2912.47292222762,0.270188452553367
2908.74376355639,0.263930463325133
2905.01460488517,0.26780203741138
2901.28544621394,0.280210307488354
2897.55628754272,0.288657043133834
2893.82712887149,0.292603514440766
2890.09797020026,0.304863948983426
2886.36881152904,0.320952106523781
2882.63965285781,0.343408158159586
2878.91049418658,0.365842240838369
2875.18133551536,0.35967869961437
2871.45217684413,0.343834873078036
2867.72301817291,0.34639943455584
2863.99385950168,0.343869940146683
2860.26470083045,0.329332372538791
2856.53554215923,0.316181999998691
2852.806383488,0.308847377989998
2849.07722481677,0.297815886143684
2845.34806614555,0.294374349432377
2841.61890747432,0.278130931550986
2837.88974880309,0.244051146791374
2834.16059013187,0.212681789221312
2830.43143146064,0.188320145981148
2826.70227278942,0.167352584557172
2822.97311411819,0.147973360522103
2819.24395544696,0.132626788419513
2815.51479677574,0.121275269158302
2811.78563810451,0.109883976038982
2808.05647943328,0.100305802950018
2804.32732076206,0.0958099731819413
2800.59816209083,0.0920159475355019
2796.86900341961,0.0869104705079298
2793.13984474838,0.080052089974042
2789.41068607715,0.0711165169914839
2785.68152740593,0.0609293790716372
2781.9523687347,0.0531114978838341
2778.22321006347,0.0474314813501635
2774.49405139225,0.0417662487621631
2770.76489272102,0.0366270980467797
2767.0357340498,0.0328167060193095
2763.30657537857,0.0306060470439281
2759.57741670734,0.0301146310208681
2755.84825803612,0.0299273987257311
2752.11909936489,0.0291671007206026
2748.38994069366,0.0279072085795403
2744.66078202244,0.0287558737064808
2740.93162335121,0.0329331051191028
2737.20246467999,0.0390408770661836
2733.47330600876,0.044039473079795
2729.74414733753,0.0454375990179933
2726.01498866631,0.0443526309358007
2722.28582999508,0.0413509976266783
2718.55667132385,0.0366228872570674
2714.82751265263,0.0318144978730247
2711.0983539814,0.0287186007410837
2707.36919531017,0.0276066174866247
2703.64003663895,0.0280398996535358
2699.91087796772,0.0298685402612978
2696.1817192965,0.033933833004659
2692.45256062527,0.0387525572603831
2688.72340195404,0.041573607651031
2684.99424328282,0.0410575639721266
2681.26508461159,0.0378141463919442
2677.53592594036,0.033589874955057
2673.80676726914,0.0303386848444762
2670.07760859791,0.0279985267416568
2666.34844992669,0.0268814414825942
2662.61929125546,0.0274299966914139
2658.89013258423,0.0278308531447489
2655.16097391301,0.0258357393157924
2651.43181524178,0.0223162265497452
2647.70265657055,0.0195198891868253
2643.97349789933,0.0172820951248927
2640.2443392281,0.0164854210388159
2636.51518055688,0.0179535873651639
2632.78602188565,0.0204938352787715
2629.05686321442,0.0235804027360987
2625.3277045432,0.0272626321675771
2621.59854587197,0.0301990054848596
2617.86938720074,0.0325215331733769
2614.14022852952,0.034504200315457
2610.41106985829,0.0354581152196601
2606.68191118707,0.0361535235782605
2602.95275251584,0.0378538739387756
2599.22359384461,0.0393695822578102
2595.49443517339,0.0408527485113399
2591.76527650216,0.0430241091385045
2588.03611783093,0.0455828689805173
2584.30695915971,0.0487641641882137
2580.57780048848,0.051978041754924
2576.84864181725,0.0555468437099717
2573.11948314603,0.06181640324546
2569.3903244748,0.0692143778874775
2565.66116580358,0.0707431450909783
2561.93200713235,0.065289808970508
2558.20284846112,0.0576288392308998
2554.4736897899,0.0514184743579094
2550.74453111867,0.046046610130116
2547.01537244744,0.040712041570446
2543.28621377622,0.0366116724550622
2539.55705510499,0.034026009188678
2535.82789643377,0.0315459150824034
2532.09873776254,0.0301413820951779
2528.36957909131,0.0294900747976769
2524.64042042009,0.0283650107544618
2520.91126174886,0.0278158129758755
2517.18210307763,0.0280611220353814
2513.45294440641,0.0285010514403144
2509.72378573518,0.0290853620526947
2505.99462706396,0.0298465991617248
2502.26546839273,0.0312413134695288
2498.5363097215,0.0333101563486852
2494.80715105028,0.0347768398501251
2491.07799237905,0.0352644104243887
2487.34883370782,0.0352394436140503
2483.6196750366,0.03480525904192
2479.89051636537,0.0333379060636372
2476.16135769415,0.031015016245445
2472.43219902292,0.0283835562991413
2468.70304035169,0.0259853979407125
2464.97388168047,0.0234335453168389
2461.24472300924,0.0209738845868741
2457.51556433801,0.0194575028592168
2453.78640566679,0.0190715593187681
2450.05724699556,0.0186850216901199
2446.32808832433,0.018015601201122
2442.59892965311,0.0179493115420329
2438.86977098188,0.0184288577514829
2435.14061231066,0.0181834342872594
2431.41145363943,0.0174471451902915
2427.6822949682,0.0171633298502539
2423.95313629698,0.0165360328858031
2420.22397762575,0.0155238304939895
2416.49481895452,0.0149400843705286
2412.7656602833,0.0147854658526307
2409.03650161207,0.0142343860251088
2405.30734294085,0.0134035437099059
2401.57818426962,0.012649015004969
2397.84902559839,0.0124382688886961
2394.11986692717,0.0123822716665695
2390.39070825594,0.0129365885189433
2386.66154958471,0.0159874001436659
2382.93239091349,0.0239069102164872
2379.20323224226,0.0378055953837265
2375.47407357104,0.0545431071179967
2371.74491489981,0.0686501427281442
2368.01575622858,0.077721789904122
2364.28659755736,0.0804741004869377
2360.55743888613,0.0736730517012852
2356.8282802149,0.0562207684317419
2353.09912154368,0.0441228430305438
2349.36996287245,0.0544421337476104
2345.64080420122,0.0811372704045675
2341.91164553,0.100228686590873
2338.18248685877,0.0910844012453305
2334.45332818755,0.0667131022406713
2330.72416951632,0.0499170112989341
2326.99501084509,0.039942266754911
2323.26585217387,0.0305531137442213
2319.53669350264,0.0217327657107171
2315.80753483141,0.0150921500611083
2312.07837616019,0.0105567331684505
2308.34921748896,0.00709643584822154
2304.62005881774,0.00493393461741814
2300.89090014651,0.00415945415403194
2297.16174147528,0.00461324367880639
2293.43258280406,0.00661084248798407
2289.70342413283,0.0100208328502158
2285.9742654616,0.0141157619191889
2282.24510679038,0.0181556390359631
2278.51594811915,0.0200579157025786
2274.78678944793,0.0202796064072631
2271.0576307767,0.0202452441131989
2267.32847210547,0.0195474017772068
2263.59931343425,0.0185328125079074
2259.87015476302,0.0185492146290581
2256.14099609179,0.0189431069685974
2252.41183742057,0.0186770124993628
2248.68267874934,0.0195542644385877
2244.95352007812,0.0208523847858183
2241.22436140689,0.0223806302763383
2237.49520273566,0.0244778444137833
2233.76604406444,0.0268903115765663
2230.03688539321,0.0291660566206412
2226.30772672198,0.0315802217783563
2222.57856805076,0.0333301869293511
2218.84940937953,0.0355273243171464
2215.1202507083,0.0391129169745087
2211.39109203708,0.042646910253586
2207.66193336585,0.0446466879867574
2203.93277469463,0.0468995309291023
2200.2036160234,0.0496070767210407
2196.47445735217,0.0530413642945884
2192.74529868095,0.0588161943817026
2189.01614000972,0.0670309581591099
2185.28698133849,0.0760909188026294
2181.55782266727,0.082541275629724
2177.82866399604,0.0867116246014614
2174.09950532482,0.0906107240470271
2170.37034665359,0.101528437659689
2166.64118798236,0.124067207998764
2162.91202931114,0.150874246697181
2159.18287063991,0.154510350845485
2155.45371196868,0.140569244228386
2151.72455329746,0.125955455929271
2147.99539462623,0.115502108836426
2144.26623595501,0.105125103113601
2140.53707728378,0.0958567330165678
2136.80791861255,0.0844270145864949
2133.07875994133,0.0697748743778988
2129.3496012701,0.0556547621016515
2125.62044259887,0.0458472535441596
2121.89128392765,0.0394782087703236
2118.16212525642,0.0351388913212679
2114.4329665852,0.0328428876792609
2110.70380791397,0.031681125518145
2106.97464924274,0.0310856617893449
2103.24549057152,0.0306768169806492
2099.51633190029,0.0302357200005049
2095.78717322906,0.0273855008491257
2092.05801455784,0.0229156581895143
2088.32885588661,0.0188386294658337
2084.59969721538,0.0163871483073795
2080.87053854416,0.0151350808543418
2077.14137987293,0.0146986692775922
2073.41222120171,0.0145134522646712
2069.68306253048,0.0160797683618813
2065.95390385925,0.0179289679023279
2062.22474518803,0.0187584702883395
2058.4955865168,0.0186428875939685
2054.76642784557,0.0207571742709275
2051.03726917435,0.0270157060730082
2047.30811050312,0.0337801042903724
2043.5789518319,0.0365598357317546
2039.84979316067,0.0392595735035872
2036.12063448944,0.0432851091996105
2032.39147581822,0.0449009375189326
2028.66231714699,0.0422950480317278
2024.93315847576,0.0376731095720752
2021.20399980454,0.0335112847612901
2017.47484113331,0.0306474026713126
2013.74568246209,0.0293065794593879
2010.01652379086,0.0275002873836498
2006.28736511963,0.0243472440425788
2002.55820644841,0.0202458382740548
1998.82904777718,0.0180003311188922
1995.09988910595,0.0184209321802108
1991.37073043473,0.0194417484096879
1987.6415717635,0.0196773742095009
1983.91241309228,0.0237451135197394
1980.18325442105,0.0304581392895447
1976.45409574982,0.0344727927597147
1972.7249370786,0.0333942326089912
1968.99577840737,0.0309884098840852
1965.26661973614,0.0271689333562141
1961.53746106492,0.0231443068198053
1957.80830239369,0.0180685369777655
1954.07914372246,0.0136768358809747
1950.34998505124,0.0106299429845015
1946.62082638001,0.00858060605526451
1942.89166770879,0.00560836439554488
1939.16250903756,0.00240657080657381
1935.43335036633,-4.18525139208524E-05
1931.70419169511,-0.00200964218754778
1927.97503302388,-0.00260242926010101
1924.24587435265,-0.00214372616604859
1920.51671568143,-0.00266030253047136
1916.7875570102,-0.00474985142002726
1913.05839833898,-0.00603336169865051
1909.32923966775,-0.00676984152722297
1905.60008099652,-0.00783548388428707
1901.8709223253,-0.00821576560775414
1898.14176365407,-0.00749280569476119
1894.41260498284,-0.00649736270216488
1890.68344631162,-0.00691006469725234
1886.95428764039,-0.00884640385784046
1883.22512896917,-0.00989991074071461
1879.49597029794,-0.0103055831706015
1875.76681162671,-0.00862714430368011
1872.03765295549,-0.00529495336045875
1868.30849428426,-0.0058334314486779
1864.57933561303,-0.00851488816948876
1860.85017694181,-0.00912605395433683
1857.12101827058,-0.00924828047136269
1853.39185959936,-0.00801667652730883
1849.66270092813,-0.00402758300616653
1845.9335422569,-0.00179094888645391
1842.20438358568,-0.00476288342444044
1838.47522491445,-0.00622898137325191
1834.74606624322,-0.00330080620843805
1831.016907572,-4.87840559009549E-05
1827.28774890077,-0.000847478042455796
1823.55859022954,-0.00346653194661259
1819.82943155832,-0.00389730603910694
1816.10027288709,-0.00270845603201069
1812.37111421587,-0.00198850515010854
1808.64195554464,-0.00227719621397684
1804.91279687341,-0.000796260167569377
1801.18363820219,0.000543280895726914
1797.45447953096,0.00219042753168496
1793.72532085973,0.00279944504786872
1789.99616218851,3.46774148949643E-05
1786.26700351728,-0.000758195761672166
1782.53784484606,0.00039677796003328
1778.80868617483,0.00381968173830677
1775.0795275036,0.0107212423844273
1771.35036883238,0.0132512238539852
1767.62121016115,0.0164648751411227
1763.89205148992,0.0251060548553687
1760.1628928187,0.029937109704437
1756.43373414747,0.0284648448010946
1752.70457547625,0.0243352448557379
1748.97541680502,0.0170863664286026
1745.24625813379,0.0140883511158572
1741.51709946257,0.0201204763329218
1737.78794079134,0.032369774151032
1734.05878212011,0.0384213033165848
1730.32962344889,0.0321102848923897
1726.60046477766,0.0299442365776139
1722.87130610643,0.0363772617474944
1719.14214743521,0.0383875032183982
1715.41298876398,0.0229354543463784
1711.68383009276,0.0108889837022488
1707.95467142153,0.0104494102435756
1704.2255127503,0.0166759860011678
1700.49635407908,0.0173952619781933
1696.76719540785,0.00689177425581294
1693.03803673662,0.000587197977541863
1689.3088780654,0.00589873421661437
1685.57971939417,0.00989780322733922
1681.85056072295,0.00396432434843872
1678.12140205172,0.00321710447122768
1674.39224338049,0.00610949964695181
1670.66308470927,0.00404968422567698
1666.93392603804,0.00030444935245258
1663.20476736681,-0.000969810721984838
1659.47560869559,0.00417416143006373
1655.74645002436,0.0161295273870637
1652.01729135314,0.0158700306180326
1648.28813268191,0.00749226412520197
1644.55897401068,0.00120699465157307
1640.82981533946,0.0036879466118908
1637.10065666823,0.00850365080722054
1633.371497997,0.00325054755793286
1629.64233932578,0.00309487931503777
1625.91318065455,0.00655970756635234
1622.18402198333,0.00866979221404106
1618.4548633121,0.00857262489841763
1614.72570464087,0.00348676149232939
1610.99654596965,0.000279614912151433
1607.26738729842,-0.000271831646304873
1603.53822862719,-0.000992393901306127
1599.80906995597,-0.00131522207858169
1596.07991128474,-0.00188828960399694
1592.35075261351,-0.00378745643965529
1588.62159394229,-0.00577561057928321
1584.89243527106,-0.0058636027869464
1581.16327659984,-0.00189236727153431
1577.43411792861,0.0019241192933404
1573.70495925738,0.00159788638175961
1569.97580058616,0.00124961071925611
1566.24664191493,0.00462907073639093
1562.5174832437,0.0183438738466289
1558.78832457248,0.0211169718160266
1555.05916590125,0.00815186905841743
1551.33000723003,0.00460372712502757
1547.6008485588,0.0121434981234317
1543.87168988757,0.0254226386748509
1540.14253121635,0.0242269942801075
1536.41337254512,0.0189101997484622
1532.68421387389,0.0205991801715132
1528.95505520267,0.0246649621751807
1525.22589653144,0.0307924287919368
1521.49673786022,0.031450000987962
1517.76757918899,0.0272118224936784
1514.03842051776,0.0292913605823863
1510.30926184654,0.0406814272087348
1506.58010317531,0.0411011650764506
1502.85094450408,0.037042414465793
1499.12178583286,0.0433656592396136
1495.39262716163,0.0504505619473173
1491.66346849041,0.0585325037093812
1487.93430981918,0.0629404311125694
1484.20515114795,0.0672961028883791
1480.47599247673,0.0805438757446278
1476.7468338055,0.100264417980851
1473.01767513427,0.119297070040381
1469.28851646305,0.141426372087423
1465.55935779182,0.174726403189843
1461.83019912059,0.195304592510772
1458.10104044937,0.183968754980031
1454.37188177814,0.159726260752049
1450.64272310692,0.145931784206376
1446.91356443569,0.123555053210008
1443.18440576446,0.0962520414904477
1439.45524709324,0.07681481646744
1435.72608842201,0.0600171315159175
1431.99692975078,0.0469071367915079
1428.26777107956,0.0395913476022836
1424.53861240833,0.0374879712813696
1420.80945373711,0.0366645780836556
1417.08029506588,0.0300214634837657
1413.35113639465,0.0267483633928194
1409.62197772343,0.0332424158358159
1405.8928190522,0.0511513359173012
1402.16366038097,0.0784361563256046
1398.43450170975,0.0919603300619367
1394.70534303852,0.0716104219940707
1390.9761843673,0.0449385199773344
1387.24702569607,0.0294387624494406
1383.51786702484,0.0226189544842576
1379.78870835362,0.0247457337126965
1376.05954968239,0.037501177957334
1372.33039101116,0.068153660920273
1368.60123233994,0.110713918591722
1364.87207366871,0.118972296627123
1361.14291499749,0.0795282755885757
1357.41375632626,0.0459366640625633
1353.68459765503,0.031696943029743
1349.95543898381,0.0266971519872004
1346.22628031258,0.0262720395125309
1342.49712164135,0.030485577913451
1338.76796297013,0.0356300345687149
1335.0388042989,0.0382076564036093
1331.30964562767,0.0382101984530518
1327.58048695645,0.0366958990544909
1323.85132828522,0.0380742528884734
1320.122169614,0.0474590561743974
1316.39301094277,0.0668681632787558
1312.66385227154,0.0877548768791535
1308.93469360032,0.101253789309213
1305.20553492909,0.107851558069184
1301.47637625786,0.116364879856631
1297.74721758664,0.134015052666437
1294.01805891541,0.160687048860085
1290.28890024419,0.19439353318887
1286.55974157296,0.230468042680331
1282.83058290173,0.223259597890259
1279.10142423051,0.16415093231207
1275.37226555928,0.11697406028743
1271.64310688805,0.0998922822162243
1267.91394821683,0.0958524176996531
1264.1847895456,0.0960507844195344
1260.45563087438,0.100590707680144
1256.72647220315,0.111304460068681
1252.99731353192,0.128846406066332
1249.2681548607,0.149631973573495
1245.53899618947,0.162701519529275
1241.80983751824,0.159247096816953
1238.08067884702,0.144057846294705
1234.35152017579,0.129486569681941
1230.62236150457,0.120813860971023
1226.89320283334,0.117839503585189
1223.16404416211,0.118758166244424
1219.43488549089,0.121632162270276
1215.70572681966,0.125789193728293
1211.97656814843,0.130745430285682
1208.24740947721,0.135536594620449
1204.51825080598,0.140306228072263
1200.78909213475,0.148412016995682
1197.05993346353,0.161995028896464
1193.3307747923,0.177788940058809
1189.60161612108,0.190554290189382
1185.87245744985,0.204129429977365
1182.14329877862,0.227710107506088
1178.4141401074,0.247659867733858
1174.68498143617,0.232801073102275
1170.95582276494,0.193274242415064
1167.22666409372,0.158452243214214
1163.49750542249,0.137221529966966
1159.76834675127,0.129108058352226
1156.03918808004,0.133278626643905
1152.31002940881,0.148728400247515
1148.58087073759,0.173716591846071
1144.85171206636,0.190820668659796
1141.12255339513,0.178320642670088
1137.39339472391,0.148342765322284
1133.66423605268,0.123211720566004
1129.93507738146,0.108742559700655
1126.20591871023,0.102274625336495
1122.476760039,0.101606566702108
1118.74760136778,0.10604823016763
1115.01844269655,0.114396256819554
1111.28928402532,0.123719820544341
1107.5601253541,0.134924516548536
1103.83096668287,0.152268775576685
1100.10180801165,0.177853047734466
1096.37264934042,0.2108536340154
1092.64349066919,0.252754881131883
1088.91433199797,0.314149665230079
1085.18517332674,0.413396892554405
1081.45601465551,0.574004876678408
1077.72685598429,0.828780991485185
1073.99769731306,1.20599850078956
1070.26853864183,1.63733892051885
1066.53937997061,1.76043731783489
1062.81022129938,1.50180891586944
1059.08106262816,1.17040264042965
1055.35190395693,0.890267758045966
1051.6227452857,0.684344159000792
1047.89358661448,0.542327139402389
1044.16442794325,0.450186339702519
1040.43526927202,0.39855078595358
1036.7061106008,0.381783468980662
1032.97695192957,0.38382025235889
1029.24779325835,0.372532084810521
1025.51863458712,0.325004799925636
1021.78947591589,0.256826161460251
1018.06031724467,0.196919792385645
1014.33115857344,0.156487667107089
1010.60199990221,0.131034715305868
1006.87284123099,0.114824510714662
1003.14368255976,0.104368089845422
999.414523888535,0.0965421008698714
995.685365217309,0.089146074842847
991.956206546083,0.0839951857925263
988.227047874856,0.0816252678923323
984.49788920363,0.0812629616353524
980.768730532404,0.0823941459998956
977.039571861178,0.0849439918616245
973.310413189951,0.0891532843106431
969.581254518725,0.0951689138098118
965.852095847499,0.103387350410118
962.122937176272,0.11463638707244
958.393778505046,0.129264221642299
954.66461983382,0.147508207860185
950.935461162594,0.169823251934129
947.206302491367,0.192743877779492
943.477143820141,0.215209583835165
939.747985148915,0.243357532988802
936.018826477688,0.282871978021238
932.289667806462,0.337136264112754
928.560509135236,0.41127351102559
924.83135046401,0.510774950403913
921.102191792783,0.640689120750378
917.373033121557,0.791664419260648
913.643874450331,0.928475885067479
909.914715779104,1.00099673605355
906.185557107878,0.992578053049422
902.456398436652,0.913521120098514
898.727239765426,0.797237028668858
894.998081094199,0.677124392526709
891.268922422973,0.570579972080443
887.539763751747,0.486379411164908
883.81060508052,0.427033297016449
880.081446409294,0.387273862965659
876.352287738068,0.363171200676122
872.623129066842,0.353818937048373
868.893970395615,0.345141364769703
865.164811724389,0.318494497978588
861.435653053163,0.285952416459566
857.706494381936,0.263583527097936
853.97733571071,0.249957534237479
850.248177039484,0.241021657122936
846.519018368258,0.228319958603691
842.789859697031,0.213220791309031
839.060701025805,0.200752153201303
835.331542354579,0.190057152929547
831.602383683352,0.178380913240105
827.873225012126,0.165697296208342
824.1440663409,0.153114409326545
820.414907669674,0.14252239615098
816.685748998447,0.131554123302282
812.956590327221,0.119507880982975
809.227431655995,0.1076738150707
805.498272984768,0.0980790866017887
801.769114313542,0.0910388336812943
798.039955642316,0.0866256078172764
794.31079697109,0.0821406320751645
790.581638299863,0.0782611824076419
786.852479628637,0.0809254268846353
783.123320957411,0.100859410859885
779.394162286184,0.110878943252215
775.665003614958,0.0888052419199764
771.935844943732,0.0738395912956238
768.206686272506,0.0727139078762583
764.477527601279,0.0777568169894892
760.748368930053,0.0902111762376688
757.019210258827,0.103592092302718
753.2900515876,0.108714936927856
749.560892916374,0.105679324773268
745.831734245148,0.0967301748323266
742.102575573922,0.0851574685897785
738.373416902695,0.0758330311536953
734.644258231469,0.0690665821471974
730.915099560243,0.0634908285112196
727.185940889016,0.057456050931317
723.45678221779,0.0540404796844543
719.727623546564,0.0560391060364789
715.998464875338,0.0705089990427419
712.269306204111,0.0879848873037092
708.540147532885,0.0854201075897843
704.810988861659,0.0820705803226467
701.081830190432,0.0843343928798779
697.352671519206,0.0799372330622413
693.62351284798,0.081172719567122
689.894354176754,0.0901860195612589
686.165195505527,0.120168753107547
682.436036834301,0.155486599074478
678.706878163075,0.154000428566478
674.977719491848,0.149913130384238
671.248560820622,0.182985891542103
667.519402149396,0.22280784555582
663.790243478169,0.246482178993205
660.061084806943,0.254127776016771
656.331926135717,0.262013557268552
652.602767464491,0.264742544694091
648.873608793276,0.262325983672671
