Wavenumbercm-1,07:59:53
2998.24357166583,0.172980475794374
2994.5144129946,0.206087963569556
2990.78525432337,0.240106945842939
2987.05609565215,0.291236416310768
2983.32693698092,0.321460494885259
2979.59777830969,0.30445170635517
2975.86861963847,0.273331202766333
2972.13946096724,0.255647074462453
2968.41030229601,0.254909290378349
2964.68114362479,0.256891897410335
2960.95198495356,0.267090536583073
2957.22282628234,0.278667463786862
2953.49366761111,0.293208780575602
2949.76450893988,0.298971834358376
2946.03535026866,0.286095309273056
2942.30619159743,0.274755369973917
2938.5770329262,0.279762488861266
2934.84787425498,0.282679637480047
2931.11871558375,0.279738535822943
2927.38955691253,0.277658025428406
2923.6603982413,0.28708975800862
2919.93123957007,0.293177195848313
2916.20208089885,0.27911639947769
2912.47292222762,0.260987688150751
2908.74376355639,0.254939813169252
2905.01460488517,0.260879185639744
2901.28544621394,0.275675093059825
2897.55628754272,0.285326765420873
2893.82712887149,0.290191738896838
2890.09797020026,0.30106023755327
2886.36881152904,0.315809754999979
2882.63965285781,0.340172685920046
2878.91049418658,0.361895656253492
2875.18133551536,0.352772426680804
2871.45217684413,0.336695883449468
2867.72301817291,0.340091669572536
2863.99385950168,0.33630495593445
2860.26470083045,0.319948295571882
2856.53554215923,0.308516072648674
2852.806383488,0.301622095049432
2849.07722481677,0.290119930374386
2845.34806614555,0.287125206527217
2841.61890747432,0.271934871888988
2837.88974880309,0.238534307736494
2834.16059013187,0.207881324957536
2830.43143146064,0.184187201896296
2826.70227278942,0.162494386765044
2822.97311411819,0.142419650173874
2819.24395544696,0.126952893230577
2815.51479677574,0.115269453853525
2811.78563810451,0.103312027254953
2808.05647943328,0.0928257699954464
2804.32732076206,0.0863518962661608
2800.59816209083,0.0790385481496874
2796.86900341961,0.0717184416631017
2793.13984474838,0.0652176500212335
2789.41068607715,0.0571654670737179
2785.68152740593,0.0495323813264745
2781.9523687347,0.0450009548866617
2778.22321006347,0.0416338954509354
2774.49405139225,0.0377984151123789
2770.76489272102,0.0342887465860863
2767.0357340498,0.0313606890934896
2763.30657537857,0.0287460979640447
2759.57741670734,0.0276851767062251
2755.84825803612,0.0277107102120203
2752.11909936489,0.0274809045003156
2748.38994069366,0.0268931064586386
2744.66078202244,0.0280531847148734
2740.93162335121,0.0319770761144624
2737.20246467999,0.0375817812701709
2733.47330600876,0.042195785183724
2729.74414733753,0.0433200344153125
2726.01498866631,0.0420063251162054
2722.28582999508,0.0392065904825168
2718.55667132385,0.0355172342717335
2714.82751265263,0.0315054976167364
2711.0983539814,0.0281128080939747
2707.36919531017,0.0265082145694643
2703.64003663895,0.0270357123111644
2699.91087796772,0.0291907751619525
2696.1817192965,0.0330434619820135
2692.45256062527,0.0373803032063031
2688.72340195404,0.0399301522476704
2684.99424328282,0.0396576392163294
2681.26508461159,0.0368454063508778
2677.53592594036,0.0328781102248668
2673.80676726914,0.029815931083065
2670.07760859791,0.0278295021010014
2666.34844992669,0.0269991482733094
2662.61929125546,0.0275810176119779
2658.89013258423,0.0278735478785479
2655.16097391301,0.0263229100225677
2651.43181524178,0.0236808454048749
2647.70265657055,0.020478349009513
2643.97349789933,0.0167202914773928
2640.2443392281,0.0150826098477706
2636.51518055688,0.0156288212873678
2632.78602188565,0.0164057807599387
2629.05686321442,0.0175561496759693
2625.3277045432,0.019227751237884
2621.59854587197,0.0212898462393678
2617.86938720074,0.0239505554099237
2614.14022852952,0.0265280415467941
2610.41106985829,0.0282139262071616
2606.68191118707,0.0299968447661594
2602.95275251584,0.0326114448294351
2599.22359384461,0.0338857542812384
2595.49443517339,0.0347530017473586
2591.76527650216,0.0373740534626103
2588.03611783093,0.0406567433247964
2584.30695915971,0.0440618130201137
2580.57780048848,0.0473081563533277
2576.84864181725,0.051162835031317
2573.11948314603,0.0575580687100402
2569.3903244748,0.0649698984038847
2565.66116580358,0.0676587045337912
2561.93200713235,0.0640220505115195
2558.20284846112,0.0570686912610649
2554.4736897899,0.0504485556179231
2550.74453111867,0.0449763191931768
2547.01537244744,0.0402124466595982
2543.28621377622,0.0361333945321376
2539.55705510499,0.0326412768933815
2535.82789643377,0.0296852094461223
2532.09873776254,0.0281784063103556
2528.36957909131,0.0276318200959752
2524.64042042009,0.0270803071696935
2520.91126174886,0.0264209308327107
2517.18210307763,0.0259839655140496
2513.45294440641,0.0267206023149553
2509.72378573518,0.0279506663500991
2505.99462706396,0.028868188588616
2502.26546839273,0.0297749789681881
2498.5363097215,0.0304806656231772
2494.80715105028,0.0309109608661318
2491.07799237905,0.0316838069158319
2487.34883370782,0.0321832551250704
2483.6196750366,0.0314349815476339
2479.89051636537,0.0295043072447047
2476.16135769415,0.0271805893112941
2472.43219902292,0.0248303626637647
2468.70304035169,0.0227836094016354
2464.97388168047,0.0210643436109011
2461.24472300924,0.0197963310741456
2457.51556433801,0.0185370643799383
2453.78640566679,0.017520778716464
2450.05724699556,0.0171433178532418
2446.32808832433,0.0169373231568167
2442.59892965311,0.0166525732846144
2438.86977098188,0.0166397991791443
2435.14061231066,0.0166202022932889
2431.41145363943,0.0161350087101596
2427.6822949682,0.0154329611798506
2423.95313629698,0.0144334533980102
2420.22397762575,0.0137321120906655
2416.49481895452,0.01377935099661
2412.7656602833,0.0139452526228829
2409.03650161207,0.0134047606304735
2405.30734294085,0.0124571131324608
2401.57818426962,0.0115444332532923
2397.84902559839,0.0112049296338228
2394.11986692717,0.0111902137026294
2390.39070825594,0.0119432530394077
2386.66154958471,0.0150541676096088
2382.93239091349,0.022672346730691
2379.20323224226,0.0360587223548222
2375.47407357104,0.0521411662801825
2371.74491489981,0.0657285190470065
2368.01575622858,0.0745242903667955
2364.28659755736,0.0768457885200795
2360.55743888613,0.0694891625322306
2356.8282802149,0.0522676236805711
2353.09912154368,0.0404476713437608
2349.36996287245,0.0489096040063857
2345.64080420122,0.0697729543234427
2341.91164553,0.0827138381197195
2338.18248685877,0.0757370871557909
2334.45332818755,0.0583492498160933
2330.72416951632,0.0451134524637258
2326.99501084509,0.0357325845388881
2323.26585217387,0.0267388584657795
2319.53669350264,0.0187292245075958
2315.80753483141,0.0128620133447371
2312.07837616019,0.00894935830745294
2308.34921748896,0.00594831341149621
2304.62005881774,0.00375315073460595
2300.89090014651,0.00258614598270435
2297.16174147528,0.00267366140887653
2293.43258280406,0.00461029372050787
2289.70342413283,0.00805210252592093
2285.9742654616,0.0123645880424214
2282.24510679038,0.0168607549986564
2278.51594811915,0.0194924700785064
2274.78678944793,0.0206449415490902
2271.0576307767,0.021322643143855
2267.32847210547,0.0209122570613535
2263.59931343425,0.0197915010379575
2259.87015476302,0.0190807764374282
2256.14099609179,0.0188376616301714
2252.41183742057,0.0187480702959836
2248.68267874934,0.019519974759285
2244.95352007812,0.0200667436701797
2241.22436140689,0.021494116325628
2237.49520273566,0.0238191808433111
2233.76604406444,0.0258297367396817
2230.03688539321,0.0274179798955223
2226.30772672198,0.02941331743777
2222.57856805076,0.0319903592861767
2218.84940937953,0.0351263460787365
2215.1202507083,0.0384775937571587
2211.39109203708,0.0419212484221042
2207.66193336585,0.0443806979467936
2203.93277469463,0.0458648982992374
2200.2036160234,0.0472340071563181
2196.47445735217,0.0495250512604819
2192.74529868095,0.0552345457232992
2189.01614000972,0.0645226236706324
2185.28698133849,0.074646415759685
2181.55782266727,0.0811871210876514
2177.82866399604,0.0846911378550662
2174.09950532482,0.0885891168916092
2170.37034665359,0.0994582726275062
2166.64118798236,0.121684182659812
2162.91202931114,0.149325189950339
2159.18287063991,0.153748361780226
2155.45371196868,0.139413998873555
2151.72455329746,0.124349756042457
2147.99539462623,0.114207141871533
2144.26623595501,0.104248340086664
2140.53707728378,0.0946927079281805
2136.80791861255,0.0833033128432026
2133.07875994133,0.0688801822238356
2129.3496012701,0.0545735763334946
2125.62044259887,0.0443732948992371
2121.89128392765,0.0383452042142551
2118.16212525642,0.0345413829070555
2114.4329665852,0.0323282151184128
2110.70380791397,0.0311221001320312
2106.97464924274,0.0309528962029546
2103.24549057152,0.0310078981786235
2099.51633190029,0.0307045518248777
2095.78717322906,0.027977108321324
2092.05801455784,0.0233106126755714
2088.32885588661,0.0189658391407879
2084.59969721538,0.0165319057363931
2080.87053854416,0.0152325958064537
2077.14137987293,0.0148772665381759
2073.41222120171,0.0149170145675364
2069.68306253048,0.0164282758504639
2065.95390385925,0.0182762846273179
2062.22474518803,0.019272205756688
2058.4955865168,0.0193457440564
2054.76642784557,0.0211680329330613
2051.03726917435,0.0269636188423483
2047.30811050312,0.033059852588328
2043.5789518319,0.0352237441136382
2039.84979316067,0.0374441221621533
2036.12063448944,0.0406889624268341
2032.39147581822,0.0417631390231562
2028.66231714699,0.0402839773919396
2024.93315847576,0.0369814065223132
2021.20399980454,0.0333486043148882
2017.47484113331,0.0304986643286984
2013.74568246209,0.0295058527470854
2010.01652379086,0.0278772733848725
2006.28736511963,0.0243261606818832
2002.55820644841,0.0203211967910714
1998.82904777718,0.0184108411115616
1995.09988910595,0.0185635558964653
1991.37073043473,0.0194968657436045
1987.6415717635,0.0199956886999634
1983.91241309228,0.0239763784288011
1980.18325442105,0.0304148234949459
1976.45409574982,0.0340978093946791
1972.7249370786,0.0330919680294806
1968.99577840737,0.031166439638036
1965.26661973614,0.0280767589668887
1961.53746106492,0.0241026477163396
1957.80830239369,0.0188909538415418
1954.07914372246,0.0142981045039902
1950.34998505124,0.01111962413798
1946.62082638001,0.00884657345927082
1942.89166770879,0.0060186943468252
1939.16250903756,0.00291932280378546
1935.43335036633,0.000697351917786392
1931.70419169511,-0.000860992041290132
1927.97503302388,-0.00181171238754353
1924.24587435265,-0.00215546530273947
1920.51671568143,-0.0028015468599369
1916.7875570102,-0.00440699768243258
1913.05839833898,-0.00548161536743042
1909.32923966775,-0.00635202250578439
1905.60008099652,-0.0074961205151541
1901.8709223253,-0.00785842037213422
1898.14176365407,-0.00733877989516687
1894.41260498284,-0.00661951444657427
1890.68344631162,-0.00686524247745523
1886.95428764039,-0.00835699497189105
1883.22512896917,-0.00942262794341582
1879.49597029794,-0.00973279818303313
1875.76681162671,-0.00838544163000877
1872.03765295549,-0.00587453858173913
1868.30849428426,-0.00610772181090375
1864.57933561303,-0.00797840781696554
1860.85017694181,-0.00845101867426347
1857.12101827058,-0.00854603813617676
1853.39185959936,-0.00766755732703393
1849.66270092813,-0.00460708634890798
1845.9335422569,-0.0027011584103875
1842.20438358568,-0.00486148856686904
1838.47522491445,-0.00594521246384487
1834.74606624322,-0.00361615925861983
1831.016907572,-0.00100366591244867
1827.28774890077,-0.00143696841802109
1823.55859022954,-0.00317006363627825
1819.82943155832,-0.00334866004490265
1816.10027288709,-0.00245991744136502
1812.37111421587,-0.00193661978580897
1808.64195554464,-0.00217924792153791
1804.91279687341,-0.00110634006524492
1801.18363820219,-8.195187417318E-05
1797.45447953096,0.00119215756374464
1793.72532085973,0.00170796433353465
1789.99616218851,-0.000521124376839845
1786.26700351728,-0.00142489973173014
1782.53784484606,-0.000885880075871513
1778.80868617483,0.00119786911073788
1775.0795275036,0.00519155708343995
1771.35036883238,0.00394021584527712
1767.62121016115,0.000725913412686006
1763.89205148992,0.000503639679502803
1760.1628928187,0.000623754466798551
1756.43373414747,0.00174993306437551
1752.70457547625,0.00469205896246993
1748.97541680502,0.00505661449224692
1745.24625813379,0.00589978919658951
1741.51709946257,0.0113835497234294
1737.78794079134,0.0203251010101186
1734.05878212011,0.0248345735561279
1730.32962344889,0.021331690194005
1726.60046477766,0.021701339622244
1722.87130610643,0.028418129438629
1719.14214743521,0.0310664147308349
1715.41298876398,0.0194592774713487
1711.68383009276,0.0098277515930116
1707.95467142153,0.00904557206397237
1704.2255127503,0.0135632077394064
1700.49635407908,0.014175300391624
1696.76719540785,0.00626173121386756
1693.03803673662,0.00133691474626249
1689.3088780654,0.0052202790685578
1685.57971939417,0.0083474364976332
1681.85056072295,0.00397569094672325
1678.12140205172,0.00359040771249223
1674.39224338049,0.00606145660818716
1670.66308470927,0.00480090295092537
1666.93392603804,0.00233260386062331
1663.20476736681,0.0018491318698388
1659.47560869559,0.00638950807687875
1655.74645002436,0.0163341013739152
1652.01729135314,0.0167288696932318
1648.28813268191,0.010404680518944
1644.55897401068,0.00555949116857459
1640.82981533946,0.00736669463011008
1637.10065666823,0.0111161760160063
1633.371497997,0.00704710217921963
1629.64233932578,0.00669857156494627
1625.91318065455,0.00924136900108419
1622.18402198333,0.0107923611816661
1618.4548633121,0.0103696441681832
1614.72570464087,0.00597452352564504
1610.99654596965,0.00323098644559421
1607.26738729842,0.00269437199026804
1603.53822862719,0.00201303909465373
1599.80906995597,0.00156320669716332
1596.07991128474,0.000792600013638133
1592.35075261351,-0.00109431067796525
1588.62159394229,-0.0030591095178975
1584.89243527106,-0.00355490375665264
1581.16327659984,-0.000824732104259838
1577.43411792861,0.00196810256007028
1573.70495925738,0.00167850952959131
1569.97580058616,0.0013911012693857
1566.24664191493,0.00401519455761052
1562.5174832437,0.0145663890916705
1558.78832457248,0.0168985642016812
1555.05916590125,0.00707993132724835
1551.33000723003,0.00444994743239819
1547.6008485588,0.0104180479230033
1543.87168988757,0.0210748189280738
1540.14253121635,0.0207358025545874
1536.41337254512,0.0166608814542707
1532.68421387389,0.018035032694437
1528.95505520267,0.0218663889672982
1525.22589653144,0.0270677393907219
1521.49673786022,0.0274865856098495
1517.76757918899,0.0242300238817129
1514.03842051776,0.0260230793324994
1510.30926184654,0.0352447892905876
1506.58010317531,0.0365875399409995
1502.85094450408,0.034519686947356
1499.12178583286,0.040564328574488
1495.39262716163,0.047199128547041
1491.66346849041,0.0542357884150396
1487.93430981918,0.0587044360839667
1484.20515114795,0.0634100311216479
1480.47599247673,0.0750731384718434
1476.7468338055,0.0919855403609264
1473.01767513427,0.110304418408288
1469.28851646305,0.134098876145298
1465.55935779182,0.168596700006961
1461.83019912059,0.189409063262022
1458.10104044937,0.178868460627579
1454.37188177814,0.157343221566648
1450.64272310692,0.144640400372732
1446.91356443569,0.122725607528002
1443.18440576446,0.0958294215420224
1439.45524709324,0.0764065297403617
1435.72608842201,0.0607883182358022
1431.99692975078,0.0487576581879378
1428.26777107956,0.0412264252018285
1424.53861240833,0.0375859751472379
1420.80945373711,0.0349314682918452
1417.08029506588,0.0277378967935881
1413.35113639465,0.0223478517571676
1409.62197772343,0.0216178247016178
1405.8928190522,0.0244654393806375
1402.16366038097,0.0302967508332263
1398.43450170975,0.0335000908088524
1394.70534303852,0.0276971312132864
1390.9761843673,0.021254593448114
1387.24702569607,0.0184789802641206
1383.51786702484,0.0175141410437868
1379.78870835362,0.0214181748859354
1376.05954968239,0.0345387043826498
1372.33039101116,0.0645557925053512
1368.60123233994,0.104619870012592
1364.87207366871,0.111585349735917
1361.14291499749,0.0750640911194961
1357.41375632626,0.044229743740723
1353.68459765503,0.0312530777876435
1349.95543898381,0.0271644496787924
1346.22628031258,0.0278030338225144
1342.49712164135,0.033118726802206
1338.76796297013,0.0397569071338353
1335.0388042989,0.0440454396071719
1331.30964562767,0.0448399261548981
1327.58048695645,0.0426027887935437
1323.85132828522,0.0404395711084974
1320.122169614,0.0402637319860712
1316.39301094277,0.0442956022469644
1312.66385227154,0.0541937610982949
1308.93469360032,0.0671063479214691
1305.20553492909,0.0774729579955842
1301.47637625786,0.0901981850807696
1297.74721758664,0.112018162430718
1294.01805891541,0.14217188464116
1290.28890024419,0.178096511766179
1286.55974157296,0.217564847331086
1282.83058290173,0.220240641322853
1279.10142423051,0.167499602540928
1275.37226555928,0.118612201735658
1271.64310688805,0.099182601031482
1267.91394821683,0.0946313143375685
1264.1847895456,0.0954340257079195
1260.45563087438,0.100598526692157
1256.72647220315,0.109957103057727
1252.99731353192,0.122821140520714
1249.2681548607,0.137275115812918
1245.53899618947,0.14676583788287
1241.80983751824,0.144312890164494
1238.08067884702,0.132806525990736
1234.35152017579,0.12241170748225
1230.62236150457,0.116712574568223
1226.89320283334,0.114592539554066
1223.16404416211,0.115135974669916
1219.43488549089,0.11754595884844
1215.70572681966,0.12147768218712
1211.97656814843,0.127559018142832
1208.24740947721,0.134606858557921
1204.51825080598,0.140657929953029
1200.78909213475,0.148810024662257
1197.05993346353,0.161746044212072
1193.3307747923,0.176809788520415
1189.60161612108,0.189936176467099
1185.87245744985,0.204563117993848
1182.14329877862,0.227320986215564
1178.4141401074,0.244996271170369
1174.68498143617,0.23095343159271
1170.95582276494,0.194197933311741
1167.22666409372,0.16041541792349
1163.49750542249,0.138937409827894
1159.76834675127,0.130283017987926
1156.03918808004,0.133201955056066
1152.31002940881,0.146110115681836
1148.58087073759,0.168699203445959
1144.85171206636,0.188657028410558
1141.12255339513,0.18557033012701
1137.39339472391,0.162525017586578
1133.66423605268,0.136707874543029
1129.93507738146,0.118150258332905
1126.20591871023,0.108234413111631
1122.476760039,0.105238906726478
1118.74760136778,0.107604656940475
1115.01844269655,0.113966561634455
1111.28928402532,0.122114992326035
1107.5601253541,0.13294302047399
1103.83096668287,0.149803465139588
1100.10180801165,0.174602989773216
1096.37264934042,0.207694998467778
1092.64349066919,0.250934232206504
1088.91433199797,0.312761525365366
1085.18517332674,0.410284699402413
1081.45601465551,0.567880193484183
1077.72685598429,0.818872152350227
1073.99769731306,1.19101747816703
1070.26853864183,1.61625221157249
1066.53937997061,1.75107051871278
1062.81022129938,1.51888878875217
1059.08106262816,1.20201268192748
1055.35190395693,0.922070474610904
1051.6227452857,0.710131739460589
1047.89358661448,0.561182759159728
1044.16442794325,0.463784191826289
1040.43526927202,0.408693266554782
1036.7061106008,0.389090126401168
1032.97695192957,0.386142871235659
1029.24779325835,0.365988978486192
1025.51863458712,0.311399652134557
1021.78947591589,0.244857447171151
1018.06031724467,0.191736458344991
1014.33115857344,0.156932238866067
1010.60199990221,0.134230835770947
1006.87284123099,0.118399382871364
1003.14368255976,0.10674373559511
999.414523888535,0.0983517084872493
995.685365217309,0.0923906596330163
991.956206546083,0.0886740846543316
988.227047874856,0.0867363273606564
984.49788920363,0.0863026427575425
980.768730532404,0.0871266219516953
977.039571861178,0.0892935005744774
973.310413189951,0.0930947979039546
969.581254518725,0.0987000067874937
965.852095847499,0.106512730133329
962.122937176272,0.117329271233569
958.393778505046,0.131426620528863
954.66461983382,0.148912593663559
950.935461162594,0.170077318152225
947.206302491367,0.192230358133379
943.477143820141,0.214962978773829
939.747985148915,0.243789875261134
936.018826477688,0.283836598165803
932.289667806462,0.338121009768107
928.560509135236,0.411575551474209
924.83135046401,0.510053870219088
921.102191792783,0.638736683392489
917.373033121557,0.788150831467862
913.643874450331,0.923356278985546
909.914715779104,0.995901022630283
906.185557107878,0.991113968190557
902.456398436652,0.917778245158853
898.727239765426,0.804499391474008
894.998081094199,0.684588946801043
891.268922422973,0.579324699288681
887.539763751747,0.496214882467729
883.81060508052,0.436311439017767
880.081446409294,0.395134673650294
876.352287738068,0.365942799266673
872.623129066842,0.343231611532875
868.893970395615,0.322737735601061
865.164811724389,0.303059796107153
861.435653053163,0.284057235498711
857.706494381936,0.267252079549018
853.97733571071,0.254710158844232
850.248177039484,0.246627273349228
846.519018368258,0.236526385076156
842.789859697031,0.223373151647771
839.060701025805,0.210665603086562
835.331542354579,0.199279991852897
831.602383683352,0.187525631568711
827.873225012126,0.175798114837426
824.1440663409,0.164896576547154
820.414907669674,0.155510336165877
816.685748998447,0.144965525703666
812.956590327221,0.132565975120774
809.227431655995,0.120285735684281
805.498272984768,0.110342432546742
801.769114313542,0.103184720156841
798.039955642316,0.0989540327642801
794.31079697109,0.0952817013920578
790.581638299863,0.0921989051712773
786.852479628637,0.0941626803769736
783.123320957411,0.109809336010721
779.394162286184,0.116733831991674
775.665003614958,0.0976780110009569
771.935844943732,0.0852006345605579
768.206686272506,0.0846000410270613
764.477527601279,0.0891977198342971
760.748368930053,0.0988004163558419
757.019210258827,0.105915874757374
753.2900515876,0.10477790210354
749.560892916374,0.101911265499807
745.831734245148,0.099003689844587
742.102575573922,0.0937805126425619
738.373416902695,0.0883189122185832
734.644258231469,0.081813105140895
730.915099560243,0.0743413806447486
727.185940889016,0.0670549579522821
723.45678221779,0.0635738268839334
719.727623546564,0.0652075163916704
715.998464875338,0.0772724904325404
712.269306204111,0.0921015525020936
708.540147532885,0.0921831654413169
704.810988861659,0.0919455021996702
701.081830190432,0.0952332879362152
697.352671519206,0.0939853832551359
693.62351284798,0.0972551728875643
689.894354176754,0.104774573792719
686.165195505527,0.132087590936645
682.436036834301,0.166617819781144
678.706878163075,0.16553629609921
674.977719491848,0.1619210591718
671.248560820622,0.196945401582839
667.519402149396,0.245352216730797
663.790243478169,0.275721635144932
660.061084806943,0.276956419137097
656.331926135717,0.272841331434185
652.602767464491,0.265100085042502
648.873608793276,0.254154329166245
