Wavenumbercm-1,07:15:53
2998.24357166583,0.177646324467941
2994.5144129946,0.208623080802025
2990.78525432337,0.241542701131406
2987.05609565215,0.292662682987472
2983.32693698092,0.323005222531398
2979.59777830969,0.307269695362989
2975.86861963847,0.277950879787368
2972.13946096724,0.259544703296384
2968.41030229601,0.25490487012164
2964.68114362479,0.254644046125439
2960.95198495356,0.266904199642985
2957.22282628234,0.281196990673542
2953.49366761111,0.294691881896075
2949.76450893988,0.298623489299807
2946.03535026866,0.286996898412937
2942.30619159743,0.275917947934705
2938.5770329262,0.2829689050278
2934.84787425498,0.289200182625474
2931.11871558375,0.282807339703029
2927.38955691253,0.277167051599388
2923.6603982413,0.288533672183134
2919.93123957007,0.297104818000256
2916.20208089885,0.28383966280035
2912.47292222762,0.265840588635246
2908.74376355639,0.25912176121181
2905.01460488517,0.262570223249535
2901.28544621394,0.274999436019055
2897.55628754272,0.285101714383713
2893.82712887149,0.291596091666398
2890.09797020026,0.303217358235952
2886.36881152904,0.31838626086457
2882.63965285781,0.342285318759956
2878.91049418658,0.362262180340892
2875.18133551536,0.352318708175858
2871.45217684413,0.336777086430095
2867.72301817291,0.339725030297777
2863.99385950168,0.336504034478363
2860.26470083045,0.321986875016019
2856.53554215923,0.309867374674997
2852.806383488,0.302551194571261
2849.07722481677,0.292276182611835
2845.34806614555,0.290490977743744
2841.61890747432,0.27408710444429
2837.88974880309,0.239012055873342
2834.16059013187,0.207756714737645
2830.43143146064,0.183597252767384
2826.70227278942,0.162776228369901
2822.97311411819,0.143643392860468
2819.24395544696,0.127751073183126
2815.51479677574,0.115854058430607
2811.78563810451,0.104611498676636
2808.05647943328,0.0940526552506646
2804.32732076206,0.0867248197894911
2800.59816209083,0.0789293322733965
2796.86900341961,0.0712054408630736
2793.13984474838,0.0649773860406889
2789.41068607715,0.0584044794832507
2785.68152740593,0.0510717368519518
2781.9523687347,0.0455712281177883
2778.22321006347,0.0415730393289832
2774.49405139225,0.0380486235368934
2770.76489272102,0.0347311592565577
2767.0357340498,0.0310037310799068
2763.30657537857,0.0281180999693918
2759.57741670734,0.0281283148043561
2755.84825803612,0.0288135324403491
2752.11909936489,0.0280841682449166
2748.38994069366,0.0268038739068995
2744.66078202244,0.0273648722737406
2740.93162335121,0.031425540230724
2737.20246467999,0.0379434260946718
2733.47330600876,0.0436695240845348
2729.74414733753,0.0454066325726565
2726.01498866631,0.0435891376691514
2722.28582999508,0.0400215209177981
2718.55667132385,0.0357102120486396
2714.82751265263,0.0312522831853903
2711.0983539814,0.0278834665537614
2707.36919531017,0.0261832273725931
2703.64003663895,0.0264159565386081
2699.91087796772,0.0285290841486072
2696.1817192965,0.032842340692611
2692.45256062527,0.0379463294797471
2688.72340195404,0.0407385515331721
2684.99424328282,0.0403340019840999
2681.26508461159,0.0373333651081991
2677.53592594036,0.0331068394425012
2673.80676726914,0.0301252899703677
2670.07760859791,0.0285054903629595
2666.34844992669,0.027691783129743
2662.61929125546,0.0278609370544486
2658.89013258423,0.0280604052541462
2655.16097391301,0.0266922699939976
2651.43181524178,0.0236106416511002
2647.70265657055,0.0200126680370993
2643.97349789933,0.0167220272559022
2640.2443392281,0.0156151349169655
2636.51518055688,0.0162699455836532
2632.78602188565,0.0166299385264715
2629.05686321442,0.017566793549435
2625.3277045432,0.0197013947249779
2621.59854587197,0.0222909816575322
2617.86938720074,0.0250646706158196
2614.14022852952,0.0270982114260922
2610.41106985829,0.028692895350775
2606.68191118707,0.0305247450015308
2602.95275251584,0.0323929192671176
2599.22359384461,0.0337550951329726
2595.49443517339,0.0355016082366874
2591.76527650216,0.038297087838215
2588.03611783093,0.041364428664352
2584.30695915971,0.0449516150108027
2580.57780048848,0.0485201646601307
2576.84864181725,0.0521675008892214
2573.11948314603,0.0586306484842974
2569.3903244748,0.0660156259658099
2565.66116580358,0.0674600126641995
2561.93200713235,0.0626854833236667
2558.20284846112,0.0559865419707332
2554.4736897899,0.0497668792580381
2550.74453111867,0.0440420001727991
2547.01537244744,0.0394962626552486
2543.28621377622,0.0358202543721334
2539.55705510499,0.0323311086424398
2535.82789643377,0.0293098287354947
2532.09873776254,0.0281849320694478
2528.36957909131,0.0280453420660403
2524.64042042009,0.0267914317044047
2520.91126174886,0.0254020574788271
2517.18210307763,0.025659529108012
2513.45294440641,0.0273620585989641
2509.72378573518,0.0286078668695488
2505.99462706396,0.0289101429485746
2502.26546839273,0.0296559744973556
2498.5363097215,0.031123050110709
2494.80715105028,0.0319686404066969
2491.07799237905,0.0320232163276394
2487.34883370782,0.0320701319413155
2483.6196750366,0.0318247428674812
2479.89051636537,0.030237773115212
2476.16135769415,0.0277891906643394
2472.43219902292,0.0252493136581513
2468.70304035169,0.0230386557636698
2464.97388168047,0.0208980216487517
2461.24472300924,0.019501308938452
2457.51556433801,0.0187416837308713
2453.78640566679,0.0178921824349196
2450.05724699556,0.0171878272104159
2446.32808832433,0.016862193848376
2442.59892965311,0.0166716227055766
2438.86977098188,0.0167100363385009
2435.14061231066,0.0168238749023787
2431.41145363943,0.0163975505243949
2427.6822949682,0.0156003875954427
2423.95313629698,0.0146311957558263
2420.22397762575,0.0138972671927986
2416.49481895452,0.0138449551293483
2412.7656602833,0.014219943444471
2409.03650161207,0.0135996873013177
2405.30734294085,0.0124169331004391
2401.57818426962,0.0115891268431334
2397.84902559839,0.0113169783102186
2394.11986692717,0.0116085896512205
2390.39070825594,0.0126691252117492
2386.66154958471,0.0157100157164474
2382.93239091349,0.0232509669398152
2379.20323224226,0.0367095519086678
2375.47407357104,0.053091422169602
2371.74491489981,0.0670075144064282
2368.01575622858,0.0759554825985644
2364.28659755736,0.0785494010074712
2360.55743888613,0.0716725413942633
2356.8282802149,0.0544334942897209
2353.09912154368,0.042337289035655
2349.36996287245,0.0520588980497612
2345.64080420122,0.07709915081929
2341.91164553,0.0940708194267727
2338.18248685877,0.0853457899985353
2334.45332818755,0.0632896658080855
2330.72416951632,0.0476321468996006
2326.99501084509,0.0376469634778448
2323.26585217387,0.0283883459184929
2319.53669350264,0.0200521260788569
2315.80753483141,0.0139528212239216
2312.07837616019,0.00994392596505259
2308.34921748896,0.00680867267919266
2304.62005881774,0.00470654697945731
2300.89090014651,0.00379655773208384
2297.16174147528,0.00394271288144437
2293.43258280406,0.00574881435798463
2289.70342413283,0.00894530416238238
2285.9742654616,0.0127544946403608
2282.24510679038,0.0169267798515168
2278.51594811915,0.0199785805703309
2274.78678944793,0.0212506767890598
2271.0576307767,0.0211672447435771
2267.32847210547,0.020361541909532
2263.59931343425,0.0196690910270526
2259.87015476302,0.0193018897398712
2256.14099609179,0.018948865228315
2252.41183742057,0.0188698093896504
2248.68267874934,0.0201105694721367
2244.95352007812,0.021134100858212
2241.22436140689,0.0221815726638361
2237.49520273566,0.0238453392327594
2233.76604406444,0.0260686173804513
2230.03688539321,0.0282795289879698
2226.30772672198,0.0304080868175545
2222.57856805076,0.0322404223631041
2218.84940937953,0.0345261965867223
2215.1202507083,0.0377781010201043
2211.39109203708,0.0410153257547061
2207.66193336585,0.0430393986211741
2203.93277469463,0.045429978547271
2200.2036160234,0.0482528872339042
2196.47445735217,0.0511672163442363
2192.74529868095,0.0564220901198267
2189.01614000972,0.0647018621675505
2185.28698133849,0.0747225914285723
2181.55782266727,0.0818895606154583
2177.82866399604,0.0854502816842555
2174.09950532482,0.0887070100557938
2170.37034665359,0.0999011851382889
2166.64118798236,0.12234010896759
2162.91202931114,0.148902406273893
2159.18287063991,0.152713475835403
2155.45371196868,0.138813603446058
2151.72455329746,0.124639656447337
2147.99539462623,0.114504765892514
2144.26623595501,0.104478415335964
2140.53707728378,0.0952898962585457
2136.80791861255,0.0837189561990004
2133.07875994133,0.0691866228209117
2129.3496012701,0.0552832188136223
2125.62044259887,0.0452183061129989
2121.89128392765,0.0387048337752775
2118.16212525642,0.0345319128644081
2114.4329665852,0.0325880615700906
2110.70380791397,0.0318061649499012
2106.97464924274,0.0319295852534966
2103.24549057152,0.032067923323821
2099.51633190029,0.0315407826530913
2095.78717322906,0.0284145762199189
2092.05801455784,0.0233355920633081
2088.32885588661,0.0188274298893683
2084.59969721538,0.0163961412379387
2080.87053854416,0.0152086499634437
2077.14137987293,0.0149951132256712
2073.41222120171,0.0149949446501088
2069.68306253048,0.0164105909180426
2065.95390385925,0.0181996761914894
2062.22474518803,0.0190292967517258
2058.4955865168,0.019100998568766
2054.76642784557,0.0211563421040317
2051.03726917435,0.0267138314131647
2047.30811050312,0.0325140564879254
2043.5789518319,0.0347482384630232
2039.84979316067,0.0371660567079844
2036.12063448944,0.0405113354512908
2032.39147581822,0.0409716927888511
2028.66231714699,0.0393525731677976
2024.93315847576,0.036953925174068
2021.20399980454,0.0337732725140696
2017.47484113331,0.030644707817216
2013.74568246209,0.0289876544035452
2010.01652379086,0.0272166167938172
2006.28736511963,0.0241653613088624
2002.55820644841,0.0202516140881128
1998.82904777718,0.017951251310478
1995.09988910595,0.0176578431878765
1991.37073043473,0.0187512390816772
1987.6415717635,0.0194777244211537
1983.91241309228,0.0230272787285004
1980.18325442105,0.0291255531542327
1976.45409574982,0.0332284128417852
1972.7249370786,0.0329027615414127
1968.99577840737,0.0309155759974077
1965.26661973614,0.0274036965176885
1961.53746106492,0.0235087746412
1957.80830239369,0.0186425801251094
1954.07914372246,0.0140544641373252
1950.34998505124,0.0106721031405094
1946.62082638001,0.00854052016157675
1942.89166770879,0.00605743642937295
1939.16250903756,0.00310361894078234
1935.43335036633,0.000531273225853422
1931.70419169511,-0.00130976221578576
1927.97503302388,-0.0020083720574025
1924.24587435265,-0.00207708445631511
1920.51671568143,-0.0027003527543497
1916.7875570102,-0.00445982827208519
1913.05839833898,-0.00560087434406545
1909.32923966775,-0.00622992714061552
1905.60008099652,-0.00723452442767
1901.8709223253,-0.00773517642212475
1898.14176365407,-0.00733074974054245
1894.41260498284,-0.00659631445358474
1890.68344631162,-0.00696019696929591
1886.95428764039,-0.00864777297549165
1883.22512896917,-0.00959486151659131
1879.49597029794,-0.00987498323725732
1875.76681162671,-0.0084776852310143
1872.03765295549,-0.00565575161065556
1868.30849428426,-0.00591582033939217
1864.57933561303,-0.00806096648424331
1860.85017694181,-0.00870005812401576
1857.12101827058,-0.00888070721457519
1853.39185959936,-0.00780429247236616
1849.66270092813,-0.00433092795738391
1845.9335422569,-0.00226337914211789
1842.20438358568,-0.00462343038890972
1838.47522491445,-0.0058969361612941
1834.74606624322,-0.00353161633315781
1831.016907572,-0.000813726330020872
1827.28774890077,-0.00134180956258119
1823.55859022954,-0.00323346683265912
1819.82943155832,-0.00343075684120881
1816.10027288709,-0.00247973869898819
1812.37111421587,-0.00193281149400451
1808.64195554464,-0.00220802876754336
1804.91279687341,-0.00106011522687146
1801.18363820219,5.67728883916235E-05
1797.45447953096,0.00141001894267718
1793.72532085973,0.00190205394968694
1789.99616218851,-0.000500879773462658
1786.26700351728,-0.00140952853463739
1782.53784484606,-0.000826115033130295
1778.80868617483,0.00137248638433929
1775.0795275036,0.00563565101474639
1771.35036883238,0.0042577405033152
1767.62121016115,0.000821425560691827
1763.89205148992,0.000620081608204912
1760.1628928187,0.000756831040958008
1756.43373414747,0.00198689089499555
1752.70457547625,0.00519940379452162
1748.97541680502,0.0055557944379697
1745.24625813379,0.00636229561716851
1741.51709946257,0.0122349264226786
1737.78794079134,0.0218217204725725
1734.05878212011,0.0264703617548774
1730.32962344889,0.0225271867566857
1726.60046477766,0.0228927930669849
1722.87130610643,0.0301228924375272
1719.14214743521,0.0329310807464255
1715.41298876398,0.0203790147244937
1711.68383009276,0.0100524418745229
1707.95467142153,0.00930810243884611
1704.2255127503,0.0142966535440806
1700.49635407908,0.0150765830045283
1696.76719540785,0.00657724369379003
1693.03803673662,0.00131114696523543
1689.3088780654,0.00560784838855763
1685.57971939417,0.00903666689532486
1681.85056072295,0.00435732728227327
1678.12140205172,0.00397868213733874
1674.39224338049,0.00662909082030819
1670.66308470927,0.00522167841281819
1666.93392603804,0.00250677368322689
1663.20476736681,0.0019975652171968
1659.47560869559,0.00695345777901188
1655.74645002436,0.0176998677501854
1652.01729135314,0.0180079815649292
1648.28813268191,0.0111402252435686
1644.55897401068,0.00591385895583588
1640.82981533946,0.00787253590164426
1637.10065666823,0.0118913624991761
1633.371497997,0.00747311280490118
1629.64233932578,0.00707710712621821
1625.91318065455,0.00976962841625721
1622.18402198333,0.0113915519694477
1618.4548633121,0.0109397506297571
1614.72570464087,0.00624580182459466
1610.99654596965,0.00323657701267711
1607.26738729842,0.00256292718747566
1603.53822862719,0.0018148158077102
1599.80906995597,0.00138472796629255
1596.07991128474,0.000676295281979428
1592.35075261351,-0.00124538316842875
1588.62159394229,-0.00332517689159382
1584.89243527106,-0.00375327921904451
1581.16327659984,-0.000700916465845985
1577.43411792861,0.00233904682675953
1573.70495925738,0.00205580504567458
1569.97580058616,0.00180219408778519
1566.24664191493,0.00460822545818428
1562.5174832437,0.0159282121184678
1558.78832457248,0.0183335080516471
1555.05916590125,0.00771229646762286
1551.33000723003,0.00486689595226811
1547.6008485588,0.0112806250696091
1543.87168988757,0.0226894590585355
1540.14253121635,0.0221082192029681
1536.41337254512,0.0175303440598916
1532.68421387389,0.0188506488677713
1528.95505520267,0.0229233962277359
1525.22589653144,0.0285667633822958
1521.49673786022,0.0289855142627735
1517.76757918899,0.0253266994992764
1514.03842051776,0.0270520977394623
1510.30926184654,0.036701656741685
1506.58010317531,0.0377236757687162
1502.85094450408,0.0351083146290862
1499.12178583286,0.041181071925649
1495.39262716163,0.0478419448418941
1491.66346849041,0.0550103593571338
1487.93430981918,0.0592887502567656
1484.20515114795,0.0638218087045839
1480.47599247673,0.0758742885927724
1476.7468338055,0.0933930964952438
1473.01767513427,0.111701973159201
1469.28851646305,0.135053079443383
1465.55935779182,0.169452997583253
1461.83019912059,0.190488548384631
1458.10104044937,0.17994457138216
1454.37188177814,0.157736330417315
1450.64272310692,0.144728372337724
1446.91356443569,0.122700250488766
1443.18440576446,0.0958483084451538
1439.45524709324,0.0767369595337461
1435.72608842201,0.0610855521350247
1431.99692975078,0.0488705313555438
1428.26777107956,0.0413737365964832
1424.53861240833,0.0380059725432624
1420.80945373711,0.0355625874310302
1417.08029506588,0.0280901421116409
1413.35113639465,0.0224918410064779
1409.62197772343,0.0219203814256037
1405.8928190522,0.0251979633006411
1402.16366038097,0.0317252418744299
1398.43450170975,0.0353249549060159
1394.70534303852,0.029008397041832
1390.9761843673,0.0219320790068075
1387.24702569607,0.0188175788438827
1383.51786702484,0.0176573012139703
1379.78870835362,0.0216581753473253
1376.05954968239,0.0350547005160265
1372.33039101116,0.06567641297399
1368.60123233994,0.106819105984406
1364.87207366871,0.114145269770612
1361.14291499749,0.0765548596240704
1357.41375632626,0.0447886258328181
1353.68459765503,0.0313842798888857
1349.95543898381,0.0269891842459766
1346.22628031258,0.0272604114256859
1342.49712164135,0.0321822622394122
1338.76796297013,0.038379968095014
1335.0388042989,0.04239887443602
1331.30964562767,0.0432648795800551
1327.58048695645,0.0412473783669387
1323.85132828522,0.039314234525105
1320.122169614,0.039358594382677
1316.39301094277,0.0436945773969933
1312.66385227154,0.0541471780637505
1308.93469360032,0.0677721128947949
1305.20553492909,0.0786750122442608
1301.47637625786,0.0919827387259708
1297.74721758664,0.114519571693966
1294.01805891541,0.145248291509347
1290.28890024419,0.181548219354425
1286.55974157296,0.220348088886882
1282.83058290173,0.21965939769697
1279.10142423051,0.164713500444705
1275.37226555928,0.116600262231754
1271.64310688805,0.0980158760673724
1267.91394821683,0.0935374010718567
1264.1847895456,0.0941392812372112
1260.45563087438,0.0993567869871912
1256.72647220315,0.109225242590856
1252.99731353192,0.122960921863096
1249.2681548607,0.138392636450535
1245.53899618947,0.148466057695609
1241.80983751824,0.145716698949035
1238.08067884702,0.133343013374087
1234.35152017579,0.1222410365449
1230.62236150457,0.116167447250866
1226.89320283334,0.113906620689836
1223.16404416211,0.114410358859127
1219.43488549089,0.116817568446121
1215.70572681966,0.120752419961076
1211.97656814843,0.12680332038768
1208.24740947721,0.13382471443553
1204.51825080598,0.139927184243426
1200.78909213475,0.148233847589082
1197.05993346353,0.161475034361482
1193.3307747923,0.176873768626892
1189.60161612108,0.18994526999424
1185.87245744985,0.204233104381585
1182.14329877862,0.22728149777062
1178.4141401074,0.245717087752012
1174.68498143617,0.231386932361476
1170.95582276494,0.19372853749827
1167.22666409372,0.159689674326947
1163.49750542249,0.138405871765242
1159.76834675127,0.13002934363886
1156.03918808004,0.133429531363545
1152.31002940881,0.147240481245443
1148.58087073759,0.170626784661163
1144.85171206636,0.18949157315067
1141.12255339513,0.183034149557738
1137.39339472391,0.157520523213753
1133.66423605268,0.131890151906357
1129.93507738146,0.114690824498839
1126.20591871023,0.105882405793706
1122.476760039,0.103536416685317
1118.74760136778,0.106384904220365
1115.01844269655,0.113152073052902
1111.28928402532,0.121455057742994
1107.5601253541,0.132224157857428
1103.83096668287,0.149100719391841
1100.10180801165,0.174070280812362
1096.37264934042,0.20726270381224
1092.64349066919,0.250390451010331
1088.91433199797,0.312080782141835
1085.18517332674,0.40955738836361
1081.45601465551,0.567181939039704
1077.72685598429,0.818266608741065
1073.99769731306,1.19039383282781
1070.26853864183,1.61483335417241
1066.53937997061,1.74853927777497
1062.81022129938,1.5173234106627
1059.08106262816,1.2008568282838
1055.35190395693,0.920700571366025
1051.6227452857,0.708546537844154
1047.89358661448,0.55953685978486
1044.16442794325,0.462187380441456
1040.43526927202,0.407193934470051
1036.7061106008,0.387699974296656
1032.97695192957,0.385043690801691
1029.24779325835,0.365392496766153
1025.51863458712,0.310987127381862
1021.78947591589,0.244017032219076
1018.06031724467,0.1903216956857
1014.33115857344,0.155172571323775
1010.60199990221,0.132323178302089
1006.87284123099,0.116463322660591
1003.14368255976,0.104800785445728
999.414523888535,0.096361353058773
995.685365217309,0.0903949004965875
991.956206546083,0.0867290922096249
988.227047874856,0.0848575786019512
984.49788920363,0.084537788329602
980.768730532404,0.0855036863873007
977.039571861178,0.0878214303478473
973.310413189951,0.0918009137419933
969.581254518725,0.0975752878268839
965.852095847499,0.105522483996956
962.122937176272,0.116480986199458
958.393778505046,0.130755738601667
954.66461983382,0.148470720249275
950.935461162594,0.169986477602078
947.206302491367,0.192375055629743
943.477143820141,0.214959785182462
939.747985148915,0.243498956609557
936.018826477688,0.283337308553142
932.289667806462,0.337560837744388
928.560509135236,0.411017232730838
924.83135046401,0.509400291225267
921.102191792783,0.637996802945741
917.373033121557,0.787526035064589
913.643874450331,0.922766762876797
909.914715779104,0.995063357433228
906.185557107878,0.990264834415318
902.456398436652,0.917191294583917
898.727239765426,0.803986918809954
894.998081094199,0.68392764174752
891.268922422973,0.578460819749909
887.539763751747,0.495178540583087
883.81060508052,0.435248381761428
880.081446409294,0.393987274845089
876.352287738068,0.364751299637546
872.623129066842,0.342029853628594
868.893970395615,0.321505848336092
865.164811724389,0.301743864290324
861.435653053163,0.2826076392442
857.706494381936,0.26574724922153
853.97733571071,0.253294959512357
850.248177039484,0.245175180707601
846.519018368258,0.23449773558675
842.789859697031,0.221029578537037
839.060701025805,0.208670589407214
835.331542354579,0.197551754014828
831.602383683352,0.185858698268619
827.873225012126,0.174122089969613
824.1440663409,0.163250249761878
820.414907669674,0.153945128065344
816.685748998447,0.143312720022332
812.956590327221,0.130789611801921
809.227431655995,0.118482102073617
805.498272984768,0.108512151268953
801.769114313542,0.101248322166612
798.039955642316,0.0968459493663909
794.31079697109,0.0928615262278487
790.581638299863,0.0895082666711884
786.852479628637,0.0916495990683227
783.123320957411,0.108665247529532
779.394162286184,0.116589934739431
775.665003614958,0.0964871623100342
771.935844943732,0.0831602978588721
768.206686272506,0.0824522602590464
764.477527601279,0.0872453007742029
760.748368930053,0.0974645679245194
757.019210258827,0.104915227007369
753.2900515876,0.103342603647322
749.560892916374,0.10003551908991
745.831734245148,0.0970406901134522
742.102575573922,0.0918104671639599
738.373416902695,0.0864320339305553
734.644258231469,0.0800372440517855
730.915099560243,0.0726115955181425
727.185940889016,0.0651091276572159
723.45678221779,0.0614496537140656
719.727623546564,0.063386393211413
715.998464875338,0.0765071115600429
712.269306204111,0.0923922547632621
708.540147532885,0.0914940443277159
704.810988861659,0.0898650654236876
701.081830190432,0.0928428425567915
697.352671519206,0.0906699182579047
693.62351284798,0.0929949602685283
689.894354176754,0.100985774745956
686.165195505527,0.129192523412695
682.436036834301,0.163737565946408
678.706878163075,0.162764608036059
674.977719491848,0.15951318146723
671.248560820622,0.195259281110972
667.519402149396,0.244122748096868
663.790243478169,0.274780774801711
660.061084806943,0.277343033094428
656.331926135717,0.274378606056752
652.602767464491,0.267347104303142
648.873608793276,0.254966820156871
