Wavenumbercm-1,00:47:51
2998.24357166583,0.177083277517391
2994.5144129946,0.208184944712162
2990.78525432337,0.243383816130254
2987.05609565215,0.298657784568765
2983.32693698092,0.331148996590491
2979.59777830969,0.311787420299278
2975.86861963847,0.2771047041572
2972.13946096724,0.257024679978629
2968.41030229601,0.254140729420803
2964.68114362479,0.253627105486065
2960.95198495356,0.266553359743666
2957.22282628234,0.283842594157121
2953.49366761111,0.299572107627404
2949.76450893988,0.301886282127376
2946.03535026866,0.28636351625695
2942.30619159743,0.27531799298951
2938.5770329262,0.286773554516449
2934.84787425498,0.293984179079606
2931.11871558375,0.286583294850592
2927.38955691253,0.282409417553078
2923.6603982413,0.295139923482584
2919.93123957007,0.303004463271437
2916.20208089885,0.288569317990433
2912.47292222762,0.270314707374726
2908.74376355639,0.26403532706371
2905.01460488517,0.268101836857293
2901.28544621394,0.280612628270117
2897.55628754272,0.289913163505204
2893.82712887149,0.29313342446636
2890.09797020026,0.303749210408362
2886.36881152904,0.322208720263272
2882.63965285781,0.347568446760249
2878.91049418658,0.367217819290155
2875.18133551536,0.356030050195297
2871.45217684413,0.338696366871251
2867.72301817291,0.343209823766107
2863.99385950168,0.342101503905422
2860.26470083045,0.327838020591727
2856.53554215923,0.315539779938785
2852.806383488,0.307592296028053
2849.07722481677,0.297137559900761
2845.34806614555,0.297534581423554
2841.61890747432,0.282499325673986
2837.88974880309,0.246843134948852
2834.16059013187,0.214226466571886
2830.43143146064,0.189259211820792
2826.70227278942,0.168019357963882
2822.97311411819,0.147556651412879
2819.24395544696,0.130957948858263
2815.51479677574,0.118938562084212
2811.78563810451,0.106655608740146
2808.05647943328,0.0940004293335899
2804.32732076206,0.0859888259238953
2800.59816209083,0.0792614988971158
2796.86900341961,0.0717564416955148
2793.13984474838,0.0644943581023527
2789.41068607715,0.0574387809935848
2785.68152740593,0.0502428085415448
2781.9523687347,0.0446943955939904
2778.22321006347,0.0410275111686002
2774.49405139225,0.0380277386766847
2770.76489272102,0.0352606246302872
2767.0357340498,0.0327370968359595
2763.30657537857,0.0300869286382976
2759.57741670734,0.028714205729733
2755.84825803612,0.0284220805972091
2752.11909936489,0.0278734130300917
2748.38994069366,0.027012193919113
2744.66078202244,0.0279033857787149
2740.93162335121,0.0307833725625365
2737.20246467999,0.0340397694013975
2733.47330600876,0.0373070413157586
2729.74414733753,0.0397377092873129
2726.01498866631,0.0402989552199599
2722.28582999508,0.0378806103357295
2718.55667132385,0.0342236026260385
2714.82751265263,0.0309892404626331
2711.0983539814,0.0288464266818917
2707.36919531017,0.0283204638460796
2703.64003663895,0.0290159422820804
2699.91087796772,0.0305048448209505
2696.1817192965,0.0341233095265299
2692.45256062527,0.0392139927921149
2688.72340195404,0.0424472234913198
2684.99424328282,0.0419937700374129
2681.26508461159,0.0386707237967914
2677.53592594036,0.0339759661666348
2673.80676726914,0.0305742525835579
2670.07760859791,0.0287694183569726
2666.34844992669,0.0277940853525975
2662.61929125546,0.0282647362318234
2658.89013258423,0.0289473950629399
2655.16097391301,0.0269740017900212
2651.43181524178,0.0227372258088279
2647.70265657055,0.0187755558045922
2643.97349789933,0.0161238297896107
2640.2443392281,0.0157073355948535
2636.51518055688,0.0160822727802405
2632.78602188565,0.016236652085271
2629.05686321442,0.0171273827211941
2625.3277045432,0.0181747529237214
2621.59854587197,0.0189515640296939
2617.86938720074,0.0204529442392351
2614.14022852952,0.0218346243208167
2610.41106985829,0.0224764654803746
2606.68191118707,0.0231186649256733
2602.95275251584,0.0241503222480407
2599.22359384461,0.024384286663641
2595.49443517339,0.0248046400378555
2591.76527650216,0.0266600636050279
2588.03611783093,0.0291316147787208
2584.30695915971,0.0319810620848974
2580.57780048848,0.0346006572864778
2576.84864181725,0.0354285212621981
2573.11948314603,0.0340745037967816
2569.3903244748,0.0318427226600889
2565.66116580358,0.0299989959848358
2561.93200713235,0.0300121075500941
2558.20284846112,0.0311454861899696
2554.4736897899,0.0320667516956481
2550.74453111867,0.0321363282094376
2547.01537244744,0.0312661573044602
2543.28621377622,0.0294018039723748
2539.55705510499,0.0275899002414855
2535.82789643377,0.0257828290145012
2532.09873776254,0.0245477853137049
2528.36957909131,0.024738928037943
2524.64042042009,0.0250271558196766
2520.91126174886,0.024277682217805
2517.18210307763,0.0241616417474037
2513.45294440641,0.0251881181104228
2509.72378573518,0.0254164576851757
2505.99462706396,0.0247850964830307
2502.26546839273,0.0248379809047782
2498.5363097215,0.025735706738395
2494.80715105028,0.026044705966206
2491.07799237905,0.0256595289837743
2487.34883370782,0.025002570616023
2483.6196750366,0.0244021849136275
2479.89051636537,0.0237276658310416
2476.16135769415,0.0231782682054488
2472.43219902292,0.0224169522722704
2468.70304035169,0.0211722284065602
2464.97388168047,0.0196522842458239
2461.24472300924,0.0184492920044274
2457.51556433801,0.0176765697199421
2453.78640566679,0.0175832580021381
2450.05724699556,0.0178047110408447
2446.32808832433,0.017762867282433
2442.59892965311,0.0175928235163385
2438.86977098188,0.0173915713316305
2435.14061231066,0.0170683256228221
2431.41145363943,0.0164031942471745
2427.6822949682,0.0157866651770526
2423.95313629698,0.0154844108641347
2420.22397762575,0.0156815014963711
2416.49481895452,0.0164942440780097
2412.7656602833,0.0169818816321279
2409.03650161207,0.0158046759819451
2405.30734294085,0.013748397748651
2401.57818426962,0.0123690084757375
2397.84902559839,0.0121560193852867
2394.11986692717,0.0119632042729014
2390.39070825594,0.0121340742437136
2386.66154958471,0.0139361627971545
2382.93239091349,0.0188128667494836
2379.20323224226,0.028214663722114
2375.47407357104,0.0408185808217207
2371.74491489981,0.0524532703493024
2368.01575622858,0.0595407695925753
2364.28659755736,0.0601791956906019
2360.55743888613,0.0523373836558575
2356.8282802149,0.0362175953038893
2353.09912154368,0.0244293704372358
2349.36996287245,0.0281481564127262
2345.64080420122,0.0382083663569456
2341.91164553,0.0419156779256737
2338.18248685877,0.0403204802160446
2334.45332818755,0.0357527337307215
2330.72416951632,0.0290416401713823
2326.99501084509,0.0221917524587674
2323.26585217387,0.0160504842468741
2319.53669350264,0.010828471397245
2315.80753483141,0.00748797872576168
2312.07837616019,0.00638475817494421
2308.34921748896,0.00600378902649241
2304.62005881774,0.00483823617895178
2300.89090014651,0.00253928242867874
2297.16174147528,0.000301276440863607
2293.43258280406,-0.000724955197391852
2289.70342413283,-0.000609667114323098
2285.9742654616,0.000402623002784879
2282.24510679038,0.00278411752201202
2278.51594811915,0.00562269541687014
2274.78678944793,0.00767715467755833
2271.0576307767,0.00915313000315225
2267.32847210547,0.0106651897816934
2263.59931343425,0.0123246355912911
2259.87015476302,0.0135854280503071
2256.14099609179,0.0141967063240146
2252.41183742057,0.0148115026186529
2248.68267874934,0.0167001942504163
2244.95352007812,0.018435935599464
2241.22436140689,0.0199801509934315
2237.49520273566,0.0213436801985719
2233.76604406444,0.0230988964111945
2230.03688539321,0.0257355675622967
2226.30772672198,0.028297907709494
2222.57856805076,0.0294866283699156
2218.84940937953,0.0314253081980377
2215.1202507083,0.0347815486283261
2211.39109203708,0.0382281941039274
2207.66193336585,0.0404716274892794
2203.93277469463,0.0426668204992674
2200.2036160234,0.0450818430205872
2196.47445735217,0.0481967240302462
2192.74529868095,0.0538626056191689
2189.01614000972,0.0620231981526245
2185.28698133849,0.071603298628982
2181.55782266727,0.0790543066323016
2177.82866399604,0.0842385882505839
2174.09950532482,0.0891825512541723
2170.37034665359,0.101180411155484
2166.64118798236,0.125173391840859
2162.91202931114,0.15304724909528
2159.18287063991,0.155696333836992
2155.45371196868,0.14062338429051
2151.72455329746,0.125821880523607
2147.99539462623,0.115859843824743
2144.26623595501,0.106138961388439
2140.53707728378,0.0969239305260984
2136.80791861255,0.0847314437886577
2133.07875994133,0.069806249101108
2129.3496012701,0.0558434161216697
2125.62044259887,0.045871444853482
2121.89128392765,0.0395725025389589
2118.16212525642,0.0354319247870192
2114.4329665852,0.0331163300063153
2110.70380791397,0.0319656363303836
2106.97464924274,0.0312995934147314
2103.24549057152,0.0306746828539366
2099.51633190029,0.0303216724259128
2095.78717322906,0.0274772480051867
2092.05801455784,0.0226883578178691
2088.32885588661,0.018309992949592
2084.59969721538,0.015648438771005
2080.87053854416,0.0142126307731915
2077.14137987293,0.0140293976687083
2073.41222120171,0.0140716954650225
2069.68306253048,0.0156148738424275
2065.95390385925,0.0172918056849996
2062.22474518803,0.0179397286773667
2058.4955865168,0.0177981580164152
2054.76642784557,0.0197254381492801
2051.03726917435,0.0244623591371389
2047.30811050312,0.0290006699805012
2043.5789518319,0.0308926073358648
2039.84979316067,0.0337432248584943
2036.12063448944,0.0376336216662177
2032.39147581822,0.038795852299658
2028.66231714699,0.0370239982753581
2024.93315847576,0.0342742971488282
2021.20399980454,0.0309081222240143
2017.47484113331,0.027160450768811
2013.74568246209,0.0255681553852682
2010.01652379086,0.0244136951314572
2006.28736511963,0.021534357039617
2002.55820644841,0.0173613150115763
1998.82904777718,0.0151988033357571
1995.09988910595,0.0154294933978996
1991.37073043473,0.0169562897620519
1987.6415717635,0.0178314323380133
1983.91241309228,0.021391009983156
1980.18325442105,0.027136643078986
1976.45409574982,0.031356737741941
1972.7249370786,0.031027900959676
1968.99577840737,0.0288339621859151
1965.26661973614,0.0251679512186709
1961.53746106492,0.0212101956796518
1957.80830239369,0.0160837654663767
1954.07914372246,0.0113269318751491
1950.34998505124,0.00815382293212248
1946.62082638001,0.00633016962377366
1942.89166770879,0.00385783403062979
1939.16250903756,0.000974051586694501
1935.43335036633,-0.00154619447853937
1931.70419169511,-0.00356728235056809
1927.97503302388,-0.00425431188169294
1924.24587435265,-0.00421515638537103
1920.51671568143,-0.00491840272528326
1916.7875570102,-0.00666988594793796
1913.05839833898,-0.00746704392454368
1909.32923966775,-0.00805733235428393
1905.60008099652,-0.009184213586049
1901.8709223253,-0.00980784257012504
1898.14176365407,-0.0096058777988709
1894.41260498284,-0.00901181190544265
1890.68344631162,-0.00925124788903033
1886.95428764039,-0.010829806452421
1883.22512896917,-0.0117337916881907
1879.49597029794,-0.0119214776755463
1875.76681162671,-0.0104004307968273
1872.03765295549,-0.00755888705269556
1868.30849428426,-0.00793435948989508
1864.57933561303,-0.0101785812192268
1860.85017694181,-0.0107119038702939
1857.12101827058,-0.0108047977283938
1853.39185959936,-0.00973435752068466
1849.66270092813,-0.00618605481596699
1845.9335422569,-0.00428617107698866
1842.20438358568,-0.00709049974918043
1838.47522491445,-0.00825274623529719
1834.74606624322,-0.00539064752421698
1831.016907572,-0.00256072404613051
1827.28774890077,-0.00337409969810472
1823.55859022954,-0.00557558480701732
1819.82943155832,-0.00582218055424717
1816.10027288709,-0.00478174391119099
1812.37111421587,-0.00432013327890837
1808.64195554464,-0.00488485443746743
1804.91279687341,-0.00373303544669463
1801.18363820219,-0.00246015414591753
1797.45447953096,-0.00086748338818678
1793.72532085973,-0.00045837850307713
1789.99616218851,-0.00340938364359552
1786.26700351728,-0.00476776898127386
1782.53784484606,-0.00445686233700588
1778.80868617483,-0.00229112494643981
1775.0795275036,0.00200764850715217
1771.35036883238,9.01810991002235E-05
1767.62121016115,-0.00378714103813951
1763.89205148992,-0.00390887642736779
1760.1628928187,-0.00371826417720989
1756.43373414747,-0.00257897997050606
1752.70457547625,0.000210824477611566
1748.97541680502,-0.00093093925442078
1745.24625813379,-0.00259070449537436
1741.51709946257,-0.000501225210367962
1737.78794079134,0.00328597011737411
1734.05878212011,0.00135574508990047
1730.32962344889,-0.00569363811750007
1726.60046477766,-0.00620293926310726
1722.87130610643,0.00161420433216964
1719.14214743521,0.00851626592285554
1715.41298876398,0.0015336202348535
1711.68383009276,-0.00423596128192807
1707.95467142153,-0.00104502330021259
1704.2255127503,0.00677213789133703
1700.49635407908,0.00876834168506126
1696.76719540785,-0.00011483556447103
1693.03803673662,-0.00551479750390096
1689.3088780654,-0.000535810321856804
1685.57971939417,0.0032798284199693
1681.85056072295,-0.00201212770163913
1678.12140205172,-0.00260951866407556
1674.39224338049,-0.000127695658620315
1670.66308470927,-0.00212715943007371
1666.93392603804,-0.0057520703903146
1663.20476736681,-0.00717497577670244
1659.47560869559,-0.00271622380690384
1655.74645002436,0.00803646074480724
1652.01729135314,0.0078704696764693
1648.28813268191,0.000515853789342173
1644.55897401068,-0.00494676057262772
1640.82981533946,-0.00262364121961737
1637.10065666823,0.00144064177343847
1633.371497997,-0.00338720747825981
1629.64233932578,-0.00274006206838517
1625.91318065455,0.00214925351954125
1622.18402198333,0.00611133039799751
1618.4548633121,0.00862630645812892
1614.72570464087,0.00749979129134196
1610.99654596965,0.00766715514735658
1607.26738729842,0.00890655829208553
1603.53822862719,0.00855700507416864
1599.80906995597,0.00812540969287322
1596.07991128474,0.00637455452152568
1592.35075261351,0.00156110011661453
1588.62159394229,-0.00342942921255969
1584.89243527106,-0.00492963700059935
1581.16327659984,-0.00167037816807211
1577.43411792861,0.00139708877896775
1573.70495925738,0.000415539051426371
1569.97580058616,-0.000416819666034883
1566.24664191493,0.00236673819134619
1562.5174832437,0.0146435117660411
1558.78832457248,0.0167818799732081
1555.05916590125,0.0049171634053831
1551.33000723003,0.00187243328826267
1547.6008485588,0.00905538820431609
1543.87168988757,0.0211161202853929
1540.14253121635,0.018687579051473
1536.41337254512,0.0109233683804153
1532.68421387389,0.00960010705863153
1528.95505520267,0.0136875863030088
1525.22589653144,0.0217083266358253
1521.49673786022,0.0239731530530823
1517.76757918899,0.0208371981126666
1514.03842051776,0.023125092321717
1510.30926184654,0.0336046396456928
1506.58010317531,0.0340548679951319
1502.85094450408,0.030403065480326
1499.12178583286,0.0359180649694797
1495.39262716163,0.0418087956721653
1491.66346849041,0.0485607549418375
1487.93430981918,0.0525909454084494
1484.20515114795,0.0572116473264352
1480.47599247673,0.0690105297599066
1476.7468338055,0.085445172760929
1473.01767513427,0.103014319182583
1469.28851646305,0.127238813548623
1465.55935779182,0.163989546419052
1461.83019912059,0.188019718895223
1458.10104044937,0.179350048919852
1454.37188177814,0.156791094596194
1450.64272310692,0.14341063641991
1446.91356443569,0.121121953012099
1443.18440576446,0.0940838311100323
1439.45524709324,0.0750069903549158
1435.72608842201,0.0589390974290532
1431.99692975078,0.0461065416755919
1428.26777107956,0.0381688385566526
1424.53861240833,0.0344829129852743
1420.80945373711,0.0316713724559062
1417.08029506588,0.023288363662459
1413.35113639465,0.0166264578475378
1409.62197772343,0.0141831876540816
1405.8928190522,0.0133450757905636
1402.16366038097,0.0136249885897924
1398.43450170975,0.0142800405649702
1394.70534303852,0.012322542506249
1390.9761843673,0.0115337896957551
1387.24702569607,0.0120416851809612
1383.51786702484,0.0121487165071326
1379.78870835362,0.016448544243414
1376.05954968239,0.0275922801253281
1372.33039101116,0.0489864362461164
1368.60123233994,0.0764777851234205
1364.87207366871,0.082866633323553
1361.14291499749,0.0587450107951084
1357.41375632626,0.0366624049799439
1353.68459765503,0.0264925219431675
1349.95543898381,0.0224504787250891
1346.22628031258,0.022395544691899
1342.49712164135,0.0264390035019422
1338.76796297013,0.0309901481323397
1335.0388042989,0.0322791235614476
1331.30964562767,0.0301908869172957
1327.58048695645,0.0272966484362883
1323.85132828522,0.0267431812538652
1320.122169614,0.0282320939084256
1316.39301094277,0.0307070687203863
1312.66385227154,0.0339783141529473
1308.93469360032,0.0372784285685191
1305.20553492909,0.0396574531285365
1301.47637625786,0.0439740303865053
1297.74721758664,0.0554624707563945
1294.01805891541,0.0734713039729
1290.28890024419,0.081730586265932
1286.55974157296,0.0743176295697929
1282.83058290173,0.0658836202478291
1279.10142423051,0.062955554698029
1275.37226555928,0.0630072926200769
1271.64310688805,0.064255903460317
1267.91394821683,0.0662448555402141
1264.1847895456,0.0702145500027054
1260.45563087438,0.0756625013620424
1256.72647220315,0.0818009100607684
1252.99731353192,0.0885617102901106
1249.2681548607,0.0951342138449044
1245.53899618947,0.0998000258402052
1241.80983751824,0.101945258456969
1238.08067884702,0.102226876853997
1234.35152017579,0.101904452597954
1230.62236150457,0.101746313499845
1226.89320283334,0.102604067996311
1223.16404416211,0.105099936295185
1219.43488549089,0.108865225283561
1215.70572681966,0.115340900315069
1211.97656814843,0.127622294259408
1208.24740947721,0.140100436335535
1204.51825080598,0.142456084872511
1200.78909213475,0.142822852386826
1197.05993346353,0.14876721762452
1193.3307747923,0.154126264243825
1189.60161612108,0.156925713251784
1185.87245744985,0.159473832761587
1182.14329877862,0.160486225732668
1178.4141401074,0.157814870151819
1174.68498143617,0.149605023761783
1170.95582276494,0.136647148223963
1167.22666409372,0.122277620818231
1163.49750542249,0.113043400272357
1159.76834675127,0.114712532370525
1156.03918808004,0.119915162713188
1152.31002940881,0.108728415017588
1148.58087073759,0.087405004816379
1144.85171206636,0.0757951206238161
1141.12255339513,0.0737101397810271
1137.39339472391,0.0754305877999706
1133.66423605268,0.0775976109479302
1129.93507738146,0.0793919050700725
1126.20591871023,0.0814255152659529
1122.476760039,0.0845782209956129
1118.74760136778,0.0892227000659639
1115.01844269655,0.0961961850697988
1111.28928402532,0.106136759704497
1107.5601253541,0.119610250205913
1103.83096668287,0.137599287807448
1100.10180801165,0.162031172722181
1096.37264934042,0.195345812565581
1092.64349066919,0.242023887863115
1088.91433199797,0.310141813485337
1085.18517332674,0.414657851474289
1081.45601465551,0.579736895855405
1077.72685598429,0.839844057025947
1073.99769731306,1.22472185699391
1070.26853864183,1.66179124113991
1066.53937997061,1.77244073609486
1062.81022129938,1.48854182558978
1059.08106262816,1.1454545140101
1055.35190395693,0.864831770450949
1051.6227452857,0.664122254479906
1047.89358661448,0.528022249919582
1044.16442794325,0.440314725317794
1040.43526927202,0.390599663850808
1036.7061106008,0.37250809033901
1032.97695192957,0.367602541307683
1029.24779325835,0.343035338335269
1025.51863458712,0.286542184705671
1021.78947591589,0.22379929594371
1018.06031724467,0.175346070766042
1014.33115857344,0.142744242566916
1010.60199990221,0.120740838178636
1006.87284123099,0.105305318809257
1003.14368255976,0.0941179091104541
999.414523888535,0.0861970819620391
995.685365217309,0.0809044015121803
991.956206546083,0.0778774815888517
988.227047874856,0.0765487864435075
984.49788920363,0.0767562395937161
980.768730532404,0.0782570263626028
977.039571861178,0.0811309865394206
973.310413189951,0.0857892717274196
969.581254518725,0.0921981397927128
965.852095847499,0.1006620021706
962.122937176272,0.112017178957597
958.393778505046,0.126498479376781
954.66461983382,0.143444915204599
950.935461162594,0.162817728890171
947.206302491367,0.185000278773175
943.477143820141,0.210990465246107
939.747985148915,0.242490473673761
936.018826477688,0.283741876263388
932.289667806462,0.339308845692043
928.560509135236,0.414760259214437
924.83135046401,0.515507307363048
921.102191792783,0.6464156321958
917.373033121557,0.798239429602262
913.643874450331,0.935535731724245
909.914715779104,1.00655195539674
906.185557107878,0.993507924988446
902.456398436652,0.908202828776646
898.727239765426,0.784574829663475
894.998081094199,0.658574095681423
891.268922422973,0.552406646423864
887.539763751747,0.47278078706989
883.81060508052,0.416622734361489
880.081446409294,0.378010810962499
876.352287738068,0.349979403849722
872.623129066842,0.327656340964281
868.893970395615,0.306717715393157
865.164811724389,0.286268167036712
861.435653053163,0.266044583364187
857.706494381936,0.247361270063194
853.97733571071,0.230759144330452
850.248177039484,0.216786234142485
846.519018368258,0.204499338076177
842.789859697031,0.193354857203539
839.060701025805,0.181632675600268
835.331542354579,0.169598466088104
831.602383683352,0.15769963833571
827.873225012126,0.146001806925373
824.1440663409,0.133417952956145
820.414907669674,0.121483265065944
816.685748998447,0.110670337461567
812.956590327221,0.100924001319322
809.227431655995,0.0924212168537157
805.498272984768,0.0843719405024386
801.769114313542,0.0778624455850177
798.039955642316,0.0731921318840302
794.31079697109,0.0687256710696476
790.581638299863,0.0634940838053884
786.852479628637,0.0588729044269936
783.123320957411,0.0554643146143302
779.394162286184,0.0522273259700187
775.665003614958,0.0478970485368179
771.935844943732,0.0440546813183344
768.206686272506,0.0419215841338695
764.477527601279,0.0404460455811617
760.748368930053,0.0382732203905401
757.019210258827,0.0358124989681123
753.2900515876,0.0344048377534709
749.560892916374,0.034466224219709
745.831734245148,0.0342080130570715
742.102575573922,0.0329594852562076
738.373416902695,0.0319932389087898
734.644258231469,0.0330813497365442
730.915099560243,0.0344183059616093
727.185940889016,0.0345786482156961
723.45678221779,0.0349683472429041
719.727623546564,0.0371495093415251
715.998464875338,0.0397574992226365
712.269306204111,0.0419948124506854
708.540147532885,0.0444215906826722
704.810988861659,0.0486506833080637
701.081830190432,0.0548783417710525
697.352671519206,0.0613266356535357
693.62351284798,0.0690500974652805
689.894354176754,0.0789415741387961
686.165195505527,0.092564044536305
682.436036834301,0.105743407678245
678.706878163075,0.119121313914347
674.977719491848,0.135158106092489
671.248560820622,0.164142571831604
667.519402149396,0.191458689972576
663.790243478169,0.202714994741314
660.061084806943,0.21100823935295
656.331926135717,0.21970378975927
652.602767464491,0.214491117766965
648.873608793276,0.201846882681833
