Wavenumbercm-1,01:55:52
2998.24357166583,0.192421197648283
2994.5144129946,0.221551811020257
2990.78525432337,0.251010362239721
2987.05609565215,0.303704838824969
2983.32693698092,0.339695579160777
2979.59777830969,0.323720232666871
2975.86861963847,0.290012713158946
2972.13946096724,0.270220673143546
2968.41030229601,0.269796098554697
2964.68114362479,0.269136478732135
2960.95198495356,0.27842924617549
2957.22282628234,0.290305707121674
2953.49366761111,0.306689606647503
2949.76450893988,0.313813094670701
2946.03535026866,0.300241341963236
2942.30619159743,0.287028774918392
2938.5770329262,0.294967939242858
2934.84787425498,0.300599496759943
2931.11871558375,0.293870783453051
2927.38955691253,0.290314537564622
2923.6603982413,0.30656960892447
2919.93123957007,0.317866105942559
2916.20208089885,0.29987320544776
2912.47292222762,0.27743333600155
2908.74376355639,0.271081127314823
2905.01460488517,0.27881008967303
2901.28544621394,0.293666508194194
2897.55628754272,0.300387861007511
2893.82712887149,0.302081974302888
2890.09797020026,0.312450673292846
2886.36881152904,0.327432679984952
2882.63965285781,0.354163634052814
2878.91049418658,0.380530238320533
2875.18133551536,0.371578567990101
2871.45217684413,0.351382738462106
2867.72301817291,0.354309913274508
2863.99385950168,0.352707977615884
2860.26470083045,0.339587870769453
2856.53554215923,0.328023744125019
2852.806383488,0.319534861921628
2849.07722481677,0.305392417312451
2845.34806614555,0.304762984937295
2841.61890747432,0.293187838228688
2837.88974880309,0.256957420005405
2834.16059013187,0.221137092961082
2830.43143146064,0.194717398103827
2826.70227278942,0.173149658523773
2822.97311411819,0.153514336398296
2819.24395544696,0.138540512423884
2815.51479677574,0.12645780314622
2811.78563810451,0.112838217547267
2808.05647943328,0.0994733216648499
2804.32732076206,0.0925097854579786
2800.59816209083,0.0867600083499028
2796.86900341961,0.0800430784771048
2793.13984474838,0.0736979265791065
2789.41068607715,0.0657920474157815
2785.68152740593,0.0573228346751839
2781.9523687347,0.0533211804171039
2778.22321006347,0.0515071569187731
2774.49405139225,0.0488250338488853
2770.76489272102,0.0448760214879259
2767.0357340498,0.040123943252383
2763.30657537857,0.036938633986668
2759.57741670734,0.0368340617819509
2755.84825803612,0.0375771086554346
2752.11909936489,0.0376150956962776
2748.38994069366,0.0369634499097196
2744.66078202244,0.0378815522393526
2740.93162335121,0.0410657502394084
2737.20246467999,0.0439786418846162
2733.47330600876,0.0462141715365132
2729.74414733753,0.0478394899720554
2726.01498866631,0.0480094602588298
2722.28582999508,0.0457827645819817
2718.55667132385,0.0425664845264907
2714.82751265263,0.038994986520357
2711.0983539814,0.0360937273011678
2707.36919531017,0.0346790940163745
2703.64003663895,0.0349580165173682
2699.91087796772,0.0366019954748618
2696.1817192965,0.0403293005474942
2692.45256062527,0.0446916381927965
2688.72340195404,0.047302295076973
2684.99424328282,0.0473750890796415
2681.26508461159,0.0451188383427985
2677.53592594036,0.0407656526445631
2673.80676726914,0.0371989496816121
2670.07760859791,0.0350866384734933
2666.34844992669,0.0339322146934849
2662.61929125546,0.0344027556687336
2658.89013258423,0.0346696340241894
2655.16097391301,0.0328823002041485
2651.43181524178,0.0297897666354601
2647.70265657055,0.0267848096087526
2643.97349789933,0.0239991031215944
2640.2443392281,0.0231584591275519
2636.51518055688,0.0238318920548173
2632.78602188565,0.0241419790774554
2629.05686321442,0.0238349700292507
2625.3277045432,0.0245678894981289
2621.59854587197,0.0267517199138296
2617.86938720074,0.0288012767819613
2614.14022852952,0.0298114268092019
2610.41106985829,0.0310072490919196
2606.68191118707,0.0325276759434561
2602.95275251584,0.0340369151055783
2599.22359384461,0.0345721173095115
2595.49443517339,0.0352770020281599
2591.76527650216,0.0370014028767178
2588.03611783093,0.0392326117210654
2584.30695915971,0.0425777086350953
2580.57780048848,0.0473471880873808
2576.84864181725,0.0547446012068965
2573.11948314603,0.0648845859115381
2569.3903244748,0.075252076945672
2565.66116580358,0.0811881627507911
2561.93200713235,0.0797323431528147
2558.20284846112,0.0731272521052095
2554.4736897899,0.067621688346052
2550.74453111867,0.0641368133846125
2547.01537244744,0.0616231751119964
2543.28621377622,0.0575849452843547
2539.55705510499,0.0509410041314014
2535.82789643377,0.043903096521941
2532.09873776254,0.0396774984805168
2528.36957909131,0.0380894591479136
2524.64042042009,0.0375998511336389
2520.91126174886,0.0372474558874569
2517.18210307763,0.0372496961364954
2513.45294440641,0.0382026991505662
2509.72378573518,0.0391577070746482
2505.99462706396,0.0398784217584498
2502.26546839273,0.0413169557688959
2498.5363097215,0.0431788735238514
2494.80715105028,0.0438035728625308
2491.07799237905,0.0434445454284389
2487.34883370782,0.0429034986754978
2483.6196750366,0.042387910522953
2479.89051636537,0.0407392151642923
2476.16135769415,0.0384532479585578
2472.43219902292,0.0362402746637753
2468.70304035169,0.0341774572023759
2464.97388168047,0.0316432597684691
2461.24472300924,0.0293912171777889
2457.51556433801,0.0277051403572396
2453.78640566679,0.0265382225941012
2450.05724699556,0.0258745781556109
2446.32808832433,0.0252375718924168
2442.59892965311,0.0245712345651263
2438.86977098188,0.0243543902655869
2435.14061231066,0.0241058098755979
2431.41145363943,0.0231068962151743
2427.6822949682,0.0215510112087916
2423.95313629698,0.020120827947941
2420.22397762575,0.0200113046031762
2416.49481895452,0.0206868978568117
2412.7656602833,0.020918267665195
2409.03650161207,0.0195043534162448
2405.30734294085,0.0175747068535591
2401.57818426962,0.0164954771315161
2397.84902559839,0.0162252791012171
2394.11986692717,0.0159060036573709
2390.39070825594,0.016115528677566
2386.66154958471,0.0182468670815348
2382.93239091349,0.025021161997117
2379.20323224226,0.0380590468842623
2375.47407357104,0.0546423479667218
2371.74491489981,0.0696526761034499
2368.01575622858,0.079633929434141
2364.28659755736,0.0820226337011817
2360.55743888613,0.0731318985496361
2356.8282802149,0.0529600109460319
2353.09912154368,0.0377370683825214
2349.36996287245,0.0417550190289918
2345.64080420122,0.0536652005727809
2341.91164553,0.0577385608092335
2338.18248685877,0.0552321826602337
2334.45332818755,0.0492650704317422
2330.72416951632,0.0411758678654328
2326.99501084509,0.033154576400452
2323.26585217387,0.0255904525568136
2319.53669350264,0.018865547974954
2315.80753483141,0.0142256961047306
2312.07837616019,0.0117066529198116
2308.34921748896,0.00970962045219734
2304.62005881774,0.00778859471964094
2300.89090014651,0.00615142333869537
2297.16174147528,0.00582258362310406
2293.43258280406,0.00809307317320249
2289.70342413283,0.0128548286311438
2285.9742654616,0.018686882925957
2282.24510679038,0.0242382431390309
2278.51594811915,0.0276129919459495
2274.78678944793,0.0286673188514955
2271.0576307767,0.0287131028773621
2267.32847210547,0.0281313342432358
2263.59931343425,0.0278290885771338
2259.87015476302,0.0276464623068189
2256.14099609179,0.0271438418078455
2252.41183742057,0.0262401680196366
2248.68267874934,0.0264971922084679
2244.95352007812,0.0261708454638743
2241.22436140689,0.0264319602892431
2237.49520273566,0.0280633535141124
2233.76604406444,0.0300322411191606
2230.03688539321,0.0313461656344601
2226.30772672198,0.0328817385495979
2222.57856805076,0.0347231730400995
2218.84940937953,0.0378114539930066
2215.1202507083,0.0414700101156265
2211.39109203708,0.0447552267872695
2207.66193336585,0.0462487207707967
2203.93277469463,0.0476229562985661
2200.2036160234,0.0494515168514832
2196.47445735217,0.0525357810459035
2192.74529868095,0.059170654825058
2189.01614000972,0.0680605271561891
2185.28698133849,0.0781369283227992
2181.55782266727,0.084927802197797
2177.82866399604,0.0882868683340639
2174.09950532482,0.0917948042645794
2170.37034665359,0.102568031017515
2166.64118798236,0.125009444519387
2162.91202931114,0.153816078454266
2159.18287063991,0.1583869341642
2155.45371196868,0.144121319734213
2151.72455329746,0.128848221991999
2147.99539462623,0.117609239631761
2144.26623595501,0.106515062288768
2140.53707728378,0.0975850006084269
2136.80791861255,0.0863551232845135
2133.07875994133,0.0715161414111406
2129.3496012701,0.05698634997951
2125.62044259887,0.0466077977473461
2121.89128392765,0.040067270478924
2118.16212525642,0.0359606445675985
2114.4329665852,0.0337806547512241
2110.70380791397,0.0323385599793793
2106.97464924274,0.0316298339357945
2103.24549057152,0.0313201696907995
2099.51633190029,0.031092651597972
2095.78717322906,0.0282986347558165
2092.05801455784,0.0238405978504632
2088.32885588661,0.0197648317119545
2084.59969721538,0.0175073172457097
2080.87053854416,0.0158372973384382
2077.14137987293,0.0151085733151809
2073.41222120171,0.0151089913786051
2069.68306253048,0.0173386989112192
2065.95390385925,0.0195767117454964
2062.22474518803,0.0203712586116839
2058.4955865168,0.0199595039715431
2054.76642784557,0.022260196534328
2051.03726917435,0.0278863476291953
2047.30811050312,0.0328335271226346
2043.5789518319,0.0342591894335903
2039.84979316067,0.0370472228044407
2036.12063448944,0.0414159813058728
2032.39147581822,0.042612246722082
2028.66231714699,0.0404196192561976
2024.93315847576,0.0373686289082288
2021.20399980454,0.0341629253607709
2017.47484113331,0.030941048870587
2013.74568246209,0.0293586535390797
2010.01652379086,0.027444784581367
2006.28736511963,0.0240789902179472
2002.55820644841,0.0197768284252348
1998.82904777718,0.0182250567861417
1995.09988910595,0.0190708793472147
1991.37073043473,0.020393973983805
1987.6415717635,0.0203651085306627
1983.91241309228,0.0244059781729799
1980.18325442105,0.0309059257931965
1976.45409574982,0.0348700003727669
1972.7249370786,0.0340152031775205
1968.99577840737,0.0321651093114666
1965.26661973614,0.028216772354008
1961.53746106492,0.0240086997369263
1957.80830239369,0.0188762520568902
1954.07914372246,0.0141594189605237
1950.34998505124,0.0112023911142383
1946.62082638001,0.00958593201055373
1942.89166770879,0.00648877145595703
1939.16250903756,0.00277113390223134
1935.43335036633,0.000240638314232595
1931.70419169511,-0.00114058048732149
1927.97503302388,-0.000942038055355766
1924.24587435265,-0.000281248964778598
1920.51671568143,-0.000873217246971764
1916.7875570102,-0.0033008153737228
1913.05839833898,-0.00464963359690358
1909.32923966775,-0.00550933814651219
1905.60008099652,-0.00657775444577957
1901.8709223253,-0.00697574183573551
1898.14176365407,-0.0062649516985572
1894.41260498284,-0.00536598162064092
1890.68344631162,-0.00580582168561011
1886.95428764039,-0.00793644851579323
1883.22512896917,-0.009009817037001
1879.49597029794,-0.00910160225580856
1875.76681162671,-0.00681485259349179
1872.03765295549,-0.00307717142274303
1868.30849428426,-0.0040653292128318
1864.57933561303,-0.00728858054376882
1860.85017694181,-0.0079619489271027
1857.12101827058,-0.0080759276969326
1853.39185959936,-0.00670018500710524
1849.66270092813,-0.00217927249156469
1845.9335422569,1.69707735845834E-05
1842.20438358568,-0.00373008024337118
1838.47522491445,-0.00545113524844385
1834.74606624322,-0.00196613066981545
1831.016907572,0.00157758027646993
1827.28774890077,0.000521310385772713
1823.55859022954,-0.00243474837412015
1819.82943155832,-0.00287288617692279
1816.10027288709,-0.00166553315247298
1812.37111421587,-0.00099045127388457
1808.64195554464,-0.00139412635192993
1804.91279687341,0.000365070246753122
1801.18363820219,0.0019597760259256
1797.45447953096,0.00387964279176914
1793.72532085973,0.00429550803000643
1789.99616218851,0.000554031626296492
1786.26700351728,-0.000936030204777474
1782.53784484606,-0.000250146610340869
1778.80868617483,0.00283240601604854
1775.0795275036,0.00866713702382512
1771.35036883238,0.00660088546883618
1767.62121016115,0.00229759258701619
1763.89205148992,0.00361993357992452
1760.1628928187,0.00599485869310724
1756.43373414747,0.0095103086859959
1752.70457547625,0.0145092096513665
1748.97541680502,0.0142986115063107
1745.24625813379,0.0145134368399531
1741.51709946257,0.023060386420682
1737.78794079134,0.0409676791459263
1734.05878212011,0.0573718160217326
1730.32962344889,0.0557699328492032
1726.60046477766,0.0466009393510307
1722.87130610643,0.0395266394467595
1719.14214743521,0.0325293887966393
1715.41298876398,0.0158432890412293
1711.68383009276,0.00636099150603086
1707.95467142153,0.00940125987868898
1704.2255127503,0.0184219614162243
1700.49635407908,0.0198652205586609
1696.76719540785,0.0077837711971784
1693.03803673662,0.000656064682050859
1689.3088780654,0.00697189288092406
1685.57971939417,0.0115231748031318
1681.85056072295,0.00426277259397025
1678.12140205172,0.0030641151651658
1674.39224338049,0.00592501188163707
1670.66308470927,0.00297513070728738
1666.93392603804,-0.0019509232508772
1663.20476736681,-0.00380726626054108
1659.47560869559,0.00188970637552203
1655.74645002436,0.0157323862914519
1652.01729135314,0.0154392637888055
1648.28813268191,0.00580513765503872
1644.55897401068,-0.00147210767556887
1640.82981533946,0.00142780761403286
1637.10065666823,0.00671862835991544
1633.371497997,0.00109357473341516
1629.64233932578,0.00315276175558454
1625.91318065455,0.00996829628889935
1622.18402198333,0.0134398907373188
1618.4548633121,0.0133105204473911
1614.72570464087,0.00839218100411997
1610.99654596965,0.00637637415431858
1607.26738729842,0.00670874670378031
1603.53822862719,0.00581653373359208
1599.80906995597,0.00513608335016287
1596.07991128474,0.00351706653658973
1592.35075261351,-0.000721814301470407
1588.62159394229,-0.00516132290623362
1584.89243527106,-0.00627462521780612
1581.16327659984,-0.00204862880521716
1577.43411792861,0.00214269883267899
1573.70495925738,0.00141909381910541
1569.97580058616,0.000892272040888638
1566.24664191493,0.00470063536266997
1562.5174832437,0.0206644043097066
1558.78832457248,0.0235606108350365
1555.05916590125,0.00824118922276176
1551.33000723003,0.00405172772176406
1547.6008485588,0.0128499784417431
1543.87168988757,0.0277263142377397
1540.14253121635,0.0240618191712286
1536.41337254512,0.0140258011602072
1532.68421387389,0.0123526314707639
1528.95505520267,0.0174296236026042
1525.22589653144,0.0275023661038535
1521.49673786022,0.0300323370626752
1517.76757918899,0.0253983302991851
1514.03842051776,0.0276092085094913
1510.30926184654,0.0400635937777036
1506.58010317531,0.0390727698071264
1502.85094450408,0.0330025830767096
1499.12178583286,0.0386243982877227
1495.39262716163,0.0444426629634402
1491.66346849041,0.0512613888306981
1487.93430981918,0.0535787631040898
1484.20515114795,0.0562657804008303
1480.47599247673,0.0684059367934812
1476.7468338055,0.0866981178184714
1473.01767513427,0.104330914349261
1469.28851646305,0.12726310364599
1465.55935779182,0.164256497966984
1461.83019912059,0.189661628989808
1458.10104044937,0.181557562673285
1454.37188177814,0.156945961835217
1450.64272310692,0.142552810408325
1446.91356443569,0.119983076975701
1443.18440576446,0.0935427817879776
1439.45524709324,0.0762663493923868
1435.72608842201,0.0606209407184544
1431.99692975078,0.0475232173510071
1428.26777107956,0.0400450359837006
1424.53861240833,0.0375802534889443
1420.80945373711,0.0357345785433607
1417.08029506588,0.0259377639805232
1413.35113639465,0.0178410405073653
1409.62197772343,0.015395606972334
1405.8928190522,0.0150637631794299
1402.16366038097,0.0161604356268285
1398.43450170975,0.0176043956075946
1394.70534303852,0.0153912645442425
1390.9761843673,0.0146416929799202
1387.24702569607,0.0160281833362763
1383.51786702484,0.0176612831550308
1379.78870835362,0.0257843337315795
1376.05954968239,0.0418002760345682
1372.33039101116,0.06553622180366
1368.60123233994,0.0916768169843033
1364.87207366871,0.0954772867581154
1361.14291499749,0.0690701058116224
1357.41375632626,0.0453317190251387
1353.68459765503,0.0341029443822334
1349.95543898381,0.0291833877525528
1346.22628031258,0.028490759682699
1342.49712164135,0.0322955342884626
1338.76796297013,0.0362291028440909
1335.0388042989,0.0367762470703259
1331.30964562767,0.0350797063692211
1327.58048695645,0.0327871829894401
1323.85132828522,0.0321576705370431
1320.122169614,0.0335058633389947
1316.39301094277,0.0364028562360137
1312.66385227154,0.0404202300966961
1308.93469360032,0.0446651779460469
1305.20553492909,0.0483496042593731
1301.47637625786,0.0544321411007012
1297.74721758664,0.0689385827599641
1294.01805891541,0.0986334030894925
1290.28890024419,0.148837703839716
1286.55974157296,0.217294662803547
1282.83058290173,0.251156758040214
1279.10142423051,0.214021112004543
1275.37226555928,0.173099922768854
1271.64310688805,0.148156246688503
1267.91394821683,0.122128641971324
1264.1847895456,0.111842954964076
1260.45563087438,0.119006056277355
1256.72647220315,0.13323166625876
1252.99731353192,0.149847539070011
1249.2681548607,0.164286629687693
1245.53899618947,0.171523885825994
1241.80983751824,0.16995122023579
1238.08067884702,0.162423607782011
1234.35152017579,0.152902301456745
1230.62236150457,0.144198127812385
1226.89320283334,0.137773973848723
1223.16404416211,0.134513991289241
1219.43488549089,0.133839065603263
1215.70572681966,0.136803629938091
1211.97656814843,0.145479831288291
1208.24740947721,0.15542406701396
1204.51825080598,0.15843779226758
1200.78909213475,0.161079893349952
1197.05993346353,0.170266866970987
1193.3307747923,0.185002171598883
1189.60161612108,0.207359225640714
1185.87245744985,0.234084383473223
1182.14329877862,0.247259855643517
1178.4141401074,0.238454050417001
1174.68498143617,0.215768330126763
1170.95582276494,0.187448435361786
1167.22666409372,0.160965685514511
1163.49750542249,0.145179124801957
1159.76834675127,0.144797972219123
1156.03918808004,0.155922204005057
1152.31002940881,0.170406589932557
1148.58087073759,0.19637057094844
1144.85171206636,0.230612744057779
1141.12255339513,0.234607477315122
1137.39339472391,0.203140738052342
1133.66423605268,0.169044671134498
1129.93507738146,0.143590106148175
1126.20591871023,0.124336932058091
1122.476760039,0.113303635980704
1118.74760136778,0.109700496674388
1115.01844269655,0.112117242091026
1111.28928402532,0.119842684464226
1107.5601253541,0.131539284507932
1103.83096668287,0.146788095618527
1100.10180801165,0.168921960366954
1096.37264934042,0.20088700952802
1092.64349066919,0.246549356742558
1088.91433199797,0.313567156960959
1085.18517332674,0.416933867968876
1081.45601465551,0.580998676436618
1077.72685598429,0.840340399347471
1073.99769731306,1.22452820558776
1070.26853864183,1.66044825293356
1066.53937997061,1.76260428230692
1062.81022129938,1.47255365347152
1059.08106262816,1.13603004236334
1055.35190395693,0.867211704280927
1051.6227452857,0.67771710649014
1047.89358661448,0.547330934027416
1044.16442794325,0.458650651714632
1040.43526927202,0.404661276329263
1036.7061106008,0.382764066835774
1032.97695192957,0.375023255277256
1029.24779325835,0.348259586443891
1025.51863458712,0.290453236810927
1021.78947591589,0.227241843013663
1018.06031724467,0.178698509125742
1014.33115857344,0.146198505073018
1010.60199990221,0.124367415426714
1006.87284123099,0.109142317862062
1003.14368255976,0.098022761590189
999.414523888535,0.0900693556904039
995.685365217309,0.0847263558286545
991.956206546083,0.0816816616632014
988.227047874856,0.0803883243735523
984.49788920363,0.0806545234770241
980.768730532404,0.0822482340387064
977.039571861178,0.0852346536700447
973.310413189951,0.0899702669432351
969.581254518725,0.0964377324845164
965.852095847499,0.104975693012094
962.122937176272,0.116370542688984
958.393778505046,0.130834258595142
954.66461983382,0.147575865986607
950.935461162594,0.166629428481096
947.206302491367,0.188445835590758
943.477143820141,0.2142124334037
939.747985148915,0.245569578705816
936.018826477688,0.286584752812829
932.289667806462,0.342001374596256
928.560509135236,0.417564618035739
924.83135046401,0.518177885604827
921.102191792783,0.648172279190847
917.373033121557,0.798940592517158
913.643874450331,0.936527855175329
909.914715779104,1.00796708806797
906.185557107878,0.992987549638516
902.456398436652,0.906608944455303
898.727239765426,0.785276253896739
894.998081094199,0.664080964842069
891.268922422973,0.564177140051563
887.539763751747,0.49073315603883
883.81060508052,0.438811578156838
880.081446409294,0.401332949005888
876.352287738068,0.371134063156219
872.623129066842,0.345310199335262
868.893970395615,0.321614765646134
865.164811724389,0.29949756503175
861.435653053163,0.278269880792627
857.706494381936,0.259135438879782
853.97733571071,0.244076961736108
850.248177039484,0.236503262777175
846.519018368258,0.231226531226819
842.789859697031,0.216584619262114
839.060701025805,0.195707787365466
835.331542354579,0.178961520748248
831.602383683352,0.165115533758084
827.873225012126,0.152045241811129
824.1440663409,0.138452344391917
820.414907669674,0.125995654315799
816.685748998447,0.114804127664914
812.956590327221,0.104854591629715
809.227431655995,0.0962233503299039
805.498272984768,0.0884435129827817
801.769114313542,0.0822431860102726
798.039955642316,0.0777712116378908
794.31079697109,0.0733293867249648
790.581638299863,0.0681972407619685
786.852479628637,0.0637182806297114
783.123320957411,0.0615599026647181
779.394162286184,0.0642031289344604
775.665003614958,0.0720688909815602
771.935844943732,0.070929935044859
768.206686272506,0.055955680526998
764.477527601279,0.0456694294284693
760.748368930053,0.0415835228426604
757.019210258827,0.0391008117681335
753.2900515876,0.03773470011641
749.560892916374,0.0374249916238186
745.831734245148,0.0366371566390452
742.102575573922,0.0354874771192768
738.373416902695,0.03686347277116
734.644258231469,0.0395043357106223
730.915099560243,0.0385989685573492
727.185940889016,0.0370718241206787
723.45678221779,0.0375073191097335
719.727623546564,0.0395231486752654
715.998464875338,0.0423197843086473
712.269306204111,0.0467672584491608
708.540147532885,0.059435920540489
704.810988861659,0.0803112922079514
701.081830190432,0.0902480490997917
697.352671519206,0.0804004440405373
693.62351284798,0.077086747737365
689.894354176754,0.0871386798903151
686.165195505527,0.125249874562528
682.436036834301,0.177536623919996
678.706878163075,0.195626319063468
674.977719491848,0.203085636855959
671.248560820622,0.219337257794687
667.519402149396,0.224453820691502
663.790243478169,0.223609160755836
660.061084806943,0.225637154389741
656.331926135717,0.231998716397934
652.602767464491,0.221470099878812
648.873608793276,0.207227882172053
