Wavenumbercm-1,08:14:53
2998.24357166583,0.176362465540439
2994.5144129946,0.206798106806405
2990.78525432337,0.239327695829145
2987.05609565215,0.291857232778109
2983.32693698092,0.324795333910585
2979.59777830969,0.30588417971196
2975.86861963847,0.271203308539058
2972.13946096724,0.253064078778586
2968.41030229601,0.253828646011959
2964.68114362479,0.257176423773304
2960.95198495356,0.268072842793398
2957.22282628234,0.276922494961525
2953.49366761111,0.287891131419416
2949.76450893988,0.294239699327709
2946.03535026866,0.286347891493366
2942.30619159743,0.27747979956154
2938.5770329262,0.283192494925026
2934.84787425498,0.288516951302716
2931.11871558375,0.284032892500341
2927.38955691253,0.27882204101025
2923.6603982413,0.286618331310413
2919.93123957007,0.29182476767419
2916.20208089885,0.277965733926512
2912.47292222762,0.26129851189469
2908.74376355639,0.257395093453443
2905.01460488517,0.262842120331266
2901.28544621394,0.276304620928177
2897.55628754272,0.286292331558373
2893.82712887149,0.290162660560038
2890.09797020026,0.300666679941582
2886.36881152904,0.316476659592029
2882.63965285781,0.340759671671693
2878.91049418658,0.363093104483481
2875.18133551536,0.354681885985866
2871.45217684413,0.337437704005893
2867.72301817291,0.339524990498697
2863.99385950168,0.336899680740157
2860.26470083045,0.322605429476882
2856.53554215923,0.309761176316337
2852.806383488,0.300186354802022
2849.07722481677,0.288869325329947
2845.34806614555,0.287218552357214
2841.61890747432,0.272034360860126
2837.88974880309,0.238230048208109
2834.16059013187,0.206553497498018
2830.43143146064,0.182553600944432
2826.70227278942,0.162193902823948
2822.97311411819,0.142525439308806
2819.24395544696,0.12645710951479
2815.51479677574,0.114460525281963
2811.78563810451,0.102312736792036
2808.05647943328,0.0912444724419145
2804.32732076206,0.0844298486909379
2800.59816209083,0.0776263667561672
2796.86900341961,0.0705151058531775
2793.13984474838,0.0643375750832482
2789.41068607715,0.0574010194077816
2785.68152740593,0.0494541433672112
2781.9523687347,0.0436908396267963
2778.22321006347,0.0406144990725772
2774.49405139225,0.037644485667013
2770.76489272102,0.034134866837455
2767.0357340498,0.0310392410422869
2763.30657537857,0.0280554628129154
2759.57741670734,0.02650315701484
2755.84825803612,0.0265042012486639
2752.11909936489,0.0264609990193424
2748.38994069366,0.0260281656179685
2744.66078202244,0.0274338408269361
2740.93162335121,0.0316684507619052
2737.20246467999,0.0367725442116728
2733.47330600876,0.0409634393678589
2729.74414733753,0.0426111262848562
2726.01498866631,0.0415979214135137
2722.28582999508,0.0385707404618052
2718.55667132385,0.0345778870766494
2714.82751265263,0.0306406638554548
2711.0983539814,0.0276536568151861
2707.36919531017,0.0264433136593954
2703.64003663895,0.0267824349613447
2699.91087796772,0.0284636450664284
2696.1817192965,0.0323440461048354
2692.45256062527,0.0370261778698973
2688.72340195404,0.0395124791722746
2684.99424328282,0.0389231586392421
2681.26508461159,0.0364074062036765
2677.53592594036,0.032641936600841
2673.80676726914,0.0294409548933719
2670.07760859791,0.0277803452624976
2666.34844992669,0.0270919296711379
2662.61929125546,0.0271650114006214
2658.89013258423,0.0274141358359798
2655.16097391301,0.0260065200638069
2651.43181524178,0.0227790235954682
2647.70265657055,0.0194911354462427
2643.97349789933,0.0167303148282391
2640.2443392281,0.0155918517121992
2636.51518055688,0.0157033677966858
2632.78602188565,0.0163010736242255
2629.05686321442,0.0176287840317961
2625.3277045432,0.0192226284396678
2621.59854587197,0.0210947443919152
2617.86938720074,0.0236120441751176
2614.14022852952,0.0260278616525994
2610.41106985829,0.027817670843026
2606.68191118707,0.0294098904596703
2602.95275251584,0.0315519691238982
2599.22359384461,0.033251444479547
2595.49443517339,0.0349320603685065
2591.76527650216,0.037766962822522
2588.03611783093,0.0409696464096592
2584.30695915971,0.0442435617010905
2580.57780048848,0.047311858149051
2576.84864181725,0.0506659926376119
2573.11948314603,0.0564051358212096
2569.3903244748,0.0638214426622117
2565.66116580358,0.0670319744532667
2561.93200713235,0.0639504802701316
2558.20284846112,0.0576329841286042
2554.4736897899,0.0505665772695514
2550.74453111867,0.0436012944221298
2547.01537244744,0.0384132946349761
2543.28621377622,0.0349489996461112
2539.55705510499,0.0321774457370998
2535.82789643377,0.0294115112144594
2532.09873776254,0.0275542363463486
2528.36957909131,0.0268778985298128
2524.64042042009,0.0261914732402522
2520.91126174886,0.0253592578209398
2517.18210307763,0.0256278791869873
2513.45294440641,0.0274683041857778
2509.72378573518,0.0287028095733113
2505.99462706396,0.0284300762827369
2502.26546839273,0.0283712297995573
2498.5363097215,0.0294811406594687
2494.80715105028,0.0305059397822356
2491.07799237905,0.0307956953403445
2487.34883370782,0.0310456332401627
2483.6196750366,0.0308331000369566
2479.89051636537,0.0288304402161967
2476.16135769415,0.0262235096009893
2472.43219902292,0.0241884519779974
2468.70304035169,0.0222017630588092
2464.97388168047,0.0198902247503637
2461.24472300924,0.0183377281163563
2457.51556433801,0.017605421437682
2453.78640566679,0.0173513206345844
2450.05724699556,0.0174393716630813
2446.32808832433,0.0172583171391699
2442.59892965311,0.0167024471562235
2438.86977098188,0.0164710953765443
2435.14061231066,0.0163042963218134
2431.41145363943,0.0156679875252591
2427.6822949682,0.0148975140738373
2423.95313629698,0.0138951188218502
2420.22397762575,0.013261928636545
2416.49481895452,0.0133466207902618
2412.7656602833,0.013694935981837
2409.03650161207,0.0131297306933829
2405.30734294085,0.0118198326277993
2401.57818426962,0.0108269575899164
2397.84902559839,0.0106701726255215
2394.11986692717,0.0109754312540102
2390.39070825594,0.0121284282921463
2386.66154958471,0.015178734854664
2382.93239091349,0.0222280291326555
2379.20323224226,0.0350621981138196
2375.47407357104,0.0511475260637011
2371.74491489981,0.0652967899455633
2368.01575622858,0.0742798858692508
2364.28659755736,0.0765673188112416
2360.55743888613,0.0692808872521772
2356.8282802149,0.0517431176351817
2353.09912154368,0.0394732058032793
2349.36996287245,0.0476914749489171
2345.64080420122,0.0679849773920725
2341.91164553,0.0800897999563565
2338.18248685877,0.0733912018663
2334.45332818755,0.0568389730522512
2330.72416951632,0.043760094399331
2326.99501084509,0.0344555492399135
2323.26585217387,0.0260165370636989
2319.53669350264,0.0182035807454428
2315.80753483141,0.0119433427118114
2312.07837616019,0.00794147287990313
2308.34921748896,0.00534236602803857
2304.62005881774,0.00340188911875253
2300.89090014651,0.00222456843999962
2297.16174147528,0.00230699638154833
2293.43258280406,0.0041544822340534
2289.70342413283,0.00767356417795586
2285.9742654616,0.0121965902469154
2282.24510679038,0.0168274908992749
2278.51594811915,0.0196162524624055
2274.78678944793,0.0203531971730724
2271.0576307767,0.0204594405757769
2267.32847210547,0.0200901994727556
2263.59931343425,0.0194602154896287
2259.87015476302,0.0192104956607165
2256.14099609179,0.0189454696572453
2252.41183742057,0.0186276742985311
2248.68267874934,0.0195860394396099
2244.95352007812,0.0202735508549296
2241.22436140689,0.021389447113934
2237.49520273566,0.0236301936730933
2233.76604406444,0.0256604882052801
2230.03688539321,0.0274206963639516
2226.30772672198,0.0299141839224466
2222.57856805076,0.0321840580341418
2218.84940937953,0.0346717169838923
2215.1202507083,0.0381439205189495
2211.39109203708,0.0413638613282566
2207.66193336585,0.043148566464738
2203.93277469463,0.0447230047862392
2200.2036160234,0.0470958509662016
2196.47445735217,0.0502587550659626
2192.74529868095,0.0553420918767906
2189.01614000972,0.0635798519847835
2185.28698133849,0.0738292449972098
2181.55782266727,0.0809087486277396
2177.82866399604,0.0849930058132315
2174.09950532482,0.0885388479149595
2170.37034665359,0.0981241912171877
2166.64118798236,0.119445186367124
2162.91202931114,0.147108568260079
2159.18287063991,0.152817016368499
2155.45371196868,0.13965552044237
2151.72455329746,0.124301090045807
2147.99539462623,0.112991715668069
2144.26623595501,0.103222700828507
2140.53707728378,0.0942279376093296
2136.80791861255,0.0825575844119728
2133.07875994133,0.0685308991233329
2129.3496012701,0.0550069389555048
2125.62044259887,0.0448494810738583
2121.89128392765,0.0382198053266841
2118.16212525642,0.0339368698912877
2114.4329665852,0.0318422502715805
2110.70380791397,0.0308835659541216
2106.97464924274,0.0307052997022766
2103.24549057152,0.0307911923643959
2099.51633190029,0.0305856831105155
2095.78717322906,0.0276413600620696
2092.05801455784,0.0228928561429112
2088.32885588661,0.0185331659289552
2084.59969721538,0.0157772193616226
2080.87053854416,0.0144342558906014
2077.14137987293,0.0144986612906644
2073.41222120171,0.0148847275151548
2069.68306253048,0.0162289299048627
2065.95390385925,0.0177685221872942
2062.22474518803,0.0184954064987209
2058.4955865168,0.0187081961881969
2054.76642784557,0.0212319308967413
2051.03726917435,0.0268880023621167
2047.30811050312,0.0320307394255398
2043.5789518319,0.0341104831604633
2039.84979316067,0.0374177451584976
2036.12063448944,0.0418864010707394
2032.39147581822,0.0428248497340258
2028.66231714699,0.0406020065792535
2024.93315847576,0.0372826357730494
2021.20399980454,0.0339305164044039
2017.47484113331,0.0308279018489814
2013.74568246209,0.0291332575613917
2010.01652379086,0.0272035219007911
2006.28736511963,0.0239565462646171
2002.55820644841,0.0198341138187944
1998.82904777718,0.0176306637955914
1995.09988910595,0.0179633600186617
1991.37073043473,0.0193326204507659
1987.6415717635,0.0199754085362291
1983.91241309228,0.0237099493853739
1980.18325442105,0.0301910967870214
1976.45409574982,0.0341114793974076
1972.7249370786,0.0329467291292856
1968.99577840737,0.0305978551892886
1965.26661973614,0.0276442240746175
1961.53746106492,0.02386952165091
1957.80830239369,0.0186826031155301
1954.07914372246,0.0140703765905154
1950.34998505124,0.0107636294283813
1946.62082638001,0.00853887909213702
1942.89166770879,0.0060430440158989
1939.16250903756,0.00318158323426167
1935.43335036633,0.000621901089049694
1931.70419169511,-0.00139085696664882
1927.97503302388,-0.00234287664756268
1924.24587435265,-0.00243342915497007
1920.51671568143,-0.00281320337530912
1916.7875570102,-0.00437820478370164
1913.05839833898,-0.00567304334427024
1909.32923966775,-0.00655792855127285
1905.60008099652,-0.00754745258173376
1901.8709223253,-0.0079175170023509
1898.14176365407,-0.00752251025634058
1894.41260498284,-0.00694603504570183
1890.68344631162,-0.00731295554137666
1886.95428764039,-0.00877793391505395
1883.22512896917,-0.00963121328921726
1879.49597029794,-0.0098818115441721
1875.76681162671,-0.0086264211648258
1872.03765295549,-0.00599945518970886
1868.30849428426,-0.0061862358849795
1864.57933561303,-0.00824838041557272
1860.85017694181,-0.00881273524813309
1857.12101827058,-0.00884208870040162
1853.39185959936,-0.00790982689418061
1849.66270092813,-0.004863742275671
1845.9335422569,-0.00291599682403675
1842.20438358568,-0.00496262043717405
1838.47522491445,-0.00609284852612101
1834.74606624322,-0.00391870155363554
1831.016907572,-0.00129289366490399
1827.28774890077,-0.00159916501781863
1823.55859022954,-0.00332173335757098
1819.82943155832,-0.00355945562152867
1816.10027288709,-0.0026800481260241
1812.37111421587,-0.00208023580965902
1808.64195554464,-0.00229688921573971
1804.91279687341,-0.0012957684610638
1801.18363820219,-0.000291595002562171
1797.45447953096,0.000974954779439744
1793.72532085973,0.00149369833139655
1789.99616218851,-0.000690792290315051
1786.26700351728,-0.00156526325045032
1782.53784484606,-0.00101386856758628
1778.80868617483,0.00105031511093317
1775.0795275036,0.00495346396407671
1771.35036883238,0.00370542638259411
1767.62121016115,0.00054556882350674
1763.89205148992,0.000304124844521476
1760.1628928187,0.000416633785427242
1756.43373414747,0.00153649053632917
1752.70457547625,0.00445441084432908
1748.97541680502,0.00483570131648818
1745.24625813379,0.00569099506006185
1741.51709946257,0.0111411895872158
1737.78794079134,0.0199147180101301
1734.05878212011,0.0242243577378865
1730.32962344889,0.0207509360448263
1726.60046477766,0.021159483305865
1722.87130610643,0.0277790963665403
1719.14214743521,0.0303996926874055
1715.41298876398,0.0190865931410048
1711.68383009276,0.00968522674221539
1707.95467142153,0.00890728031887686
1704.2255127503,0.0133071086008313
1700.49635407908,0.0139384527961073
1696.76719540785,0.00616021745124871
1693.03803673662,0.00122717681545872
1689.3088780654,0.00497014845289976
1685.57971939417,0.00802138619626945
1681.85056072295,0.00372175646935078
1678.12140205172,0.00335028367483478
1674.39224338049,0.00582420862331339
1670.66308470927,0.00462619615231151
1666.93392603804,0.00218864424365431
1663.20476736681,0.00168687865218763
1659.47560869559,0.00614384809597077
1655.74645002436,0.0158919194268403
1652.01729135314,0.0162632456547551
1648.28813268191,0.0100753932510835
1644.55897401068,0.00537948428634238
1640.82981533946,0.00718869497240145
1637.10065666823,0.0108986038675709
1633.371497997,0.00688270969508105
1629.64233932578,0.00646560961613623
1625.91318065455,0.00894135194750329
1622.18402198333,0.0104667001197638
1618.4548633121,0.0100881385656182
1614.72570464087,0.00587863231047997
1610.99654596965,0.00321654731562203
1607.26738729842,0.00263204731953091
1603.53822862719,0.00194160258019638
1599.80906995597,0.00152514922872128
1596.07991128474,0.000782279058050842
1592.35075261351,-0.00114169315726811
1588.62159394229,-0.00317383009823526
1584.89243527106,-0.0036645265455229
1581.16327659984,-0.000963971034502311
1577.43411792861,0.0017360020108347
1573.70495925738,0.00145249105387414
1569.97580058616,0.00122469255545787
1566.24664191493,0.00380661071120745
1562.5174832437,0.0140939774385999
1558.78832457248,0.0163842922177492
1555.05916590125,0.00680461041560812
1551.33000723003,0.00424032956234127
1547.6008485588,0.010099030613256
1543.87168988757,0.0205974780149417
1540.14253121635,0.0203119016046635
1536.41337254512,0.0163385051832611
1532.68421387389,0.0177043706584964
1528.95505520267,0.0214866936521269
1525.22589653144,0.0266347010899381
1521.49673786022,0.0270777574186279
1517.76757918899,0.0239035234496963
1514.03842051776,0.0256590218088869
1510.30926184654,0.0347411978878653
1506.58010317531,0.0361845877280523
1502.85094450408,0.0342770807297123
1499.12178583286,0.0403215235003335
1495.39262716163,0.0469381163698899
1491.66346849041,0.0539238823680778
1487.93430981918,0.0584162504661429
1484.20515114795,0.0631678634277051
1480.47599247673,0.0747322101131011
1476.7468338055,0.0914579366123548
1473.01767513427,0.109801968805518
1469.28851646305,0.133756917413231
1465.55935779182,0.168283552830278
1461.83019912059,0.18905204437005
1458.10104044937,0.178511831109664
1454.37188177814,0.15714271205845
1450.64272310692,0.144552294440132
1446.91356443569,0.122675676577658
1443.18440576446,0.0957426284385021
1439.45524709324,0.0762281893895988
1435.72608842201,0.0606091723564929
1431.99692975078,0.048660820956732
1428.26777107956,0.0411712756220831
1424.53861240833,0.0374604862214274
1420.80945373711,0.0347073437109388
1417.08029506588,0.027569933260185
1413.35113639465,0.0222283212350189
1409.62197772343,0.0214397630480518
1405.8928190522,0.0241600964416037
1402.16366038097,0.0298062514812751
1398.43450170975,0.0329231358628715
1394.70534303852,0.0272617700194464
1390.9761843673,0.0209876118777206
1387.24702569607,0.0183027440127133
1383.51786702484,0.0173868180791845
1379.78870835362,0.0212555825515852
1376.05954968239,0.0342885417815038
1372.33039101116,0.0641112498823153
1368.60123233994,0.103822815212958
1364.87207366871,0.110674597752057
1361.14291499749,0.074513083684336
1357.41375632626,0.0439793339558183
1353.68459765503,0.0311320639732763
1349.95543898381,0.0271340273687214
1346.22628031258,0.0278999219828656
1342.49712164135,0.0333768933205238
1338.76796297013,0.0401653886481687
1335.0388042989,0.0445300989987462
1331.30964562767,0.0452912604801165
1327.58048695645,0.042983062940997
1323.85132828522,0.0407558620435371
1320.122169614,0.0405115870408931
1316.39301094277,0.0444479111322438
1312.66385227154,0.0541645192554956
1308.93469360032,0.0668218113920491
1305.20553492909,0.0769938602131267
1301.47637625786,0.0895249901375862
1297.74721758664,0.111116021543974
1294.01805891541,0.141092530598318
1290.28890024419,0.176884809143779
1286.55974157296,0.216570912014458
1282.83058290173,0.220352524160394
1279.10142423051,0.168325405606588
1275.37226555928,0.119191486304319
1271.64310688805,0.099500412191928
1267.91394821683,0.0949253607841776
1264.1847895456,0.0958059039080842
1260.45563087438,0.100966976123314
1256.72647220315,0.110157856117117
1252.99731353192,0.122713075288359
1249.2681548607,0.136828121523046
1245.53899618947,0.146129629705861
1241.80983751824,0.143775722336427
1238.08067884702,0.132576650704988
1234.35152017579,0.122416430484014
1230.62236150457,0.116821509218755
1226.89320283334,0.114745444466005
1223.16404416211,0.115315802724448
1219.43488549089,0.117739196666551
1215.70572681966,0.121669595458502
1211.97656814843,0.127744410564764
1208.24740947721,0.134792096409614
1204.51825080598,0.140830614765147
1200.78909213475,0.148929880138842
1197.05993346353,0.161757705451213
1193.3307747923,0.176713943675121
1189.60161612108,0.189878312790987
1185.87245744985,0.204629979317843
1182.14329877862,0.227287833633266
1178.4141401074,0.244692575387725
1174.68498143617,0.230733462160379
1170.95582276494,0.194280768131008
1167.22666409372,0.160611423920241
1163.49750542249,0.139077100768383
1159.76834675127,0.13031583873536
1156.03918808004,0.133062219166479
1152.31002940881,0.14566782159079
1148.58087073759,0.168013159384998
1144.85171206636,0.188322194794329
1141.12255339513,0.186302458753214
1137.39339472391,0.164055809285347
1133.66423605268,0.138212527111224
1129.93507738146,0.119243485397105
1126.20591871023,0.108970222545367
1122.476760039,0.105750368336103
1118.74760136778,0.107946575940823
1115.01844269655,0.114188181414523
1111.28928402532,0.122311022283944
1107.5601253541,0.133162849717676
1103.83096668287,0.149999375393101
1100.10180801165,0.174734473032597
1096.37264934042,0.207789843377978
1092.64349066919,0.251058170152537
1088.91433199797,0.312951048886162
1085.18517332674,0.410480672877712
1081.45601465551,0.56802432989134
1077.72685598429,0.819012953911924
1073.99769731306,1.19134526271144
1070.26853864183,1.61697433341018
1066.53937997061,1.75181669437827
1062.81022129938,1.51943577009258
1059.08106262816,1.20226718765918
1055.35190395693,0.922307177171289
1051.6227452857,0.710511728748354
1047.89358661448,0.561683271011272
1044.16442794325,0.464327477909806
1040.43526927202,0.409218912241604
1036.7061106008,0.389534971981404
1032.97695192957,0.386474416553112
1029.24779325835,0.366169489794141
1025.51863458712,0.311519865038224
1021.78947591589,0.245103611388183
1018.06031724467,0.192155555179784
1014.33115857344,0.157464184553128
1010.60199990221,0.134814231303782
1006.87284123099,0.119007302837483
1003.14368255976,0.107357437448559
999.414523888535,0.0989686342673982
995.685365217309,0.0930100149163127
991.956206546083,0.0892744623777599
988.227047874856,0.0872906906899729
984.49788920363,0.0868237699115428
980.768730532404,0.0876235583509701
977.039571861178,0.0897445931915415
973.310413189951,0.0934909205019843
969.581254518725,0.0990321845616842
965.852095847499,0.106772293309035
962.122937176272,0.117535453346084
958.393778505046,0.131595881551346
954.66461983382,0.149002519876159
950.935461162594,0.170059462550462
947.206302491367,0.192189043881681
943.477143820141,0.214979668770853
939.747985148915,0.243857914634251
936.018826477688,0.283926029872756
932.289667806462,0.338188030111723
928.560509135236,0.411625004484749
924.83135046401,0.510097951034705
921.102191792783,0.638787839477552
917.373033121557,0.788261263019859
913.643874450331,0.923374635475133
909.914715779104,0.995781819814576
906.185557107878,0.99105570598986
902.456398436652,0.917812128188348
898.727239765426,0.804593324665652
894.998081094199,0.684703192249347
891.268922422973,0.579430840742541
887.539763751747,0.4963998950366
883.81060508052,0.436634302476172
880.081446409294,0.395495509937152
876.352287738068,0.366272903551503
872.623129066842,0.343599228274759
868.893970395615,0.323142144046247
865.164811724389,0.303472974052761
861.435653053163,0.28454681158092
857.706494381936,0.267759875815653
853.97733571071,0.255134827468414
850.248177039484,0.247052786974395
846.519018368258,0.237182937584672
842.789859697031,0.224173424478575
839.060701025805,0.211289971792814
835.331542354579,0.19982138407453
831.602383683352,0.188123075345912
827.873225012126,0.176395953987464
824.1440663409,0.165480296541193
820.414907669674,0.15604217437814
816.685748998447,0.145398874109037
812.956590327221,0.132989839072454
809.227431655995,0.120848418484258
805.498272984768,0.110965590749689
801.769114313542,0.103792702334409
798.039955642316,0.0996108225279484
794.31079697109,0.0960816769568582
790.581638299863,0.0931264024501075
786.852479628637,0.09501575481522
783.123320957411,0.110161528935639
779.394162286184,0.116759067080422
775.665003614958,0.0981176250597767
771.935844943732,0.0858939442841399
768.206686272506,0.0852784199790733
764.477527601279,0.0897091698485428
760.748368930053,0.0990172790194179
757.019210258827,0.10612829331188
753.2900515876,0.105314379023528
749.560892916374,0.102593595541003
745.831734245148,0.0996588531653666
742.102575573922,0.0944415844525189
738.373416902695,0.0889105014033464
734.644258231469,0.0824019028361686
730.915099560243,0.0749691465712947
727.185940889016,0.0677005911393735
723.45678221779,0.0641403982928562
719.727623546564,0.0657064054953302
715.998464875338,0.077589663211338
712.269306204111,0.0922158237489497
708.540147532885,0.0924980344887806
704.810988861659,0.0926047545300469
701.081830190432,0.0961214437061728
697.352671519206,0.0951013895608286
693.62351284798,0.0982443906919821
689.894354176754,0.105581177733214
686.165195505527,0.132676154605986
682.436036834301,0.166857703114033
678.706878163075,0.165941933014429
674.977719491848,0.162694500778936
671.248560820622,0.197645166014451
667.519402149396,0.245242660752194
663.790243478169,0.275845615506959
660.061084806943,0.277999313006431
656.331926135717,0.273938610468256
652.602767464491,0.264867818672151
648.873608793276,0.252602422997001
