Wavenumbercm-1,01:32:52
2998.24357166583,0.188894170685875
2994.5144129946,0.218423575622286
2990.78525432337,0.251673866294539
2987.05609565215,0.305435833302727
2983.32693698092,0.341341712886422
2979.59777830969,0.324405751580602
2975.86861963847,0.288459471913037
2972.13946096724,0.266643468340826
2968.41030229601,0.264274189270162
2964.68114362479,0.264538640836294
2960.95198495356,0.27713693100443
2957.22282628234,0.290536628298779
2953.49366761111,0.305203927356259
2949.76450893988,0.310794339519873
2946.03535026866,0.297106435133685
2942.30619159743,0.283963293752299
2938.5770329262,0.292425604613267
2934.84787425498,0.299946444210574
2931.11871558375,0.295212294385396
2927.38955691253,0.290888722684686
2923.6603982413,0.303901215741835
2919.93123957007,0.315606147492857
2916.20208089885,0.30250658839826
2912.47292222762,0.280041925717179
2908.74376355639,0.270752285646203
2905.01460488517,0.275388438734751
2901.28544621394,0.287906311884483
2897.55628754272,0.29593510424265
2893.82712887149,0.299295638478152
2890.09797020026,0.311087834318271
2886.36881152904,0.327918948724736
2882.63965285781,0.355252289114738
2878.91049418658,0.380892652845993
2875.18133551536,0.371042933366948
2871.45217684413,0.350569220181278
2867.72301817291,0.352417889665174
2863.99385950168,0.34910230098833
2860.26470083045,0.335261359483136
2856.53554215923,0.325218394402673
2852.806383488,0.31807905123477
2849.07722481677,0.304477673664715
2845.34806614555,0.302694540662041
2841.61890747432,0.288631287467256
2837.88974880309,0.253095182601412
2834.16059013187,0.220130290380262
2830.43143146064,0.194017142369319
2826.70227278942,0.172019445251149
2822.97311411819,0.15272664554082
2819.24395544696,0.136395457842131
2815.51479677574,0.12437362923427
2811.78563810451,0.112888270161598
2808.05647943328,0.100069849255036
2804.32732076206,0.0918106343378548
2800.59816209083,0.0853216005694173
2796.86900341961,0.0794845223280106
2793.13984474838,0.0737406779120028
2789.41068607715,0.065620047461907
2785.68152740593,0.0570598505173943
2781.9523687347,0.0528530128733944
2778.22321006347,0.0507983947590048
2774.49405139225,0.0475071733811163
2770.76489272102,0.0433070019191451
2767.0357340498,0.039513676500961
2763.30657537857,0.0369789122610403
2759.57741670734,0.0366447283039294
2755.84825803612,0.0369364652647214
2752.11909936489,0.0369488758155059
2748.38994069366,0.0365029215743101
2744.66078202244,0.0373948446303271
2740.93162335121,0.0403447878619977
2737.20246467999,0.0434892972017658
2733.47330600876,0.0462408148173387
2729.74414733753,0.0477058218807289
2726.01498866631,0.0478254531823019
2722.28582999508,0.0458336174424051
2718.55667132385,0.0421580039446863
2714.82751265263,0.0379612644837394
2711.0983539814,0.0352115829008621
2707.36919531017,0.03400486120439
2703.64003663895,0.0345601778117983
2699.91087796772,0.0365502951415477
2696.1817192965,0.0399041590473863
2692.45256062527,0.0438282333461002
2688.72340195404,0.0464021939418817
2684.99424328282,0.0464269166352072
2681.26508461159,0.0438427986472702
2677.53592594036,0.0391583695654291
2673.80676726914,0.0353334343770201
2670.07760859791,0.0335927662939141
2666.34844992669,0.0328979056777721
2662.61929125546,0.0330862518023782
2658.89013258423,0.0336083382234924
2655.16097391301,0.0324334663530537
2651.43181524178,0.0293685599433969
2647.70265657055,0.0262777258810735
2643.97349789933,0.0234350886837147
2640.2443392281,0.0220457338729274
2636.51518055688,0.0218298740987442
2632.78602188565,0.0222177729763329
2629.05686321442,0.0233287361178335
2625.3277045432,0.0249850085854154
2621.59854587197,0.0268013785138865
2617.86938720074,0.0286758598320688
2614.14022852952,0.0293216689639554
2610.41106985829,0.0297559839030375
2606.68191118707,0.0314701539493942
2602.95275251584,0.0333445943767857
2599.22359384461,0.033774268969611
2595.49443517339,0.034599288705125
2591.76527650216,0.0368289255597018
2588.03611783093,0.0391636874615084
2584.30695915971,0.0422421984921796
2580.57780048848,0.0469872327837054
2576.84864181725,0.0537849449680261
2573.11948314603,0.063477293266114
2569.3903244748,0.0744784215388834
2565.66116580358,0.0805182666252311
2561.93200713235,0.0791609116461044
2558.20284846112,0.0725365960716173
2554.4736897899,0.0657040226215014
2550.74453111867,0.0616177642976243
2547.01537244744,0.0599906185107958
2543.28621377622,0.056844836604549
2539.55705510499,0.0505327721482006
2535.82789643377,0.0434891079437024
2532.09873776254,0.039177319246349
2528.36957909131,0.0377139096269884
2524.64042042009,0.0369494790907574
2520.91126174886,0.0361805013107542
2517.18210307763,0.0366245252016912
2513.45294440641,0.0376081977878607
2509.72378573518,0.0377716294859347
2505.99462706396,0.0384758003681463
2502.26546839273,0.0401818665733176
2498.5363097215,0.0419323046213901
2494.80715105028,0.0425846539110706
2491.07799237905,0.0421922384405936
2487.34883370782,0.0414407465339305
2483.6196750366,0.0410595515619399
2479.89051636537,0.0397815090259253
2476.16135769415,0.037567614831506
2472.43219902292,0.0355015286594727
2468.70304035169,0.0336252817305056
2464.97388168047,0.0313566459554978
2461.24472300924,0.0293406514055483
2457.51556433801,0.0275045431821864
2453.78640566679,0.0261998691476916
2450.05724699556,0.02551827683153
2446.32808832433,0.0249322090037094
2442.59892965311,0.0242912592155075
2438.86977098188,0.0236382449841448
2435.14061231066,0.0228927705496506
2431.41145363943,0.0219767101768742
2427.6822949682,0.0208306039015556
2423.95313629698,0.0198604242790281
2420.22397762575,0.0198931009194879
2416.49481895452,0.0201390406509356
2412.7656602833,0.0198771217463681
2409.03650161207,0.018500727709383
2405.30734294085,0.0169129677307152
2401.57818426962,0.0158370166444312
2397.84902559839,0.0154085638394145
2394.11986692717,0.015120300219064
2390.39070825594,0.0152180780215618
2386.66154958471,0.0172375222969079
2382.93239091349,0.0240098825430111
2379.20323224226,0.0368512495354924
2375.47407357104,0.0530398114666524
2371.74491489981,0.0679084945799663
2368.01575622858,0.077989797786839
2364.28659755736,0.0801588091600592
2360.55743888613,0.0709802407520707
2356.8282802149,0.0509323372403418
2353.09912154368,0.0362514285703621
2349.36996287245,0.0405766863539907
2345.64080420122,0.0521603202925001
2341.91164553,0.0559290649121523
2338.18248685877,0.0533681217585942
2334.45332818755,0.047342987800673
2330.72416951632,0.0393138907931006
2326.99501084509,0.0315100566030538
2323.26585217387,0.024396982657245
2319.53669350264,0.0181988422371177
2315.80753483141,0.0135633766458039
2312.07837616019,0.0108623811391389
2308.34921748896,0.00899342605053493
2304.62005881774,0.00712892087055106
2300.89090014651,0.00556785499408197
2297.16174147528,0.00538272850639561
2293.43258280406,0.00747105945296557
2289.70342413283,0.0119951579675581
2285.9742654616,0.0180164249911675
2282.24510679038,0.0239163817149344
2278.51594811915,0.0273380653507205
2274.78678944793,0.0279825530571381
2271.0576307767,0.027840605293884
2267.32847210547,0.0275586540937607
2263.59931343425,0.0275569252342079
2259.87015476302,0.0273966647583946
2256.14099609179,0.0266331571595917
2252.41183742057,0.0255005347165506
2248.68267874934,0.0253168854298787
2244.95352007812,0.0250219892158022
2241.22436140689,0.0258258542602333
2237.49520273566,0.0273426904671698
2233.76604406444,0.0288326982805673
2230.03688539321,0.0300706023564775
2226.30772672198,0.0318521648858179
2222.57856805076,0.0338481525406469
2218.84940937953,0.0365415565438502
2215.1202507083,0.0401444705805487
2211.39109203708,0.0443573052413953
2207.66193336585,0.046440018736558
2203.93277469463,0.0475941846508119
2200.2036160234,0.0495817964489834
2196.47445735217,0.0523260947673572
2192.74529868095,0.0577252498867887
2189.01614000972,0.0664539032510443
2185.28698133849,0.0766465989618303
2181.55782266727,0.083573790365161
2177.82866399604,0.0878326485744548
2174.09950532482,0.0921799985500487
2170.37034665359,0.103670665542376
2166.64118798236,0.126612158560773
2162.91202931114,0.154530928394785
2159.18287063991,0.157863601764813
2155.45371196868,0.143005249889853
2151.72455329746,0.127044201783375
2147.99539462623,0.115791893934342
2144.26623595501,0.105621405655851
2140.53707728378,0.0970472820501331
2136.80791861255,0.0854783228439974
2133.07875994133,0.070697876038114
2129.3496012701,0.0563846146185715
2125.62044259887,0.0460290890075796
2121.89128392765,0.0394645093101605
2118.16212525642,0.0352456768506092
2114.4329665852,0.0330005916924796
2110.70380791397,0.0317108953965347
2106.97464924274,0.0314891834610978
2103.24549057152,0.0316277192905843
2099.51633190029,0.0313751103237033
2095.78717322906,0.028028749793448
2092.05801455784,0.0228950699105314
2088.32885588661,0.018578975936662
2084.59969721538,0.016545092708182
2080.87053854416,0.015403095930768
2077.14137987293,0.0152516634225053
2073.41222120171,0.0154359849683174
2069.68306253048,0.0171023090063493
2065.95390385925,0.0188386063392055
2062.22474518803,0.0196642898337593
2058.4955865168,0.0191814195718463
2054.76642784557,0.0210977692604087
2051.03726917435,0.0265830984093003
2047.30811050312,0.031962077036323
2043.5789518319,0.033858480234899
2039.84979316067,0.0366021677372619
2036.12063448944,0.0409847608155044
2032.39147581822,0.0424291634113938
2028.66231714699,0.0404095218128563
2024.93315847576,0.0371508627143231
2021.20399980454,0.0334440817595547
2017.47484113331,0.0296416261509178
2013.74568246209,0.0279281363120825
2010.01652379086,0.0264722913172076
2006.28736511963,0.0234473108723337
2002.55820644841,0.0195342866406013
1998.82904777718,0.0181157100099272
1995.09988910595,0.0184227509324873
1991.37073043473,0.0190638339324345
1987.6415717635,0.019230078599709
1983.91241309228,0.0238304714841688
1980.18325442105,0.0306929555787943
1976.45409574982,0.0345073591029904
1972.7249370786,0.0332213243277205
1968.99577840737,0.0313208764772372
1965.26661973614,0.0277430099474649
1961.53746106492,0.023526626600525
1957.80830239369,0.0181895672337489
1954.07914372246,0.0137114002856812
1950.34998505124,0.0107492371801395
1946.62082638001,0.00894071644132516
1942.89166770879,0.0059012495912419
1939.16250903756,0.00247608570806398
1935.43335036633,5.71681351305369E-05
1931.70419169511,-0.00174617779219933
1927.97503302388,-0.00191743668483757
1924.24587435265,-0.00118016579256907
1920.51671568143,-0.00158079154251328
1916.7875570102,-0.00389405118135378
1913.05839833898,-0.00532058949154427
1909.32923966775,-0.00628565026052047
1905.60008099652,-0.00728477798205446
1901.8709223253,-0.00756920751283201
1898.14176365407,-0.00694386275498823
1894.41260498284,-0.00615945439100009
1890.68344631162,-0.00653365668980831
1886.95428764039,-0.00852352062526705
1883.22512896917,-0.00950205285335129
1879.49597029794,-0.00965859401150213
1875.76681162671,-0.00754514928346433
1872.03765295549,-0.00393451062190169
1868.30849428426,-0.00477125373765643
1864.57933561303,-0.00780045574461385
1860.85017694181,-0.00857783955649645
1857.12101827058,-0.00878737863650127
1853.39185959936,-0.00740254442610235
1849.66270092813,-0.00292127771140137
1845.9335422569,-0.000753221834744407
1842.20438358568,-0.00440841332297718
1838.47522491445,-0.00606351212334706
1834.74606624322,-0.00267419351677177
1831.016907572,0.000812686845507538
1827.28774890077,-0.000155152395778135
1823.55859022954,-0.00306162272676062
1819.82943155832,-0.00359859291677273
1816.10027288709,-0.00242040129390514
1812.37111421587,-0.0017012179149708
1808.64195554464,-0.00214557503760579
1804.91279687341,-0.000470242268678637
1801.18363820219,0.0010895012044941
1797.45447953096,0.00295059934756336
1793.72532085973,0.00338276272960304
1789.99616218851,-0.000217599643724303
1786.26700351728,-0.00171689543065346
1782.53784484606,-0.00109551562073103
1778.80868617483,0.00190974216326542
1775.0795275036,0.00758029710877248
1771.35036883238,0.0056232125467969
1767.62121016115,0.00149145887760805
1763.89205148992,0.00277375422045743
1760.1628928187,0.00508591198362605
1756.43373414747,0.00853052621792569
1752.70457547625,0.0133766932940504
1748.97541680502,0.0131664194227635
1745.24625813379,0.0134632263117218
1741.51709946257,0.0219662543910988
1737.78794079134,0.0397670911135845
1734.05878212011,0.0561562751906073
1730.32962344889,0.0547345165136999
1726.60046477766,0.0455777715974674
1722.87130610643,0.0381886030940204
1719.14214743521,0.0309097065446264
1715.41298876398,0.0145516646664594
1711.68383009276,0.00534176741927235
1707.95467142153,0.00823687253857634
1704.2255127503,0.0169053242634953
1700.49635407908,0.0182597704147337
1696.76719540785,0.00653143100990721
1693.03803673662,-0.000396534340803149
1689.3088780654,0.00570308093886508
1685.57971939417,0.0100804914086379
1681.85056072295,0.00306873301975378
1678.12140205172,0.00193611749449857
1674.39224338049,0.00465245685949451
1670.66308470927,0.0017559838521436
1666.93392603804,-0.00301724445818821
1663.20476736681,-0.00486383150317175
1659.47560869559,0.00065948801433811
1655.74645002436,0.014096299154588
1652.01729135314,0.0138056019895
1648.28813268191,0.00443716201456802
1644.55897401068,-0.00261178283665375
1640.82981533946,0.00025080372457425
1637.10065666823,0.00544083961668983
1633.371497997,7.33864752544783E-05
1629.64233932578,0.00218892741533616
1625.91318065455,0.0089363137254368
1622.18402198333,0.0123928090134343
1618.4548633121,0.0122639822014802
1614.72570464087,0.00746643573634267
1610.99654596965,0.00551960210423051
1607.26738729842,0.00587244578896226
1603.53822862719,0.00502261635780297
1599.80906995597,0.00432974164163674
1596.07991128474,0.00269593935862269
1592.35075261351,-0.00148213950602975
1588.62159394229,-0.00579865612578994
1584.89243527106,-0.00683420113492625
1581.16327659984,-0.00268241343277185
1577.43411792861,0.00138761004170543
1573.70495925738,0.000643748830887164
1569.97580058616,7.11819118928208E-05
1566.24664191493,0.00374345049159869
1562.5174832437,0.0191875820565818
1558.78832457248,0.0219708915833387
1555.05916590125,0.00714898457629256
1551.33000723003,0.00313797363738256
1547.6008485588,0.0117578856372532
1543.87168988757,0.026278891114405
1540.14253121635,0.0227705268212134
1536.41337254512,0.0129833228484253
1532.68421387389,0.0113275347829831
1528.95505520267,0.0162687147361975
1525.22589653144,0.0260420129972771
1521.49673786022,0.0285312343898384
1517.76757918899,0.0241221778519368
1514.03842051776,0.0263322336067714
1510.30926184654,0.0384840084156866
1506.58010317531,0.0376940959892656
1502.85094450408,0.0319437314893198
1499.12178583286,0.0375388230860249
1495.39262716163,0.0433807076003523
1491.66346849041,0.0501760796415744
1487.93430981918,0.0526972023692764
1484.20515114795,0.055588949097166
1480.47599247673,0.0676187386534945
1476.7468338055,0.0856718554652651
1473.01767513427,0.103380883564544
1469.28851646305,0.126529674336954
1465.55935779182,0.163458567871648
1461.83019912059,0.18860016680933
1458.10104044937,0.180361755521346
1454.37188177814,0.156057118863109
1450.64272310692,0.14179839647346
1446.91356443569,0.119264113820694
1443.18440576446,0.0927818374464341
1439.45524709324,0.0753227338582866
1435.72608842201,0.0597103120418219
1431.99692975078,0.0467566459403632
1428.26777107956,0.0392888010663484
1424.53861240833,0.036678058193586
1420.80945373711,0.0346790216781318
1417.08029506588,0.025046193899069
1413.35113639465,0.0171043494553523
1409.62197772343,0.0146309775897665
1405.8928190522,0.0142352737298456
1402.16366038097,0.0152355620650806
1398.43450170975,0.0166017221966428
1394.70534303852,0.014484666158082
1390.9761843673,0.013796186125085
1387.24702569607,0.0151652847193253
1383.51786702484,0.016867762302796
1379.78870835362,0.0249720248928178
1376.05954968239,0.040918243640587
1372.33039101116,0.0646663731790462
1368.60123233994,0.0908117947877144
1364.87207366871,0.0945257917818177
1361.14291499749,0.068181250776605
1357.41375632626,0.0445506486254285
1353.68459765503,0.0333601157428832
1349.95543898381,0.028454109620793
1346.22628031258,0.0277445016713307
1342.49712164135,0.0314675604973664
1338.76796297013,0.0353939632633611
1335.0388042989,0.0360409764200068
1331.30964562767,0.0343793695493514
1327.58048695645,0.0320864591351162
1323.85132828522,0.031423642517971
1320.122169614,0.0327351389519929
1316.39301094277,0.0356328023280371
1312.66385227154,0.039685817388229
1308.93469360032,0.0439345897099787
1305.20553492909,0.0476110014179287
1301.47637625786,0.0537023048588559
1297.74721758664,0.0682028900834983
1294.01805891541,0.097850377861784
1290.28890024419,0.147918442907955
1286.55974157296,0.216135774406682
1282.83058290173,0.249788852797207
1279.10142423051,0.212694626783784
1275.37226555928,0.171933785082006
1271.64310688805,0.147124617771783
1267.91394821683,0.121194217276952
1264.1847895456,0.110930444552549
1260.45563087438,0.118056651603349
1256.72647220315,0.132263750298246
1252.99731353192,0.148886662028355
1249.2681548607,0.163334212017964
1245.53899618947,0.170591725697471
1241.80983751824,0.169056851127081
1238.08067884702,0.161556175383445
1234.35152017579,0.15204549323601
1230.62236150457,0.14333888764974
1226.89320283334,0.136885872962112
1223.16404416211,0.133597288961662
1219.43488549089,0.132936998666415
1215.70572681966,0.135937395774103
1211.97656814843,0.144625007452873
1208.24740947721,0.15454157075747
1204.51825080598,0.157533243491434
1200.78909213475,0.160173776738554
1197.05993346353,0.169366877527887
1193.3307747923,0.184100567302421
1189.60161612108,0.206427177678542
1185.87245744985,0.233070270190931
1182.14329877862,0.246180845814298
1178.4141401074,0.237354863098404
1174.68498143617,0.214681374188149
1170.95582276494,0.186403876021358
1167.22666409372,0.159964347173783
1163.49750542249,0.14418401654585
1159.76834675127,0.143745901206265
1156.03918808004,0.154789848529299
1152.31002940881,0.169199623542153
1148.58087073759,0.195060623482017
1144.85171206636,0.229175090974699
1141.12255339513,0.2331360438578
1137.39339472391,0.201749523381544
1133.66423605268,0.167788900024685
1129.93507738146,0.142456356096234
1126.20591871023,0.123276286369279
1122.476760039,0.112288043991669
1118.74760136778,0.108722354510856
1115.01844269655,0.111166636633773
1111.28928402532,0.118892646460802
1107.5601253541,0.130596668082435
1103.83096668287,0.145885240610947
1100.10180801165,0.168051596615849
1096.37264934042,0.200045381948355
1092.64349066919,0.245728554094143
1088.91433199797,0.31275231274419
1085.18517332674,0.416151406998814
1081.45601465551,0.580346557715199
1077.72685598429,0.839930789500401
1073.99769731306,1.22434838752437
1070.26853864183,1.66052487192801
1066.53937997061,1.76227297992829
1062.81022129938,1.47147235441599
1059.08106262816,1.13477145146059
1055.35190395693,0.86602186254303
1051.6227452857,0.676614134243735
1047.89358661448,0.546277539227082
1044.16442794325,0.457671574995562
1040.43526927202,0.403765309491887
1036.7061106008,0.381942590086979
1032.97695192957,0.374224563926072
1029.24779325835,0.347425088652844
1025.51863458712,0.289618987395038
1021.78947591589,0.226441711258379
1018.06031724467,0.177916720735222
1014.33115857344,0.145408682056286
1010.60199990221,0.123580428685642
1006.87284123099,0.108363171736414
1003.14368255976,0.0972450148809653
999.414523888535,0.089296233051108
995.685365217309,0.0839495140164484
991.956206546083,0.0808996117358915
988.227047874856,0.0796156837860311
984.49788920363,0.079895377739946
980.768730532404,0.0814991959215694
977.039571861178,0.0844790453225109
973.310413189951,0.0892183656368047
969.581254518725,0.0956962325500552
965.852095847499,0.104232948810759
962.122937176272,0.115634154496206
958.393778505046,0.130090702311438
954.66461983382,0.146829910443287
950.935461162594,0.165865329851039
947.206302491367,0.187664008458479
943.477143820141,0.213454885297405
939.747985148915,0.244850232763425
936.018826477688,0.285877129857929
932.289667806462,0.341270774654066
928.560509135236,0.416837413336862
924.83135046401,0.51750586245548
921.102191792783,0.647542669450718
917.373033121557,0.798341733611002
913.643874450331,0.936034708129524
909.914715779104,1.00753107203423
906.185557107878,0.992548456661379
902.456398436652,0.905994792690582
898.727239765426,0.784474704382262
894.998081094199,0.663208634906763
891.268922422973,0.563279991819252
887.539763751747,0.489883474830397
883.81060508052,0.437999288358249
880.081446409294,0.400512530315546
876.352287738068,0.370284527060915
872.623129066842,0.344469163011719
868.893970395615,0.320789544036581
865.164811724389,0.298663264777145
861.435653053163,0.277433760829232
857.706494381936,0.258288412832297
853.97733571071,0.243220990290541
850.248177039484,0.235606590748076
846.519018368258,0.230290423830184
842.789859697031,0.215652873362511
839.060701025805,0.194816798140945
835.331542354579,0.17810387024339
831.602383683352,0.164260008602484
827.873225012126,0.151167656063351
824.1440663409,0.13754798794132
820.414907669674,0.125078015175645
816.685748998447,0.113857122608761
812.956590327221,0.103918837159711
809.227431655995,0.0953358648840204
805.498272984768,0.0875287094668024
801.769114313542,0.081314450024446
798.039955642316,0.0769148202052331
794.31079697109,0.0724652564416107
790.581638299863,0.0672840869116893
786.852479628637,0.0628387332130564
783.123320957411,0.0607065144921134
779.394162286184,0.0633112928953555
775.665003614958,0.071059907363553
771.935844943732,0.0698994441838939
768.206686272506,0.0550482943854105
764.477527601279,0.0448317550834977
760.748368930053,0.0407445179162621
757.019210258827,0.0381830382232729
753.2900515876,0.0367491223091068
749.560892916374,0.0365059872613365
745.831734245148,0.0358084423616632
742.102575573922,0.0346559884403302
738.373416902695,0.0359980997450347
734.644258231469,0.0386416766874096
730.915099560243,0.0378069961677291
727.185940889016,0.0363034248474732
723.45678221779,0.036748336250057
719.727623546564,0.03873509033511
715.998464875338,0.0414982513357837
712.269306204111,0.0459002134928183
708.540147532885,0.0584372500353794
704.810988861659,0.0794080971083992
701.081830190432,0.0894509585021999
697.352671519206,0.0796009673048967
693.62351284798,0.0762823661031856
689.894354176754,0.0861883696312449
686.165195505527,0.12403776158406
682.436036834301,0.176105832463036
678.706878163075,0.194598825608398
674.977719491848,0.20217419060607
671.248560820622,0.217976355403411
667.519402149396,0.223330381057762
663.790243478169,0.22240554590377
660.061084806943,0.224679227417581
656.331926135717,0.232430737513693
652.602767464491,0.22181840786349
648.873608793276,0.206965106264685
