Wavenumbercm-1,06:41:52
2998.24357166583,0.175220113945476
2994.5144129946,0.20856787505191
2990.78525432337,0.243478612312663
2987.05609565215,0.296506758805084
2983.32693698092,0.329017098867151
2979.59777830969,0.311508489600707
2975.86861963847,0.278581199617873
2972.13946096724,0.259918779195071
2968.41030229601,0.258861771515525
2964.68114362479,0.259610565491287
2960.95198495356,0.271089330914036
2957.22282628234,0.286003657695586
2953.49366761111,0.299372832741892
2949.76450893988,0.301025136527514
2946.03535026866,0.289065896084836
2942.30619159743,0.280485334744822
2938.5770329262,0.286936618201131
2934.84787425498,0.290365669922906
2931.11871558375,0.285850132820827
2927.38955691253,0.281262372619423
2923.6603982413,0.29042594413948
2919.93123957007,0.296758350637932
2916.20208089885,0.281389407205757
2912.47292222762,0.263951629997029
2908.74376355639,0.260338899965385
2905.01460488517,0.265006477997511
2901.28544621394,0.275920316035938
2897.55628754272,0.284971563848344
2893.82712887149,0.290401801790032
2890.09797020026,0.302891515810259
2886.36881152904,0.318982238667202
2882.63965285781,0.342618409329584
2878.91049418658,0.365468561303619
2875.18133551536,0.356185167049675
2871.45217684413,0.338156216675111
2867.72301817291,0.340948919719977
2863.99385950168,0.338085204207496
2860.26470083045,0.323332821969591
2856.53554215923,0.311974301457881
2852.806383488,0.30428175413985
2849.07722481677,0.292293453472147
2845.34806614555,0.289510969746032
2841.61890747432,0.273095470032057
2837.88974880309,0.239060165433326
2834.16059013187,0.209258507531143
2830.43143146064,0.186215537754471
2826.70227278942,0.164896327502
2822.97311411819,0.144369503917819
2819.24395544696,0.127947571003027
2815.51479677574,0.116292443381154
2811.78563810451,0.105237394195764
2808.05647943328,0.0942535645628789
2804.32732076206,0.0867644374959431
2800.59816209083,0.0800677723747808
2796.86900341961,0.0737998325184762
2793.13984474838,0.0672932383451298
2789.41068607715,0.0589400117808447
2785.68152740593,0.0507802830822301
2781.9523687347,0.0459082445316547
2778.22321006347,0.0428887359832634
2774.49405139225,0.0396210614154728
2770.76489272102,0.035696715247597
2767.0357340498,0.0316566858670609
2763.30657537857,0.0287137300816765
2759.57741670734,0.0281604244112685
2755.84825803612,0.0291445786203249
2752.11909936489,0.0294044065023205
2748.38994069366,0.0283636796205645
2744.66078202244,0.0292015171199909
2740.93162335121,0.0331979500123382
2737.20246467999,0.0386968501458072
2733.47330600876,0.0432773968770878
2729.74414733753,0.0449139205758328
2726.01498866631,0.0438718009257795
2722.28582999508,0.0406501990280266
2718.55667132385,0.0363691758952064
2714.82751265263,0.0317525442353019
2711.0983539814,0.0284140724840016
2707.36919531017,0.0275077439882786
2703.64003663895,0.0282530272535316
2699.91087796772,0.0300573545363054
2696.1817192965,0.0337969324167885
2692.45256062527,0.0381586040166558
2688.72340195404,0.0405748474705102
2684.99424328282,0.0406790548292014
2681.26508461159,0.0383377153391631
2677.53592594036,0.0338342050048546
2673.80676726914,0.0302880327638439
2670.07760859791,0.0280770837112828
2666.34844992669,0.0268636827145861
2662.61929125546,0.0274171382921711
2658.89013258423,0.0281067911901655
2655.16097391301,0.0268049553886645
2651.43181524178,0.0237171169020158
2647.70265657055,0.0202973913905424
2643.97349789933,0.0173106543787782
2640.2443392281,0.0165003351483689
2636.51518055688,0.0170230761644682
2632.78602188565,0.0172533473630919
2629.05686321442,0.0178585035316017
2625.3277045432,0.0192068510376585
2621.59854587197,0.0216339691473061
2617.86938720074,0.0252338750574663
2614.14022852952,0.0284773221030867
2610.41106985829,0.0303483193587741
2606.68191118707,0.0315218091023003
2602.95275251584,0.0334839199622243
2599.22359384461,0.0352191649368029
2595.49443517339,0.0370348758987296
2591.76527650216,0.0401639980486449
2588.03611783093,0.0433529924875969
2584.30695915971,0.0461873918423417
2580.57780048848,0.0495602880240635
2576.84864181725,0.0544256316451702
2573.11948314603,0.0607851134150566
2569.3903244748,0.0672658998263606
2565.66116580358,0.0690433360727411
2561.93200713235,0.064212835609488
2558.20284846112,0.0564740776853709
2554.4736897899,0.049744811323077
2550.74453111867,0.0440008110055134
2547.01537244744,0.0389680026574333
2543.28621377622,0.0355910127471109
2539.55705510499,0.0331656237169808
2535.82789643377,0.0304183962489104
2532.09873776254,0.0289966894961537
2528.36957909131,0.0285977958940763
2524.64042042009,0.0275999796053356
2520.91126174886,0.0265489372657897
2517.18210307763,0.0266660865217369
2513.45294440641,0.0279355767868109
2509.72378573518,0.0289674190583844
2505.99462706396,0.0290834308205748
2502.26546839273,0.0295774864334732
2498.5363097215,0.0312971145016854
2494.80715105028,0.0324321025883928
2491.07799237905,0.032825518947514
2487.34883370782,0.0331741877651681
2483.6196750366,0.0328292993452233
2479.89051636537,0.0310717436153849
2476.16135769415,0.0285871833619631
2472.43219902292,0.0258256440348632
2468.70304035169,0.023194115813368
2464.97388168047,0.0209955862340582
2461.24472300924,0.0195235560207114
2457.51556433801,0.0186214371402651
2453.78640566679,0.0181524835550505
2450.05724699556,0.017916194933644
2446.32808832433,0.017804802748604
2442.59892965311,0.0177095532090058
2438.86977098188,0.0177253886408248
2435.14061231066,0.0173596160424102
2431.41145363943,0.0163485004469632
2427.6822949682,0.0157017922391373
2423.95313629698,0.015307829840687
2420.22397762575,0.014856103138572
2416.49481895452,0.0145679295542209
2412.7656602833,0.0143138740118021
2409.03650161207,0.0133366948591438
2405.30734294085,0.0126014086148018
2401.57818426962,0.0122838196892203
2397.84902559839,0.0120778942191959
2394.11986692717,0.0121058532580217
2390.39070825594,0.0131113860068184
2386.66154958471,0.0162844505425298
2382.93239091349,0.023714521922342
2379.20323224226,0.0373241182125357
2375.47407357104,0.0539292525782437
2371.74491489981,0.0676969844804099
2368.01575622858,0.0766649646843835
2364.28659755736,0.0796308744685445
2360.55743888613,0.073018660693044
2356.8282802149,0.0559373279305923
2353.09912154368,0.0443000084330913
2349.36996287245,0.055457701381296
2345.64080420122,0.0842764008199419
2341.91164553,0.105250669162012
2338.18248685877,0.0947850095242157
2334.45332818755,0.0682003809661252
2330.72416951632,0.050697095848233
2326.99501084509,0.0404661826164009
2323.26585217387,0.0308503690772357
2319.53669350264,0.0220395964533869
2315.80753483141,0.0152694433943679
2312.07837616019,0.0105372955170599
2308.34921748896,0.00706829071052593
2304.62005881774,0.00490750074605292
2300.89090014651,0.00405680481405973
2297.16174147528,0.00440920139469051
2293.43258280406,0.00648620105504386
2289.70342413283,0.0100485318264383
2285.9742654616,0.0141161089730124
2282.24510679038,0.017870516192499
2278.51594811915,0.0201463715629403
2274.78678944793,0.0211135493350827
2271.0576307767,0.0209219531145226
2267.32847210547,0.0200116805306198
2263.59931343425,0.0194594891175339
2259.87015476302,0.0194060414099191
2256.14099609179,0.0193122725129334
2252.41183742057,0.0190996841764769
2248.68267874934,0.0198985014039184
2244.95352007812,0.0209112710833849
2241.22436140689,0.0226364729143263
2237.49520273566,0.0246799723246512
2233.76604406444,0.0262973954347634
2230.03688539321,0.0283844710218364
2226.30772672198,0.0311672594671524
2222.57856805076,0.0331395082324392
2218.84940937953,0.0350734906917218
2215.1202507083,0.0382559209741975
2211.39109203708,0.0421008809218306
2207.66193336585,0.0445624248828734
2203.93277469463,0.0463126758373143
2200.2036160234,0.0481578066947853
2196.47445735217,0.051012230111449
2192.74529868095,0.0565068457210762
2189.01614000972,0.0649011143158453
2185.28698133849,0.0751782262725853
2181.55782266727,0.0819291973437547
2177.82866399604,0.0854835996276012
2174.09950532482,0.0894457550073752
2170.37034665359,0.0993991195229644
2166.64118798236,0.12084383021649
2162.91202931114,0.148498483162021
2159.18287063991,0.153668715186625
2155.45371196868,0.140494657940193
2151.72455329746,0.125666344354623
2147.99539462623,0.114593502823618
2144.26623595501,0.10436335142991
2140.53707728378,0.0952162175232684
2136.80791861255,0.0834170095253166
2133.07875994133,0.0691653849164677
2129.3496012701,0.055642539563073
2125.62044259887,0.045755006531902
2121.89128392765,0.0392572211179486
2118.16212525642,0.0347960602168033
2114.4329665852,0.0327903298379747
2110.70380791397,0.0321686676960047
2106.97464924274,0.0319615421123948
2103.24549057152,0.0316389293918976
2099.51633190029,0.0311755382730055
2095.78717322906,0.0284539869988719
2092.05801455784,0.0238655944117373
2088.32885588661,0.0195945276469059
2084.59969721538,0.0168814149250707
2080.87053854416,0.015037450538498
2077.14137987293,0.0145098749769909
2073.41222120171,0.0149474250570298
2069.68306253048,0.0168072396516757
2065.95390385925,0.0185324567603827
2062.22474518803,0.0193289328539727
2058.4955865168,0.0193790677664738
2054.76642784557,0.0215075311957799
2051.03726917435,0.0270257680611982
2047.30811050312,0.0328372450725698
2043.5789518319,0.0353962881050343
2039.84979316067,0.0380052086979132
2036.12063448944,0.041584565682066
2032.39147581822,0.0421388101330237
2028.66231714699,0.0399365650537092
2024.93315847576,0.0371649058495633
2021.20399980454,0.0341547253387902
2017.47484113331,0.0310131833450924
2013.74568246209,0.0293215475154104
2010.01652379086,0.0276456820821602
2006.28736511963,0.0243551825412553
2002.55820644841,0.0198364903430799
1998.82904777718,0.0174070092235663
1995.09988910595,0.0174208301543222
1991.37073043473,0.0185675252194638
1987.6415717635,0.0195188698659035
1983.91241309228,0.0237647766385137
1980.18325442105,0.0300995164434349
1976.45409574982,0.0335084243243717
1972.7249370786,0.0324246254332444
1968.99577840737,0.0304272165696234
1965.26661973614,0.0272403237556483
1961.53746106492,0.0236196373818958
1957.80830239369,0.0187567021997761
1954.07914372246,0.0140897273516968
1950.34998505124,0.0108215091844069
1946.62082638001,0.00861641072275339
1942.89166770879,0.00567839087832963
1939.16250903756,0.00264410615969235
1935.43335036633,0.000307812128710915
1931.70419169511,-0.00156365743154353
1927.97503302388,-0.00235725295917795
1924.24587435265,-0.0022432415243452
1920.51671568143,-0.0026876141795493
1916.7875570102,-0.00449215611664447
1913.05839833898,-0.00564579135530092
1909.32923966775,-0.00643328566466464
1905.60008099652,-0.00747158356587188
1901.8709223253,-0.0077289257571908
1898.14176365407,-0.00716299811105838
1894.41260498284,-0.00645911428371305
1890.68344631162,-0.00685724966802941
1886.95428764039,-0.0085693164193098
1883.22512896917,-0.00958509176332859
1879.49597029794,-0.00985544496878122
1875.76681162671,-0.00833339809000603
1872.03765295549,-0.00543405513351061
1868.30849428426,-0.00581442309435535
1864.57933561303,-0.00808548878705277
1860.85017694181,-0.00866620004009933
1857.12101827058,-0.00876536693347266
1853.39185959936,-0.00769308122608375
1849.66270092813,-0.00420256646869248
1845.9335422569,-0.00217883681150902
1842.20438358568,-0.00469931444118015
1838.47522491445,-0.00592843749423903
1834.74606624322,-0.00330439689256683
1831.016907572,-0.000325408067676688
1827.28774890077,-0.000874927677781641
1823.55859022954,-0.0030673261427865
1819.82943155832,-0.00342026051004041
1816.10027288709,-0.00246984768255218
1812.37111421587,-0.00193881210677928
1808.64195554464,-0.00223013714191597
1804.91279687341,-0.000942515357270953
1801.18363820219,0.000324875847550197
1797.45447953096,0.00186235448145421
1793.72532085973,0.00237905054466781
1789.99616218851,-0.000322547651492805
1786.26700351728,-0.00135436987970084
1782.53784484606,-0.000692933936831518
1778.80868617483,0.00173929831409623
1775.0795275036,0.00634624508784022
1771.35036883238,0.00493456998120009
1767.62121016115,0.0014461057392659
1763.89205148992,0.00152681762886712
1760.1628928187,0.00183117724556991
1756.43373414747,0.00303562282784141
1752.70457547625,0.00620081688238974
1748.97541680502,0.00634503237917333
1745.24625813379,0.00708934202176776
1741.51709946257,0.0132600816330644
1737.78794079134,0.0233707308723366
1734.05878212011,0.0281655088851823
1730.32962344889,0.0237600502004292
1726.60046477766,0.0240506400646871
1722.87130610643,0.0317362651478775
1719.14214743521,0.0347039629098064
1715.41298876398,0.0213227250532814
1711.68383009276,0.0104370487137009
1707.95467142153,0.00983019297102574
1704.2255127503,0.0152795374180441
1700.49635407908,0.0161298232439701
1696.76719540785,0.00700658253147665
1693.03803673662,0.00141200918165504
1689.3088780654,0.00611638439435442
1685.57971939417,0.00989039547563268
1681.85056072295,0.00486136364644005
1678.12140205172,0.00444693226235496
1674.39224338049,0.00731734437108443
1670.66308470927,0.0058220464927141
1666.93392603804,0.00291887491460663
1663.20476736681,0.00233434925337761
1659.47560869559,0.00755928224104527
1655.74645002436,0.0190441812791141
1652.01729135314,0.0194187209806564
1648.28813268191,0.0120598062675401
1644.55897401068,0.0064164336328698
1640.82981533946,0.0085098633495435
1637.10065666823,0.0127239678284344
1633.371497997,0.00787506390050868
1629.64233932578,0.00744577241603287
1625.91318065455,0.0102647970302645
1622.18402198333,0.0119007966374528
1618.4548633121,0.0114285853071456
1614.72570464087,0.00640773036100579
1610.99654596965,0.00317710246954501
1607.26738729842,0.00245486857653847
1603.53822862719,0.0016211560735296
1599.80906995597,0.00116922636362547
1596.07991128474,0.000468579939888697
1592.35075261351,-0.00147380434763401
1588.62159394229,-0.00352685312616988
1584.89243527106,-0.00384595386162349
1581.16327659984,-0.000464814417869081
1577.43411792861,0.00288092940135271
1573.70495925738,0.00254330482089137
1569.97580058616,0.00220378007626561
1566.24664191493,0.00518246063040957
1562.5174832437,0.0173859176278754
1558.78832457248,0.0199385361887956
1555.05916590125,0.00844058072481539
1551.33000723003,0.00533002049163578
1547.6008485588,0.0122131750539212
1543.87168988757,0.0243936283037275
1540.14253121635,0.0235279860595627
1536.41337254512,0.0184297479358078
1532.68421387389,0.0197054752467175
1528.95505520267,0.0239498413044958
1525.22589653144,0.0299772332528608
1521.49673786022,0.0304163384007476
1517.76757918899,0.0263754941114652
1514.03842051776,0.0280930785299659
1510.30926184654,0.0382579911336178
1506.58010317531,0.0389261613464882
1502.85094450408,0.0357264035084873
1499.12178583286,0.0418771313497267
1495.39262716163,0.0485608705172608
1491.66346849041,0.0558130780099535
1487.93430981918,0.0598876913850225
1484.20515114795,0.0642442507230341
1480.47599247673,0.0766470914129561
1476.7468338055,0.0947585353393652
1473.01767513427,0.113070434529922
1469.28851646305,0.135963724609992
1465.55935779182,0.170249828744486
1461.83019912059,0.191476940543519
1458.10104044937,0.180905819041113
1454.37188177814,0.158054415150585
1450.64272310692,0.144740339072182
1446.91356443569,0.122609082068435
1443.18440576446,0.0958374986064588
1439.45524709324,0.077034551884553
1435.72608842201,0.0613265086419035
1431.99692975078,0.0489083861264406
1428.26777107956,0.0414294278952611
1424.53861240833,0.0383085671459186
1420.80945373711,0.0361158291506331
1417.08029506588,0.0284131812372027
1413.35113639465,0.0226660798443676
1409.62197772343,0.0224214635796289
1405.8928190522,0.0264756331785707
1402.16366038097,0.0341340684685615
1398.43450170975,0.0383119918166818
1394.70534303852,0.0311985374915342
1390.9761843673,0.0230724827412895
1387.24702569607,0.0193585026824721
1383.51786702484,0.017867451437131
1379.78870835362,0.0219040464928459
1376.05954968239,0.0355250959398049
1372.33039101116,0.0665994668284925
1368.60123233994,0.108563022079533
1364.87207366871,0.116187077868599
1361.14291499749,0.0777182584604017
1357.41375632626,0.045171570714307
1353.68459765503,0.0314388366445419
1349.95543898381,0.0268381414568138
1346.22628031258,0.0268355590129172
1342.49712164135,0.0314545287983057
1338.76796297013,0.0372948271236545
1335.0388042989,0.0410453401571589
1331.30964562767,0.0419329913430445
1327.58048695645,0.0400844838332582
1323.85132828522,0.0384111668449865
1320.122169614,0.0388707285060531
1316.39301094277,0.043828995779762
1312.66385227154,0.0549835475119007
1308.93469360032,0.0691529934646399
1305.20553492909,0.0803305800411297
1301.47637625786,0.0939232623461028
1297.74721758664,0.116837770354655
1294.01805891541,0.147873836602071
1290.28890024419,0.184389367858177
1286.55974157296,0.22258339923331
1282.83058290173,0.219158309367506
1279.10142423051,0.162491962095489
1275.37226555928,0.115000969152754
1271.64310688805,0.0970944066470475
1267.91394821683,0.0926854501881648
1264.1847895456,0.0931103338360763
1260.45563087438,0.0983520427700534
1256.72647220315,0.108641634281271
1252.99731353192,0.123142643202022
1249.2681548607,0.139435180441802
1245.53899618947,0.150018456195532
1241.80983751824,0.147042980801147
1238.08067884702,0.133924084468269
1234.35152017579,0.122187380317698
1230.62236150457,0.11579563800729
1226.89320283334,0.113408213184472
1223.16404416211,0.113877789630587
1219.43488549089,0.116284676356502
1215.70572681966,0.120204710066545
1211.97656814843,0.126210531358007
1208.24740947721,0.133164318202571
1204.51825080598,0.139263956811028
1200.78909213475,0.147707890029568
1197.05993346353,0.16121411179018
1193.3307747923,0.176831410735968
1189.60161612108,0.189790562212755
1185.87245744985,0.203796704468973
1182.14329877862,0.22710164754481
1178.4141401074,0.246176862791569
1174.68498143617,0.231639974257066
1170.95582276494,0.193261680398389
1167.22666409372,0.159012950910473
1163.49750542249,0.137873324441372
1159.76834675127,0.12969202001912
1156.03918808004,0.133488022965949
1152.31002940881,0.14807189751946
1148.58087073759,0.172096078585601
1144.85171206636,0.190047345264672
1141.12255339513,0.180860152072064
1137.39339472391,0.153360425717544
1133.66423605268,0.127895642031078
1129.93507738146,0.11181895934684
1126.20591871023,0.103926509363147
1122.476760039,0.102128151109498
1118.74760136778,0.105387888193458
1115.01844269655,0.112493513672645
1111.28928402532,0.120894054974247
1107.5601253541,0.131597185157539
1103.83096668287,0.148530829177591
1100.10180801165,0.17365416696843
1096.37264934042,0.206910845624859
1092.64349066919,0.249920394374117
1088.91433199797,0.311468174315629
1085.18517332674,0.408913091129842
1081.45601465551,0.566568626809541
1077.72685598429,0.817645363013273
1073.99769731306,1.18956613096172
1070.26853864183,1.613323411222
1066.53937997061,1.74585843577012
1062.81022129938,1.51502715946392
1059.08106262816,1.19884233012539
1055.35190395693,0.918788948211851
1051.6227452857,0.706723949108295
1047.89358661448,0.557817979251237
1044.16442794325,0.460578659456603
1040.43526927202,0.405669654331485
1036.7061106008,0.386311479062238
1032.97695192957,0.384031466502566
1029.24779325835,0.364991410275884
1025.51863458712,0.310893298189948
1021.78947591589,0.243563277849534
1018.06031724467,0.189299244206713
1014.33115857344,0.153759843681134
1010.60199990221,0.130703061155458
1006.87284123099,0.114804885481454
1003.14368255976,0.103199373904098
999.414523888535,0.0947710277153054
995.685365217309,0.0887573445675592
991.956206546083,0.0850979660531508
988.227047874856,0.0832722632799214
984.49788920363,0.0830100331403973
980.768730532404,0.0840868823062001
977.039571861178,0.0865269926522613
973.310413189951,0.0906203358495943
969.581254518725,0.0965163436247491
965.852095847499,0.10460287383693
962.122937176272,0.115714931624809
958.393778505046,0.130122005158122
954.66461983382,0.148006411079205
950.935461162594,0.169769785029111
947.206302491367,0.192277292203173
943.477143820141,0.214727147320354
939.747985148915,0.243061293653762
936.018826477688,0.282738161558509
932.289667806462,0.336885194705863
928.560509135236,0.410339789250383
924.83135046401,0.50876560968965
921.102191792783,0.637438647641224
917.373033121557,0.786964481482227
913.643874450331,0.922244489834879
909.914715779104,0.994503252840377
906.185557107878,0.989457804560928
902.456398436652,0.916174229328756
898.727239765426,0.803066783749108
894.998081094199,0.683142927413809
891.268922422973,0.577553309052377
887.539763751747,0.494135314410202
883.81060508052,0.434151354326366
880.081446409294,0.392865813836353
876.352287738068,0.363712691918151
872.623129066842,0.34133476073348
868.893970395615,0.321094100531494
865.164811724389,0.301059376544173
861.435653053163,0.281537389195412
857.706494381936,0.264537266248644
853.97733571071,0.252065573666718
850.248177039484,0.243819569657234
846.519018368258,0.23266207189698
842.789859697031,0.218913840707646
839.060701025805,0.206801543925532
835.331542354579,0.195930442087086
831.602383683352,0.184289808972635
827.873225012126,0.17255016025743
824.1440663409,0.161682978303491
820.414907669674,0.152318012709298
816.685748998447,0.141605933835514
812.956590327221,0.129043138921977
809.227431655995,0.116703189299713
805.498272984768,0.106723153285563
801.769114313542,0.099446397432912
798.039955642316,0.094942627117395
794.31079697109,0.0906758343005226
790.581638299863,0.0870710189969769
786.852479628637,0.089320032781263
783.123320957411,0.107455975004364
779.394162286184,0.116198239443786
775.665003614958,0.0952430315171
771.935844943732,0.0812230566147666
768.206686272506,0.0804899789139716
764.477527601279,0.0855722697106714
760.748368930053,0.096378027162801
757.019210258827,0.104183622944699
753.2900515876,0.102335171650164
749.560892916374,0.0986641117981928
745.831734245148,0.0955388767368652
742.102575573922,0.0902264883276639
738.373416902695,0.0847952123773257
734.644258231469,0.0784075791595783
730.915099560243,0.0710645965997306
727.185940889016,0.0635815541500469
723.45678221779,0.059853464199545
719.727623546564,0.0618809945812812
715.998464875338,0.0757753540083642
712.269306204111,0.092518349373069
708.540147532885,0.0907710188868899
704.810988861659,0.0880644886267268
701.081830190432,0.0905635226946614
697.352671519206,0.0874550485624122
693.62351284798,0.0895064970711739
689.894354176754,0.098032384086238
686.165195505527,0.126902624132434
682.436036834301,0.161772850794975
678.706878163075,0.160574579091276
674.977719491848,0.157501824572637
671.248560820622,0.193994001206818
667.519402149396,0.243464197041668
663.790243478169,0.274738671980848
660.061084806943,0.277606031276244
656.331926135717,0.274651579232248
652.602767464491,0.268903833022445
648.873608793276,0.258060418259852
