Wavenumbercm-1,07:57:53
2998.24357166583,0.173816422531563
2994.5144129946,0.207333108510442
2990.78525432337,0.241702690152928
2987.05609565215,0.292672048566414
2983.32693698092,0.32660557783901
2979.59777830969,0.309963000097982
2975.86861963847,0.274780138050026
2972.13946096724,0.253969922631711
2968.41030229601,0.251720700518831
2964.68114362479,0.254303224150319
2960.95198495356,0.266838224538003
2957.22282628234,0.280072564065404
2953.49366761111,0.293819557845229
2949.76450893988,0.298684132193592
2946.03535026866,0.286421312368023
2942.30619159743,0.274706039241165
2938.5770329262,0.281934549636366
2934.84787425498,0.286452055841358
2931.11871558375,0.278717022152207
2927.38955691253,0.275124199545935
2923.6603982413,0.287984952662915
2919.93123957007,0.296581074153896
2916.20208089885,0.282121495636334
2912.47292222762,0.262242999710955
2908.74376355639,0.255693890816442
2905.01460488517,0.261458316327884
2901.28544621394,0.27603032392831
2897.55628754272,0.285807784492912
2893.82712887149,0.289206411851482
2890.09797020026,0.300251365537234
2886.36881152904,0.31744750612557
2882.63965285781,0.34119204839602
2878.91049418658,0.361322659312592
2875.18133551536,0.353472186462514
2871.45217684413,0.337569842422811
2867.72301817291,0.339264921240159
2863.99385950168,0.334952441928043
2860.26470083045,0.320520241051455
2856.53554215923,0.309986338232284
2852.806383488,0.302412529166975
2849.07722481677,0.290490488847165
2845.34806614555,0.287030744097018
2841.61890747432,0.27112692693053
2837.88974880309,0.237537220601277
2834.16059013187,0.206702136452334
2830.43143146064,0.183060044532225
2826.70227278942,0.162742602104015
2822.97311411819,0.14391212384829
2819.24395544696,0.128116750948197
2815.51479677574,0.115733301501413
2811.78563810451,0.104022795250202
2808.05647943328,0.0931228131119994
2804.32732076206,0.0856715001374867
2800.59816209083,0.0788978130916256
2796.86900341961,0.0719939202886043
2793.13984474838,0.0652963647961718
2789.41068607715,0.0580433718279335
2785.68152740593,0.0500482894155224
2781.9523687347,0.0438850028431703
2778.22321006347,0.0403697731940122
2774.49405139225,0.0375696037587316
2770.76489272102,0.0341547946045593
2767.0357340498,0.0309973350422724
2763.30657537857,0.0289445788545289
2759.57741670734,0.0278532772114291
2755.84825803612,0.0274491282696136
2752.11909936489,0.0275626432645852
2748.38994069366,0.0273470231780327
2744.66078202244,0.0284431881429184
2740.93162335121,0.0320894063981663
2737.20246467999,0.0372579181852328
2733.47330600876,0.0418827861068694
2729.74414733753,0.0435025962483455
2726.01498866631,0.042272865711295
2722.28582999508,0.0389000792296102
2718.55667132385,0.034486811008915
2714.82751265263,0.0303700884407861
2711.0983539814,0.0276940734634286
2707.36919531017,0.0268199355728105
2703.64003663895,0.0275888808620996
2699.91087796772,0.0294722894686031
2696.1817192965,0.0331588021916983
2692.45256062527,0.0380508511999188
2688.72340195404,0.0405660662026173
2684.99424328282,0.0394617891193315
2681.26508461159,0.0363969701819333
2677.53592594036,0.0325923028865363
2673.80676726914,0.0296618187780873
2670.07760859791,0.0281628791357168
2666.34844992669,0.0277972871696785
2662.61929125546,0.0282204051429054
2658.89013258423,0.0281761794400458
2655.16097391301,0.0261176543492795
2651.43181524178,0.0229336791666671
2647.70265657055,0.0201710081523677
2643.97349789933,0.0171139998681639
2640.2443392281,0.0154961472516999
2636.51518055688,0.0161714461896515
2632.78602188565,0.0168552521627447
2629.05686321442,0.0174637492397452
2625.3277045432,0.0190529494634768
2621.59854587197,0.0216916863870061
2617.86938720074,0.0248516549671202
2614.14022852952,0.026926942325521
2610.41106985829,0.0279822598920803
2606.68191118707,0.0294560630541055
2602.95275251584,0.0318579955030162
2599.22359384461,0.0341550290167231
2595.49443517339,0.0359941645528785
2591.76527650216,0.0381234273621892
2588.03611783093,0.0410564237253291
2584.30695915971,0.0447408924052641
2580.57780048848,0.0480943140591613
2576.84864181725,0.0520672136471173
2573.11948314603,0.0584585644989502
2569.3903244748,0.0650917672710858
2565.66116580358,0.0672294898918395
2561.93200713235,0.0637856983319537
2558.20284846112,0.0572309249338985
2554.4736897899,0.0507137240993122
2550.74453111867,0.0445352270273557
2547.01537244744,0.0391573423186173
2543.28621377622,0.0355871942512169
2539.55705510499,0.0326854215281268
2535.82789643377,0.029581072579353
2532.09873776254,0.0281655725468121
2528.36957909131,0.0280396879847957
2524.64042042009,0.0272855931945809
2520.91126174886,0.0262131318662415
2517.18210307763,0.0261442239585588
2513.45294440641,0.0272083420370859
2509.72378573518,0.0282157941763486
2505.99462706396,0.0285494446027044
2502.26546839273,0.0292295467948859
2498.5363097215,0.0308300844904761
2494.80715105028,0.031860180337686
2491.07799237905,0.0316964643662202
2487.34883370782,0.0311613364891988
2483.6196750366,0.0308361953115242
2479.89051636537,0.0295600193764507
2476.16135769415,0.0272123697486828
2472.43219902292,0.0246296478134
2468.70304035169,0.0222038852226492
2464.97388168047,0.0202673329628991
2461.24472300924,0.0192268233644597
2457.51556433801,0.0183906854868703
2453.78640566679,0.0176585533607547
2450.05724699556,0.0172111245610498
2446.32808832433,0.0169115095893944
2442.59892965311,0.0166690421788085
2438.86977098188,0.0166905956973813
2435.14061231066,0.0167653918281382
2431.41145363943,0.0162317774327866
2427.6822949682,0.0153186397418318
2423.95313629698,0.0140962375572866
2420.22397762575,0.0132529528677952
2416.49481895452,0.0136155847989698
2412.7656602833,0.0143702296192961
2409.03650161207,0.0136748430225466
2405.30734294085,0.012213677249059
2401.57818426962,0.0113119759925707
2397.84902559839,0.0111243851304172
2394.11986692717,0.0112664975610286
2390.39070825594,0.0123879609411409
2386.66154958471,0.0157326806069187
2382.93239091349,0.0232297180669054
2379.20323224226,0.0361459353403315
2375.47407357104,0.051847946177231
2371.74491489981,0.0655335049755213
2368.01575622858,0.0743559746905924
2364.28659755736,0.0768911298719266
2360.55743888613,0.070050220417816
2356.8282802149,0.0527278196624156
2353.09912154368,0.0403490927585191
2349.36996287245,0.0487193237599555
2345.64080420122,0.0702089834938272
2341.91164553,0.0838234653083139
2338.18248685877,0.0766612315869003
2334.45332818755,0.0584047613632278
2330.72416951632,0.0447056304754298
2326.99501084509,0.0354539239361524
2323.26585217387,0.0266757323833892
2319.53669350264,0.0187091194138925
2315.80753483141,0.012810023787581
2312.07837616019,0.00883625463483788
2308.34921748896,0.0057010857290351
2304.62005881774,0.00373515905216404
2300.89090014651,0.00312592269856413
2297.16174147528,0.00332602794745979
2293.43258280406,0.00503276834865287
2289.70342413283,0.0084626738578425
2285.9742654616,0.012606425513039
2282.24510679038,0.0167007731266901
2278.51594811915,0.0193200218124592
2274.78678944793,0.020385602752431
2271.0576307767,0.0208079204400644
2267.32847210547,0.0202869260912725
2263.59931343425,0.0195289189383714
2259.87015476302,0.0194906235676495
2256.14099609179,0.0192855083639522
2252.41183742057,0.0191053831610024
2248.68267874934,0.019812046999545
2244.95352007812,0.0202142515914301
2241.22436140689,0.0214657884816099
2237.49520273566,0.0235510749826878
2233.76604406444,0.0255729983366948
2230.03688539321,0.0277348619989006
2226.30772672198,0.0304288156837207
2222.57856805076,0.0325189880297451
2218.84940937953,0.0346586249617901
2215.1202507083,0.0377881513922362
2211.39109203708,0.0409668233730413
2207.66193336585,0.0428333798306555
2203.93277469463,0.0446343729097049
2200.2036160234,0.0469446849068532
2196.47445735217,0.0504763513725933
2192.74529868095,0.0569419049960928
2189.01614000972,0.0656816540065366
2185.28698133849,0.0750012509322613
2181.55782266727,0.0811771744313344
2177.82866399604,0.0849332563084394
2174.09950532482,0.0888188329710355
2170.37034665359,0.0994402996479124
2166.64118798236,0.121869716162721
2162.91202931114,0.148825151895485
2159.18287063991,0.152199398591219
2155.45371196868,0.138771561881822
2151.72455329746,0.124650317752554
2147.99539462623,0.113951295704609
2144.26623595501,0.103491203798549
2140.53707728378,0.0940606156268149
2136.80791861255,0.0827665595353774
2133.07875994133,0.0684733168324455
2129.3496012701,0.0544881228294962
2125.62044259887,0.0445685753326229
2121.89128392765,0.0383256725357763
2118.16212525642,0.0339337872416047
2114.4329665852,0.0318321677714297
2110.70380791397,0.0311836171020491
2106.97464924274,0.0309291886072206
2103.24549057152,0.0307816199959812
2099.51633190029,0.0307046911219267
2095.78717322906,0.0277422168240407
2092.05801455784,0.022777287886045
2088.32885588661,0.0187473005800071
2084.59969721538,0.0164778479408253
2080.87053854416,0.0150816946595542
2077.14137987293,0.0149212473201118
2073.41222120171,0.0152596771880983
2069.68306253048,0.0166946872357624
2065.95390385925,0.0182293956243033
2062.22474518803,0.0188404569250908
2058.4955865168,0.0188380979199285
2054.76642784557,0.0210323560079342
2051.03726917435,0.0266814765630201
2047.30811050312,0.0321808711061826
2043.5789518319,0.0344887066228809
2039.84979316067,0.0373832146639335
2036.12063448944,0.0415310370855431
2032.39147581822,0.0425172449349628
2028.66231714699,0.0402374961016832
2024.93315847576,0.0370903847837398
2021.20399980454,0.0342460899526325
2017.47484113331,0.0314341834207453
2013.74568246209,0.0295155011503767
2010.01652379086,0.0276454272511968
2006.28736511963,0.0246277716153208
2002.55820644841,0.0203704826610056
1998.82904777718,0.0176946688840712
1995.09988910595,0.0175488290212249
1991.37073043473,0.0188247384683923
1987.6415717635,0.0196182816094652
1983.91241309228,0.0233674727000372
1980.18325442105,0.0298073256332483
1976.45409574982,0.0337232279565792
1972.7249370786,0.0330974400108904
1968.99577840737,0.0312713177561817
1965.26661973614,0.0279293611205852
1961.53746106492,0.0237388333753305
1957.80830239369,0.018565672358367
1954.07914372246,0.0139962104535118
1950.34998505124,0.0109446276247487
1946.62082638001,0.00874020511129782
1942.89166770879,0.00551396894286059
1939.16250903756,0.00229795244902537
1935.43335036633,0.000263735963419582
1931.70419169511,-0.00122605381543368
1927.97503302388,-0.0022253162473186
1924.24587435265,-0.00248175304826318
1920.51671568143,-0.00291174968117696
1916.7875570102,-0.00436265794802721
1913.05839833898,-0.00549542015828686
1909.32923966775,-0.00637387830496948
1905.60008099652,-0.00748320607063274
1901.8709223253,-0.00788779459250106
1898.14176365407,-0.00740981184187929
1894.41260498284,-0.00673140831308389
1890.68344631162,-0.00698629565379494
1886.95428764039,-0.00847675359474628
1883.22512896917,-0.0094378000280186
1879.49597029794,-0.00970074781986877
1875.76681162671,-0.0083573638571309
1872.03765295549,-0.00579439563694084
1868.30849428426,-0.00608924718800923
1864.57933561303,-0.00810598053730915
1860.85017694181,-0.00861636486744884
1857.12101827058,-0.00865649926774409
1853.39185959936,-0.00770512001213208
1849.66270092813,-0.00464327818240615
1845.9335422569,-0.00268205348793546
1842.20438358568,-0.00478791033928092
1838.47522491445,-0.0059788273855382
1834.74606624322,-0.00370373155358285
1831.016907572,-0.00102265988775328
1827.28774890077,-0.00140479915658623
1823.55859022954,-0.00316384511067002
1819.82943155832,-0.00340491289046089
1816.10027288709,-0.0025353460477168
1812.37111421587,-0.00199312923114375
1808.64195554464,-0.00220592893520394
1804.91279687341,-0.00110381305462923
1801.18363820219,-8.22296779904163E-05
1797.45447953096,0.00116733315565997
1793.72532085973,0.00164818468170314
1789.99616218851,-0.000544278073916616
1786.26700351728,-0.00141547333667015
1782.53784484606,-0.000923959770246465
1778.80868617483,0.0011133215955503
1775.0795275036,0.00510322731957328
1771.35036883238,0.00385079681749574
1767.62121016115,0.000638461561567797
1763.89205148992,0.000452187180599198
1760.1628928187,0.000592438701499417
1756.43373414747,0.00169617248689674
1752.70457547625,0.00466337271634243
1748.97541680502,0.00507164829494718
1745.24625813379,0.00589627830977145
1741.51709946257,0.0113956717554842
1737.78794079134,0.0203741914599193
1734.05878212011,0.0248587967410044
1730.32962344889,0.0213153401024873
1726.60046477766,0.0217038250733091
1722.87130610643,0.0284642566579561
1719.14214743521,0.0311285218367938
1715.41298876398,0.019496105318504
1711.68383009276,0.00984714455070352
1707.95467142153,0.00908193081597714
1704.2255127503,0.0136437762310429
1700.49635407908,0.0142740436139401
1696.76719540785,0.00630500948359198
1693.03803673662,0.00132568362958503
1689.3088780654,0.00519580336589194
1685.57971939417,0.00832383133176804
1681.85056072295,0.00394357353199525
1678.12140205172,0.00355095481949291
1674.39224338049,0.00604179721930841
1670.66308470927,0.00479816322404196
1666.93392603804,0.00231113990789706
1663.20476736681,0.00180531237122015
1659.47560869559,0.00635509451807855
1655.74645002436,0.0163528337047758
1652.01729135314,0.0167502710418384
1648.28813268191,0.0104141120408386
1644.55897401068,0.00554483393034712
1640.82981533946,0.00734903931381191
1637.10065666823,0.011152094137659
1633.371497997,0.00709424604100298
1629.64233932578,0.00671021242288802
1625.91318065455,0.00921193418538934
1622.18402198333,0.010750178685033
1618.4548633121,0.0103440770022274
1614.72570464087,0.00601015837458135
1610.99654596965,0.00327173434862003
1607.26738729842,0.00268300634070524
1603.53822862719,0.00196344037516523
1599.80906995597,0.00150226421565398
1596.07991128474,0.000764463178962888
1592.35075261351,-0.00113161790354834
1588.62159394229,-0.00314986914112974
1584.89243527106,-0.00363530334957173
1581.16327659984,-0.000861059671681202
1577.43411792861,0.00195651709174396
1573.70495925738,0.00171325620728358
1569.97580058616,0.00143860000449353
1566.24664191493,0.0040385995902989
1562.5174832437,0.0146057737632475
1558.78832457248,0.0169195277293707
1555.05916590125,0.00706498649856394
1551.33000723003,0.00443300469491309
1547.6008485588,0.0104457134079868
1543.87168988757,0.0211778512165082
1540.14253121635,0.0208259701999898
1536.41337254512,0.0166843309492329
1532.68421387389,0.0180109189370147
1528.95505520267,0.0218695466384066
1525.22589653144,0.0271608990802599
1521.49673786022,0.0276008288344103
1517.76757918899,0.0242950765968983
1514.03842051776,0.026043130569893
1510.30926184654,0.0352683004802985
1506.58010317531,0.036624765693329
1502.85094450408,0.0345418209396698
1499.12178583286,0.0405720575640251
1495.39262716163,0.0471950704273206
1491.66346849041,0.0542393930681808
1487.93430981918,0.0586958866303758
1484.20515114795,0.0634119088203154
1480.47599247673,0.075113417901327
1476.7468338055,0.0920361082353551
1473.01767513427,0.110364264550757
1469.28851646305,0.134161789363951
1465.55935779182,0.168625865217342
1461.83019912059,0.189433600029424
1458.10104044937,0.178896519113638
1454.37188177814,0.157318448912123
1450.64272310692,0.144607288284492
1446.91356443569,0.122709161291598
1443.18440576446,0.0958282784784207
1439.45524709324,0.0764166258921999
1435.72608842201,0.0607713481990797
1431.99692975078,0.0487336938256988
1428.26777107956,0.0412337450604014
1424.53861240833,0.0376161049058529
1420.80945373711,0.0349424428814621
1417.08029506588,0.0277082990409535
1413.35113639465,0.0223046296455644
1409.62197772343,0.0215802747090133
1405.8928190522,0.0244462837488665
1402.16366038097,0.0303221282004683
1398.43450170975,0.0335583340731351
1394.70534303852,0.027730721585908
1390.9761843673,0.0212605786643666
1387.24702569607,0.0184671989474986
1383.51786702484,0.0174851065288479
1379.78870835362,0.0213780814769119
1376.05954968239,0.0345116776692683
1372.33039101116,0.0645827667231774
1368.60123233994,0.104707989981951
1364.87207366871,0.11167759233941
1361.14291499749,0.0751103032524679
1357.41375632626,0.0442325120619735
1353.68459765503,0.0312212832516257
1349.95543898381,0.0271075283838261
1346.22628031258,0.0277275802187285
1342.49712164135,0.0330454193056232
1338.76796297013,0.0396647675469458
1335.0388042989,0.0439317430537827
1331.30964562767,0.0447369912915209
1327.58048695645,0.0425127623936587
1323.85132828522,0.0403623669016188
1320.122169614,0.0402022202556837
1316.39301094277,0.0442528429914251
1312.66385227154,0.0541747974533828
1308.93469360032,0.0670992216739744
1305.20553492909,0.0774762474141228
1301.47637625786,0.0902385285218549
1297.74721758664,0.112096314422274
1294.01805891541,0.142279000388666
1290.28890024419,0.178237096359201
1286.55974157296,0.217686030631645
1282.83058290173,0.22019196085705
1279.10142423051,0.167329567644369
1275.37226555928,0.118486280053018
1271.64310688805,0.0990998417564824
1267.91394821683,0.0945442321610167
1264.1847895456,0.0953480488966546
1260.45563087438,0.10051821927121
1256.72647220315,0.10990033347274
1252.99731353192,0.122794045715445
1249.2681548607,0.137282679668794
1245.53899618947,0.146809169986563
1241.80983751824,0.144350137870941
1238.08067884702,0.132812217256401
1234.35152017579,0.122369735550477
1230.62236150457,0.116638008837624
1226.89320283334,0.114521950801721
1223.16404416211,0.115073858035679
1219.43488549089,0.117489140251789
1215.70572681966,0.121422701568896
1211.97656814843,0.127492085871447
1208.24740947721,0.134535225709422
1204.51825080598,0.140586362078331
1200.78909213475,0.148734406893321
1197.05993346353,0.161683012922122
1193.3307747923,0.176769220820853
1189.60161612108,0.189909472244403
1185.87245744985,0.204530030748922
1182.14329877862,0.227303541822001
1178.4141401074,0.245004401690157
1174.68498143617,0.230927653366296
1170.95582276494,0.194123914945335
1167.22666409372,0.16034028361202
1163.49750542249,0.138885977395125
1159.76834675127,0.130238894565306
1156.03918808004,0.133174036018923
1152.31002940881,0.146128157936521
1148.58087073759,0.168757785498917
1144.85171206636,0.188664401564764
1141.12255339513,0.185406048516423
1137.39339472391,0.162250651287304
1133.66423605268,0.136463613414073
1129.93507738146,0.117972834604705
1126.20591871023,0.108103617994738
1122.476760039,0.105139567245075
1118.74760136778,0.107524574301101
1115.01844269655,0.113911536010373
1111.28928402532,0.122085507576992
1107.5601253541,0.132918608307631
1103.83096668287,0.149768064794647
1100.10180801165,0.17455913262574
1096.37264934042,0.207656522808005
1092.64349066919,0.250874732256469
1088.91433199797,0.312714114432795
1085.18517332674,0.410239550530124
1081.45601465551,0.56778545587989
1077.72685598429,0.818790763315376
1073.99769731306,1.1910374617562
1070.26853864183,1.61647624268947
1066.53937997061,1.75099861328003
1062.81022129938,1.51868200144758
1059.08106262816,1.2017965778158
1055.35190395693,0.921905001761639
1051.6227452857,0.709997759265463
1047.89358661448,0.561070378696384
1044.16442794325,0.463696546658608
1040.43526927202,0.408631212124266
1036.7061106008,0.389005530810248
1032.97695192957,0.386040858056763
1029.24779325835,0.365931122581705
1025.51863458712,0.311373242446534
1021.78947591589,0.244800864143754
1018.06031724467,0.191640905241591
1014.33115857344,0.156818963823175
1010.60199990221,0.134110474029106
1006.87284123099,0.118285876474985
1003.14368255976,0.106624820040882
999.414523888535,0.0982239040873588
995.685365217309,0.0922687308086744
991.956206546083,0.0885741561708724
988.227047874856,0.0866393582667233
984.49788920363,0.0862025728310721
980.768730532404,0.0870341443647359
977.039571861178,0.0891987274011517
973.310413189951,0.0930097474182721
969.581254518725,0.0986227237391779
965.852095847499,0.10642176065309
962.122937176272,0.117246614502938
958.393778505046,0.13136410890469
954.66461983382,0.148853536918642
950.935461162594,0.170056920997831
947.206302491367,0.192251180544123
943.477143820141,0.214975630202409
939.747985148915,0.243768843572624
936.018826477688,0.283776973884893
932.289667806462,0.338046827069244
928.560509135236,0.411497003450227
924.83135046401,0.509926977269569
921.102191792783,0.638586876309131
917.373033121557,0.788074864768769
913.643874450331,0.92334788412827
909.914715779104,0.995859310283567
906.185557107878,0.990975389544856
902.456398436652,0.917622526645868
898.727239765426,0.804319042815431
894.998081094199,0.684413382685303
891.268922422973,0.579199313630979
887.539763751747,0.496139761473155
883.81060508052,0.43626917946399
880.081446409294,0.395063606216367
876.352287738068,0.365846543054177
872.623129066842,0.343177135299641
868.893970395615,0.322697713048955
865.164811724389,0.302985408070967
861.435653053163,0.283963608723366
857.706494381936,0.267152201918884
853.97733571071,0.254616470211185
850.248177039484,0.246511127885261
846.519018368258,0.236415729928315
842.789859697031,0.223278870141033
839.060701025805,0.210515325027867
835.331542354579,0.19917003907311
831.602383683352,0.187479059707733
827.873225012126,0.175733384182555
824.1440663409,0.164848581333737
820.414907669674,0.155467206273286
816.685748998447,0.144844537399206
812.956590327221,0.132374404583381
809.227431655995,0.12015144089201
805.498272984768,0.110269034515456
801.769114313542,0.103142395440287
798.039955642316,0.0989377529156744
794.31079697109,0.0952334548329154
790.581638299863,0.0920618656914588
786.852479628637,0.0940015565201116
783.123320957411,0.109697769483809
779.394162286184,0.116701763241867
775.665003614958,0.0976899290926592
771.935844943732,0.0851049496364218
768.206686272506,0.0844899724780993
764.477527601279,0.0891206248250874
760.748368930053,0.0987242743814948
757.019210258827,0.105890554517453
753.2900515876,0.104777601624656
749.560892916374,0.101823428668775
745.831734245148,0.0988357177227145
742.102575573922,0.0936177743574847
738.373416902695,0.0882833237167551
734.644258231469,0.0818286661566336
730.915099560243,0.0742448401628562
727.185940889016,0.0669282771803646
723.45678221779,0.0634686390090186
719.727623546564,0.0651319450594171
715.998464875338,0.0772470620349934
712.269306204111,0.092249989636249
708.540147532885,0.0921421354598031
704.810988861659,0.0917123835576332
701.081830190432,0.0952108577319456
697.352671519206,0.0940556163479112
693.62351284798,0.0971096088953406
689.894354176754,0.10457152159014
686.165195505527,0.131771076572048
682.436036834301,0.166052472109009
678.706878163075,0.165158090283622
674.977719491848,0.161945841755037
671.248560820622,0.197490502401017
667.519402149396,0.245458049416767
663.790243478169,0.275459514190646
660.061084806943,0.277048087770155
656.331926135717,0.27303031521561
652.602767464491,0.26492041227088
648.873608793276,0.253380741992358
