Wavenumbercm-1,04:09:52
2998.24357166583,0.189346817997059
2994.5144129946,0.218291314083818
2990.78525432337,0.251261885720237
2987.05609565215,0.306480940442144
2983.32693698092,0.342050236162556
2979.59777830969,0.323704417525035
2975.86861963847,0.287650366934157
2972.13946096724,0.267327712006976
2968.41030229601,0.268629417388675
2964.68114362479,0.267213351471284
2960.95198495356,0.27574929014556
2957.22282628234,0.290280720888071
2953.49366761111,0.308476117687297
2949.76450893988,0.314948367295949
2946.03535026866,0.300892121373549
2942.30619159743,0.288482545171528
2938.5770329262,0.296778798093236
2934.84787425498,0.303481630091181
2931.11871558375,0.296615570968284
2927.38955691253,0.289383681268546
2923.6603982413,0.302652463406065
2919.93123957007,0.316732017747535
2916.20208089885,0.303735605130462
2912.47292222762,0.281150732758966
2908.74376355639,0.271444567969113
2905.01460488517,0.274516452338444
2901.28544621394,0.286394349567634
2897.55628754272,0.295967937835306
2893.82712887149,0.300890578628515
2890.09797020026,0.312807347322719
2886.36881152904,0.328386194848152
2882.63965285781,0.354310802613814
2878.91049418658,0.378989895812056
2875.18133551536,0.371548628101716
2871.45217684413,0.352892124927559
2867.72301817291,0.356717400884641
2863.99385950168,0.356006532040672
2860.26470083045,0.340694933268991
2856.53554215923,0.32652598875763
2852.806383488,0.318065919264621
2849.07722481677,0.305899514717995
2845.34806614555,0.304916322705703
2841.61890747432,0.290228259186657
2837.88974880309,0.253983598315753
2834.16059013187,0.220496493565792
2830.43143146064,0.194326008972947
2826.70227278942,0.172419927259816
2822.97311411819,0.15269627340066
2819.24395544696,0.13666036149297
2815.51479677574,0.12409976648731
2811.78563810451,0.112211527383489
2808.05647943328,0.101025993431602
2804.32732076206,0.0945164277025554
2800.59816209083,0.0873455595605201
2796.86900341961,0.0804405984775403
2793.13984474838,0.0753255047727967
2789.41068607715,0.0680246777665274
2785.68152740593,0.0597140010718755
2781.9523687347,0.0563786866839998
2778.22321006347,0.0550753150847689
2774.49405139225,0.0517546019941314
2770.76489272102,0.0477411504216214
2767.0357340498,0.0436557180196185
2763.30657537857,0.0406878735131864
2759.57741670734,0.0405230201712355
2755.84825803612,0.0408076602497658
2752.11909936489,0.0408590085225229
2748.38994069366,0.0407503676690675
2744.66078202244,0.0416954529385103
2740.93162335121,0.044543578168552
2737.20246467999,0.0474596627877769
2733.47330600876,0.0503263244737399
2729.74414733753,0.0517712483043694
2726.01498866631,0.0512230574236443
2722.28582999508,0.0489393667476743
2718.55667132385,0.0458035353870493
2714.82751265263,0.0416228435105091
2711.0983539814,0.0381167231796571
2707.36919531017,0.0364227879920992
2703.64003663895,0.0368681224457604
2699.91087796772,0.0384389944801604
2696.1817192965,0.0417603346118914
2692.45256062527,0.0462848719851509
2688.72340195404,0.0488983192043455
2684.99424328282,0.048664999992121
2681.26508461159,0.0463293373615475
2677.53592594036,0.042153512102593
2673.80676726914,0.038794252706524
2670.07760859791,0.0370091338786027
2666.34844992669,0.0361283415975686
2662.61929125546,0.0366080620211311
2658.89013258423,0.0370852326467506
2655.16097391301,0.0359005965455768
2651.43181524178,0.0330109700976816
2647.70265657055,0.0298251475533924
2643.97349789933,0.0269247096057678
2640.2443392281,0.025740014030033
2636.51518055688,0.0259576172367984
2632.78602188565,0.0268368246330935
2629.05686321442,0.0276063314000498
2625.3277045432,0.0283730275168906
2621.59854587197,0.030097750701782
2617.86938720074,0.0324429688987885
2614.14022852952,0.0336192359257788
2610.41106985829,0.0344803821240631
2606.68191118707,0.0361545916291909
2602.95275251584,0.0383171498201722
2599.22359384461,0.0391746586108535
2595.49443517339,0.0395979833814192
2591.76527650216,0.0413820530786387
2588.03611783093,0.0444963543053259
2584.30695915971,0.0494076040607725
2580.57780048848,0.0551571349286867
2576.84864181725,0.0629686197076786
2573.11948314603,0.0757728098869134
2569.3903244748,0.0908178267415447
2565.66116580358,0.0998576764108811
2561.93200713235,0.100036981228698
2558.20284846112,0.0926908737767432
2554.4736897899,0.0830976890629656
2550.74453111867,0.0770684583412168
2547.01537244744,0.0756029912681068
2543.28621377622,0.0717445242803934
2539.55705510499,0.0624715827381122
2535.82789643377,0.0519607958491191
2532.09873776254,0.0458533508269926
2528.36957909131,0.0437871756724623
2524.64042042009,0.042653687295585
2520.91126174886,0.0419726220207226
2517.18210307763,0.042293290253265
2513.45294440641,0.043819200791304
2509.72378573518,0.0453612171719186
2505.99462706396,0.0466294908604929
2502.26546839273,0.048384803660773
2498.5363097215,0.0503941662691862
2494.80715105028,0.0511542210098396
2491.07799237905,0.0510826722091601
2487.34883370782,0.05053496303474
2483.6196750366,0.0493070633506863
2479.89051636537,0.0472200377176566
2476.16135769415,0.045405719480518
2472.43219902292,0.0435900419388021
2468.70304035169,0.0410931508999614
2464.97388168047,0.0375774182096435
2461.24472300924,0.0345063914555793
2457.51556433801,0.032536779479875
2453.78640566679,0.0314223701196598
2450.05724699556,0.0302236497363007
2446.32808832433,0.0287179700733105
2442.59892965311,0.0280389400546379
2438.86977098188,0.0278483229443067
2435.14061231066,0.0267008759792352
2431.41145363943,0.0245890025534856
2427.6822949682,0.0229342016063325
2423.95313629698,0.0222696505319543
2420.22397762575,0.0224273845393287
2416.49481895452,0.0225900023539524
2412.7656602833,0.0223032246101137
2409.03650161207,0.0207856068991006
2405.30734294085,0.0190470428494228
2401.57818426962,0.0179312165407509
2397.84902559839,0.0175088992326714
2394.11986692717,0.0171957163578328
2390.39070825594,0.0174106777708764
2386.66154958471,0.0195339649482736
2382.93239091349,0.0265148654121199
2379.20323224226,0.0400604717868404
2375.47407357104,0.0575275679804679
2371.74491489981,0.0737843167578782
2368.01575622858,0.0846861018258467
2364.28659755736,0.0871153048206979
2360.55743888613,0.0780042061774883
2356.8282802149,0.0576525985333326
2353.09912154368,0.0422410440259881
2349.36996287245,0.0463471108246325
2345.64080420122,0.0581561866271227
2341.91164553,0.0617180120703674
2338.18248685877,0.0585646155056857
2334.45332818755,0.051987491913267
2330.72416951632,0.043414494385287
2326.99501084509,0.0350769353914216
2323.26585217387,0.027613785533316
2319.53669350264,0.0209051616683252
2315.80753483141,0.015674515084072
2312.07837616019,0.0126055086947035
2308.34921748896,0.0103908425916215
2304.62005881774,0.00895961001905188
2300.89090014651,0.00827676171521916
2297.16174147528,0.00843636628102394
2293.43258280406,0.0110141652035615
2289.70342413283,0.0170106116500387
2285.9742654616,0.0248603147033402
2282.24510679038,0.0319559419016012
2278.51594811915,0.0361738088433076
2274.78678944793,0.0373907658138897
2271.0576307767,0.0373740037087782
2267.32847210547,0.0368488407298738
2263.59931343425,0.0365226327938767
2259.87015476302,0.0351829917454983
2256.14099609179,0.0329088386439871
2252.41183742057,0.0305962878189263
2248.68267874934,0.0298139817697085
2244.95352007812,0.0289645750059826
2241.22436140689,0.0288254919538588
2237.49520273566,0.0294935133395148
2233.76604406444,0.0307863573162691
2230.03688539321,0.0320534129147287
2226.30772672198,0.0341199885266414
2222.57856805076,0.0365649951076962
2218.84940937953,0.0395193323375429
2215.1202507083,0.0428320972479707
2211.39109203708,0.046082961265685
2207.66193336585,0.0476665028322298
2203.93277469463,0.0492853038505086
2200.2036160234,0.0514608333910712
2196.47445735217,0.0537398750877112
2192.74529868095,0.0590250244957627
2189.01614000972,0.0676739946352673
2185.28698133849,0.0776197956329807
2181.55782266727,0.0845208804061545
2177.82866399604,0.0889305065356071
2174.09950532482,0.0925422813924243
2170.37034665359,0.103332550631352
2166.64118798236,0.126228381443845
2162.91202931114,0.155266547928858
2159.18287063991,0.159248668263245
2155.45371196868,0.144411024600719
2151.72455329746,0.12828305647031
2147.99539462623,0.116886210643281
2144.26623595501,0.106500337869546
2140.53707728378,0.0971361095203198
2136.80791861255,0.0851644366025171
2133.07875994133,0.0707932850952695
2129.3496012701,0.0567693646512001
2125.62044259887,0.0463886738852719
2121.89128392765,0.0397474623298981
2118.16212525642,0.0353821210582459
2114.4329665852,0.033192817525032
2110.70380791397,0.0321907679274767
2106.97464924274,0.0320260755011928
2103.24549057152,0.0317045890358043
2099.51633190029,0.0314864619242737
2095.78717322906,0.0288380818572362
2092.05801455784,0.0243932902227328
2088.32885588661,0.0201137212018326
2084.59969721538,0.0179142864476444
2080.87053854416,0.0165828481913487
2077.14137987293,0.0163997469900556
2073.41222120171,0.0168131241143984
2069.68306253048,0.0186521054868301
2065.95390385925,0.0201377799568711
2062.22474518803,0.0211200908978305
2058.4955865168,0.0213101211786145
2054.76642784557,0.0231947196247226
2051.03726917435,0.0281923971756277
2047.30811050312,0.0333205428849164
2043.5789518319,0.0351957900328018
2039.84979316067,0.0378068640554778
2036.12063448944,0.0418607670858868
2032.39147581822,0.04374897203025
2028.66231714699,0.0419771922292621
2024.93315847576,0.0382681586912745
2021.20399980454,0.0350330000385218
2017.47484113331,0.0320810711764205
2013.74568246209,0.0308603796620544
2010.01652379086,0.0290779688165756
2006.28736511963,0.0256341868755968
2002.55820644841,0.0212719188370534
1998.82904777718,0.0197363246277828
1995.09988910595,0.0203782629886117
1991.37073043473,0.021471007339078
1987.6415717635,0.0214015282550109
1983.91241309228,0.0257993209312313
1980.18325442105,0.0325415050653787
1976.45409574982,0.0364306612628217
1972.7249370786,0.0351426029230011
1968.99577840737,0.0327826503882027
1965.26661973614,0.029174686961748
1961.53746106492,0.02539511162287
1957.80830239369,0.0201084834914146
1954.07914372246,0.0155131235419649
1950.34998505124,0.0126291341542177
1946.62082638001,0.0107135203668804
1942.89166770879,0.00782175018127533
1939.16250903756,0.0046619583414245
1935.43335036633,0.0022459487400061
1931.70419169511,0.000190003073505307
1927.97503302388,-0.000155331991718565
1924.24587435265,0.000617994774638468
1920.51671568143,0.000462333210956706
1916.7875570102,-0.00170308519437433
1913.05839833898,-0.00290368663807464
1909.32923966775,-0.00377078074352734
1905.60008099652,-0.00491440834687466
1901.8709223253,-0.00537429933337481
1898.14176365407,-0.00458595054693893
1894.41260498284,-0.00370351344297717
1890.68344631162,-0.00419331000621414
1886.95428764039,-0.00609746659420323
1883.22512896917,-0.00696463610295757
1879.49597029794,-0.00705896433812002
1875.76681162671,-0.00483756976627246
1872.03765295549,-0.00119439804260114
1868.30849428426,-0.0022272980836516
1864.57933561303,-0.00556302369129081
1860.85017694181,-0.00644135524918275
1857.12101827058,-0.00656110025557022
1853.39185959936,-0.00516742289035399
1849.66270092813,-0.000707114964952776
1845.9335422569,0.0014577310501263
1842.20438358568,-0.00219793998401959
1838.47522491445,-0.00398187932493822
1834.74606624322,-0.000676591948485652
1831.016907572,0.00282882715751889
1827.28774890077,0.00193886941910162
1823.55859022954,-0.000930761419896646
1819.82943155832,-0.00135368375851578
1816.10027288709,-0.000188631980323856
1812.37111421587,0.000528709781740525
1808.64195554464,0.000219815713075263
1804.91279687341,0.00195222295396003
1801.18363820219,0.00341111020330544
1797.45447953096,0.00517676362632385
1793.72532085973,0.00561591631067217
1789.99616218851,0.00205718610919737
1786.26700351728,0.000680938685852665
1782.53784484606,0.0015443674820318
1778.80868617483,0.00476474479063357
1775.0795275036,0.01064122640403
1771.35036883238,0.00891241145570788
1767.62121016115,0.00515296507719596
1763.89205148992,0.00742723057111252
1760.1628928187,0.0111698851784685
1756.43373414747,0.0158175484971888
1752.70457547625,0.0214258873482609
1748.97541680502,0.0220489943865253
1745.24625813379,0.0239216837690418
1741.51709946257,0.0361285614525519
1737.78794079134,0.0617750391263287
1734.05878212011,0.0896190827735637
1730.32962344889,0.0930603138018305
1726.60046477766,0.0793150767606786
1722.87130610643,0.0620975522836706
1719.14214743521,0.045132711889184
1715.41298876398,0.0234154176829171
1711.68383009276,0.0121984898859569
1707.95467142153,0.0139605323483053
1704.2255127503,0.0218356935592532
1700.49635407908,0.0225679444188909
1696.76719540785,0.0105326672013044
1693.03803673662,0.00342628280954464
1689.3088780654,0.00937652108644843
1685.57971939417,0.0135394205713318
1681.85056072295,0.00623547989347041
1678.12140205172,0.00485891473052553
1674.39224338049,0.00745062096553596
1670.66308470927,0.0043965990055654
1666.93392603804,-0.000504599540142057
1663.20476736681,-0.00232454881232951
1659.47560869559,0.0032916509950382
1655.74645002436,0.0168994497692474
1652.01729135314,0.0165895056341407
1648.28813268191,0.00709526100531789
1644.55897401068,-4.3336631601391E-05
1640.82981533946,0.00278859264678537
1637.10065666823,0.0082249347415315
1633.371497997,0.00346607111540369
1629.64233932578,0.00673955709169865
1625.91318065455,0.0144879124086744
1622.18402198333,0.0175613774129904
1618.4548633121,0.0157095448761298
1614.72570464087,0.00902717189704494
1610.99654596965,0.00601571244376007
1607.26738729842,0.00581854622346389
1603.53822862719,0.00469238668425469
1599.80906995597,0.00383128242474952
1596.07991128474,0.0022654905364789
1592.35075261351,-0.00146930195398811
1588.62159394229,-0.0053231588362075
1584.89243527106,-0.00618522092861654
1581.16327659984,-0.00206855723354787
1577.43411792861,0.00201418214743509
1573.70495925738,0.00138605905299182
1569.97580058616,0.000945796460203665
1566.24664191493,0.0046704738666839
1562.5174832437,0.0201840873088531
1558.78832457248,0.0230847754597014
1555.05916590125,0.00829480253488357
1551.33000723003,0.0042552953192726
1547.6008485588,0.0128286089328609
1543.87168988757,0.0272946434664768
1540.14253121635,0.0236952197724053
1536.41337254512,0.0138229733173789
1532.68421387389,0.0121701219786633
1528.95505520267,0.0171049331603645
1525.22589653144,0.0269611583952464
1521.49673786022,0.0295832446834021
1517.76757918899,0.0251439350630289
1514.03842051776,0.0272608737970114
1510.30926184654,0.0393633118829066
1506.58010317531,0.038522495061829
1502.85094450408,0.032663646990492
1499.12178583286,0.0381996859120065
1495.39262716163,0.0439393183831073
1491.66346849041,0.0505959619432943
1487.93430981918,0.0528492675765061
1484.20515114795,0.05541740898499
1480.47599247673,0.0672578130276507
1476.7468338055,0.0853999905094702
1473.01767513427,0.103321227124315
1469.28851646305,0.126633244114785
1465.55935779182,0.163486435774892
1461.83019912059,0.188236007666648
1458.10104044937,0.179735072952552
1454.37188177814,0.155470168092498
1450.64272310692,0.141196410087261
1446.91356443569,0.118766567983281
1443.18440576446,0.0926593112969858
1439.45524709324,0.0756970511474627
1435.72608842201,0.06054003241927
1431.99692975078,0.0479504766842058
1428.26777107956,0.0408550417370738
1424.53861240833,0.0385480012262771
1420.80945373711,0.0367579603465116
1417.08029506588,0.0270000931709756
1413.35113639465,0.0187437364416771
1409.62197772343,0.0160851156942494
1405.8928190522,0.0157033594685314
1402.16366038097,0.016815019499768
1398.43450170975,0.0183416236675167
1394.70534303852,0.0164098617840217
1390.9761843673,0.0161026751516888
1387.24702569607,0.0181992985893012
1383.51786702484,0.0211900612311756
1379.78870835362,0.0315170459558769
1376.05954968239,0.0503490806317483
1372.33039101116,0.0758430602179071
1368.60123233994,0.101115917578941
1364.87207366871,0.102774309214231
1361.14291499749,0.0751781070125609
1357.41375632626,0.0507263306358379
1353.68459765503,0.0387691632868524
1349.95543898381,0.0332602590645728
1346.22628031258,0.0320290702240688
1342.49712164135,0.0352760671378918
1338.76796297013,0.0387869160825891
1335.0388042989,0.0393050155505667
1331.30964562767,0.0379929714605379
1327.58048695645,0.0361574172085915
1323.85132828522,0.0354566068679337
1320.122169614,0.0367385775206709
1316.39301094277,0.0399907084048777
1312.66385227154,0.0445378134279938
1308.93469360032,0.0492078042291478
1305.20553492909,0.0535599896433757
1301.47637625786,0.0607847120888489
1297.74721758664,0.0775714038531652
1294.01805891541,0.114122271522426
1290.28890024419,0.185324258373235
1286.55974157296,0.293723727604133
1282.83058290173,0.35602172736173
1279.10142423051,0.304047573638288
1275.37226555928,0.242487132143354
1271.64310688805,0.201804268013161
1267.91394821683,0.158472177232797
1264.1847895456,0.139220242757522
1260.45563087438,0.147219620885834
1256.72647220315,0.166376605892848
1252.99731353192,0.189031642434215
1249.2681548607,0.208216835389318
1245.53899618947,0.217113966063221
1241.80983751824,0.21336933720169
1238.08067884702,0.201205403160919
1234.35152017579,0.186050210899134
1230.62236150457,0.171959634644816
1226.89320283334,0.160824207270787
1223.16404416211,0.153822876340119
1219.43488549089,0.15026668975467
1215.70572681966,0.150938246930973
1211.97656814843,0.157284830505095
1208.24740947721,0.165580738439723
1204.51825080598,0.168973911627605
1200.78909213475,0.17306354237994
1197.05993346353,0.184438139439526
1193.3307747923,0.205025902058247
1189.60161612108,0.239001510308242
1185.87245744985,0.280010324480687
1182.14329877862,0.300966611681871
1178.4141401074,0.289400240018207
1174.68498143617,0.258546525701775
1170.95582276494,0.220795458852144
1167.22666409372,0.186505384016491
1163.49750542249,0.166413935106528
1159.76834675127,0.164951225335959
1156.03918808004,0.180010891109206
1152.31002940881,0.20893355345301
1148.58087073759,0.260342091337717
1144.85171206636,0.32114358115704
1141.12255339513,0.332570682168638
1137.39339472391,0.285850744691538
1133.66423605268,0.231721509418783
1129.93507738146,0.188764358691197
1126.20591871023,0.154816039834329
1122.476760039,0.133713014122357
1118.74760136778,0.124294688959683
1115.01844269655,0.123625006162862
1111.28928402532,0.129857571083904
1107.5601253541,0.140238965428019
1103.83096668287,0.153434443042632
1100.10180801165,0.173775324675001
1096.37264934042,0.204682771449709
1092.64349066919,0.249567530308418
1088.91433199797,0.315893401337557
1085.18517332674,0.41857204927328
1081.45601465551,0.582003924525485
1077.72685598429,0.840686508076588
1073.99769731306,1.2236219134416
1070.26853864183,1.6553811873893
1066.53937997061,1.75084063780685
1062.81022129938,1.46003639718924
1059.08106262816,1.12993178287119
1055.35190395693,0.869359051870902
1051.6227452857,0.687162759076068
1047.89358661448,0.560318046685168
1044.16442794325,0.470840527108865
1040.43526927202,0.413992085426428
1036.7061106008,0.389546331058345
1032.97695192957,0.379798857193105
1029.24779325835,0.351438134785423
1025.51863458712,0.292819284104174
1021.78947591589,0.229438972796476
1018.06031724467,0.180923439696568
1014.33115857344,0.148512506667301
1010.60199990221,0.126860918721784
1006.87284123099,0.11182761517496
1003.14368255976,0.100784285337491
999.414523888535,0.0928045527823951
995.685365217309,0.0874366792312221
991.956206546083,0.0844061809218118
988.227047874856,0.0831456612518231
984.49788920363,0.0834521513222889
980.768730532404,0.0851277748668738
977.039571861178,0.0881560566010295
973.310413189951,0.0929053281829259
969.581254518725,0.099389712140922
965.852095847499,0.107972682226149
962.122937176272,0.119385847007813
958.393778505046,0.133769034593902
954.66461983382,0.150313030189819
950.935461162594,0.169106291116156
947.206302491367,0.190650711719451
943.477143820141,0.216287699696701
939.747985148915,0.247571739411297
936.018826477688,0.288426660970157
932.289667806462,0.343676980829663
928.560509135236,0.419117765610756
924.83135046401,0.519523259845747
921.102191792783,0.648923306386441
917.373033121557,0.799011558568676
913.643874450331,0.93663182657125
909.914715779104,1.00799025307562
906.185557107878,0.991390322203957
902.456398436652,0.904631497481071
898.727239765426,0.785194542841625
894.998081094199,0.667610708358667
891.268922422973,0.572123334618046
887.539763751747,0.502836562332926
883.81060508052,0.453587979347632
880.081446409294,0.416722937771542
876.352287738068,0.385044799119723
872.623129066842,0.356915670378241
868.893970395615,0.33151247392585
865.164811724389,0.308378903706745
861.435653053163,0.286491434674034
857.706494381936,0.26711934186227
853.97733571071,0.253090168320088
850.248177039484,0.249647691394145
846.519018368258,0.24900232510938
842.789859697031,0.232049389196013
839.060701025805,0.20532470651838
835.331542354579,0.185520640362768
831.602383683352,0.170344039837845
827.873225012126,0.156321687810768
824.1440663409,0.142028730010061
820.414907669674,0.129213742123448
816.685748998447,0.117825629220719
812.956590327221,0.107807343389934
809.227431655995,0.0991358275092281
805.498272984768,0.0914269607632152
801.769114313542,0.0853708252588876
798.039955642316,0.0811089687291674
794.31079697109,0.0767540856794888
790.581638299863,0.0716919130124491
786.852479628637,0.0673834709980769
783.123320957411,0.0661355929292022
779.394162286184,0.0726022764460164
775.665003614958,0.0881742140525527
771.935844943732,0.0885558630795585
768.206686272506,0.0653937767135733
764.477527601279,0.0496409238959707
760.748368930053,0.0443620763550107
757.019210258827,0.0418188053763348
753.2900515876,0.0403954601627786
749.560892916374,0.0397751032827204
745.831734245148,0.0387571414841574
742.102575573922,0.0377545712702512
738.373416902695,0.0406143004602145
734.644258231469,0.0443289541849891
730.915099560243,0.0420503219067112
727.185940889016,0.0394076125395819
723.45678221779,0.0398335452708967
719.727623546564,0.0416668105545312
715.998464875338,0.0445171384731082
712.269306204111,0.0502033073286019
708.540147532885,0.0689409826806586
704.810988861659,0.100802854961819
701.081830190432,0.113642499040602
697.352671519206,0.0932590538962256
693.62351284798,0.0829456464219203
689.894354176754,0.0928527122798037
686.165195505527,0.143195541153619
682.436036834301,0.218658239128875
678.706878163075,0.243316671339387
674.977719491848,0.246481448836209
671.248560820622,0.25309795145456
667.519402149396,0.244560867654327
663.790243478169,0.237276780053301
660.061084806943,0.235898098498289
656.331926135717,0.240841744966337
652.602767464491,0.228171775617947
648.873608793276,0.21373151540789
