Wavenumbercm-1,04:31:52
2998.24357166583,0.189996976484243
2994.5144129946,0.21847520334264
2990.78525432337,0.250945095470994
2987.05609565215,0.303722020235924
2983.32693698092,0.337029223595732
2979.59777830969,0.319152317998293
2975.86861963847,0.285991684818229
2972.13946096724,0.267642471688985
2968.41030229601,0.267700317604311
2964.68114362479,0.265905961663031
2960.95198495356,0.272623843732076
2957.22282628234,0.285845179844855
2953.49366761111,0.306047715759784
2949.76450893988,0.313203785287023
2946.03535026866,0.297492140582339
2942.30619159743,0.28378122079574
2938.5770329262,0.292915667027234
2934.84787425498,0.300086436948378
2931.11871558375,0.291614232391983
2927.38955691253,0.285178837962945
2923.6603982413,0.29997300288126
2919.93123957007,0.313018663945606
2916.20208089885,0.299607862930895
2912.47292222762,0.279000901950935
2908.74376355639,0.27104919524247
2905.01460488517,0.274674534739865
2901.28544621394,0.286428528571706
2897.55628754272,0.295113569174838
2893.82712887149,0.299916262085876
2890.09797020026,0.311897765212452
2886.36881152904,0.326043394302588
2882.63965285781,0.349083185666553
2878.91049418658,0.3744158151399
2875.18133551536,0.370304494345789
2871.45217684413,0.350728152952738
2867.72301817291,0.352172015427781
2863.99385950168,0.351004645542089
2860.26470083045,0.33609443711208
2856.53554215923,0.321355412914363
2852.806383488,0.31395770746453
2849.07722481677,0.303964917481637
2845.34806614555,0.302655355557121
2841.61890747432,0.287732036793915
2837.88974880309,0.252333587752608
2834.16059013187,0.218451571081838
2830.43143146064,0.193177333221777
2826.70227278942,0.173015426707501
2822.97311411819,0.152490280787868
2819.24395544696,0.135283261159464
2815.51479677574,0.123353850534844
2811.78563810451,0.1120729631284
2808.05647943328,0.100031095680839
2804.32732076206,0.0923471198505389
2800.59816209083,0.0851923375328109
2796.86900341961,0.0791198695690386
2793.13984474838,0.0745985513634691
2789.41068607715,0.0672154202439668
2785.68152740593,0.0584750599638646
2781.9523687347,0.0540381440625387
2778.22321006347,0.0523166501113625
2774.49405139225,0.0499529913256179
2770.76489272102,0.0464826656163388
2767.0357340498,0.042838842141841
2763.30657537857,0.0401828742209115
2759.57741670734,0.0396250437070842
2755.84825803612,0.0393410350692734
2752.11909936489,0.0391092732600249
2748.38994069366,0.039291710276121
2744.66078202244,0.0406189421682994
2740.93162335121,0.0437007892909329
2737.20246467999,0.0467700234469483
2733.47330600876,0.0493022841138509
2729.74414733753,0.0506857507360435
2726.01498866631,0.0506332931604555
2722.28582999508,0.0479596704509269
2718.55667132385,0.0442382401038593
2714.82751265263,0.0402360684509955
2711.0983539814,0.0372247716887279
2707.36919531017,0.0361778036996174
2703.64003663895,0.0366361216834445
2699.91087796772,0.0377463540038565
2696.1817192965,0.0404421680686645
2692.45256062527,0.0446190126320006
2688.72340195404,0.0478861505042026
2684.99424328282,0.048142119911144
2681.26508461159,0.0456379673885076
2677.53592594036,0.0411850854083143
2673.80676726914,0.0372731386792092
2670.07760859791,0.0355361355561598
2666.34844992669,0.0354463262134465
2662.61929125546,0.0360508088207165
2658.89013258423,0.0360608666801965
2655.16097391301,0.034674933494707
2651.43181524178,0.032037079909069
2647.70265657055,0.0290187581040047
2643.97349789933,0.0258583282468063
2640.2443392281,0.0247624996158811
2636.51518055688,0.0255549186616255
2632.78602188565,0.0263317094912567
2629.05686321442,0.0264950800719735
2625.3277045432,0.0273544554549659
2621.59854587197,0.0291270379306879
2617.86938720074,0.0311141117843894
2614.14022852952,0.0328393359594964
2610.41106985829,0.034080188203808
2606.68191118707,0.0352535589350649
2602.95275251584,0.0372897674661646
2599.22359384461,0.0387014036342885
2595.49443517339,0.0395836265295926
2591.76527650216,0.0414957574595315
2588.03611783093,0.0446229608715489
2584.30695915971,0.0485982303763509
2580.57780048848,0.0532677924483345
2576.84864181725,0.0612898555253282
2573.11948314603,0.0745525047887955
2569.3903244748,0.0896855633893203
2565.66116580358,0.0991507091818673
2561.93200713235,0.0991201186845144
2558.20284846112,0.0908663358763191
2554.4736897899,0.0818608230936801
2550.74453111867,0.0766628808524986
2547.01537244744,0.0744708331160499
2543.28621377622,0.0703770592968206
2539.55705510499,0.0617114275017929
2535.82789643377,0.0518159205026969
2532.09873776254,0.0461311824313257
2528.36957909131,0.0436387558183058
2524.64042042009,0.0413255689386701
2520.91126174886,0.040167031108383
2517.18210307763,0.0411877642123419
2513.45294440641,0.0431029362205913
2509.72378573518,0.0449525186803913
2505.99462706396,0.0465235556884566
2502.26546839273,0.0482406700387277
2498.5363097215,0.0502955136307522
2494.80715105028,0.0508943862359285
2491.07799237905,0.0503177795728474
2487.34883370782,0.049398074464639
2483.6196750366,0.0484853716209509
2479.89051636537,0.0471391134832237
2476.16135769415,0.0453702353324873
2472.43219902292,0.0427467767459672
2468.70304035169,0.0397084787494067
2464.97388168047,0.0362005374019702
2461.24472300924,0.0333415995958027
2457.51556433801,0.0314628242863444
2453.78640566679,0.0300981474145315
2450.05724699556,0.0292073989804185
2446.32808832433,0.0286100993689911
2442.59892965311,0.0277131693403906
2438.86977098188,0.0264788283350339
2435.14061231066,0.0253740290185337
2431.41145363943,0.0242713801287503
2427.6822949682,0.0230240060900744
2423.95313629698,0.0218385760495815
2420.22397762575,0.0213926010552086
2416.49481895452,0.0212537676390591
2412.7656602833,0.0210424444508357
2409.03650161207,0.0197549765408228
2405.30734294085,0.0182004631491561
2401.57818426962,0.0173090927321877
2397.84902559839,0.0170826946400291
2394.11986692717,0.0167591105114749
2390.39070825594,0.0167918906394331
2386.66154958471,0.0188682259216657
2382.93239091349,0.0259072209941418
2379.20323224226,0.0393856418214112
2375.47407357104,0.0566489472769418
2371.74491489981,0.0728137038097678
2368.01575622858,0.0837931959782042
2364.28659755736,0.0862594692375884
2360.55743888613,0.0771514162553274
2356.8282802149,0.0567407934874145
2353.09912154368,0.0410107931822672
2349.36996287245,0.0449381568330361
2345.64080420122,0.0572010465916479
2341.91164553,0.0612091778375812
2338.18248685877,0.0580288112445409
2334.45332818755,0.0513810379000337
2330.72416951632,0.0428326017542623
2326.99501084509,0.0344837016914937
2323.26585217387,0.0269738030763309
2319.53669350264,0.0203442555392898
2315.80753483141,0.0153009697472305
2312.07837616019,0.0124145333355097
2308.34921748896,0.0102685074960923
2304.62005881774,0.00854208597161015
2300.89090014651,0.00770939739662014
2297.16174147528,0.00828371814388086
2293.43258280406,0.0111443387413291
2289.70342413283,0.0166973421019375
2285.9742654616,0.0241618876585227
2282.24510679038,0.0315434979950041
2278.51594811915,0.0358485833367289
2274.78678944793,0.036828471136185
2271.0576307767,0.036621868315654
2267.32847210547,0.0356025432212364
2263.59931343425,0.0350108721050922
2259.87015476302,0.0346688456627013
2256.14099609179,0.0334105864812842
2252.41183742057,0.0310102689008301
2248.68267874934,0.0298331460059431
2244.95352007812,0.0288719679857008
2241.22436140689,0.028925116540555
2237.49520273566,0.0296639821544709
2233.76604406444,0.0305004580895425
2230.03688539321,0.0315715846321846
2226.30772672198,0.0335752082171555
2222.57856805076,0.0356553593611178
2218.84940937953,0.0388240166049433
2215.1202507083,0.0425036874188302
2211.39109203708,0.0459638209250883
2207.66193336585,0.0476829948355467
2203.93277469463,0.0487675207001542
2200.2036160234,0.0504865170199306
2196.47445735217,0.053081786555333
2192.74529868095,0.0584553939304532
2189.01614000972,0.0664750419628926
2185.28698133849,0.0765411474043135
2181.55782266727,0.0840346254862002
2177.82866399604,0.0880666720223462
2174.09950532482,0.0914282906335419
2170.37034665359,0.102929317147906
2166.64118798236,0.125911911188715
2162.91202931114,0.153946545943223
2159.18287063991,0.157481568652438
2155.45371196868,0.14219682615518
2151.72455329746,0.126737496891033
2147.99539462623,0.116733262711349
2144.26623595501,0.106363720802568
2140.53707728378,0.0967189302220609
2136.80791861255,0.0851676591101831
2133.07875994133,0.07087967863631
2129.3496012701,0.0565152656004292
2125.62044259887,0.0458917121228722
2121.89128392765,0.0393596741103765
2118.16212525642,0.0349714339749099
2114.4329665852,0.0324861939208114
2110.70380791397,0.0314580110873816
2106.97464924274,0.031061294845455
2103.24549057152,0.0304170682289273
2099.51633190029,0.0304634482877227
2095.78717322906,0.0285681154090921
2092.05801455784,0.0244947297368309
2088.32885588661,0.0199908078314854
2084.59969721538,0.0172955004836952
2080.87053854416,0.0157866030461214
2077.14137987293,0.0158679743725844
2073.41222120171,0.0163593419638331
2069.68306253048,0.0183549116080438
2065.95390385925,0.0201196927204698
2062.22474518803,0.0205223797810189
2058.4955865168,0.0196548686983071
2054.76642784557,0.0213990371594181
2051.03726917435,0.0270048280819186
2047.30811050312,0.0328938375938201
2043.5789518319,0.0353414793023295
2039.84979316067,0.0382331952340275
2036.12063448944,0.0418974648662345
2032.39147581822,0.0425527718888404
2028.66231714699,0.0407769226639767
2024.93315847576,0.0379298578669363
2021.20399980454,0.0350166399945301
2017.47484113331,0.0322093073608049
2013.74568246209,0.0306296744566701
2010.01652379086,0.0287142797458948
2006.28736511963,0.025710114051728
2002.55820644841,0.0212792845567942
1998.82904777718,0.0192212330397072
1995.09988910595,0.0194593547354836
1991.37073043473,0.0209383073467954
1987.6415717635,0.0214708946972392
1983.91241309228,0.0253432882050019
1980.18325442105,0.031753982621528
1976.45409574982,0.0362202309306575
1972.7249370786,0.0352143342429138
1968.99577840737,0.0328953159789029
1965.26661973614,0.0291825314672315
1961.53746106492,0.0251507885815831
1957.80830239369,0.0196671105062691
1954.07914372246,0.0148272262977661
1950.34998505124,0.0121322498004223
1946.62082638001,0.0106857794003361
1942.89166770879,0.00772623728921927
1939.16250903756,0.00412446389251636
1935.43335036633,0.00156606053755623
1931.70419169511,-0.000142008404604141
1927.97503302388,-0.000285338670472064
1924.24587435265,0.000259961105625383
1920.51671568143,1.35988617332959E-05
1916.7875570102,-0.00204572022817663
1913.05839833898,-0.003467552407336
1909.32923966775,-0.00447137104892003
1905.60008099652,-0.00546607836022052
1901.8709223253,-0.00590438495064336
1898.14176365407,-0.00530404374907415
1894.41260498284,-0.00431563742875827
1890.68344631162,-0.00450985560930539
1886.95428764039,-0.00647577917427339
1883.22512896917,-0.00746670631267995
1879.49597029794,-0.0075708862659359
1875.76681162671,-0.0054400606486334
1872.03765295549,-0.00190688325753945
1868.30849428426,-0.0028043915621369
1864.57933561303,-0.00586367591391135
1860.85017694181,-0.00668317186491796
1857.12101827058,-0.00692043437551136
1853.39185959936,-0.00562117765298643
1849.66270092813,-0.00128371547365733
1845.9335422569,0.000837805266912842
1842.20438358568,-0.00275353866226023
1838.47522491445,-0.00450514352458076
1834.74606624322,-0.00119813738795926
1831.016907572,0.00228952612138076
1827.28774890077,0.00149508123383613
1823.55859022954,-0.00127268654996293
1819.82943155832,-0.00176740250222914
1816.10027288709,-0.000691444652718361
1812.37111421587,3.06945254260997E-05
1808.64195554464,-0.000247240086855157
1804.91279687341,0.0014661709150399
1801.18363820219,0.00296182360581736
1797.45447953096,0.00472229089064705
1793.72532085973,0.00509466850665563
1789.99616218851,0.0015577253894408
1786.26700351728,0.000176707437647825
1782.53784484606,0.00100969551052757
1778.80868617483,0.00415457851867191
1775.0795275036,0.00987604408650298
1771.35036883238,0.00826016872843982
1767.62121016115,0.00469206479766281
1763.89205148992,0.0069034875728998
1760.1628928187,0.0106085884813113
1756.43373414747,0.0153009278168287
1752.70457547625,0.0207933670985125
1748.97541680502,0.0213499026530826
1745.24625813379,0.0232661099622835
1741.51709946257,0.0354492636205311
1737.78794079134,0.0610327241480663
1734.05878212011,0.0890326476169232
1730.32962344889,0.092804347470599
1726.60046477766,0.0790944572347199
1722.87130610643,0.0616330710920437
1719.14214743521,0.0444871466780459
1715.41298876398,0.0229342031945261
1711.68383009276,0.0117540645547798
1707.95467142153,0.0133391847639477
1704.2255127503,0.0209291522042159
1700.49635407908,0.0215134008694772
1696.76719540785,0.00974128389989546
1693.03803673662,0.00281336990346043
1689.3088780654,0.00857326947659477
1685.57971939417,0.0126239186276107
1681.85056072295,0.00559008567256239
1678.12140205172,0.00426081621777855
1674.39224338049,0.00673141589029555
1670.66308470927,0.00374734742900502
1666.93392603804,-0.00101313932917521
1663.20476736681,-0.00277590440990128
1659.47560869559,0.00272124165199937
1655.74645002436,0.0159109634571239
1652.01729135314,0.0155726759208423
1648.28813268191,0.00640201985221724
1644.55897401068,-0.000480382017450343
1640.82981533946,0.0022721871880704
1637.10065666823,0.00754134978689802
1633.371497997,0.00298725655925364
1629.64233932578,0.0063190344183625
1625.91318065455,0.014015649263773
1622.18402198333,0.0170665149756797
1618.4548633121,0.0151867366838673
1614.72570464087,0.00859427841209519
1610.99654596965,0.00562900292942149
1607.26738729842,0.00544271781281423
1603.53822862719,0.00435786990312663
1599.80906995597,0.0035165207239897
1596.07991128474,0.00197156329734716
1592.35075261351,-0.00176731891681483
1588.62159394229,-0.00565430389856714
1584.89243527106,-0.00657644136661226
1581.16327659984,-0.00257152252601701
1577.43411792861,0.00139371148124952
1573.70495925738,0.00076569518598204
1569.97580058616,0.000339543363861844
1566.24664191493,0.00399817257150149
1562.5174832437,0.019105017216337
1558.78832457248,0.0219315353828572
1555.05916590125,0.00758390242749991
1551.33000723003,0.00367676231255298
1547.6008485588,0.0120022622247627
1543.87168988757,0.0260342798672342
1540.14253121635,0.0225700222815719
1536.41337254512,0.0130418238676726
1532.68421387389,0.0114813735299594
1528.95505520267,0.0162847877855291
1525.22589653144,0.0258695378466924
1521.49673786022,0.0284821508269862
1517.76757918899,0.0242612981853067
1514.03842051776,0.0263883707660639
1510.30926184654,0.0382286134179374
1506.58010317531,0.0375529081507725
1502.85094450408,0.0320146903465277
1499.12178583286,0.0375452896969371
1495.39262716163,0.0432699172684494
1491.66346849041,0.0498915279867488
1487.93430981918,0.0522980034969035
1484.20515114795,0.0550145757643501
1480.47599247673,0.0667549442255541
1476.7468338055,0.0846873415238845
1473.01767513427,0.102648292714612
1469.28851646305,0.126146158432347
1465.55935779182,0.162964778030525
1461.83019912059,0.187522209883356
1458.10104044937,0.178932071484486
1454.37188177814,0.15493020760675
1450.64272310692,0.140770153598883
1446.91356443569,0.118398218578112
1443.18440576446,0.0922793821262628
1439.45524709324,0.0751380399994625
1435.72608842201,0.0599941009710691
1431.99692975078,0.0475481017798799
1428.26777107956,0.0404645865459954
1424.53861240833,0.038023003246727
1420.80945373711,0.0361118741483476
1417.08029506588,0.0265056853864631
1413.35113639465,0.0184007435692052
1409.62197772343,0.0157482025939675
1405.8928190522,0.0153082708160308
1402.16366038097,0.0163095383723388
1398.43450170975,0.0177819808007299
1394.70534303852,0.015941577989679
1390.9761843673,0.0156879299424662
1387.24702569607,0.0178110889483331
1383.51786702484,0.0208920004550943
1379.78870835362,0.0312014373847181
1376.05954968239,0.0499797384234356
1372.33039101116,0.0755182998784222
1368.60123233994,0.100815480518417
1364.87207366871,0.102400091960475
1361.14291499749,0.0748211316467968
1357.41375632626,0.0504322187529775
1353.68459765503,0.0385074978411743
1349.95543898381,0.0329835859885613
1346.22628031258,0.0317061871775713
1342.49712164135,0.0348810605063819
1338.76796297013,0.0383985618605855
1335.0388042989,0.0390019646526984
1331.30964562767,0.0377042807581807
1327.58048695645,0.0358607149705751
1323.85132828522,0.0351587123090387
1320.122169614,0.0364347502121722
1316.39301094277,0.0396846549314207
1312.66385227154,0.0442555812159486
1308.93469360032,0.0489650776406898
1305.20553492909,0.0533388159844306
1301.47637625786,0.0605532351416898
1297.74721758664,0.0773598040120792
1294.01805891541,0.113966815224927
1290.28890024419,0.185292178846094
1286.55974157296,0.293932726742838
1282.83058290173,0.35645587261213
1279.10142423051,0.304435507522888
1275.37226555928,0.242727523965813
1271.64310688805,0.201904592168732
1267.91394821683,0.15846764843496
1264.1847895456,0.139172191061769
1260.45563087438,0.147167689019611
1256.72647220315,0.166359178000071
1252.99731353192,0.189041000044715
1249.2681548607,0.208214063997258
1245.53899618947,0.217083104201642
1241.80983751824,0.213320112519914
1238.08067884702,0.201119075529932
1234.35152017579,0.185930820727699
1230.62236150457,0.171829668758345
1226.89320283334,0.160691135088937
1223.16404416211,0.15369823130305
1219.43488549089,0.150126856380694
1215.70572681966,0.150769223523053
1211.97656814843,0.157129941746631
1208.24740947721,0.165454454361198
1204.51825080598,0.168826312265087
1200.78909213475,0.172898858690607
1197.05993346353,0.184291740836848
1193.3307747923,0.204917453707406
1189.60161612108,0.238951068299118
1185.87245744985,0.280011934370219
1182.14329877862,0.301026885073725
1178.4141401074,0.289492796441869
1174.68498143617,0.258622475320962
1170.95582276494,0.220812983012597
1167.22666409372,0.186473107383634
1163.49750542249,0.166367066979804
1159.76834675127,0.164935000485316
1156.03918808004,0.180040610728881
1152.31002940881,0.209003507660507
1148.58087073759,0.26050465403011
1144.85171206636,0.321463239363557
1141.12255339513,0.332999696281215
1137.39339472391,0.286227198982768
1133.66423605268,0.231976615415305
1129.93507738146,0.188891590091516
1126.20591871023,0.154826852924773
1122.476760039,0.133626666670921
1118.74760136778,0.124140069688418
1115.01844269655,0.123452490623272
1111.28928402532,0.129700630758847
1107.5601253541,0.140078189250596
1103.83096668287,0.153242620362532
1100.10180801165,0.173555522735957
1096.37264934042,0.204458598360744
1092.64349066919,0.249350665174978
1088.91433199797,0.315668258295767
1085.18517332674,0.418327217452048
1081.45601465551,0.581725040945993
1077.72685598429,0.840296271662995
1073.99769731306,1.22307233335935
1070.26853864183,1.65475566655697
1066.53937997061,1.75029327976328
1062.81022129938,1.4600116060264
1059.08106262816,1.13004446461337
1055.35190395693,0.869447245306782
1051.6227452857,0.687192034112283
1047.89358661448,0.560252871180146
1044.16442794325,0.470721073205536
1040.43526927202,0.413851674345125
1036.7061106008,0.38938530864237
1032.97695192957,0.379631029129202
1029.24779325835,0.351247452562594
1025.51863458712,0.292602385998137
1021.78947591589,0.229207058991163
1018.06031724467,0.180682595538332
1014.33115857344,0.14829264003475
1010.60199990221,0.12664203403943
1006.87284123099,0.111593601613797
1003.14368255976,0.100564592860132
999.414523888535,0.0925866241939217
995.685365217309,0.0872201082235379
991.956206546083,0.0841929056319096
988.227047874856,0.0829203874633102
984.49788920363,0.0832176530068056
980.768730532404,0.0849088658684788
977.039571861178,0.0879438207758731
973.310413189951,0.0926963693844664
969.581254518725,0.0991926729998794
965.852095847499,0.107767834290644
962.122937176272,0.11917196181541
958.393778505046,0.133555875450127
954.66461983382,0.150097530104444
950.935461162594,0.168880246810719
947.206302491367,0.190435104161507
943.477143820141,0.216065311977049
939.747985148915,0.247340719916154
936.018826477688,0.288180603284661
932.289667806462,0.343427285330091
928.560509135236,0.418907034312686
924.83135046401,0.519329137572476
921.102191792783,0.648734430555341
917.373033121557,0.79880645314098
913.643874450331,0.936430093214503
909.914715779104,1.00782270998048
906.185557107878,0.9912691048275
902.456398436652,0.904463953021764
898.727239765426,0.784971256133248
894.998081094199,0.667482336619253
891.268922422973,0.572069069833664
887.539763751747,0.502756268452237
883.81060508052,0.453454138826336
880.081446409294,0.416562727583951
876.352287738068,0.384917197246828
872.623129066842,0.356831229184617
868.893970395615,0.331392184757383
865.164811724389,0.308234359390849
861.435653053163,0.286354038494032
857.706494381936,0.266961796768655
853.97733571071,0.252973989425285
850.248177039484,0.249612780753655
846.519018368258,0.249004685443181
842.789859697031,0.232015738948987
839.060701025805,0.205234079925503
835.331542354579,0.185396139094623
831.602383683352,0.170178025326254
827.873225012126,0.15615182468993
824.1440663409,0.141905335022028
820.414907669674,0.129102820336889
816.685748998447,0.117683290333067
812.956590327221,0.107645177495024
809.227431655995,0.0989723156261336
805.498272984768,0.0912659657379663
801.769114313542,0.0852483205002521
798.039955642316,0.0809710708747523
794.31079697109,0.0765867574817323
790.581638299863,0.0715452372078879
786.852479628637,0.0672445531474381
783.123320957411,0.066014197764945
779.394162286184,0.0725578044399522
775.665003614958,0.0881398409392022
771.935844943732,0.0884503796734163
768.206686272506,0.0652556598912662
764.477527601279,0.049471401820692
760.748368930053,0.0441955990269247
757.019210258827,0.0416767152582604
753.2900515876,0.0403192018694716
749.560892916374,0.0396847155805942
745.831734245148,0.038560710621583
742.102575573922,0.0374938603133341
738.373416902695,0.0403330712871719
734.644258231469,0.0440401068696279
730.915099560243,0.0417811030895804
727.185940889016,0.0392153759653175
723.45678221779,0.0397329775521803
719.727623546564,0.0415026118280772
715.998464875338,0.0443248090294983
712.269306204111,0.0501015784342542
708.540147532885,0.0689146037112995
704.810988861659,0.100749705492086
701.081830190432,0.113505382938887
697.352671519206,0.0932060118211873
693.62351284798,0.0828479718618014
689.894354176754,0.0928541805826741
686.165195505527,0.143396862700783
682.436036834301,0.218580852284552
678.706878163075,0.242887724429882
674.977719491848,0.246556629862769
671.248560820622,0.253820783463947
667.519402149396,0.24479526258054
663.790243478169,0.236511894260146
660.061084806943,0.235303138873723
656.331926135717,0.241780064663885
652.602767464491,0.229879021163412
648.873608793276,0.213970873651056
