Wavenumbercm-1,03:37:52
2998.24357166583,0.192448196097457
2994.5144129946,0.220677928747365
2990.78525432337,0.253635769524977
2987.05609565215,0.30800791671186
2983.32693698092,0.344531192024063
2979.59777830969,0.327709658701111
2975.86861963847,0.291302527099872
2972.13946096724,0.268758115731943
2968.41030229601,0.268563462479344
2964.68114362479,0.26900134584916
2960.95198495356,0.277914657417573
2957.22282628234,0.288422915979804
2953.49366761111,0.305871116523381
2949.76450893988,0.316223688656509
2946.03535026866,0.303634662916123
2942.30619159743,0.2899613227897
2938.5770329262,0.298100661341324
2934.84787425498,0.304161289579295
2931.11871558375,0.296801342683038
2927.38955691253,0.290154776033419
2923.6603982413,0.303853793453238
2919.93123957007,0.319633311829699
2916.20208089885,0.304856731512119
2912.47292222762,0.280555965706808
2908.74376355639,0.27323310306428
2905.01460488517,0.278844403243755
2901.28544621394,0.291058760071182
2897.55628754272,0.297889216409177
2893.82712887149,0.300352527375969
2890.09797020026,0.312017520225658
2886.36881152904,0.328258595384716
2882.63965285781,0.355930680742274
2878.91049418658,0.382829769562005
2875.18133551536,0.37429760814102
2871.45217684413,0.353730267809759
2867.72301817291,0.357274140374615
2863.99385950168,0.356517427205685
2860.26470083045,0.341753774618096
2856.53554215923,0.328811635953257
2852.806383488,0.32106088739572
2849.07722481677,0.307352867316997
2845.34806614555,0.304530653751366
2841.61890747432,0.291136607532672
2837.88974880309,0.256498795385104
2834.16059013187,0.221982546032036
2830.43143146064,0.195047263627247
2826.70227278942,0.17325903123857
2822.97311411819,0.153548355157067
2819.24395544696,0.138211372312075
2815.51479677574,0.126904907742796
2811.78563810451,0.11450346541939
2808.05647943328,0.101519739554828
2804.32732076206,0.0944237871403257
2800.59816209083,0.087880885280195
2796.86900341961,0.0812474335760755
2793.13984474838,0.0753433134108709
2789.41068607715,0.0680346325279165
2785.68152740593,0.0603689784750914
2781.9523687347,0.0566423882868595
2778.22321006347,0.0546335501094923
2774.49405139225,0.0511178773409805
2770.76489272102,0.0471983961895804
2767.0357340498,0.0439061536124902
2763.30657537857,0.0414352129749953
2759.57741670734,0.0408247445807953
2755.84825803612,0.0412824131748902
2752.11909936489,0.041723183205351
2748.38994069366,0.0415772687550984
2744.66078202244,0.0424358141554804
2740.93162335121,0.0452647789453048
2737.20246467999,0.0481329805312331
2733.47330600876,0.050841140051197
2729.74414733753,0.0524035489973471
2726.01498866631,0.051989503262284
2722.28582999508,0.0493398651532933
2718.55667132385,0.0458473851187214
2714.82751265263,0.0422405766327344
2711.0983539814,0.0390943598082706
2707.36919531017,0.0369470573000479
2703.64003663895,0.0370324246446638
2699.91087796772,0.0388050771248355
2696.1817192965,0.0422619058559162
2692.45256062527,0.0463527050601303
2688.72340195404,0.0491715855237362
2684.99424328282,0.0495588159406285
2681.26508461159,0.0473331381273555
2677.53592594036,0.0429131609226747
2673.80676726914,0.0391249532229874
2670.07760859791,0.0370169990611313
2666.34844992669,0.0360887961093934
2662.61929125546,0.0366764313109016
2658.89013258423,0.037457267232372
2655.16097391301,0.036208460438671
2651.43181524178,0.033073466667672
2647.70265657055,0.0300802729498467
2643.97349789933,0.0276861186118571
2640.2443392281,0.027239879968723
2636.51518055688,0.0275841346028656
2632.78602188565,0.0277007049344011
2629.05686321442,0.0277697151005133
2625.3277045432,0.0284830306644064
2621.59854587197,0.0303898154764635
2617.86938720074,0.0325401778960787
2614.14022852952,0.0335933572381721
2610.41106985829,0.035024741792935
2606.68191118707,0.0374008299938752
2602.95275251584,0.0394495661113325
2599.22359384461,0.0393874692941042
2595.49443517339,0.0395959967624975
2591.76527650216,0.042011048670075
2588.03611783093,0.0451605590583541
2584.30695915971,0.0495579685622088
2580.57780048848,0.0555891114821795
2576.84864181725,0.0639902768109286
2573.11948314603,0.0763768321891319
2569.3903244748,0.0906569226909403
2565.66116580358,0.0994634587293824
2561.93200713235,0.0997259924511554
2558.20284846112,0.0925790463774277
2554.4736897899,0.0835828381387418
2550.74453111867,0.0776935405870941
2547.01537244744,0.076017571027852
2543.28621377622,0.072240342696819
2539.55705510499,0.0626751431863465
2535.82789643377,0.0520027482345458
2532.09873776254,0.0466660164997203
2528.36957909131,0.0454717051921269
2524.64042042009,0.0441788012601567
2520.91126174886,0.0427050582671502
2517.18210307763,0.042401287245152
2513.45294440641,0.0437430139512145
2509.72378573518,0.0460922272630647
2505.99462706396,0.0482444923064892
2502.26546839273,0.0493530141009069
2498.5363097215,0.0504023532108021
2494.80715105028,0.0512566370642806
2491.07799237905,0.051581587796535
2487.34883370782,0.0512677665389972
2483.6196750366,0.0506087457549375
2479.89051636537,0.0489096398459289
2476.16135769415,0.0462980380513132
2472.43219902292,0.0434683309496419
2468.70304035169,0.0409608012760594
2464.97388168047,0.0379570458492553
2461.24472300924,0.0349434881878385
2457.51556433801,0.0325926405618365
2453.78640566679,0.0312205224310033
2450.05724699556,0.0303186401598319
2446.32808832433,0.0292736539163274
2442.59892965311,0.0282104404460817
2438.86977098188,0.0276634368264337
2435.14061231066,0.0269014065547563
2431.41145363943,0.0252920288903646
2427.6822949682,0.0241399476683568
2423.95313629698,0.0233999261485923
2420.22397762575,0.0228598115480782
2416.49481895452,0.0226510351101888
2412.7656602833,0.022343008678293
2409.03650161207,0.0209384223841763
2405.30734294085,0.0195323420454448
2401.57818426962,0.018455760182159
2397.84902559839,0.017798324140162
2394.11986692717,0.0173673046569124
2390.39070825594,0.0175640387797703
2386.66154958471,0.0198552637520761
2382.93239091349,0.0269406029799609
2379.20323224226,0.0405412494130285
2375.47407357104,0.0583582527800472
2371.74491489981,0.0750736683339275
2368.01575622858,0.0862496005604838
2364.28659755736,0.0887290031602679
2360.55743888613,0.0794278854837923
2356.8282802149,0.0584619503058882
2353.09912154368,0.0424852601846376
2349.36996287245,0.0466542680988569
2345.64080420122,0.059030521328691
2341.91164553,0.0629626806104421
2338.18248685877,0.0595655213090497
2334.45332818755,0.0527462660803955
2330.72416951632,0.0442842830346706
2326.99501084509,0.0358138468687657
2323.26585217387,0.028005520313998
2319.53669350264,0.0213784692556881
2315.80753483141,0.0163772786808538
2312.07837616019,0.0134176900132383
2308.34921748896,0.0111533196542161
2304.62005881774,0.00938251625752282
2300.89090014651,0.00859123028896455
2297.16174147528,0.0090112290687548
2293.43258280406,0.0117295282042634
2289.70342413283,0.0175617936845276
2285.9742654616,0.0252283426774731
2282.24510679038,0.0323587500236472
2278.51594811915,0.0365662932856235
2274.78678944793,0.0376151186266493
2271.0576307767,0.0376555029432732
2267.32847210547,0.0373171510945286
2263.59931343425,0.0365942180083227
2259.87015476302,0.0352995471151499
2256.14099609179,0.0338631619855181
2252.41183742057,0.0317202492272803
2248.68267874934,0.0304676175481316
2244.95352007812,0.0290768704346882
2241.22436140689,0.0287889264475737
2237.49520273566,0.0301709620452973
2233.76604406444,0.0317078521318883
2230.03688539321,0.0324982313296851
2226.30772672198,0.0344294428569851
2222.57856805076,0.0366214898847444
2218.84940937953,0.0399239311890868
2215.1202507083,0.0443370634136472
2211.39109203708,0.0483067827662532
2207.66193336585,0.0494786923346759
2203.93277469463,0.0497013145356576
2200.2036160234,0.0510315299640473
2196.47445735217,0.0535907167529693
2192.74529868095,0.0590590680607809
2189.01614000972,0.0678259419047823
2185.28698133849,0.0786907105922476
2181.55782266727,0.0860098169723714
2177.82866399604,0.0899481283683435
2174.09950532482,0.0932485449750862
2170.37034665359,0.103539467502868
2166.64118798236,0.125967963354027
2162.91202931114,0.155203611339413
2159.18287063991,0.159399132243802
2155.45371196868,0.143893900098531
2151.72455329746,0.127407542035026
2147.99539462623,0.116302017549803
2144.26623595501,0.106053690685342
2140.53707728378,0.0976277867331247
2136.80791861255,0.0863496721618668
2133.07875994133,0.0715045254847473
2129.3496012701,0.0570702441658947
2125.62044259887,0.0468250990579943
2121.89128392765,0.0405330660874341
2118.16212525642,0.036302112823045
2114.4329665852,0.0338305281477319
2110.70380791397,0.0324742064959061
2106.97464924274,0.03209095530628
2103.24549057152,0.0316836327857868
2099.51633190029,0.0315170209127279
2095.78717322906,0.0289169017887775
2092.05801455784,0.0244489524764434
2088.32885588661,0.0203378855139618
2084.59969721538,0.0182512242992468
2080.87053854416,0.0168270463613995
2077.14137987293,0.0166502089634685
2073.41222120171,0.0167587478477348
2069.68306253048,0.018472439799362
2065.95390385925,0.0203916721290938
2062.22474518803,0.0212217855925961
2058.4955865168,0.020784320280274
2054.76642784557,0.0226961221056216
2051.03726917435,0.0277912605611488
2047.30811050312,0.0328972045878196
2043.5789518319,0.0354944858714546
2039.84979316067,0.0388572283527295
2036.12063448944,0.0428933069659044
2032.39147581822,0.0443053138811431
2028.66231714699,0.0422898813503782
2024.93315847576,0.0391567472404676
2021.20399980454,0.0363917904635683
2017.47484113331,0.0330708063025273
2013.74568246209,0.0312577632590557
2010.01652379086,0.0293381806331284
2006.28736511963,0.0256891558236324
2002.55820644841,0.0210171799927179
1998.82904777718,0.0198039509426919
1995.09988910595,0.0208680491889581
1991.37073043473,0.0220795469005066
1987.6415717635,0.0221079781406325
1983.91241309228,0.0262967148088443
1980.18325442105,0.0329955998809418
1976.45409574982,0.0372543254756513
1972.7249370786,0.0358646486404784
1968.99577840737,0.0333630179468272
1965.26661973614,0.0293507396013099
1961.53746106492,0.0254482973791828
1957.80830239369,0.0204618415398898
1954.07914372246,0.0155912963581396
1950.34998505124,0.0125389797275757
1946.62082638001,0.0112503867652601
1942.89166770879,0.00842805683751859
1939.16250903756,0.00465579546684308
1935.43335036633,0.00200203419490374
1931.70419169511,0.000186156988047293
1927.97503302388,9.72727694045127E-05
1924.24587435265,0.000812263404393813
1920.51671568143,0.00056657154560989
1916.7875570102,-0.00158342095847756
1913.05839833898,-0.00290672371778441
1909.32923966775,-0.00386089064602567
1905.60008099652,-0.00482214315700721
1901.8709223253,-0.00516004095483338
1898.14176365407,-0.00453326132456992
1894.41260498284,-0.00359548725170235
1890.68344631162,-0.00383225113623094
1886.95428764039,-0.00584383796246458
1883.22512896917,-0.0068697593475867
1879.49597029794,-0.00705204880918689
1875.76681162671,-0.00477467341679647
1872.03765295549,-0.000964499104279071
1868.30849428426,-0.00201682916342406
1864.57933561303,-0.00539715291548381
1860.85017694181,-0.00625906770945988
1857.12101827058,-0.006449343878705
1853.39185959936,-0.00500184230565783
1849.66270092813,-0.000318337495613821
1845.9335422569,0.0018460552496146
1842.20438358568,-0.00205250888526251
1838.47522491445,-0.00392053017521323
1834.74606624322,-0.00051558517074213
1831.016907572,0.0030789510783883
1827.28774890077,0.00212391911164157
1823.55859022954,-0.000855631439326802
1819.82943155832,-0.00127469104344588
1816.10027288709,-5.60552275119763E-05
1812.37111421587,0.000709663450448356
1808.64195554464,0.00038984324528741
1804.91279687341,0.00222503145963048
1801.18363820219,0.00382406436975867
1797.45447953096,0.00571657299663435
1793.72532085973,0.00611876068865705
1789.99616218851,0.00233968287232704
1786.26700351728,0.000860461263661735
1782.53784484606,0.00170864037344348
1778.80868617483,0.00505742456454763
1775.0795275036,0.011163558545675
1771.35036883238,0.00938732731044042
1767.62121016115,0.00545178612786763
1763.89205148992,0.00763952184753954
1760.1628928187,0.0113592319943919
1756.43373414747,0.0161808418973176
1752.70457547625,0.0219644931581559
1748.97541680502,0.0224511045571894
1745.24625813379,0.0242141658235164
1741.51709946257,0.0365343985012005
1737.78794079134,0.0623567709923268
1734.05878212011,0.0900196724756881
1730.32962344889,0.0930472359375623
1726.60046477766,0.0792423295740667
1722.87130610643,0.0622986742656829
1719.14214743521,0.0456469692327471
1715.41298876398,0.0237578807405717
1711.68383009276,0.0124195299623184
1707.95467142153,0.0144417959023216
1704.2255127503,0.022739202474943
1700.49635407908,0.0235216255743409
1696.76719540785,0.0110409352399087
1693.03803673662,0.00374314820211562
1689.3088780654,0.00998307247760539
1685.57971939417,0.0143395210842642
1681.85056072295,0.00678036063158398
1678.12140205172,0.00531685108447106
1674.39224338049,0.00799162979033834
1670.66308470927,0.00487120050866362
1666.93392603804,-0.000227879344888205
1663.20476736681,-0.00215774086296142
1659.47560869559,0.00366729838337094
1655.74645002436,0.0177717686594875
1652.01729135314,0.0174346508458034
1648.28813268191,0.00760321978010449
1644.55897401068,0.000177980775769944
1640.82981533946,0.00311293117020124
1637.10065666823,0.00867059261372774
1633.371497997,0.00360874014355497
1629.64233932578,0.00684808275427815
1625.91318065455,0.0146901814051998
1622.18402198333,0.0178657620567751
1618.4548633121,0.0160789566218005
1614.72570464087,0.00919822059905039
1610.99654596965,0.00600700098446357
1607.26738729842,0.00582421132700896
1603.53822862719,0.00475212850706884
1599.80906995597,0.00388441039663703
1596.07991128474,0.00228433583382458
1592.35075261351,-0.0014698738444674
1588.62159394229,-0.00533286511423128
1584.89243527106,-0.00613979694919337
1581.16327659984,-0.00178579422763699
1577.43411792861,0.00250502976269575
1573.70495925738,0.00184690559010945
1569.97580058616,0.00137015798627966
1566.24664191493,0.00521687565834881
1562.5174832437,0.0213359566882164
1558.78832457248,0.0243379751440081
1555.05916590125,0.00895289193166875
1551.33000723003,0.00472764473393058
1547.6008485588,0.0136058213722979
1543.87168988757,0.0286331188421594
1540.14253121635,0.024856566162869
1536.41337254512,0.0145585853973003
1532.68421387389,0.0127798458723799
1528.95505520267,0.0178314086547975
1525.22589653144,0.0280238452708501
1521.49673786022,0.0306855997913843
1517.76757918899,0.0259783650116033
1514.03842051776,0.0280850182839536
1510.30926184654,0.040538552914954
1506.58010317531,0.0394525646624721
1502.85094450408,0.0332211900114551
1499.12178583286,0.0388226002767746
1495.39262716163,0.044575016457212
1491.66346849041,0.0512870331515757
1487.93430981918,0.0533058272678133
1484.20515114795,0.0556310482774284
1480.47599247673,0.0676277462644879
1476.7468338055,0.0861024435998038
1473.01767513427,0.103967625359574
1469.28851646305,0.127011445816771
1465.55935779182,0.163950617413762
1461.83019912059,0.189044484951889
1458.10104044937,0.180664382494981
1454.37188177814,0.155971996239971
1450.64272310692,0.141506644228658
1446.91356443569,0.11903472600288
1443.18440576446,0.0929628674401248
1439.45524709324,0.0761729408151203
1435.72608842201,0.0609465044416157
1431.99692975078,0.048217816855932
1428.26777107956,0.0411255401837692
1424.53861240833,0.0389601898671849
1420.80945373711,0.037283602704817
1417.08029506588,0.0272959898941244
1413.35113639465,0.0188734947811164
1409.62197772343,0.0162708224399624
1405.8928190522,0.0159660436377757
1402.16366038097,0.0171528225123213
1398.43450170975,0.0187533325992135
1394.70534303852,0.0167339441159309
1390.9761843673,0.0163278375733125
1387.24702569607,0.0183660298094493
1383.51786702484,0.0212683520938384
1379.78870835362,0.0316503957214991
1376.05954968239,0.0505427932892666
1372.33039101116,0.0759776277769781
1368.60123233994,0.101260320496386
1364.87207366871,0.103011111984653
1361.14291499749,0.0753192013213898
1357.41375632626,0.0507806245012485
1353.68459765503,0.0388337874945325
1349.95543898381,0.0333242097607189
1346.22628031258,0.0321209272198856
1342.49712164135,0.0354610279709047
1338.76796297013,0.0389714716058398
1335.0388042989,0.0393793786458947
1331.30964562767,0.0380277629831987
1327.58048695645,0.0361937683653659
1323.85132828522,0.0355259846487538
1320.122169614,0.0368342904528467
1316.39301094277,0.0400750805498856
1312.66385227154,0.0446145691037017
1308.93469360032,0.0492715611771098
1305.20553492909,0.0536037175230622
1301.47637625786,0.0608000990311392
1297.74721758664,0.0775405484490504
1294.01805891541,0.114030076377765
1290.28890024419,0.185068953611731
1286.55974157296,0.2930570306061
1282.83058290173,0.354911729012541
1279.10142423051,0.30304408586146
1275.37226555928,0.241784235209582
1271.64310688805,0.201328134648427
1267.91394821683,0.158150274032373
1264.1847895456,0.138959940065583
1260.45563087438,0.146944639139705
1256.72647220315,0.166087034341986
1252.99731353192,0.188755545942183
1249.2681548607,0.207981094148538
1245.53899618947,0.216913318494183
1241.80983751824,0.213193504055901
1238.08067884702,0.201041606718557
1234.35152017579,0.185888904707358
1230.62236150457,0.171812747960536
1226.89320283334,0.160715551796409
1223.16404416211,0.153753530618707
1219.43488549089,0.150198117643597
1215.70572681966,0.150869239492353
1211.97656814843,0.157211434557967
1208.24740947721,0.165488946758605
1204.51825080598,0.168879841288866
1200.78909213475,0.172983328697057
1197.05993346353,0.184343078474057
1193.3307747923,0.204895652962113
1189.60161612108,0.238781756469294
1185.87245744985,0.279638924212645
1182.14329877862,0.300499072723946
1178.4141401074,0.288955796904511
1174.68498143617,0.258177442203361
1170.95582276494,0.220505706861858
1167.22666409372,0.186269950367607
1163.49750542249,0.166166025774599
1159.76834675127,0.164645574317165
1156.03918808004,0.179613189800772
1152.31002940881,0.208399830288006
1148.58087073759,0.259638322268304
1144.85171206636,0.320254988263385
1141.12255339513,0.331604358060791
1137.39339472391,0.28499260639067
1133.66423605268,0.231057042189754
1129.93507738146,0.18831067420766
1126.20591871023,0.154530555967653
1122.476760039,0.133513682057656
1118.74760136778,0.124122728861241
1115.01844269655,0.12347902001745
1111.28928402532,0.129753556653476
1107.5601253541,0.14018201457138
1103.83096668287,0.153415276683928
1100.10180801165,0.17377013013255
1096.37264934042,0.204689175624556
1092.64349066919,0.249588072222597
1088.91433199797,0.315895311126269
1085.18517332674,0.418566446941005
1081.45601465551,0.582051599725909
1077.72685598429,0.840755069421326
1073.99769731306,1.2237983527907
1070.26853864183,1.65611759083481
1066.53937997061,1.75097315145503
1062.81022129938,1.45994683421721
1059.08106262816,1.12971556934381
1055.35190395693,0.869069666507038
1051.6227452857,0.686923052511961
1047.89358661448,0.560142611407054
1044.16442794325,0.470732264127601
1040.43526927202,0.41397705475748
1036.7061106008,0.389598560037472
1032.97695192957,0.37989854826093
1029.24779325835,0.351589018169538
1025.51863458712,0.292948570620621
1021.78947591589,0.229521315609947
1018.06031724467,0.180983890300071
1014.33115857344,0.148577492527509
1010.60199990221,0.126913853017596
1006.87284123099,0.111859296335036
1003.14368255976,0.100816976674219
999.414523888535,0.0928478577919623
995.685365217309,0.0874785083009559
991.956206546083,0.0844402922562757
988.227047874856,0.0831826884586975
984.49788920363,0.0834964507812025
980.768730532404,0.0851668169002062
977.039571861178,0.0881806515681153
973.310413189951,0.0929275573037889
969.581254518725,0.0994221407683877
965.852095847499,0.108015281737027
962.122937176272,0.119444165128192
958.393778505046,0.133851480177727
954.66461983382,0.150400813619234
950.935461162594,0.169211286832404
947.206302491367,0.190778397633583
943.477143820141,0.216376577453162
939.747985148915,0.247650370376066
936.018826477688,0.288538006583353
932.289667806462,0.34380883304386
928.560509135236,0.419322071678315
924.83135046401,0.519805147446199
921.102191792783,0.649191043980011
917.373033121557,0.799211845262245
913.643874450331,0.936977102149963
909.914715779104,1.00861975530318
906.185557107878,0.992195995471786
902.456398436652,0.905211237944288
898.727239765426,0.785463342043746
894.998081094199,0.667662183588369
891.268922422973,0.572025763145372
887.539763751747,0.502717900570084
883.81060508052,0.45350183232181
880.081446409294,0.4166970052149
876.352287738068,0.385064922051373
872.623129066842,0.356978281112007
868.893970395615,0.331571462491516
865.164811724389,0.308413976518484
861.435653053163,0.286527937516688
857.706494381936,0.267110885343899
853.97733571071,0.253071170068159
850.248177039484,0.249636410074701
846.519018368258,0.248935550527406
842.789859697031,0.231963274824683
839.060701025805,0.20529125008693
835.331542354579,0.185542777128569
831.602383683352,0.170354075464884
827.873225012126,0.156307388736389
824.1440663409,0.142012848342104
820.414907669674,0.129219951841291
816.685748998447,0.117816585030587
812.956590327221,0.107744403985717
809.227431655995,0.0990988447174082
805.498272984768,0.0914523952676065
801.769114313542,0.0853871493624536
798.039955642316,0.0811022501688745
794.31079697109,0.0767301231062262
790.581638299863,0.0716550904334629
786.852479628637,0.0673479048872907
783.123320957411,0.0660985059165352
779.394162286184,0.0725179410001915
775.665003614958,0.0880203897415724
771.935844943732,0.0884080110829632
768.206686272506,0.0653172657115157
764.477527601279,0.0495814639065932
760.748368930053,0.0442740940501363
757.019210258827,0.0417878444695806
753.2900515876,0.0404073985898977
749.560892916374,0.0398361896756978
745.831734245148,0.0388067186499087
742.102575573922,0.0377498707763745
738.373416902695,0.0405000834256437
734.644258231469,0.0440697721207234
730.915099560243,0.0419008926606331
727.185940889016,0.0394575333522243
723.45678221779,0.0399239048116484
719.727623546564,0.041689569959326
715.998464875338,0.0444920666572278
712.269306204111,0.0502502434767565
708.540147532885,0.0689853394355973
704.810988861659,0.100679719715084
701.081830190432,0.113438881366059
697.352671519206,0.0931948285763012
693.62351284798,0.082970642609857
689.894354176754,0.0928082484810144
686.165195505527,0.142931047469767
682.436036834301,0.21805141165765
678.706878163075,0.242877433148101
674.977719491848,0.246304996351485
671.248560820622,0.253304715466663
667.519402149396,0.244727853498976
663.790243478169,0.23671319483635
660.061084806943,0.234741113039637
656.331926135717,0.240054409898291
652.602767464491,0.228692465417202
648.873608793276,0.214591471806123
