Wavenumbercm-1,05:25:52
2998.24357166583,0.183407868124083
2994.5144129946,0.213044172673859
2990.78525432337,0.246699796749908
2987.05609565215,0.304765924723251
2983.32693698092,0.341936151345458
2979.59777830969,0.323437722222202
2975.86861963847,0.28714202977846
2972.13946096724,0.265926765182673
2968.41030229601,0.26471360799137
2964.68114362479,0.26455349523983
2960.95198495356,0.273864119468429
2957.22282628234,0.287919819163455
2953.49366761111,0.304284530777716
2949.76450893988,0.311556915099837
2946.03535026866,0.301170385868554
2942.30619159743,0.289305265875721
2938.5770329262,0.294865153990965
2934.84787425498,0.297832266739328
2931.11871558375,0.289334128930399
2927.38955691253,0.285028252038596
2923.6603982413,0.298179928489651
2919.93123957007,0.307091576983627
2916.20208089885,0.292183099910184
2912.47292222762,0.272229839179984
2908.74376355639,0.264463133514605
2905.01460488517,0.267862112430836
2901.28544621394,0.280909039250741
2897.55628754272,0.289311324825525
2893.82712887149,0.293275575549736
2890.09797020026,0.306019445521624
2886.36881152904,0.32257407372307
2882.63965285781,0.346490033366436
2878.91049418658,0.370257353891506
2875.18133551536,0.36195791450453
2871.45217684413,0.343954318246927
2867.72301817291,0.346845236996617
2863.99385950168,0.344222781840716
2860.26470083045,0.330098540854099
2856.53554215923,0.319625491522697
2852.806383488,0.31251168913907
2849.07722481677,0.300290245710064
2845.34806614555,0.297205752485904
2841.61890747432,0.281319752185539
2837.88974880309,0.246752337559809
2834.16059013187,0.213972627515614
2830.43143146064,0.189188375326517
2826.70227278942,0.169248451914543
2822.97311411819,0.150224461560938
2819.24395544696,0.133530445874207
2815.51479677574,0.121962988199949
2811.78563810451,0.111765946463912
2808.05647943328,0.102285317922919
2804.32732076206,0.0978856846424136
2800.59816209083,0.095402007677352
2796.86900341961,0.0903612077409476
2793.13984474838,0.0815256773066897
2789.41068607715,0.0712380216522608
2785.68152740593,0.0610251413640899
2781.9523687347,0.053741901985718
2778.22321006347,0.0484609188761378
2774.49405139225,0.0433150676691738
2770.76489272102,0.0392401447569828
2767.0357340498,0.0355799017523021
2763.30657537857,0.0318781572149715
2759.57741670734,0.0302200374765165
2755.84825803612,0.0299311412502647
2752.11909936489,0.0297834993707344
2748.38994069366,0.0291455791699396
2744.66078202244,0.0297937230590908
2740.93162335121,0.0334339754419109
2737.20246467999,0.0393629096198887
2733.47330600876,0.0444257010711625
2729.74414733753,0.045978749812292
2726.01498866631,0.0447311944480908
2722.28582999508,0.0410118064075998
2718.55667132385,0.0363104295208517
2714.82751265263,0.0320968028302059
2711.0983539814,0.0293190593170247
2707.36919531017,0.028437151547495
2703.64003663895,0.0288033210385723
2699.91087796772,0.0301173025867893
2696.1817192965,0.0337239191494371
2692.45256062527,0.038546167016972
2688.72340195404,0.0415323749356597
2684.99424328282,0.0413450550420358
2681.26508461159,0.0388579664337599
2677.53592594036,0.0348558375228243
2673.80676726914,0.0309417372329619
2670.07760859791,0.0280253186779992
2666.34844992669,0.0269279858015834
2662.61929125546,0.0276741750094953
2658.89013258423,0.0280155362263093
2655.16097391301,0.0262058094237899
2651.43181524178,0.0232675664781927
2647.70265657055,0.0202053429657177
2643.97349789933,0.0172555262465116
2640.2443392281,0.0165186495025401
2636.51518055688,0.0180750970739671
2632.78602188565,0.0210101639667076
2629.05686321442,0.0247513869950261
2625.3277045432,0.0279563909147862
2621.59854587197,0.0303839701758619
2617.86938720074,0.0331388555098342
2614.14022852952,0.0353690114684131
2610.41106985829,0.036612944062406
2606.68191118707,0.0381189225750129
2602.95275251584,0.0397862171030337
2599.22359384461,0.0398909720847077
2595.49443517339,0.0404644563265235
2591.76527650216,0.0429548436501244
2588.03611783093,0.0459123295251833
2584.30695915971,0.0491600407151448
2580.57780048848,0.0522503250075452
2576.84864181725,0.0557189265327007
2573.11948314603,0.0620794554967064
2569.3903244748,0.0693762795110478
2565.66116580358,0.0707780822326291
2561.93200713235,0.0655852489984386
2558.20284846112,0.0581372260056994
2554.4736897899,0.0518617133599429
2550.74453111867,0.0462158349956458
2547.01537244744,0.0410426974767413
2543.28621377622,0.0375366848232507
2539.55705510499,0.0351384243115908
2535.82789643377,0.0321971000683634
2532.09873776254,0.0303888274918223
2528.36957909131,0.0300987919512988
2524.64042042009,0.0293820938812829
2520.91126174886,0.0284943036781257
2517.18210307763,0.0280370395148494
2513.45294440641,0.0281242467650895
2509.72378573518,0.0289202512108351
2505.99462706396,0.0304086082209514
2502.26546839273,0.0322553631569536
2498.5363097215,0.0338185348860955
2494.80715105028,0.0349733092503703
2491.07799237905,0.0356113190301606
2487.34883370782,0.0354612716776187
2483.6196750366,0.0349839027235973
2479.89051636537,0.0335340044606216
2476.16135769415,0.0310847078870608
2472.43219902292,0.028450566806292
2468.70304035169,0.0261340663594634
2464.97388168047,0.023644755667607
2461.24472300924,0.0216053218138411
2457.51556433801,0.0203798638591316
2453.78640566679,0.0194834968286836
2450.05724699556,0.0187308634427148
2446.32808832433,0.0182798527092115
2442.59892965311,0.0184682356982799
2438.86977098188,0.0189872281154446
2435.14061231066,0.018437072372351
2431.41145363943,0.0173778088044072
2427.6822949682,0.0170712848731586
2423.95313629698,0.0165526579282834
2420.22397762575,0.0155248967580728
2416.49481895452,0.0150068633442295
2412.7656602833,0.0151642655401174
2409.03650161207,0.0146996732260207
2405.30734294085,0.0137919520372304
2401.57818426962,0.0128640124093182
2397.84902559839,0.0122559882230029
2394.11986692717,0.0122231506574546
2390.39070825594,0.0134003438384504
2386.66154958471,0.0169265387986075
2382.93239091349,0.0247448318922477
2379.20323224226,0.0382262082379403
2375.47407357104,0.0545893645858093
2371.74491489981,0.0685253923066388
2368.01575622858,0.077727136095902
2364.28659755736,0.0806189268795719
2360.55743888613,0.0736734296513119
2356.8282802149,0.0562179845255637
2353.09912154368,0.0444637638807681
2349.36996287245,0.055440719519583
2345.64080420122,0.0834453098698245
2341.91164553,0.103588067151753
2338.18248685877,0.0936142583028614
2334.45332818755,0.067895563068703
2330.72416951632,0.0506170904943876
2326.99501084509,0.0404634409008504
2323.26585217387,0.0311053037773645
2319.53669350264,0.0223513555490432
2315.80753483141,0.0152803766228214
2312.07837616019,0.0106078006219939
2308.34921748896,0.00751906931923652
2304.62005881774,0.00540310681092267
2300.89090014651,0.00428463537304024
2297.16174147528,0.00449584808333496
2293.43258280406,0.00647974240645656
2289.70342413283,0.00995192779186429
2285.9742654616,0.0140385713381853
2282.24510679038,0.0183857692249888
2278.51594811915,0.0209750350707644
2274.78678944793,0.0215720734235609
2271.0576307767,0.0213855805032111
2267.32847210547,0.0200334004513063
2263.59931343425,0.0183880196660828
2259.87015476302,0.0181895984200349
2256.14099609179,0.0189786483902363
2252.41183742057,0.0196212557713607
2248.68267874934,0.020627746691855
2244.95352007812,0.0210081994848251
2241.22436140689,0.02210336036388
2237.49520273566,0.0245969799029451
2233.76604406444,0.0272965128069447
2230.03688539321,0.0298197352809458
2226.30772672198,0.0324521509391199
2222.57856805076,0.0342173517716516
2218.84940937953,0.0364900081796219
2215.1202507083,0.0398622917562232
2211.39109203708,0.0432939043224561
2207.66193336585,0.0452870041793815
2203.93277469463,0.047081240578589
2200.2036160234,0.0496922649074177
2196.47445735217,0.0532037878355795
2192.74529868095,0.058465795377489
2189.01614000972,0.0666926279918262
2185.28698133849,0.076577535764202
2181.55782266727,0.0830490545868829
2177.82866399604,0.0870728959589284
2174.09950532482,0.0915611423479808
2170.37034665359,0.102558986003081
2166.64118798236,0.125016403483019
2162.91202931114,0.151939343530717
2159.18287063991,0.155308948541216
2155.45371196868,0.141484079601654
2151.72455329746,0.127256881854564
2147.99539462623,0.116566216617811
2144.26623595501,0.105451048017272
2140.53707728378,0.0957240110323629
2136.80791861255,0.0842771546234598
2133.07875994133,0.070151942091847
2129.3496012701,0.0559620096526129
2125.62044259887,0.0454337043715578
2121.89128392765,0.0389182117662789
2118.16212525642,0.0347592519794434
2114.4329665852,0.0326047305473975
2110.70380791397,0.0315948457951448
2106.97464924274,0.031101786078744
2103.24549057152,0.0307996334976027
2099.51633190029,0.0303618123584624
2095.78717322906,0.0272949755888181
2092.05801455784,0.0225015066098691
2088.32885588661,0.0183422302827045
2084.59969721538,0.0159158758432929
2080.87053854416,0.0145162066717161
2077.14137987293,0.0144048171309938
2073.41222120171,0.0147547847732404
2069.68306253048,0.015988148510819
2065.95390385925,0.0172985464674392
2062.22474518803,0.0179011839130007
2058.4955865168,0.018075120568193
2054.76642784557,0.0210914989018469
2051.03726917435,0.0278162635462791
2047.30811050312,0.0344512401591859
2043.5789518319,0.0373087667510516
2039.84979316067,0.0404529364235768
2036.12063448944,0.0443455774092284
2032.39147581822,0.0447236961805583
2028.66231714699,0.0412820047797984
2024.93315847576,0.0377899726232803
2021.20399980454,0.0349304309460382
2017.47484113331,0.0317108524006331
2013.74568246209,0.0295221419381603
2010.01652379086,0.0277322462678974
2006.28736511963,0.0245472303697865
2002.55820644841,0.0201279856503972
1998.82904777718,0.0181825298665684
1995.09988910595,0.0190775778859055
1991.37073043473,0.0200670285813308
1987.6415717635,0.0199986187485724
1983.91241309228,0.0240724751097928
1980.18325442105,0.030637777211559
1976.45409574982,0.0341836725706092
1972.7249370786,0.0333447346031733
1968.99577840737,0.0315355513464189
1965.26661973614,0.0275944398473853
1961.53746106492,0.0231924650781797
1957.80830239369,0.018135168755506
1954.07914372246,0.0138738438344619
1950.34998505124,0.0108169782617991
1946.62082638001,0.00867663167083017
1942.89166770879,0.00565914367596753
1939.16250903756,0.00245385091069298
1935.43335036633,-3.7809676739033E-05
1931.70419169511,-0.00178429565197199
1927.97503302388,-0.00221394048969737
1924.24587435265,-0.00186985784078776
1920.51671568143,-0.00248719010978895
1916.7875570102,-0.00462248322413251
1913.05839833898,-0.00594487891846286
1909.32923966775,-0.00674753617593981
1905.60008099652,-0.0078069143758787
1901.8709223253,-0.00809078810182164
1898.14176365407,-0.00730117076498803
1894.41260498284,-0.00637004640507606
1890.68344631162,-0.00681991489553508
1886.95428764039,-0.00890114650667612
1883.22512896917,-0.0100798279592292
1879.49597029794,-0.0102343151967229
1875.76681162671,-0.0083063814939483
1872.03765295549,-0.00496540033074329
1868.30849428426,-0.00556220814151452
1864.57933561303,-0.00828494958544907
1860.85017694181,-0.00887034828644086
1857.12101827058,-0.00892657948663542
1853.39185959936,-0.00759394612846981
1849.66270092813,-0.00356639276532851
1845.9335422569,-0.00138175790118298
1842.20438358568,-0.00447898241179803
1838.47522491445,-0.00598542257868249
1834.74606624322,-0.00298175546593654
1831.016907572,0.000327342181992708
1827.28774890077,-0.000482579518680821
1823.55859022954,-0.00317197889510995
1819.82943155832,-0.0036310319896685
1816.10027288709,-0.0024110622710354
1812.37111421587,-0.00167894039871195
1808.64195554464,-0.00199570737609708
1804.91279687341,-0.000437021237017364
1801.18363820219,0.00100244318565666
1797.45447953096,0.00266928902559548
1793.72532085973,0.00320842269979591
1789.99616218851,0.0003181599264443
1786.26700351728,-0.000495695271369986
1782.53784484606,0.000740828798486699
1778.80868617483,0.00428653407443812
1775.0795275036,0.0115020380151733
1771.35036883238,0.0145198520062472
1767.62121016115,0.0184550605317714
1763.89205148992,0.0281018063234081
1760.1628928187,0.0335891040862503
1756.43373414747,0.0318653134844898
1752.70457547625,0.0268651225753833
1748.97541680502,0.018707679619289
1745.24625813379,0.0151703560773424
1741.51709946257,0.0210542375376419
1737.78794079134,0.0334205281259537
1734.05878212011,0.039448482541844
1730.32962344889,0.0327874575392759
1726.60046477766,0.0302371059834168
1722.87130610643,0.0364672611581077
1719.14214743521,0.0385288994335509
1715.41298876398,0.0230885124143809
1711.68383009276,0.0111382090393477
1707.95467142153,0.0108763713808852
1704.2255127503,0.0172993763064015
1700.49635407908,0.018041724831713
1696.76719540785,0.00728400403436517
1693.03803673662,0.000784881203235543
1689.3088780654,0.00613446615240883
1685.57971939417,0.0101496840080763
1681.85056072295,0.00401028522618054
1678.12140205172,0.00316056100431639
1674.39224338049,0.00597113492696711
1670.66308470927,0.00361726425487741
1666.93392603804,-0.000497236753771616
1663.20476736681,-0.00208271853502391
1659.47560869559,0.00291443090046553
1655.74645002436,0.0148315564045442
1652.01729135314,0.0142799340434105
1648.28813268191,0.00567521246283001
1644.55897401068,-0.000636537020596069
1640.82981533946,0.00197771666453134
1637.10065666823,0.00689070250148246
1633.371497997,0.00157900223835575
1629.64233932578,0.00153832732728852
1625.91318065455,0.00529113366296111
1622.18402198333,0.00766571493762095
1618.4548633121,0.0076925988652379
1614.72570464087,0.002635098310658
1610.99654596965,-0.00048485691294999
1607.26738729842,-0.000907682875254703
1603.53822862719,-0.00150631791092034
1599.80906995597,-0.00173651167941467
1596.07991128474,-0.00226380317178997
1592.35075261351,-0.0041400228920086
1588.62159394229,-0.00610286487398978
1584.89243527106,-0.00612780334604322
1581.16327659984,-0.00202070472375296
1577.43411792861,0.00191588522210823
1573.70495925738,0.00160909170920195
1569.97580058616,0.00128361400113625
1566.24664191493,0.00473993254961303
1562.5174832437,0.0187548943734561
1558.78832457248,0.0215730544047179
1555.05916590125,0.00833153044918055
1551.33000723003,0.0047330981452414
1547.6008485588,0.0124488962940017
1543.87168988757,0.0259444375038542
1540.14253121635,0.024590920522173
1536.41337254512,0.0190983883015298
1532.68421387389,0.0207749368238894
1528.95505520267,0.0248656929922632
1525.22589653144,0.0311128429301959
1521.49673786022,0.0318504770707605
1517.76757918899,0.0275486511399698
1514.03842051776,0.0296657987324382
1510.30926184654,0.0412650791052456
1506.58010317531,0.0416055772815122
1502.85094450408,0.0373820741163
1499.12178583286,0.0437285370765177
1495.39262716163,0.0508118408678049
1491.66346849041,0.0589642099029526
1487.93430981918,0.0633267207514887
1484.20515114795,0.0675694541411316
1480.47599247673,0.0808556408934406
1476.7468338055,0.100740033992417
1473.01767513427,0.119796316559513
1469.28851646305,0.141777708990892
1465.55935779182,0.175020261682322
1461.83019912059,0.19570628083155
1458.10104044937,0.184487824645341
1454.37188177814,0.160081632926153
1450.64272310692,0.146232366257672
1446.91356443569,0.123879733696231
1443.18440576446,0.0965571651291372
1439.45524709324,0.0770905593195562
1435.72608842201,0.0601476222653714
1431.99692975078,0.0469305342201113
1428.26777107956,0.0396355453540273
1424.53861240833,0.0376809881288412
1420.80945373711,0.0370040431551481
1417.08029506588,0.0303349565066066
1413.35113639465,0.0272179853438419
1409.62197772343,0.0343708069883417
1405.8928190522,0.0536332106934872
1402.16366038097,0.0828513682075177
1398.43450170975,0.0973924369553269
1394.70534303852,0.0758266607195183
1390.9761843673,0.0473875327452083
1387.24702569607,0.0307071681620955
1383.51786702484,0.023283630466482
1379.78870835362,0.0251664602014724
1376.05954968239,0.0376989500160512
1372.33039101116,0.0678561549414745
1368.60123233994,0.109832576804376
1364.87207366871,0.118142723704755
1361.14291499749,0.0792098496117981
1357.41375632626,0.0459365128093267
1353.68459765503,0.0318311769316731
1349.95543898381,0.0268767866732809
1346.22628031258,0.0265276175280761
1342.49712164135,0.0308886497139162
1338.76796297013,0.0361154255154248
1335.0388042989,0.0385994653713635
1331.30964562767,0.0384574441171509
1327.58048695645,0.036905229963875
1323.85132828522,0.0385641150359414
1320.122169614,0.0488421884143781
1316.39301094277,0.0697155504046622
1312.66385227154,0.0914176959965736
1308.93469360032,0.10445177365537
1305.20553492909,0.110251223445527
1301.47637625786,0.117888044849619
1297.74721758664,0.134528122081274
1294.01805891541,0.160330208844102
1290.28890024419,0.193469282964158
1286.55974157296,0.229728317420695
1282.83058290173,0.224048701443125
1279.10142423051,0.165926923038674
1275.37226555928,0.118481316565426
1271.64310688805,0.101073194208407
1267.91394821683,0.0969778383305563
1264.1847895456,0.0972470210014321
1260.45563087438,0.101656239009323
1256.72647220315,0.11207002787613
1252.99731353192,0.129434247092567
1249.2681548607,0.150203203543798
1245.53899618947,0.163275149015203
1241.80983751824,0.159975767700299
1238.08067884702,0.145107387277006
1234.35152017579,0.130662736285003
1230.62236150457,0.121910109670302
1226.89320283334,0.118902642808148
1223.16404416211,0.11987765408514
1219.43488549089,0.122801163387802
1215.70572681966,0.1270090267851
1211.97656814843,0.131875806664854
1208.24740947721,0.136403365386275
1204.51825080598,0.140965367238521
1200.78909213475,0.148943431349611
1197.05993346353,0.162347212528538
1193.3307747923,0.177977834653907
1189.60161612108,0.190793645349908
1185.87245744985,0.204504004811974
1182.14329877862,0.227845589423047
1178.4141401074,0.247304683526563
1174.68498143617,0.232490449552074
1170.95582276494,0.193367490927066
1167.22666409372,0.158700444607222
1163.49750542249,0.137420519197852
1159.76834675127,0.1291877003379
1156.03918808004,0.133148708033011
1152.31002940881,0.148207564690602
1148.58087073759,0.172889179391465
1144.85171206636,0.190508162056783
1141.12255339513,0.179402924310139
1137.39339472391,0.150378644068292
1133.66423605268,0.125190226659287
1129.93507738146,0.110253201923172
1126.20591871023,0.103426359167434
1122.476760039,0.102583258263477
1118.74760136778,0.106921406511266
1115.01844269655,0.11522783430891
1111.28928402532,0.12462808353854
1107.5601253541,0.135981783143544
1103.83096668287,0.153415491207188
1100.10180801165,0.179051361861255
1096.37264934042,0.21209609568208
1092.64349066919,0.254115907526744
1088.91433199797,0.315819679519929
1085.18517332674,0.41564028404388
1081.45601465551,0.577091601305057
1077.72685598429,0.833053103143702
1073.99769731306,1.21212922338157
1070.26853864183,1.64597809352953
1066.53937997061,1.76505846020102
1062.81022129938,1.4977226743198
1059.08106262816,1.162625960206
1055.35190395693,0.883062346740268
1051.6227452857,0.679277037418856
1047.89358661448,0.539249200709771
1044.16442794325,0.448416902266681
1040.43526927202,0.39754415469229
1036.7061106008,0.381205467747508
1032.97695192957,0.383651266720996
1029.24779325835,0.373179759766159
1025.51863458712,0.326587486966607
1021.78947591589,0.258707876055967
1018.06031724467,0.198488766754014
1014.33115857344,0.157677153417306
1010.60199990221,0.132033858885065
1006.87284123099,0.115810973897643
1003.14368255976,0.105501389417501
999.414523888535,0.0977852486771879
995.685365217309,0.0902451696124534
991.956206546083,0.0849090097120118
988.227047874856,0.0824632973861597
984.49788920363,0.0820533393820576
980.768730532404,0.0831226955292043
977.039571861178,0.0856111437836851
973.310413189951,0.0897770668236414
969.581254518725,0.0957373280383136
965.852095847499,0.103883209161162
962.122937176272,0.115070017087954
958.393778505046,0.129657429128913
954.66461983382,0.147809404102393
950.935461162594,0.170001480140379
947.206302491367,0.192923041016566
943.477143820141,0.215541924687671
939.747985148915,0.243873751528323
936.018826477688,0.283563405544911
932.289667806462,0.33803451045223
928.560509135236,0.412432534756356
924.83135046401,0.512139569744829
921.102191792783,0.642171315127134
917.373033121557,0.79333220629144
913.643874450331,0.930659870112698
909.914715779104,1.0033913827863
906.185557107878,0.993797368530253
902.456398436652,0.912821061474902
898.727239765426,0.795220194019783
894.998081094199,0.674672806330673
891.268922422973,0.568191325285795
887.539763751747,0.484402790635003
883.81060508052,0.425559793836442
880.081446409294,0.386258942280859
876.352287738068,0.362838476972829
872.623129066842,0.355017190918578
868.893970395615,0.347766966074245
865.164811724389,0.32048903463198
861.435653053163,0.286564902066226
857.706494381936,0.263545456548262
853.97733571071,0.249711787347225
850.248177039484,0.240778543132404
846.519018368258,0.228281163193095
842.789859697031,0.213226276101895
839.060701025805,0.200436228001581
835.331542354579,0.189581128525601
831.602383683352,0.177968204942657
827.873225012126,0.165297906837545
824.1440663409,0.152545703152421
820.414907669674,0.14176912939452
816.685748998447,0.130788851064246
812.956590327221,0.118885822268316
809.227431655995,0.107191247076947
805.498272984768,0.0976756465729493
801.769114313542,0.0907185661495272
798.039955642316,0.0863681335210269
794.31079697109,0.0819287130228004
790.581638299863,0.0781631785767624
786.852479628637,0.0808600991547645
783.123320957411,0.100161153363646
779.394162286184,0.109672003665177
775.665003614958,0.0881569536656678
771.935844943732,0.0736713250840097
768.206686272506,0.072500980929676
764.477527601279,0.0773174309708688
760.748368930053,0.0895355561386548
757.019210258827,0.103356446534841
753.2900515876,0.109541106062588
749.560892916374,0.106890792985328
745.831734245148,0.0974304539757731
742.102575573922,0.0852104762663212
738.373416902695,0.0753452991260736
734.644258231469,0.0683985286489281
730.915099560243,0.0630398412992107
727.185940889016,0.0572778533847558
723.45678221779,0.0539398007974418
719.727623546564,0.0556985927458307
715.998464875338,0.069684905225925
712.269306204111,0.0868438816276992
708.540147532885,0.0847580719045247
704.810988861659,0.0818768972590044
701.081830190432,0.0842396504963265
697.352671519206,0.0799487669268267
693.62351284798,0.0813080578261861
689.894354176754,0.0904343363465047
686.165195505527,0.120269331405625
682.436036834301,0.155413186081862
678.706878163075,0.154016315043882
674.977719491848,0.150048932599908
671.248560820622,0.182805357902258
667.519402149396,0.221624418468352
663.790243478169,0.24493237461765
660.061084806943,0.254054191996677
656.331926135717,0.262323412363455
652.602767464491,0.265420570723568
648.873608793276,0.26585105167813
