Wavenumbercm-1,04:37:52
2998.24357166583,0.188161015424722
2994.5144129946,0.217958932581675
2990.78525432337,0.249533150428155
2987.05609565215,0.301508866682617
2983.32693698092,0.335797506600476
2979.59777830969,0.321651777492765
2975.86861963847,0.288794576699584
2972.13946096724,0.264912026974582
2968.41030229601,0.262143404730336
2964.68114362479,0.265633298370236
2960.95198495356,0.279034027913475
2957.22282628234,0.29123483702936
2953.49366761111,0.307118516493112
2949.76450893988,0.313388399111863
2946.03535026866,0.298851128452965
2942.30619159743,0.284032988694241
2938.5770329262,0.291734236760722
2934.84787425498,0.299659360287409
2931.11871558375,0.292875695361001
2927.38955691253,0.286648381984018
2923.6603982413,0.29864092899648
2919.93123957007,0.309805419495269
2916.20208089885,0.297651458367532
2912.47292222762,0.277730790847989
2908.74376355639,0.268965950300593
2905.01460488517,0.2729580383454
2901.28544621394,0.287275543558206
2897.55628754272,0.298325833761685
2893.82712887149,0.301822334727754
2890.09797020026,0.311653090031611
2886.36881152904,0.327902167772366
2882.63965285781,0.354776933834834
2878.91049418658,0.376495319660273
2875.18133551536,0.365271855824991
2871.45217684413,0.347956167944291
2867.72301817291,0.354347772053109
2863.99385950168,0.354953337355735
2860.26470083045,0.339093147269836
2856.53554215923,0.323764865130153
2852.806383488,0.316240687273749
2849.07722481677,0.304824794155708
2845.34806614555,0.303047368801017
2841.61890747432,0.28840151165715
2837.88974880309,0.252092807312639
2834.16059013187,0.217493687649861
2830.43143146064,0.192006754539611
2826.70227278942,0.171666659392054
2822.97311411819,0.152473189733511
2819.24395544696,0.137101656161758
2815.51479677574,0.125240289259708
2811.78563810451,0.112327304707385
2808.05647943328,0.0994578473041919
2804.32732076206,0.0927985760616173
2800.59816209083,0.0865403403774424
2796.86900341961,0.0800440533676764
2793.13984474838,0.0744504584394936
2789.41068607715,0.0675850166755195
2785.68152740593,0.059965279090752
2781.9523687347,0.0557776796327513
2778.22321006347,0.0534043357917583
2774.49405139225,0.0500281453039165
2770.76489272102,0.0461786196140597
2767.0357340498,0.0421470036063441
2763.30657537857,0.0399416974425433
2759.57741670734,0.0405152152579956
2755.84825803612,0.0408458899726205
2752.11909936489,0.0400400292529434
2748.38994069366,0.0392057210335308
2744.66078202244,0.0402929659831239
2740.93162335121,0.0438281249422444
2737.20246467999,0.047525703856247
2733.47330600876,0.0498540209087284
2729.74414733753,0.0507263786110039
2726.01498866631,0.0507316244248253
2722.28582999508,0.0485132885636628
2718.55667132385,0.0448580940872514
2714.82751265263,0.040682784435647
2711.0983539814,0.0371796949213097
2707.36919531017,0.0353770549108203
2703.64003663895,0.0359543394622019
2699.91087796772,0.0378169100092003
2696.1817192965,0.0410125984675843
2692.45256062527,0.0451558420860599
2688.72340195404,0.0479546563656816
2684.99424328282,0.0475931361960562
2681.26508461159,0.0448527618100949
2677.53592594036,0.0409713984656444
2673.80676726914,0.0377410437040162
2670.07760859791,0.035719902885951
2666.34844992669,0.0351826782036237
2662.61929125546,0.0359634993410134
2658.89013258423,0.0362583799418825
2655.16097391301,0.0347061399260167
2651.43181524178,0.0315032542236477
2647.70265657055,0.0284034481934429
2643.97349789933,0.0259322023147704
2640.2443392281,0.0255258853779835
2636.51518055688,0.0260585428255031
2632.78602188565,0.0262931883774156
2629.05686321442,0.0265822903677422
2625.3277045432,0.0271576794571832
2621.59854587197,0.0285985357545442
2617.86938720074,0.0312155851135048
2614.14022852952,0.0328606161538602
2610.41106985829,0.0338433887057584
2606.68191118707,0.0354820230670544
2602.95275251584,0.0372196797993765
2599.22359384461,0.0379351238841415
2595.49443517339,0.0391471314788693
2591.76527650216,0.0418296806948351
2588.03611783093,0.0446210110878011
2584.30695915971,0.0483713765997182
2580.57780048848,0.0540903443791576
2576.84864181725,0.0625580558442484
2573.11948314603,0.0752556485791004
2569.3903244748,0.0898188629259597
2565.66116580358,0.0983195374469224
2561.93200713235,0.0980949193260942
2558.20284846112,0.0912227006973441
2554.4736897899,0.0830243377496729
2550.74453111867,0.0777511737428474
2547.01537244744,0.0755613329942697
2543.28621377622,0.0711947012661865
2539.55705510499,0.0622496130075516
2535.82789643377,0.0519735129646297
2532.09873776254,0.0456755094066406
2528.36957909131,0.0434067295092389
2524.64042042009,0.0423287249652781
2520.91126174886,0.04159022511824
2517.18210307763,0.0415685942379956
2513.45294440641,0.042909124479911
2509.72378573518,0.0450719053450583
2505.99462706396,0.0466499426431234
2502.26546839273,0.0477102472299245
2498.5363097215,0.0493001962337619
2494.80715105028,0.0503284697401433
2491.07799237905,0.05061387795384
2487.34883370782,0.0498798829617524
2483.6196750366,0.0487234204189423
2479.89051636537,0.0472120981240395
2476.16135769415,0.0451276395794459
2472.43219902292,0.0428276674497687
2468.70304035169,0.0403831278394166
2464.97388168047,0.036834373121739
2461.24472300924,0.033811187391002
2457.51556433801,0.0318468417721854
2453.78640566679,0.0305011125962546
2450.05724699556,0.0295947199591269
2446.32808832433,0.0286654831144403
2442.59892965311,0.0280340105843958
2438.86977098188,0.0274039425622194
2435.14061231066,0.025981883285983
2431.41145363943,0.0243394424934518
2427.6822949682,0.0232627402016112
2423.95313629698,0.0221901947095178
2420.22397762575,0.0213603494326646
2416.49481895452,0.021219757334162
2412.7656602833,0.0215976201504042
2409.03650161207,0.020809690369144
2405.30734294085,0.0190600287674364
2401.57818426962,0.017523636699356
2397.84902559839,0.0168157429531203
2394.11986692717,0.016401816445625
2390.39070825594,0.016735305597045
2386.66154958471,0.018988568392909
2382.93239091349,0.02587283146657
2379.20323224226,0.0392429121402189
2375.47407357104,0.0566041249370127
2371.74491489981,0.0728814632494782
2368.01575622858,0.083868795174721
2364.28659755736,0.0866218646280699
2360.55743888613,0.0778371302684453
2356.8282802149,0.0572840277883114
2353.09912154368,0.0414667171391063
2349.36996287245,0.0454678770860856
2345.64080420122,0.0574055503845547
2341.91164553,0.0609467901928449
2338.18248685877,0.0578251300979922
2334.45332818755,0.0515166855381091
2330.72416951632,0.0429825343101725
2326.99501084509,0.0345199926022894
2323.26585217387,0.0272216117048849
2319.53669350264,0.0208033947605697
2315.80753483141,0.0154657819169933
2312.07837616019,0.0120753461435937
2308.34921748896,0.00999684881755411
2304.62005881774,0.00863052178813628
2300.89090014651,0.00782654770604925
2297.16174147528,0.00822191343452065
2293.43258280406,0.0110051975265475
2289.70342413283,0.0166929718667338
2285.9742654616,0.0241983016056742
2282.24510679038,0.0315613989107965
2278.51594811915,0.0361809664824675
2274.78678944793,0.0373710272436003
2271.0576307767,0.0373249811694884
2267.32847210547,0.0367802769011272
2263.59931343425,0.0359185520003033
2259.87015476302,0.0343974806034636
2256.14099609179,0.0326144475165594
2252.41183742057,0.0306876434189577
2248.68267874934,0.0299117708999091
2244.95352007812,0.0289450625726006
2241.22436140689,0.0287235741423928
2237.49520273566,0.0296744387981902
2233.76604406444,0.0312908907927298
2230.03688539321,0.0320371990459356
2226.30772672198,0.0334835629984124
2222.57856805076,0.0361654203096343
2218.84940937953,0.039798718241813
2215.1202507083,0.0433121456988323
2211.39109203708,0.0460514245626308
2207.66193336585,0.0473023927582146
2203.93277469463,0.0490385920451421
2200.2036160234,0.0514131819844907
2196.47445735217,0.053588678740253
2192.74529868095,0.0587463585223173
2189.01614000972,0.0674792116518867
2185.28698133849,0.0776142231189421
2181.55782266727,0.0845537415557756
2177.82866399604,0.0887094494593559
2174.09950532482,0.0920024067529676
2170.37034665359,0.102113248150291
2166.64118798236,0.12447017063458
2162.91202931114,0.153200698090654
2159.18287063991,0.157347993038316
2155.45371196868,0.143033919758976
2151.72455329746,0.127535318008063
2147.99539462623,0.116212264799514
2144.26623595501,0.105454842258739
2140.53707728378,0.0961851278450267
2136.80791861255,0.0847972210163375
2133.07875994133,0.0710832813454905
2129.3496012701,0.0572492801807106
2125.62044259887,0.0463938112602518
2121.89128392765,0.0394314227358818
2118.16212525642,0.0350725713686768
2114.4329665852,0.0328434894805945
2110.70380791397,0.0318343849027658
2106.97464924274,0.0314199262709673
2103.24549057152,0.0308953576185768
2099.51633190029,0.0306542828729341
2095.78717322906,0.0282056463846468
2092.05801455784,0.0242030698747125
2088.32885588661,0.0201436824971743
2084.59969721538,0.0178868018831434
2080.87053854416,0.0167430935283524
2077.14137987293,0.0165601923824701
2073.41222120171,0.0161891538295488
2069.68306253048,0.0175703149772161
2065.95390385925,0.019498192585799
2062.22474518803,0.0204970841414594
2058.4955865168,0.019988432384135
2054.76642784557,0.0220745085116265
2051.03726917435,0.0277397639682285
2047.30811050312,0.0329836004378603
2043.5789518319,0.0352583851713573
2039.84979316067,0.0382294881679933
2036.12063448944,0.0424591516253885
2032.39147581822,0.0437727449070154
2028.66231714699,0.0414741608577954
2024.93315847576,0.0379323345673062
2021.20399980454,0.0347374056423415
2017.47484113331,0.031706696120727
2013.74568246209,0.0304611589950359
2010.01652379086,0.0288059761088559
2006.28736511963,0.0252458078873951
2002.55820644841,0.0208418337838745
1998.82904777718,0.0195546876662136
1995.09988910595,0.0204217519472053
1991.37073043473,0.0216153080281713
1987.6415717635,0.0214434719834969
1983.91241309228,0.0251789856506047
1980.18325442105,0.0317450946457567
1976.45409574982,0.0363137657366459
1972.7249370786,0.0354977669714486
1968.99577840737,0.0333552914932734
1965.26661973614,0.029464899878331
1961.53746106492,0.0253381561764553
1957.80830239369,0.0199947491852129
1954.07914372246,0.0151749375001682
1950.34998505124,0.0123218590383502
1946.62082638001,0.0106401857727909
1942.89166770879,0.00762663737970354
1939.16250903756,0.00424485257899676
1935.43335036633,0.00183932369875524
1931.70419169511,4.55799142610514E-05
1927.97503302388,-0.00013048129374659
1924.24587435265,0.000510226369016468
1920.51671568143,0.000238672457508847
1916.7875570102,-0.00200047724018473
1913.05839833898,-0.00331236969384914
1909.32923966775,-0.00413943869668621
1905.60008099652,-0.00518372092552974
1901.8709223253,-0.00544686176464002
1898.14176365407,-0.00471295022525178
1894.41260498284,-0.00406058631272427
1890.68344631162,-0.00450243943967347
1886.95428764039,-0.00633183498287803
1883.22512896917,-0.00726386321780194
1879.49597029794,-0.00743790758814769
1875.76681162671,-0.00539862929934684
1872.03765295549,-0.00191080211916397
1868.30849428426,-0.00272449015015269
1864.57933561303,-0.00572285795810865
1860.85017694181,-0.00650812839417641
1857.12101827058,-0.00675214222432107
1853.39185959936,-0.00555394769740665
1849.66270092813,-0.00128154314058234
1845.9335422569,0.000901151921242308
1842.20438358568,-0.0025635418234393
1838.47522491445,-0.00427803654404601
1834.74606624322,-0.00111577693388803
1831.016907572,0.00223443319957343
1827.28774890077,0.00144813360509499
1823.55859022954,-0.00125232773461293
1819.82943155832,-0.00168330425702924
1816.10027288709,-0.00054417761671384
1812.37111421587,0.00021950858799573
1808.64195554464,-9.38820597074866E-05
1804.91279687341,0.00153804412009057
1801.18363820219,0.00296463097670436
1797.45447953096,0.00469746950402908
1793.72532085973,0.00511452396479897
1789.99616218851,0.00163617474323549
1786.26700351728,0.000260745584780092
1782.53784484606,0.00109719382669789
1778.80868617483,0.00420514603858859
1775.0795275036,0.00990833543043861
1771.35036883238,0.00835327614230565
1767.62121016115,0.00476940594509267
1763.89205148992,0.00696662036531245
1760.1628928187,0.0106697798054087
1756.43373414747,0.0153307887476662
1752.70457547625,0.0208078972631036
1748.97541680502,0.0213947486358173
1745.24625813379,0.0233546096070365
1741.51709946257,0.0355233171341592
1737.78794079134,0.0610468238290288
1734.05878212011,0.0890585737452502
1730.32962344889,0.0929625928578185
1726.60046477766,0.0793114297969997
1722.87130610643,0.0616801854233671
1719.14214743521,0.0443264692503171
1715.41298876398,0.0228875213408121
1711.68383009276,0.0118055987209493
1707.95467142153,0.0133039414712063
1704.2255127503,0.0207388131905508
1700.49635407908,0.0212563941538374
1696.76719540785,0.00966925106357963
1693.03803673662,0.00289579268197668
1689.3088780654,0.00858327196483944
1685.57971939417,0.012541776049223
1681.85056072295,0.0055332916038905
1678.12140205172,0.00417987105235946
1674.39224338049,0.00665973814409889
1670.66308470927,0.00375325752330256
1666.93392603804,-0.000960976972088727
1663.20476736681,-0.00273277672262056
1659.47560869559,0.0027069397898349
1655.74645002436,0.0158022679722474
1652.01729135314,0.015476755369307
1648.28813268191,0.00635250805119628
1644.55897401068,-0.000491958594785349
1640.82981533946,0.00228176395936708
1637.10065666823,0.0075650265693771
1633.371497997,0.00305213066222418
1629.64233932578,0.00632431549853238
1625.91318065455,0.0139860763153001
1622.18402198333,0.0171226183618657
1618.4548633121,0.0153307158099129
1614.72570464087,0.00873951780594747
1610.99654596965,0.00575518069352851
1607.26738729842,0.00557280029606938
1603.53822862719,0.00449516847149023
1599.80906995597,0.00366198547276656
1596.07991128474,0.00206426847665089
1592.35075261351,-0.00170830156934508
1588.62159394229,-0.00556775298254696
1584.89243527106,-0.00646754770292621
1581.16327659984,-0.00254151877592065
1577.43411792861,0.00133328169093956
1573.70495925738,0.000728485309216962
1569.97580058616,0.000335100795809023
1566.24664191493,0.00398240149363
1562.5174832437,0.0189566436998143
1558.78832457248,0.0217613786323717
1555.05916590125,0.00752543216369129
1551.33000723003,0.00363136643725913
1547.6008485588,0.0118666130613928
1543.87168988757,0.0257774090813973
1540.14253121635,0.0223762965572478
1536.41337254512,0.0129686762796608
1532.68421387389,0.0114511931889553
1528.95505520267,0.0162189379400563
1525.22589653144,0.0257280763622767
1521.49673786022,0.028328728916164
1517.76757918899,0.0241594383109056
1514.03842051776,0.0262774668053011
1510.30926184654,0.0380179201885215
1506.58010317531,0.0374099336754898
1502.85094450408,0.0319879024782334
1499.12178583286,0.037505685943907
1495.39262716163,0.0432040120835563
1491.66346849041,0.0497918273392878
1487.93430981918,0.0522686174157219
1484.20515114795,0.0550802964654819
1480.47599247673,0.066776342643087
1476.7468338055,0.0845909143829993
1473.01767513427,0.102554321934535
1469.28851646305,0.126151195266773
1465.55935779182,0.163002968268207
1461.83019912059,0.187486261964475
1458.10104044937,0.178827268736363
1454.37188177814,0.154904968600397
1450.64272310692,0.14081558241938
1446.91356443569,0.11846767806264
1443.18440576446,0.092323090244046
1439.45524709324,0.0751383228366453
1435.72608842201,0.0600097705363175
1431.99692975078,0.0475881963016931
1428.26777107956,0.0405079762856782
1424.53861240833,0.0380337457780165
1420.80945373711,0.0360717710267656
1417.08029506588,0.0265101262871038
1413.35113639465,0.0184738752180315
1409.62197772343,0.0158229375205915
1405.8928190522,0.0153468019780879
1402.16366038097,0.0163039025705757
1398.43450170975,0.0177366026945293
1394.70534303852,0.0159199419546185
1390.9761843673,0.0157003629553125
1387.24702569607,0.0178470321688981
1383.51786702484,0.0209465697513204
1379.78870835362,0.0312363062007872
1376.05954968239,0.0499998430149462
1372.33039101116,0.0755583740555897
1368.60123233994,0.100869108179434
1364.87207366871,0.102418451220514
1361.14291499749,0.0748419820504689
1357.41375632626,0.0504775280320239
1353.68459765503,0.0385634167489499
1349.95543898381,0.0330595653678236
1346.22628031258,0.0317770342657222
1342.49712164135,0.0349107422826305
1338.76796297013,0.0384226083020561
1335.0388042989,0.0390589136043535
1331.30964562767,0.0377942032575176
1327.58048695645,0.03596140464064
1323.85132828522,0.0352290618924595
1320.122169614,0.0364711639500882
1316.39301094277,0.0397149384836826
1312.66385227154,0.0442963018281297
1308.93469360032,0.0490101775392466
1305.20553492909,0.0533982001597587
1301.47637625786,0.0606341836252723
1297.74721758664,0.0774271312425796
1294.01805891541,0.11401445630366
1290.28890024419,0.185357781077481
1286.55974157296,0.2940184797553
1282.83058290173,0.356545756712247
1279.10142423051,0.304541633209324
1275.37226555928,0.242849282135239
1271.64310688805,0.201996630231893
1267.91394821683,0.15852296398333
1264.1847895456,0.139245538966741
1260.45563087438,0.147278304287069
1256.72647220315,0.166461537799045
1252.99731353192,0.189134424135979
1249.2681548607,0.208320701979958
1245.53899618947,0.217188195378934
1241.80983751824,0.213403229691002
1238.08067884702,0.201181285121678
1234.35152017579,0.185984424905888
1230.62236150457,0.171888971734482
1226.89320283334,0.160760967065795
1223.16404416211,0.153764519073466
1219.43488549089,0.150184412365006
1215.70572681966,0.150808476480337
1211.97656814843,0.15716048812003
1208.24740947721,0.165478649655604
1204.51825080598,0.168857895428738
1200.78909213475,0.172937570604103
1197.05993346353,0.184338434957774
1193.3307747923,0.204987166690232
1189.60161612108,0.239024671505383
1185.87245744985,0.280085447127131
1182.14329877862,0.301102737248163
1178.4141401074,0.289566501120821
1174.68498143617,0.258684839540794
1170.95582276494,0.220868084082241
1167.22666409372,0.186540869968482
1163.49750542249,0.166436638509412
1159.76834675127,0.164993297308268
1156.03918808004,0.180114657871317
1152.31002940881,0.209094525329116
1148.58087073759,0.260595570298374
1144.85171206636,0.321564361249961
1141.12255339513,0.333088134786383
1137.39339472391,0.286305674494488
1133.66423605268,0.232054237507894
1129.93507738146,0.188951125140439
1126.20591871023,0.154862251884706
1122.476760039,0.13365642422512
1118.74760136778,0.124187609736803
1115.01844269655,0.123476388692609
1111.28928402532,0.129699399621181
1107.5601253541,0.140096924262927
1103.83096668287,0.153276499221155
1100.10180801165,0.173590797098235
1096.37264934042,0.204474394341389
1092.64349066919,0.24931985543375
1088.91433199797,0.315602688851765
1085.18517332674,0.41825198205254
1081.45601465551,0.581634624749387
1077.72685598429,0.840211239921853
1073.99769731306,1.22322838231267
1070.26853864183,1.65563744334279
1066.53937997061,1.75115471133711
1062.81022129938,1.46012275701677
1059.08106262816,1.13005297246433
1055.35190395693,0.869557270754473
1051.6227452857,0.687323859102032
1047.89358661448,0.560365335080548
1044.16442794325,0.47079764153198
1040.43526927202,0.413905297077094
1036.7061106008,0.389433456836304
1032.97695192957,0.379702787058969
1029.24779325835,0.35131456198525
1025.51863458712,0.292651069605216
1021.78947591589,0.229264935208867
1018.06031724467,0.180743662532016
1014.33115857344,0.148324414882298
1010.60199990221,0.126674217679561
1006.87284123099,0.111647829405212
1003.14368255976,0.100605822299365
999.414523888535,0.0926244422949287
995.685365217309,0.0872587409955505
991.956206546083,0.0842275486860691
988.227047874856,0.0829633642840972
984.49788920363,0.0832689443636998
980.768730532404,0.0849453940671306
977.039571861178,0.0879694424062612
973.310413189951,0.0927150204875909
969.581254518725,0.0992135151257863
965.852095847499,0.107801022564507
962.122937176272,0.119206041158989
958.393778505046,0.133593412874327
954.66461983382,0.150127219591966
950.935461162594,0.168893131055038
947.206302491367,0.190455775392839
943.477143820141,0.216101938427553
939.747985148915,0.247382146643126
936.018826477688,0.288210184984216
932.289667806462,0.343400473977088
928.560509135236,0.418871784060939
924.83135046401,0.519323091341783
921.102191792783,0.648749815777379
917.373033121557,0.798869663350899
913.643874450331,0.936484588560512
909.914715779104,1.00791149108011
906.185557107878,0.991463841388803
902.456398436652,0.904700813993435
898.727239765426,0.785198252167035
894.998081094199,0.667599606994859
891.268922422973,0.572054483879026
887.539763751747,0.502745119160284
883.81060508052,0.453514119268109
880.081446409294,0.416662207234898
876.352287738068,0.384954183401735
872.623129066842,0.35682847302882
868.893970395615,0.331443449971142
865.164811724389,0.308310677742767
861.435653053163,0.286446356738268
857.706494381936,0.267059221074632
853.97733571071,0.253041877228599
850.248177039484,0.249630582744698
846.519018368258,0.248998003005298
842.789859697031,0.232030628984481
839.060701025805,0.205224065729169
835.331542354579,0.18540914642157
831.602383683352,0.170260446518378
827.873225012126,0.15621755527642
824.1440663409,0.14192350625179
820.414907669674,0.129093839077627
816.685748998447,0.117688681370951
812.956590327221,0.107647477991448
809.227431655995,0.0989756318239369
805.498272984768,0.0913000772450986
801.769114313542,0.0852877364583195
798.039955642316,0.0810014530876552
794.31079697109,0.0765936779140542
790.581638299863,0.0715181936063818
786.852479628637,0.0672405312424285
783.123320957411,0.0660287723194525
779.394162286184,0.0725523386498327
775.665003614958,0.0882065114596889
771.935844943732,0.0885564755249887
768.206686272506,0.0652984929036771
764.477527601279,0.0494414377455132
760.748368930053,0.0441855903835722
757.019210258827,0.0416448094307949
753.2900515876,0.0401920249322795
749.560892916374,0.0396370750592512
745.831734245148,0.0386028986823761
742.102575573922,0.0375196008748558
738.373416902695,0.0403282446614589
734.644258231469,0.043917839584193
730.915099560243,0.0416012460076037
727.185940889016,0.0391497666077333
723.45678221779,0.0397086156698863
719.727623546564,0.0414569849423384
715.998464875338,0.0443309465297769
712.269306204111,0.0501666084148995
708.540147532885,0.0688588048327333
704.810988861659,0.10068837874463
701.081830190432,0.113613085149655
697.352671519206,0.0932968490255227
693.62351284798,0.0828313325004649
689.894354176754,0.0926062716350592
686.165195505527,0.143217135604102
682.436036834301,0.21879579409713
678.706878163075,0.24315757557242
674.977719491848,0.246535260240506
671.248560820622,0.253261494005337
667.519402149396,0.244438935138856
663.790243478169,0.236790526655706
660.061084806943,0.2353303456142
656.331926135717,0.240496969852018
652.602767464491,0.227449904785866
648.873608793276,0.212478724842736
