Wavenumbercm-1,06:44:53
2998.24357166583,0.178571567292667
2994.5144129946,0.207260847683305
2990.78525432337,0.239589157609304
2987.05609565215,0.293413135529219
2983.32693698092,0.329169996869664
2979.59777830969,0.313622037416921
2975.86861963847,0.278768118080178
2972.13946096724,0.25640046704196
2968.41030229601,0.2547411785245
2964.68114362479,0.256694835742753
2960.95198495356,0.267856202745758
2957.22282628234,0.28196721763254
2953.49366761111,0.296536653855617
2949.76450893988,0.300399371642328
2946.03535026866,0.28796786202787
2942.30619159743,0.276583969180197
2938.5770329262,0.282997826507165
2934.84787425498,0.289115380406174
2931.11871558375,0.283708014339963
2927.38955691253,0.279180196212001
2923.6603982413,0.290584991129608
2919.93123957007,0.298464236350311
2916.20208089885,0.28465434991072
2912.47292222762,0.266511412972046
2908.74376355639,0.258870824738214
2905.01460488517,0.261463795978211
2901.28544621394,0.274740482980944
2897.55628754272,0.285657265073317
2893.82712887149,0.289992250026033
2890.09797020026,0.29933621085402
2886.36881152904,0.313242562681795
2882.63965285781,0.337905319885758
2878.91049418658,0.363439603176757
2875.18133551536,0.355887112904334
2871.45217684413,0.338613536133675
2867.72301817291,0.34169764304545
2863.99385950168,0.339174236865725
2860.26470083045,0.324300322079137
2856.53554215923,0.312069976050932
2852.806383488,0.304320580201715
2849.07722481677,0.291419911276449
2845.34806614555,0.288084940416629
2841.61890747432,0.274021142025561
2837.88974880309,0.240481116700692
2834.16059013187,0.207959148152402
2830.43143146064,0.183085658596182
2826.70227278942,0.161938833353736
2822.97311411819,0.14255516163683
2819.24395544696,0.127664074339623
2815.51479677574,0.116293093668965
2811.78563810451,0.10400553022882
2808.05647943328,0.0927797727633689
2804.32732076206,0.0864074900706223
2800.59816209083,0.0802714335294418
2796.86900341961,0.0739144704413901
2793.13984474838,0.0678191992712142
2789.41068607715,0.0600466102644102
2785.68152740593,0.0514105152038614
2781.9523687347,0.0453870947308116
2778.22321006347,0.0420327199886128
2774.49405139225,0.0390750877350056
2770.76489272102,0.0355764645018568
2767.0357340498,0.0318899385990233
2763.30657537857,0.0289452647514125
2759.57741670734,0.0279017491090542
2755.84825803612,0.0280051583325007
2752.11909936489,0.0281205761469817
2748.38994069366,0.0276247576886581
2744.66078202244,0.028088144187489
2740.93162335121,0.0318022456390833
2737.20246467999,0.0379489792192426
2733.47330600876,0.0428579251388474
2729.74414733753,0.0443820936109163
2726.01498866631,0.0430532728146062
2722.28582999508,0.0395823292083282
2718.55667132385,0.0353442923665111
2714.82751265263,0.0311210579254557
2711.0983539814,0.0279812152302268
2707.36919531017,0.0268456445172635
2703.64003663895,0.0278835448022288
2699.91087796772,0.0301465370267505
2696.1817192965,0.0337210952724654
2692.45256062527,0.0381342200749812
2688.72340195404,0.0408017337745792
2684.99424328282,0.040444731323764
2681.26508461159,0.0374419270476213
2677.53592594036,0.0330401886921692
2673.80676726914,0.0295425299367967
2670.07760859791,0.027259851717383
2666.34844992669,0.0264773052716172
2662.61929125546,0.0274949458975469
2658.89013258423,0.0282152535601744
2655.16097391301,0.026428204747953
2651.43181524178,0.0229936504006913
2647.70265657055,0.0195170903644992
2643.97349789933,0.0166713466366516
2640.2443392281,0.0159681093300368
2636.51518055688,0.0166293641794089
2632.78602188565,0.0174200553135025
2629.05686321442,0.018478326320935
2625.3277045432,0.0200108970024461
2621.59854587197,0.0223236558396739
2617.86938720074,0.0254580845586648
2614.14022852952,0.0280472647296622
2610.41106985829,0.0295968566934435
2606.68191118707,0.0308149089745542
2602.95275251584,0.0325325619376279
2599.22359384461,0.0345087350045064
2595.49443517339,0.0369822740023599
2591.76527650216,0.0400838534683353
2588.03611783093,0.0428080609090812
2584.30695915971,0.0458486217561019
2580.57780048848,0.0496179217148957
2576.84864181725,0.0538532044068019
2573.11948314603,0.0600354070004853
2569.3903244748,0.0666609455806214
2565.66116580358,0.0675534150530209
2561.93200713235,0.0622889063219952
2558.20284846112,0.0552721323852243
2554.4736897899,0.0493414597752238
2550.74453111867,0.0442302843924907
2547.01537244744,0.0397074543448495
2543.28621377622,0.0356125642482607
2539.55705510499,0.0321988976339673
2535.82789643377,0.0297001164850896
2532.09873776254,0.0282828159061509
2528.36957909131,0.027515491706127
2524.64042042009,0.0270957487390415
2520.91126174886,0.0267372793866754
2517.18210307763,0.0263243470364701
2513.45294440641,0.0269533297464239
2509.72378573518,0.0285317751259809
2505.99462706396,0.0294733885216075
2502.26546839273,0.0301336883840276
2498.5363097215,0.0314906065819459
2494.80715105028,0.0322153578105289
2491.07799237905,0.0320887809993122
2487.34883370782,0.0318888258627452
2483.6196750366,0.0317825164766362
2479.89051636537,0.030759741362897
2476.16135769415,0.0284737340416353
2472.43219902292,0.0253964328926134
2468.70304035169,0.0226010300039774
2464.97388168047,0.0207276716012576
2461.24472300924,0.0193826689273954
2457.51556433801,0.018077782316559
2453.78640566679,0.0174719452691422
2450.05724699556,0.0174227151177959
2446.32808832433,0.0173279042987966
2442.59892965311,0.0171225871885627
2438.86977098188,0.016999022354789
2435.14061231066,0.0168279550329199
2431.41145363943,0.0161718132347933
2427.6822949682,0.015230061528841
2423.95313629698,0.0140930363621986
2420.22397762575,0.0135063400015308
2416.49481895452,0.013898891984662
2412.7656602833,0.0143548868856032
2409.03650161207,0.013537664412242
2405.30734294085,0.0122504393315225
2401.57818426962,0.0115449072123106
2397.84902559839,0.0117248225989664
2394.11986692717,0.0122113522325549
2390.39070825594,0.0129811528516936
2386.66154958471,0.0158236303324018
2382.93239091349,0.0233708772502313
2379.20323224226,0.0367363645309483
2375.47407357104,0.0529320914327508
2371.74491489981,0.0669067481330489
2368.01575622858,0.0761887009591823
2364.28659755736,0.0792515838940547
2360.55743888613,0.0727234193588092
2356.8282802149,0.0557235747276809
2353.09912154368,0.0441836539851815
2349.36996287245,0.0549517137659095
2345.64080420122,0.0828555376618352
2341.91164553,0.10350180404776
2338.18248685877,0.0935944630285033
2334.45332818755,0.0673154729855677
2330.72416951632,0.0496255464581173
2326.99501084509,0.0393869940022411
2323.26585217387,0.0301258064506427
2319.53669350264,0.021709588553634
2315.80753483141,0.0150817052283078
2312.07837616019,0.0102754541159283
2308.34921748896,0.00671382003658295
2304.62005881774,0.00446655885911266
2300.89090014651,0.00364665848025203
2297.16174147528,0.00401534535780779
2293.43258280406,0.00573116123114968
2289.70342413283,0.00908751864373029
2285.9742654616,0.0134197569366997
2282.24510679038,0.0175068698427933
2278.51594811915,0.0198915769695485
2274.78678944793,0.0209436975760406
2271.0576307767,0.0208520147503066
2267.32847210547,0.0195717607480263
2263.59931343425,0.0186345882112452
2259.87015476302,0.0185074664100855
2256.14099609179,0.0182985485700054
2252.41183742057,0.0181465288672532
2248.68267874934,0.0192127305008804
2244.95352007812,0.0200934702299213
2241.22436140689,0.0215373121053109
2237.49520273566,0.02383391921547
2233.76604406444,0.0258592776595671
2230.03688539321,0.0277442381102382
2226.30772672198,0.0304442059503827
2222.57856805076,0.0327798289848399
2218.84940937953,0.0350917794348628
2215.1202507083,0.0384742474488865
2211.39109203708,0.0419303595636805
2207.66193336585,0.043951512620884
2203.93277469463,0.0457759669168269
2200.2036160234,0.0478750548352734
2196.47445735217,0.0507593941447134
2192.74529868095,0.0568695973079542
2189.01614000972,0.0657291191689751
2185.28698133849,0.0752322631948937
2181.55782266727,0.081890806260416
2177.82866399604,0.0857502660627983
2174.09950532482,0.0890497214043266
2170.37034665359,0.0993956374388287
2166.64118798236,0.12219419061248
2162.91202931114,0.14937876775867
2159.18287063991,0.152893557347108
2155.45371196868,0.138946849742154
2151.72455329746,0.124251954057599
2147.99539462623,0.113799346651256
2144.26623595501,0.104019456367081
2140.53707728378,0.0950895512772239
2136.80791861255,0.0840240645358283
2133.07875994133,0.0695862656776749
2129.3496012701,0.0551578323789944
2125.62044259887,0.0451066768802084
2121.89128392765,0.0388519570893425
2118.16212525642,0.0345131702710465
2114.4329665852,0.0322667351965161
2110.70380791397,0.0315509399232051
2106.97464924274,0.0315534875912777
2103.24549057152,0.0316068557720603
2099.51633190029,0.0312777428606123
2095.78717322906,0.0281235614077912
2092.05801455784,0.0232284387914163
2088.32885588661,0.0189321656611646
2084.59969721538,0.0165468051749315
2080.87053854416,0.0148297214534685
2077.14137987293,0.014070563155841
2073.41222120171,0.0144935368289938
2069.68306253048,0.0163464217622352
2065.95390385925,0.0182289800012169
2062.22474518803,0.0192145711303741
2058.4955865168,0.0192819241198911
2054.76642784557,0.0216791931962458
2051.03726917435,0.027619988414272
2047.30811050312,0.0331202733558642
2043.5789518319,0.0348548509214271
2039.84979316067,0.0368477430999396
2036.12063448944,0.0404911523437857
2032.39147581822,0.0417447565993882
2028.66231714699,0.0398363727019799
2024.93315847576,0.0368884397826302
2021.20399980454,0.0337679580444558
2017.47484113331,0.0308927447915386
2013.74568246209,0.0293533902410788
2010.01652379086,0.0271193276447008
2006.28736511963,0.0235429110820476
2002.55820644841,0.0193878318628712
1998.82904777718,0.0175293404823116
1995.09988910595,0.018137746066644
1991.37073043473,0.0191959555875961
1987.6415717635,0.0194133140876665
1983.91241309228,0.022744646950236
1980.18325442105,0.0288241456718877
1976.45409574982,0.0330512708610849
1972.7249370786,0.0325964558540949
1968.99577840737,0.0306791430736018
1965.26661973614,0.0274386664501895
1961.53746106492,0.0237171452839194
1957.80830239369,0.0188172575056477
1954.07914372246,0.0140551016396651
1950.34998505124,0.0104893868545222
1946.62082638001,0.00820081344124646
1942.89166770879,0.00549858526776851
1939.16250903756,0.00257214667548687
1935.43335036633,0.000157736964233594
1931.70419169511,-0.00173515088020795
1927.97503302388,-0.00250619477773714
1924.24587435265,-0.00238727878812124
1920.51671568143,-0.00284573815173399
1916.7875570102,-0.00473934614466688
1913.05839833898,-0.00597406153601264
1909.32923966775,-0.00667790248840605
1905.60008099652,-0.00772196517429173
1901.8709223253,-0.0081792884384786
1898.14176365407,-0.00764168561893684
1894.41260498284,-0.00677529330251797
1890.68344631162,-0.00716994490400272
1886.95428764039,-0.0089573024861415
1883.22512896917,-0.0100019018623676
1879.49597029794,-0.0102219200018039
1875.76681162671,-0.00851606400759509
1872.03765295549,-0.00553746923702038
1868.30849428426,-0.00608575225969281
1864.57933561303,-0.00846412508478529
1860.85017694181,-0.00896813749753629
1857.12101827058,-0.00906549674560961
1853.39185959936,-0.00799533507850394
1849.66270092813,-0.00439713507670805
1845.9335422569,-0.00239272229078347
1842.20438358568,-0.0050672947024298
1838.47522491445,-0.00630609292592284
1834.74606624322,-0.00359227045991891
1831.016907572,-0.000630258312655772
1827.28774890077,-0.00125625322701629
1823.55859022954,-0.00347274068311045
1819.82943155832,-0.00378917510567958
1816.10027288709,-0.00274763926819581
1812.37111421587,-0.00213931837255864
1808.64195554464,-0.00246011193546355
1804.91279687341,-0.00125623304254414
1801.18363820219,-3.69070277737781E-05
1797.45447953096,0.00148352076464169
1793.72532085973,0.00204411801826761
1789.99616218851,-0.000565096726394986
1786.26700351728,-0.0015789758731749
1782.53784484606,-0.000982969558426993
1778.80868617483,0.00136881048013038
1775.0795275036,0.0059757489069535
1771.35036883238,0.00463705123260835
1767.62121016115,0.00115812447237004
1763.89205148992,0.00115036955733851
1760.1628928187,0.00135730524906494
1756.43373414747,0.00256908232260625
1752.70457547625,0.00575388827181677
1748.97541680502,0.00591485805884416
1745.24625813379,0.00670368103414887
1741.51709946257,0.0128938030778609
1737.78794079134,0.0230032631138814
1734.05878212011,0.0278179826888196
1730.32962344889,0.0234505325880123
1726.60046477766,0.0237363625931211
1722.87130610643,0.0314065699232825
1719.14214743521,0.0343244053534262
1715.41298876398,0.0209297413714164
1711.68383009276,0.0100954061649276
1707.95467142153,0.00952066945538617
1704.2255127503,0.0149708802104255
1700.49635407908,0.0158274231760714
1696.76719540785,0.00674105834732023
1693.03803673662,0.00118048044475553
1689.3088780654,0.00585705147267299
1685.57971939417,0.00954170098626419
1681.85056072295,0.00451971778562022
1678.12140205172,0.00414794746356578
1674.39224338049,0.00703029253207133
1670.66308470927,0.00555206475401946
1666.93392603804,0.0026549647329433
1663.20476736681,0.00206868591910841
1659.47560869559,0.0072348758010638
1655.74645002436,0.0186046375778422
1652.01729135314,0.0190339299270223
1648.28813268191,0.0117828224761629
1644.55897401068,0.00616805905398466
1640.82981533946,0.00824105624093796
1637.10065666823,0.0124471328163893
1633.371497997,0.00765517533974732
1629.64233932578,0.00720185095784699
1625.91318065455,0.00999158749560355
1622.18402198333,0.0116531603100077
1618.4548633121,0.0111514791938
1614.72570464087,0.00615926750528678
1610.99654596965,0.00297007777096667
1607.26738729842,0.00225477331532956
1603.53822862719,0.00146704625997783
1599.80906995597,0.00105486323248439
1596.07991128474,0.000332184691502433
1592.35075261351,-0.00167322583931191
1588.62159394229,-0.00375878168676953
1584.89243527106,-0.00405170213602837
1581.16327659984,-0.0006781163486467
1577.43411792861,0.0026276015209532
1573.70495925738,0.00230089650644396
1569.97580058616,0.00197535585900703
1566.24664191493,0.00493994521376518
1562.5174832437,0.0170533166378477
1558.78832457248,0.0195652454670323
1555.05916590125,0.00814367581282878
1551.33000723003,0.00508143690542765
1547.6008485588,0.0119315358265778
1543.87168988757,0.0240265205837204
1540.14253121635,0.0232017300245142
1536.41337254512,0.0181586482239854
1532.68421387389,0.0194292061612783
1528.95505520267,0.0236595742822907
1525.22589653144,0.0296341755780859
1521.49673786022,0.0300631369262893
1517.76757918899,0.0261094560784439
1514.03842051776,0.0278462777685271
1510.30926184654,0.0379276051511453
1506.58010317531,0.0386287465080687
1502.85094450408,0.0354905913577188
1499.12178583286,0.0416158346441736
1495.39262716163,0.0483003245271857
1491.66346849041,0.0555600714507507
1487.93430981918,0.0596387305920387
1484.20515114795,0.0639900616021073
1480.47599247673,0.0763804322252115
1476.7468338055,0.0944692620652041
1473.01767513427,0.112761228958534
1469.28851646305,0.135674579524662
1465.55935779182,0.169966013814326
1461.83019912059,0.191211972451415
1458.10104044937,0.180687934561299
1454.37188177814,0.157864411974058
1450.64272310692,0.144530717450796
1446.91356443569,0.122403818791399
1443.18440576446,0.0956652396248616
1439.45524709324,0.0768448635316637
1435.72608842201,0.0611458745096341
1431.99692975078,0.0487535707727763
1428.26777107956,0.0412695419905569
1424.53861240833,0.0381188433400715
1420.80945373711,0.0358847196999663
1417.08029506588,0.0282043879883428
1413.35113639465,0.0224825956246382
1409.62197772343,0.0221903930212756
1405.8928190522,0.0261052212790389
1402.16366038097,0.0335894057773541
1398.43450170975,0.0376972655767325
1394.70534303852,0.0307143895970197
1390.9761843673,0.0227418638062142
1387.24702569607,0.0191091191906944
1383.51786702484,0.0176748839065557
1379.78870835362,0.0217259237370079
1376.05954968239,0.0353394035574415
1372.33039101116,0.0663884642962913
1368.60123233994,0.108281435090433
1364.87207366871,0.115848488715528
1361.14291499749,0.0774410411859507
1357.41375632626,0.0449644460465061
1353.68459765503,0.0312694772172588
1349.95543898381,0.0267036199648428
1346.22628031258,0.0267304867296596
1342.49712164135,0.0313648323165061
1338.76796297013,0.0372105747142399
1335.0388042989,0.0409951582490299
1331.30964562767,0.0419037919722
1327.58048695645,0.040029119168882
1323.85132828522,0.0383229666076787
1320.122169614,0.0387363371482464
1316.39301094277,0.0435989839251039
1312.66385227154,0.0546584808068844
1308.93469360032,0.0687901553942416
1305.20553492909,0.0799612300259485
1301.47637625786,0.0935381271392303
1297.74721758664,0.116442706982298
1294.01805891541,0.147484380203444
1290.28890024419,0.183988456486631
1286.55974157296,0.222228545458359
1282.83058290173,0.219046636042712
1279.10142423051,0.1625276730268
1275.37226555928,0.114974002009875
1271.64310688805,0.0970177677511962
1267.91394821683,0.0926200993251912
1264.1847895456,0.0930568330957165
1260.45563087438,0.0982947319309409
1256.72647220315,0.108556916238339
1252.99731353192,0.122979888254798
1249.2681548607,0.139181060775221
1245.53899618947,0.149710830121196
1241.80983751824,0.146765541457874
1238.08067884702,0.133725949919468
1234.35152017579,0.122034390503139
1230.62236150457,0.115678173875551
1226.89320283334,0.113330792375176
1223.16404416211,0.113799639459287
1219.43488549089,0.116184529115353
1215.70572681966,0.120113466412316
1211.97656814843,0.126131153325732
1208.24740947721,0.133092969007767
1204.51825080598,0.139202909275828
1200.78909213475,0.147631951475968
1197.05993346353,0.161102058746081
1193.3307747923,0.176706741114252
1189.60161612108,0.189688676280737
1185.87245744985,0.203724659321196
1182.14329877862,0.227012820418334
1178.4141401074,0.246029604969487
1174.68498143617,0.231497498370004
1170.95582276494,0.193182162283914
1167.22666409372,0.158968039914207
1163.49750542249,0.137821525120936
1159.76834675127,0.12962504136534
1156.03918808004,0.133384959217414
1152.31002940881,0.147901085065951
1148.58087073759,0.171873007832273
1144.85171206636,0.189905748964258
1141.12255339513,0.180951710180607
1137.39339472391,0.153616965603009
1133.66423605268,0.128147489528124
1129.93507738146,0.111979352016792
1126.20591871023,0.104000367085458
1122.476760039,0.102145986481532
1118.74760136778,0.105356020836025
1115.01844269655,0.112434234202392
1111.28928402532,0.120853213521013
1107.5601253541,0.131591999723269
1103.83096668287,0.148522567653042
1100.10180801165,0.173603048969461
1096.37264934042,0.206829101248406
1092.64349066919,0.249837936575436
1088.91433199797,0.311410204196348
1085.18517332674,0.408895388089007
1081.45601465551,0.566575111325023
1077.72685598429,0.817668141360982
1073.99769731306,1.18964756091402
1070.26853864183,1.61364324419752
1066.53937997061,1.74578205057415
1062.81022129938,1.5142951384315
1059.08106262816,1.19854004251958
1055.35190395693,0.918729806204813
1051.6227452857,0.706675528294111
1047.89358661448,0.557796850598741
1044.16442794325,0.460577657694786
1040.43526927202,0.405679231403711
1036.7061106008,0.386332374732122
1032.97695192957,0.384014278207687
1029.24779325835,0.364903405499812
1025.51863458712,0.310741584551827
1021.78947591589,0.243416683530885
1018.06031724467,0.1892358883922
1014.33115857344,0.153775234845297
1010.60199990221,0.130760921286645
1006.87284123099,0.11487601647042
1003.14368255976,0.103246324675637
999.414523888535,0.0947923447678338
995.685365217309,0.0887871467771267
991.956206546083,0.0851468817328155
988.227047874856,0.0833304772272523
984.49788920363,0.0830713471417695
980.768730532404,0.0841356646220496
977.039571861178,0.0865642073898008
973.310413189951,0.0906658712181206
969.581254518725,0.0965649884812376
965.852095847499,0.104615630361973
962.122937176272,0.115680447799599
958.393778505046,0.130078934938447
954.66461983382,0.147964309577895
950.935461162594,0.169725221464278
947.206302491367,0.192230721531519
943.477143820141,0.214685396210596
939.747985148915,0.243045734084118
936.018826477688,0.28279361535372
932.289667806462,0.336976581927049
928.560509135236,0.410346272568326
924.83135046401,0.508688530883229
921.102191792783,0.637405611938174
917.373033121557,0.78699724219313
913.643874450331,0.92221574943327
909.914715779104,0.994415153161572
906.185557107878,0.989464600904561
902.456398436652,0.91637489856556
898.727239765426,0.803241017383499
894.998081094199,0.683140806756638
891.268922422973,0.577508069784398
887.539763751747,0.494103854962038
883.81060508052,0.434143479094738
880.081446409294,0.392869258790463
876.352287738068,0.363664955903906
872.623129066842,0.341245241265834
868.893970395615,0.320965160858211
865.164811724389,0.30097288000567
861.435653053163,0.28152421308163
857.706494381936,0.264552585589175
853.97733571071,0.252086892764145
850.248177039484,0.243853474905849
846.519018368258,0.23271654032969
842.789859697031,0.218980228286522
839.060701025805,0.206867743612252
835.331542354579,0.196010126991454
831.602383683352,0.184383899521715
827.873225012126,0.172619512384943
824.1440663409,0.16171596234881
820.414907669674,0.152371506362425
816.685748998447,0.141729699831952
812.956590327221,0.129160713718574
809.227431655995,0.11682928892615
805.498272984768,0.106845182644292
801.769114313542,0.0995272656211169
798.039955642316,0.0950659609377403
794.31079697109,0.0908506314387102
790.581638299863,0.0872532923845946
786.852479628637,0.0895341475433591
783.123320957411,0.107584777061036
779.394162286184,0.116224124305778
775.665003614958,0.0953142621219561
771.935844943732,0.0813525708159166
768.206686272506,0.0805838602076108
764.477527601279,0.0855858347766248
760.748368930053,0.0963533167574017
757.019210258827,0.104063342164921
753.2900515876,0.102243051984437
749.560892916374,0.0987663421630421
745.831734245148,0.0956731000914939
742.102575573922,0.0903079346365974
738.373416902695,0.0849134831711514
734.644258231469,0.0785365805874458
730.915099560243,0.0712161196639716
727.185940889016,0.0637566706139608
723.45678221779,0.0599959941047751
719.727623546564,0.0619613088654667
715.998464875338,0.0757945694600792
712.269306204111,0.0922888124499095
708.540147532885,0.0905846390492789
704.810988861659,0.0882499002177544
701.081830190432,0.0909094243887428
697.352671519206,0.0877502228929266
693.62351284798,0.0897896846906126
689.894354176754,0.0984702647503308
686.165195505527,0.127423609462186
682.436036834301,0.162200908914656
678.706878163075,0.161107447890607
674.977719491848,0.157954740791709
671.248560820622,0.193985692780239
667.519402149396,0.243401448789142
663.790243478169,0.274549050075009
660.061084806943,0.277653227082016
656.331926135717,0.274772142991045
652.602767464491,0.268841991007295
648.873608793276,0.257525045952494
