Wavenumbercm-1,02:56:52
2998.24357166583,0.190637361967482
2994.5144129946,0.220116354543772
2990.78525432337,0.253471570633049
2987.05609565215,0.309325099353759
2983.32693698092,0.346988293323814
2979.59777830969,0.326843013628244
2975.86861963847,0.287249110918796
2972.13946096724,0.267154394040295
2968.41030229601,0.271193749420504
2964.68114362479,0.270457145487379
2960.95198495356,0.277934974397526
2957.22282628234,0.291828233034525
2953.49366761111,0.308887093932502
2949.76450893988,0.314007653492865
2946.03535026866,0.299941165051311
2942.30619159743,0.288585930566183
2938.5770329262,0.29984193652251
2934.84787425498,0.306576819478574
2931.11871558375,0.298007598035388
2927.38955691253,0.29171363451274
2923.6603982413,0.304301811024553
2919.93123957007,0.316658937551952
2916.20208089885,0.302924608088918
2912.47292222762,0.282619994494301
2908.74376355639,0.27600749695664
2905.01460488517,0.280593657866753
2901.28544621394,0.294721137132967
2897.55628754272,0.30499612077874
2893.82712887149,0.307020057662919
2890.09797020026,0.316011373694115
2886.36881152904,0.331300620716371
2882.63965285781,0.358983237175083
2878.91049418658,0.384840837376479
2875.18133551536,0.374212572177491
2871.45217684413,0.35231325994483
2867.72301817291,0.356919150008139
2863.99385950168,0.35877733316992
2860.26470083045,0.343834523465977
2856.53554215923,0.328123189909802
2852.806383488,0.319619913048712
2849.07722481677,0.308262934346767
2845.34806614555,0.308531504232006
2841.61890747432,0.295920605156519
2837.88974880309,0.259154232378727
2834.16059013187,0.223028992549451
2830.43143146064,0.195861555316253
2826.70227278942,0.173982437022412
2822.97311411819,0.153887537389116
2819.24395544696,0.138051931999683
2815.51479677574,0.126782953262478
2811.78563810451,0.115152935345029
2808.05647943328,0.102543155971817
2804.32732076206,0.0954043832836697
2800.59816209083,0.0884183286210278
2796.86900341961,0.0811963163236647
2793.13984474838,0.0756381514106883
2789.41068607715,0.0687592989264487
2785.68152740593,0.0610777268415395
2781.9523687347,0.0573430223857715
2778.22321006347,0.0553508999464108
2774.49405139225,0.0523994106471913
2770.76489272102,0.0487318330057028
2767.0357340498,0.0448563687604246
2763.30657537857,0.0423311815761264
2759.57741670734,0.0417161783955253
2755.84825803612,0.0413525827322117
2752.11909936489,0.0417655525780634
2748.38994069366,0.0420915805350191
2744.66078202244,0.0425264104222435
2740.93162335121,0.0451983823704624
2737.20246467999,0.0487903099929799
2733.47330600876,0.051580448152738
2729.74414733753,0.0524486979652311
2726.01498866631,0.0516506150128864
2722.28582999508,0.0490830624919352
2718.55667132385,0.0459907262391275
2714.82751265263,0.0420680815742689
2711.0983539814,0.0387610312782016
2707.36919531017,0.0376025289893901
2703.64003663895,0.0384752197955977
2699.91087796772,0.0399814411587529
2696.1817192965,0.0427415573533297
2692.45256062527,0.0466165307301946
2688.72340195404,0.0493007323466126
2684.99424328282,0.0492782807178267
2681.26508461159,0.0467569999533548
2677.53592594036,0.0426009119349683
2673.80676726914,0.0395055082919828
2670.07760859791,0.0375909889798635
2666.34844992669,0.0364166096554042
2662.61929125546,0.0370817041566263
2658.89013258423,0.0377545100168358
2655.16097391301,0.0363530164945194
2651.43181524178,0.0337703330024814
2647.70265657055,0.031158377873175
2643.97349789933,0.0281058410181768
2640.2443392281,0.0266949084105762
2636.51518055688,0.0266512361904493
2632.78602188565,0.0267672548331883
2629.05686321442,0.027400089373862
2625.3277045432,0.0288293840678427
2621.59854587197,0.0308029453791183
2617.86938720074,0.0331609470244297
2614.14022852952,0.034407992241797
2610.41106985829,0.0352477305104502
2606.68191118707,0.0371130190719607
2602.95275251584,0.0389596295955158
2599.22359384461,0.0389302272548646
2595.49443517339,0.0397694424850229
2591.76527650216,0.0426771166198931
2588.03611783093,0.0456055140594584
2584.30695915971,0.0494069902756113
2580.57780048848,0.054773072051569
2576.84864181725,0.0632852713702299
2573.11948314603,0.0767556606749521
2569.3903244748,0.0918158532154952
2565.66116580358,0.100559640766799
2561.93200713235,0.100245008590714
2558.20284846112,0.0924453100497303
2554.4736897899,0.0835414834000609
2550.74453111867,0.0781960802894852
2547.01537244744,0.076364408534335
2543.28621377622,0.0727054987173507
2539.55705510499,0.0638880771951537
2535.82789643377,0.053462102496726
2532.09873776254,0.0472775986110538
2528.36957909131,0.0449370003241
2524.64042042009,0.0437689867771813
2520.91126174886,0.0431510343065389
2517.18210307763,0.0432986848127399
2513.45294440641,0.0440625385328994
2509.72378573518,0.0451865333748196
2505.99462706396,0.0468732412044301
2502.26546839273,0.0487512958658891
2498.5363097215,0.0505772779586954
2494.80715105028,0.0516285636555783
2491.07799237905,0.0519651863193017
2487.34883370782,0.0514734758688588
2483.6196750366,0.0505303019649811
2479.89051636537,0.0486797797398997
2476.16135769415,0.0462234286049097
2472.43219902292,0.0435250192299642
2468.70304035169,0.0407164140609331
2464.97388168047,0.0374345854363128
2461.24472300924,0.0347746244769142
2457.51556433801,0.0326296238089805
2453.78640566679,0.0310136818238265
2450.05724699556,0.0302412193109965
2446.32808832433,0.0296745007090285
2442.59892965311,0.028780918345021
2438.86977098188,0.0277007357698859
2435.14061231066,0.0264207003171778
2431.41145363943,0.0252023822191499
2427.6822949682,0.0242318338388356
2423.95313629698,0.0229605856922003
2420.22397762575,0.022179720832145
2416.49481895452,0.0221866341473621
2412.7656602833,0.022458038070618
2409.03650161207,0.0211975197944414
2405.30734294085,0.0191250556088081
2401.57818426962,0.017822194037746
2397.84902559839,0.0176637297403544
2394.11986692717,0.0174944255016633
2390.39070825594,0.0176687801080446
2386.66154958471,0.0199196099572669
2382.93239091349,0.0269541547882719
2379.20323224226,0.0406627466396927
2375.47407357104,0.0584883419526352
2371.74491489981,0.0747536244469455
2368.01575622858,0.0855251232523362
2364.28659755736,0.0881604360069993
2360.55743888613,0.0791889307725249
2356.8282802149,0.0583602557147409
2353.09912154368,0.0422445765267533
2349.36996287245,0.0461751744184221
2345.64080420122,0.0583401617534998
2341.91164553,0.0620443022204192
2338.18248685877,0.0588760921182475
2334.45332818755,0.0525535087139362
2330.72416951632,0.0442055068863004
2326.99501084509,0.0356880837769241
2323.26585217387,0.0276799678223187
2319.53669350264,0.0207869090513088
2315.80753483141,0.015899961555171
2312.07837616019,0.0131869484641051
2308.34921748896,0.0110480077611499
2304.62005881774,0.00926483577702398
2300.89090014651,0.00828188845572944
2297.16174147528,0.00875071491191218
2293.43258280406,0.0116990535059164
2289.70342413283,0.0171167550618258
2285.9742654616,0.0242383022065701
2282.24510679038,0.031776566320686
2278.51594811915,0.0366334472743458
2274.78678944793,0.0378206471170459
2271.0576307767,0.0375862983532017
2267.32847210547,0.0367029014302371
2263.59931343425,0.03615387278338
2259.87015476302,0.0354612955955899
2256.14099609179,0.0337511794763212
2252.41183742057,0.0310466799978276
2248.68267874934,0.0298920244546989
2244.95352007812,0.0293267093923451
2241.22436140689,0.0296575901426997
2237.49520273566,0.0308095222305325
2233.76604406444,0.0320477837357046
2230.03688539321,0.0326671157402225
2226.30772672198,0.0342118128354573
2222.57856805076,0.0361441553429179
2218.84940937953,0.0395860956256719
2215.1202507083,0.0437103327919603
2211.39109203708,0.0468197261078174
2207.66193336585,0.0481821244457992
2203.93277469463,0.0497167734397271
2200.2036160234,0.0519923507054629
2196.47445735217,0.0545269641840599
2192.74529868095,0.0592640097747998
2189.01614000972,0.0673054021090192
2185.28698133849,0.0777733117810182
2181.55782266727,0.0853518175014817
2177.82866399604,0.0895885637717047
2174.09950532482,0.0928047888224509
2170.37034665359,0.103736201246728
2166.64118798236,0.126574596285749
2162.91202931114,0.155402869104005
2159.18287063991,0.158942622901509
2155.45371196868,0.143360318295215
2151.72455329746,0.127926772050112
2147.99539462623,0.117216753637081
2144.26623595501,0.106453077192096
2140.53707728378,0.0972888725313251
2136.80791861255,0.0857032069444471
2133.07875994133,0.0712076595815549
2129.3496012701,0.0571939748507116
2125.62044259887,0.0470921275842335
2121.89128392765,0.0403395795248895
2118.16212525642,0.0356315777092415
2114.4329665852,0.0330867025776754
2110.70380791397,0.031746474305375
2106.97464924274,0.0313570373571858
2103.24549057152,0.0312861567489961
2099.51633190029,0.0314582778150553
2095.78717322906,0.0287335256954629
2092.05801455784,0.0241570865484294
2088.32885588661,0.0200170262182202
2084.59969721538,0.0181106418873609
2080.87053854416,0.0170368494753631
2077.14137987293,0.016810055307619
2073.41222120171,0.0165221026553267
2069.68306253048,0.0177418329698377
2065.95390385925,0.019514622094009
2062.22474518803,0.0209151233189288
2058.4955865168,0.0207448913198046
2054.76642784557,0.0226054777752218
2051.03726917435,0.0282763570210005
2047.30811050312,0.0339215972378532
2043.5789518319,0.0355909151642662
2039.84979316067,0.037970961782789
2036.12063448944,0.0424130119576423
2032.39147581822,0.0438532323853153
2028.66231714699,0.0414758776653015
2024.93315847576,0.0385840995392357
2021.20399980454,0.0357532881875946
2017.47484113331,0.0318781280049946
2013.74568246209,0.0303103753593711
2010.01652379086,0.0292904436502632
2006.28736511963,0.0259111329894774
2002.55820644841,0.0208252682906739
1998.82904777718,0.0192990179046361
1995.09988910595,0.0203904968306575
1991.37073043473,0.0216247655590288
1987.6415717635,0.0214681116743866
1983.91241309228,0.0254689168386949
1980.18325442105,0.0319677492456722
1976.45409574982,0.0362447388511639
1972.7249370786,0.0352399725170703
1968.99577840737,0.0328929669522903
1965.26661973614,0.0287827103906807
1961.53746106492,0.0249270033429205
1957.80830239369,0.0201266753917344
1954.07914372246,0.0155030131522009
1950.34998505124,0.0123060905888067
1946.62082638001,0.01048773057911
1942.89166770879,0.00752420157482862
1939.16250903756,0.00403519560899496
1935.43335036633,0.00168566970589859
1931.70419169511,1.75816934224273E-05
1927.97503302388,2.2068676827543E-05
1924.24587435265,0.000773858223749251
1920.51671568143,0.000421268697394811
1916.7875570102,-0.0019041634257592
1913.05839833898,-0.00327503549781268
1909.32923966775,-0.0042342244800585
1905.60008099652,-0.00529606990309587
1901.8709223253,-0.00560226917541013
1898.14176365407,-0.00485746002223983
1894.41260498284,-0.00400363250124749
1890.68344631162,-0.00434175205969093
1886.95428764039,-0.00633547526733087
1883.22512896917,-0.00732414465883576
1879.49597029794,-0.00743488288070858
1875.76681162671,-0.0051078955980954
1872.03765295549,-0.00125358980190983
1868.30849428426,-0.00225769538779763
1864.57933561303,-0.00565389784415686
1860.85017694181,-0.00654637617892933
1857.12101827058,-0.00675784377355094
1853.39185959936,-0.00539617750344186
1849.66270092813,-0.000750728858503232
1845.9335422569,0.0014472302888278
1842.20438358568,-0.00247941615139845
1838.47522491445,-0.0043155409374424
1834.74606624322,-0.000758999757027355
1831.016907572,0.00289769556690478
1827.28774890077,0.00191005897584739
1823.55859022954,-0.00109443653272187
1819.82943155832,-0.00153888868752775
1816.10027288709,-0.000318852189197896
1812.37111421587,0.000415239640842408
1808.64195554464,7.95060865068412E-05
1804.91279687341,0.00194249781894302
1801.18363820219,0.00350564039810642
1797.45447953096,0.0053374174079563
1793.72532085973,0.00575419563933562
1789.99616218851,0.00198463395675637
1786.26700351728,0.000508793108064704
1782.53784484606,0.00135488733804293
1778.80868617483,0.00468371584884921
1775.0795275036,0.0108446176924378
1771.35036883238,0.00909376171069764
1767.62121016115,0.00513511925274341
1763.89205148992,0.0073411184941804
1760.1628928187,0.0110355615321838
1756.43373414747,0.0158022279832348
1752.70457547625,0.0216164941450824
1748.97541680502,0.0220765483726146
1745.24625813379,0.0237386551848039
1741.51709946257,0.0359585144644424
1737.78794079134,0.0617595184819275
1734.05878212011,0.089475742104182
1730.32962344889,0.092379812432344
1726.60046477766,0.0784001188237859
1722.87130610643,0.0614808485199657
1719.14214743521,0.0449178930297642
1715.41298876398,0.0230625562893281
1711.68383009276,0.0118859627217578
1707.95467142153,0.0140969726453706
1704.2255127503,0.0224772474861657
1700.49635407908,0.0232351715703226
1696.76719540785,0.010627058810553
1693.03803673662,0.00324300808642019
1689.3088780654,0.00955816451120002
1685.57971939417,0.013980968985739
1681.85056072295,0.00633280654155731
1678.12140205172,0.00486795618946494
1674.39224338049,0.0076001696692416
1670.66308470927,0.00445699136457501
1666.93392603804,-0.000717867237449058
1663.20476736681,-0.00270875381694141
1659.47560869559,0.00312288550969637
1655.74645002436,0.0172741337328241
1652.01729135314,0.0169257736642421
1648.28813268191,0.00708089987123603
1644.55897401068,-0.000357737067571857
1640.82981533946,0.00257795650831099
1637.10065666823,0.00816506325106284
1633.371497997,0.00310888880544162
1629.64233932578,0.00633012966482253
1625.91318065455,0.0141448385615396
1622.18402198333,0.0173124920556982
1618.4548633121,0.0155107655244494
1614.72570464087,0.00862184445190142
1610.99654596965,0.00548361542328779
1607.26738729842,0.00529919142867277
1603.53822862719,0.0041634205477986
1599.80906995597,0.00334200803869327
1596.07991128474,0.00183652853895809
1592.35075261351,-0.00189461198393058
1588.62159394229,-0.00575420737761421
1584.89243527106,-0.0065247177819453
1581.16327659984,-0.00209270578723212
1577.43411792861,0.00222618247858497
1573.70495925738,0.00150391373868156
1569.97580058616,0.00103030300509349
1566.24664191493,0.00496001493591388
1562.5174832437,0.021220292136407
1558.78832457248,0.02419726161787
1555.05916590125,0.00867606596195085
1551.33000723003,0.00445230780225847
1547.6008485588,0.0134020934206917
1543.87168988757,0.0284459707578146
1540.14253121635,0.0245936942777732
1536.41337254512,0.0142770620715141
1532.68421387389,0.0125131878256784
1528.95505520267,0.0176034554851256
1525.22589653144,0.0278309187964116
1521.49673786022,0.0304645587812721
1517.76757918899,0.0257374736585895
1514.03842051776,0.0278843699033359
1510.30926184654,0.0404214764187479
1506.58010317531,0.0392813434832617
1502.85094450408,0.0329528237778447
1499.12178583286,0.0385331345436634
1495.39262716163,0.0442884512446744
1491.66346849041,0.0510319376518012
1487.93430981918,0.0530320336812397
1484.20515114795,0.0553105064449616
1480.47599247673,0.0673086497752592
1476.7468338055,0.0858600656899122
1473.01767513427,0.103736576302117
1469.28851646305,0.126697107328768
1465.55935779182,0.163622619574804
1461.83019912059,0.188813308504634
1458.10104044937,0.180469156652584
1454.37188177814,0.155705322595249
1450.64272310692,0.1412484577156
1446.91356443569,0.118744061824374
1443.18440576446,0.09263544114643
1439.45524709324,0.0758940802995491
1435.72608842201,0.0606489895988927
1431.99692975078,0.0478483740893891
1428.26777107956,0.0407322097012912
1424.53861240833,0.0385899902608469
1420.80945373711,0.0369447702236718
1417.08029506588,0.0269271755614006
1413.35113639465,0.0184767303625466
1409.62197772343,0.0158815561156918
1405.8928190522,0.0155993126820402
1402.16366038097,0.0168204742798721
1398.43450170975,0.0184321850923851
1394.70534303852,0.0163674646784323
1390.9761843673,0.0159463584374778
1387.24702569607,0.0179943754632359
1383.51786702484,0.0208598555708767
1379.78870835362,0.0312135359116592
1376.05954968239,0.0500886660081201
1372.33039101116,0.0755014025264439
1368.60123233994,0.100804854990459
1364.87207366871,0.102584050348716
1361.14291499749,0.0748757277798358
1357.41375632626,0.0503258014322598
1353.68459765503,0.038379670104609
1349.95543898381,0.0328655599077627
1346.22628031258,0.0316835508024518
1342.49712164135,0.0350741210454468
1338.76796297013,0.038602125377379
1335.0388042989,0.0390152619552541
1331.30964562767,0.0376450864807099
1327.58048695645,0.0357711509908403
1323.85132828522,0.0350923897994594
1320.122169614,0.0364147478768004
1316.39301094277,0.039661345776589
1312.66385227154,0.0442009264847467
1308.93469360032,0.0488706881850175
1305.20553492909,0.05318683826714
1301.47637625786,0.0603418727856963
1297.74721758664,0.0770525494656731
1294.01805891541,0.113490284348096
1290.28890024419,0.184308261238733
1286.55974157296,0.291766903746588
1282.83058290173,0.353069159450873
1279.10142423051,0.301297563426911
1275.37226555928,0.240389139271513
1271.64310688805,0.200239437358603
1267.91394821683,0.157272911172878
1264.1847895456,0.138142941582119
1260.45563087438,0.146084021428182
1256.72647220315,0.165201560010258
1252.99731353192,0.18790340942556
1249.2681548607,0.207151653494031
1245.53899618947,0.216099060429416
1241.80983751824,0.212430583668803
1238.08067884702,0.200342314545513
1234.35152017579,0.185239001870146
1230.62236150457,0.17120366289343
1226.89320283334,0.160102734840488
1223.16404416211,0.153126960110267
1219.43488549089,0.149602863967784
1215.70572681966,0.150305639131989
1211.97656814843,0.156643589258193
1208.24740947721,0.16489536736146
1204.51825080598,0.168288293903915
1200.78909213475,0.172408927393225
1197.05993346353,0.183742987863132
1193.3307747923,0.204223368100821
1189.60161612108,0.237979149557996
1185.87245744985,0.278674745691706
1182.14329877862,0.299417385547497
1178.4141401074,0.287880703011786
1174.68498143617,0.257220177771821
1170.95582276494,0.219659681077749
1167.22666409372,0.185477466347214
1163.49750542249,0.165381934118508
1159.76834675127,0.16379780433326
1156.03918808004,0.178615769305801
1152.31002940881,0.207220456651195
1148.58087073759,0.258233455373391
1144.85171206636,0.318569375728441
1141.12255339513,0.329778944984328
1137.39339472391,0.283326006932397
1133.66423605268,0.229683713218069
1129.93507738146,0.187200150564748
1126.20591871023,0.153616311945828
1122.476760039,0.132736121720149
1118.74760136778,0.123440252964736
1115.01844269655,0.122847793116412
1111.28928402532,0.129140452013843
1107.5601253541,0.139575252349816
1103.83096668287,0.152836576271367
1100.10180801165,0.173242528343262
1096.37264934042,0.204191651310279
1092.64349066919,0.249130998022646
1088.91433199797,0.315507048220169
1085.18517332674,0.418230557020612
1081.45601465551,0.581740990796732
1077.72685598429,0.840516863308899
1073.99769731306,1.2235174868547
1070.26853864183,1.65602656969113
1066.53937997061,1.75238193021145
1062.81022129938,1.46016365355918
1059.08106262816,1.12906979350221
1055.35190395693,0.868192572552414
1051.6227452857,0.686033006919397
1047.89358661448,0.559349940570547
1044.16442794325,0.470052137497868
1040.43526927202,0.413366348785824
1036.7061106008,0.389070798402577
1032.97695192957,0.379464547794668
1029.24779325835,0.351193479871369
1025.51863458712,0.292554147378327
1021.78947591589,0.229115832843132
1018.06031724467,0.180568038831364
1014.33115857344,0.148149983000425
1010.60199990221,0.126458385881947
1006.87284123099,0.111389747948428
1003.14368255976,0.100345204025374
999.414523888535,0.0923669343550717
995.685365217309,0.0869985609711402
991.956206546083,0.083973689923286
988.227047874856,0.08271878451583
984.49788920363,0.0830165242650988
980.768730532404,0.084675697219687
977.039571861178,0.0877064248290841
973.310413189951,0.0924982303702613
969.581254518725,0.0990249102422894
965.852095847499,0.107600857650245
962.122937176272,0.119006290554283
958.393778505046,0.13343162141356
954.66461983382,0.15000933476644
950.935461162594,0.168828386239435
947.206302491367,0.190413886310526
943.477143820141,0.216028957407144
939.747985148915,0.247300633060461
936.018826477688,0.288208827339626
932.289667806462,0.343507173388594
928.560509135236,0.419078574861456
924.83135046401,0.519632810048026
921.102191792783,0.649110729686242
917.373033121557,0.799279395269407
913.643874450331,0.937086908419555
909.914715779104,1.00855187170105
906.185557107878,0.991933428935125
902.456398436652,0.904929928648586
898.727239765426,0.785176186401646
894.998081094199,0.6672717547742
891.268922422973,0.571530537885167
887.539763751747,0.502213333072057
883.81060508052,0.453000103313377
880.081446409294,0.416159644159715
876.352287738068,0.384512395041262
872.623129066842,0.356439021992307
868.893970395615,0.331065692093007
865.164811724389,0.307963584132181
861.435653053163,0.28608478694772
857.706494381936,0.26663747096519
853.97733571071,0.252545594195579
850.248177039484,0.249010298316483
846.519018368258,0.248203830231224
842.789859697031,0.231301104385716
839.060701025805,0.204714347291522
835.331542354579,0.184923645638549
831.602383683352,0.169716810774191
827.873225012126,0.155698617962323
824.1440663409,0.141421785599852
820.414907669674,0.128603067538397
816.685748998447,0.117215682520659
812.956590327221,0.107180149996701
809.227431655995,0.0985186127714627
805.498272984768,0.0908626313722473
801.769114313542,0.0848102826061505
798.039955642316,0.0804889542372089
794.31079697109,0.0761279473395007
790.581638299863,0.0711117857427618
786.852479628637,0.0668084124523931
783.123320957411,0.0654527462167686
779.394162286184,0.0716992116529403
775.665003614958,0.0871211763843517
771.935844943732,0.0876628314517826
768.206686272506,0.0647233480790641
764.477527601279,0.0489891674421098
760.748368930053,0.0436763547527209
757.019210258827,0.0411126669920532
753.2900515876,0.0397456882345068
749.560892916374,0.0392254066509981
745.831734245148,0.0381989314684273
742.102575573922,0.0371801366285407
738.373416902695,0.0399458959639496
734.644258231469,0.0435313822006135
730.915099560243,0.041277008075336
727.185940889016,0.038648514611038
723.45678221779,0.0390558405637933
719.727623546564,0.0408955780399486
715.998464875338,0.0437549786668752
712.269306204111,0.0495146672861599
708.540147532885,0.0681950319187098
704.810988861659,0.0996800133923583
701.081830190432,0.112275783256451
697.352671519206,0.0921303370873614
693.62351284798,0.081931254408281
689.894354176754,0.0918719333404134
686.165195505527,0.142102868651957
682.436036834301,0.217001331471349
678.706878163075,0.241696209463887
674.977719491848,0.245651896335131
671.248560820622,0.252762703159295
667.519402149396,0.243855082424538
663.790243478169,0.23593630175875
660.061084806943,0.23416178447799
656.331926135717,0.239955511264967
652.602767464491,0.227932061498703
648.873608793276,0.212395644234372
