Wavenumbercm-1,06:26:53
2998.24357166583,0.180239833730525
2994.5144129946,0.210702888036656
2990.78525432337,0.244859071255648
2987.05609565215,0.297642916299366
2983.32693698092,0.330385406349549
2979.59777830969,0.313328211350411
2975.86861963847,0.277313876028155
2972.13946096724,0.257462752666426
2968.41030229601,0.257221516663402
2964.68114362479,0.25688213660713
2960.95198495356,0.26664612460198
2957.22282628234,0.281160957266992
2953.49366761111,0.297246987117706
2949.76450893988,0.302372986629481
2946.03535026866,0.290306386927288
2942.30619159743,0.279408455392088
2938.5770329262,0.286867570278388
2934.84787425498,0.291287102867929
2931.11871558375,0.283188752750122
2927.38955691253,0.280022458571963
2923.6603982413,0.292218409972089
2919.93123957007,0.298205703766555
2916.20208089885,0.28386785996341
2912.47292222762,0.266792715412414
2908.74376355639,0.261686730146542
2905.01460488517,0.26626955295991
2901.28544621394,0.278438794723762
2897.55628754272,0.285311498268493
2893.82712887149,0.288573381424074
2890.09797020026,0.301122221754811
2886.36881152904,0.317138995354564
2882.63965285781,0.341819039113646
2878.91049418658,0.364663205442296
2875.18133551536,0.356936150524694
2871.45217684413,0.340490184547184
2867.72301817291,0.342022168070507
2863.99385950168,0.339927368673512
2860.26470083045,0.326209667245423
2856.53554215923,0.313722810988073
2852.806383488,0.305358029665615
2849.07722481677,0.292461445277653
2845.34806614555,0.289554329264916
2841.61890747432,0.274695168327762
2837.88974880309,0.240149093674374
2834.16059013187,0.208788455755914
2830.43143146064,0.185378722213771
2826.70227278942,0.1648548637869
2822.97311411819,0.144883506233552
2819.24395544696,0.128663317171357
2815.51479677574,0.118071155542231
2811.78563810451,0.107024364227474
2808.05647943328,0.0947181400393362
2804.32732076206,0.0870163201053709
2800.59816209083,0.0807791317297544
2796.86900341961,0.0746496305979596
2793.13984474838,0.0686073738061198
2789.41068607715,0.0610849709720781
2785.68152740593,0.0528018700236493
2781.9523687347,0.0473280872174003
2778.22321006347,0.0438623319114616
2774.49405139225,0.0393071981996241
2770.76489272102,0.0348711504203922
2767.0357340498,0.0318771620276389
2763.30657537857,0.030171021838243
2759.57741670734,0.0295879770419983
2755.84825803612,0.0289791294039889
2752.11909936489,0.0283474331819991
2748.38994069366,0.0276441306436955
2744.66078202244,0.0284887653136618
2740.93162335121,0.0322809516173686
2737.20246467999,0.0376510425561617
2733.47330600876,0.042782373525942
2729.74414733753,0.0455980645559713
2726.01498866631,0.044515967509656
2722.28582999508,0.0404693014804785
2718.55667132385,0.0360866388691612
2714.82751265263,0.0321980897120147
2711.0983539814,0.0289821707929791
2707.36919531017,0.027236631505155
2703.64003663895,0.027680292043488
2699.91087796772,0.0295852422382688
2696.1817192965,0.0333519342157926
2692.45256062527,0.0382389397946868
2688.72340195404,0.0410869912564626
2684.99424328282,0.0406539526599205
2681.26508461159,0.0376659633332206
2677.53592594036,0.0333043924746632
2673.80676726914,0.0300525598464089
2670.07760859791,0.0280519945479354
2666.34844992669,0.0271416597938467
2662.61929125546,0.0278337533406414
2658.89013258423,0.028280754341925
2655.16097391301,0.0264188126503301
2651.43181524178,0.0233462468786802
2647.70265657055,0.0206449186120272
2643.97349789933,0.0180812328858424
2640.2443392281,0.0167717351921463
2636.51518055688,0.0168613593039341
2632.78602188565,0.0174490732598842
2629.05686321442,0.0186232349536851
2625.3277045432,0.0207198488609739
2621.59854587197,0.0231801566130929
2617.86938720074,0.0260018007825301
2614.14022852952,0.0287100123001894
2610.41106985829,0.0304370185510372
2606.68191118707,0.0321116918821103
2602.95275251584,0.0342835187091705
2599.22359384461,0.0353729014302226
2595.49443517339,0.03677696762398
2591.76527650216,0.0397927576482999
2588.03611783093,0.043325652303184
2584.30695915971,0.0472871161152656
2580.57780048848,0.0507556464813047
2576.84864181725,0.0545882489455008
2573.11948314603,0.0611746452020103
2569.3903244748,0.0682776278013641
2565.66116580358,0.0696340395620069
2561.93200713235,0.064311657723986
2558.20284846112,0.0565909118291568
2554.4736897899,0.0498554704762776
2550.74453111867,0.0440121257446341
2547.01537244744,0.0391938478793157
2543.28621377622,0.0358247090446296
2539.55705510499,0.0332428707447609
2535.82789643377,0.0306489638720064
2532.09873776254,0.0291666033438009
2528.36957909131,0.0284142899878526
2524.64042042009,0.027325952156436
2520.91126174886,0.0263753173992858
2517.18210307763,0.0265158984739629
2513.45294440641,0.0278056996142677
2509.72378573518,0.0288239247356145
2505.99462706396,0.0292675077146547
2502.26546839273,0.0302833777062412
2498.5363097215,0.0320345815825407
2494.80715105028,0.0330947826936849
2491.07799237905,0.0329733605155897
2487.34883370782,0.0326834696584195
2483.6196750366,0.0327420655248303
2479.89051636537,0.031318988400386
2476.16135769415,0.0282937527991346
2472.43219902292,0.02559829190949
2468.70304035169,0.0236022124368582
2464.97388168047,0.021432753638875
2461.24472300924,0.0199544675736978
2457.51556433801,0.0187936441410441
2453.78640566679,0.0176735621897908
2450.05724699556,0.0175409794287634
2446.32808832433,0.0180067032300967
2442.59892965311,0.0181283554436101
2438.86977098188,0.0178871344965774
2435.14061231066,0.0172736636534967
2431.41145363943,0.0163991736052876
2427.6822949682,0.0158138689010046
2423.95313629698,0.0152248825008094
2420.22397762575,0.0146291635964406
2416.49481895452,0.0145492306910355
2412.7656602833,0.0147959805047095
2409.03650161207,0.0140744484854414
2405.30734294085,0.0126702910466749
2401.57818426962,0.0114773594163712
2397.84902559839,0.0113099443771008
2394.11986692717,0.0118677787084099
2390.39070825594,0.0132238636470331
2386.66154958471,0.0165632867939849
2382.93239091349,0.0241046882952162
2379.20323224226,0.0374930055165462
2375.47407357104,0.0540224479651647
2371.74491489981,0.0681061047839321
2368.01575622858,0.0771440970915507
2364.28659755736,0.080159733550221
2360.55743888613,0.0736961710301791
2356.8282802149,0.0566184692336346
2353.09912154368,0.0450842177664424
2349.36996287245,0.0567084047698342
2345.64080420122,0.0868553728283158
2341.91164553,0.109496635640486
2338.18248685877,0.0986691600170397
2334.45332818755,0.0704109911172396
2330.72416951632,0.0520695231384416
2326.99501084509,0.0416760576035983
2323.26585217387,0.0316699426059237
2319.53669350264,0.022318956073839
2315.80753483141,0.0154140361872736
2312.07837616019,0.0109575663628162
2308.34921748896,0.00771845126207366
2304.62005881774,0.00538783962721517
2300.89090014651,0.00410868124448927
2297.16174147528,0.00430130617083792
2293.43258280406,0.00650095854904642
2289.70342413283,0.00999478539136377
2285.9742654616,0.0141106242418013
2282.24510679038,0.018202132956973
2278.51594811915,0.0202678114330687
2274.78678944793,0.020772041709723
2271.0576307767,0.0209185282316698
2267.32847210547,0.0202511686130569
2263.59931343425,0.0192239158941424
2259.87015476302,0.0189611766568914
2256.14099609179,0.0185410737467173
2252.41183742057,0.0180484160023967
2248.68267874934,0.0195118057795907
2244.95352007812,0.0209900492823137
2241.22436140689,0.022337858749405
2237.49520273566,0.0242056613431396
2233.76604406444,0.0262647651205456
2230.03688539321,0.0284367910026455
2226.30772672198,0.0308800612574223
2222.57856805076,0.0325027635076338
2218.84940937953,0.0347853480610614
2215.1202507083,0.0388320852852578
2211.39109203708,0.0426214982334431
2207.66193336585,0.0444746628900133
2203.93277469463,0.0463015323528732
2200.2036160234,0.0486433645143004
2196.47445735217,0.0513136743467547
2192.74529868095,0.0569726491232508
2189.01614000972,0.0656961651676126
2185.28698133849,0.0754054756842995
2181.55782266727,0.0823781048337222
2177.82866399604,0.0862303473459817
2174.09950532482,0.0896746737318849
2170.37034665359,0.100439245110293
2166.64118798236,0.122940211064157
2162.91202931114,0.150387815609668
2159.18287063991,0.154771815608077
2155.45371196868,0.140667889151504
2151.72455329746,0.125612922718507
2147.99539462623,0.114674193208288
2144.26623595501,0.104345242175578
2140.53707728378,0.0954959846803349
2136.80791861255,0.0845455849829196
2133.07875994133,0.0703317153233339
2129.3496012701,0.0561519747577271
2125.62044259887,0.0458143267845037
2121.89128392765,0.03911724493669
2118.16212525642,0.0346715785225892
2114.4329665852,0.0327790365763293
2110.70380791397,0.0321713187611393
2106.97464924274,0.031926896693456
2103.24549057152,0.031891321228786
2099.51633190029,0.0315275472720633
2095.78717322906,0.0282452598624439
2092.05801455784,0.0232753241614234
2088.32885588661,0.0188764149399531
2084.59969721538,0.0163890941693046
2080.87053854416,0.0153463508905791
2077.14137987293,0.0151846064189169
2073.41222120171,0.0152480966835428
2069.68306253048,0.0168927629131898
2065.95390385925,0.0184887198761165
2062.22474518803,0.0190628038416833
2058.4955865168,0.0195682105424426
2054.76642784557,0.0223621685388165
2051.03726917435,0.0277704419945847
2047.30811050312,0.0327749924272174
2043.5789518319,0.0352465768935192
2039.84979316067,0.038288305763484
2036.12063448944,0.0420774880831581
2032.39147581822,0.0433086165490686
2028.66231714699,0.0409371944887397
2024.93315847576,0.0369008052077338
2021.20399980454,0.0333395469640701
2017.47484113331,0.030695741577317
2013.74568246209,0.0296189232641434
2010.01652379086,0.027668993888566
2006.28736511963,0.0236230742321184
2002.55820644841,0.0191322987660077
1998.82904777718,0.0172422547912656
1995.09988910595,0.0177122616916359
1991.37073043473,0.0187804484617998
1987.6415717635,0.019262584721558
1983.91241309228,0.0232898158419888
1980.18325442105,0.029866884512268
1976.45409574982,0.0341169403484284
1972.7249370786,0.0336669276234343
1968.99577840737,0.0314364858847809
1965.26661973614,0.027832661857459
1961.53746106492,0.0237056760804512
1957.80830239369,0.0184947702937515
1954.07914372246,0.0139564970516682
1950.34998505124,0.0109061965491737
1946.62082638001,0.00883270835709802
1942.89166770879,0.00592873292778929
1939.16250903756,0.00284083744877177
1935.43335036633,0.000424742989011609
1931.70419169511,-0.0013861226506159
1927.97503302388,-0.00205258193679043
1924.24587435265,-0.00185694888703576
1920.51671568143,-0.00233777452425922
1916.7875570102,-0.00421487321774517
1913.05839833898,-0.00547980252948082
1909.32923966775,-0.00637153352855823
1905.60008099652,-0.00745832718065864
1901.8709223253,-0.00777553937083347
1898.14176365407,-0.0072462858459591
1894.41260498284,-0.00643301789485834
1890.68344631162,-0.00670284117515198
1886.95428764039,-0.00841881360794718
1883.22512896917,-0.00950919539310625
1879.49597029794,-0.00992685281238648
1875.76681162671,-0.00835519000315388
1872.03765295549,-0.00518870469055192
1868.30849428426,-0.00560950826135166
1864.57933561303,-0.00812886417966015
1860.85017694181,-0.00873821411161816
1857.12101827058,-0.00879140217160017
1853.39185959936,-0.00761334286509495
1849.66270092813,-0.00387571923759421
1845.9335422569,-0.00179622876158268
1842.20438358568,-0.00461351943296165
1838.47522491445,-0.00595886091237664
1834.74606624322,-0.0031709018383423
1831.016907572,-0.000152910183751372
1827.28774890077,-0.000870175904858287
1823.55859022954,-0.00317799971086316
1819.82943155832,-0.00350558397147154
1816.10027288709,-0.00241771701138341
1812.37111421587,-0.00183611832006252
1808.64195554464,-0.00219280793123375
1804.91279687341,-0.000874172614770758
1801.18363820219,0.000414657768780952
1797.45447953096,0.0019816327141482
1793.72532085973,0.00250323590369774
1789.99616218851,-0.000250938286085819
1786.26700351728,-0.00125778627263773
1782.53784484606,-0.000546223496965413
1778.80868617483,0.00197421860885602
1775.0795275036,0.00685405577892584
1771.35036883238,0.00571415346912959
1767.62121016115,0.00255056576287068
1763.89205148992,0.00313346089008104
1760.1628928187,0.00370097115400789
1756.43373414747,0.00474116996344685
1752.70457547625,0.00754693463740434
1748.97541680502,0.00728044697990449
1745.24625813379,0.00782083550761956
1741.51709946257,0.0141099383470801
1737.78794079134,0.0245711964699792
1734.05878212011,0.0295094148645787
1730.32962344889,0.0248106697894565
1726.60046477766,0.024909444624689
1722.87130610643,0.0326945202312408
1719.14214743521,0.0356657760263872
1715.41298876398,0.0217730980124959
1711.68383009276,0.0105877598549473
1707.95467142153,0.0101063035887188
1704.2255127503,0.0158745156488404
1700.49635407908,0.0167711966112543
1696.76719540785,0.00725346401057162
1693.03803673662,0.0014640672149411
1689.3088780654,0.00640339369831458
1685.57971939417,0.0103313741391524
1681.85056072295,0.00510186540914109
1678.12140205172,0.00470135717747087
1674.39224338049,0.00774851903626077
1670.66308470927,0.00622842064853056
1666.93392603804,0.00318026683884734
1663.20476736681,0.0025245876077815
1659.47560869559,0.00793187784485499
1655.74645002436,0.0198220803059762
1652.01729135314,0.0202016110569216
1648.28813268191,0.0126423433991168
1644.55897401068,0.00685211358196932
1640.82981533946,0.00900524718109989
1637.10065666823,0.0132354788779203
1633.371497997,0.00814238982637928
1629.64233932578,0.00769392860960893
1625.91318065455,0.0105916568651314
1622.18402198333,0.0122555377960969
1618.4548633121,0.011757934486222
1614.72570464087,0.00659662913273179
1610.99654596965,0.00324300203774853
1607.26738729842,0.00245120427711463
1603.53822862719,0.00161165211603578
1599.80906995597,0.00118794757744525
1596.07991128474,0.00049163566533184
1592.35075261351,-0.00148703641885671
1588.62159394229,-0.00359202185714979
1584.89243527106,-0.00388067767862305
1581.16327659984,-0.000347952404974425
1577.43411792861,0.00308466866971945
1573.70495925738,0.0027125403341485
1569.97580058616,0.00236422281643212
1566.24664191493,0.00545076638868663
1562.5174832437,0.0181115886448554
1558.78832457248,0.0207174330406465
1555.05916590125,0.00876995834477382
1551.33000723003,0.00555034285885181
1547.6008485588,0.0126572068079763
1543.87168988757,0.0251726561508063
1540.14253121635,0.0242069364317391
1536.41337254512,0.0188989521623755
1532.68421387389,0.0201450609001631
1528.95505520267,0.024454594543377
1525.22589653144,0.0306643959981439
1521.49673786022,0.0311078509403222
1517.76757918899,0.026904439207195
1514.03842051776,0.028648941021447
1510.30926184654,0.0390921216181263
1506.58010317531,0.0395996962863682
1502.85094450408,0.0360792139246012
1499.12178583286,0.0422473254258805
1495.39262716163,0.0489827040312753
1491.66346849041,0.0563473540904693
1487.93430981918,0.0603548271291774
1484.20515114795,0.0646187228819407
1480.47599247673,0.077216080985956
1476.7468338055,0.0956426795808093
1473.01767513427,0.113924708211268
1469.28851646305,0.136569553560758
1465.55935779182,0.170780909597256
1461.83019912059,0.192085251145222
1458.10104044937,0.181489184166384
1454.37188177814,0.15828616532039
1450.64272310692,0.144809139988973
1446.91356443569,0.122621269361191
1443.18440576446,0.0958702456654963
1439.45524709324,0.0771760373969207
1435.72608842201,0.0613906013688454
1431.99692975078,0.0488571765191013
1428.26777107956,0.0414084871043976
1424.53861240833,0.0384688081461453
1420.80945373711,0.0364480301500159
1417.08029506588,0.0287047886927748
1413.35113639465,0.0230338163720722
1409.62197772343,0.0232752084386258
1405.8928190522,0.0283580862473669
1402.16366038097,0.0374955907974051
1398.43450170975,0.0424165677880831
1394.70534303852,0.0342970725170123
1390.9761843673,0.0247471976469632
1387.24702569607,0.020163586260837
1383.51786702484,0.0182707605811704
1379.78870835362,0.0222281532218029
1376.05954968239,0.0358938911352178
1372.33039101116,0.0671085371170851
1368.60123233994,0.109377890617316
1364.87207366871,0.117098817120308
1361.14291499749,0.0782733997659248
1357.41375632626,0.0454055732753468
1353.68459765503,0.0315126594158861
1349.95543898381,0.026818951462637
1346.22628031258,0.0267233806801867
1342.49712164135,0.0312377641402502
1338.76796297013,0.0368777836334934
1335.0388042989,0.0404331428023001
1331.30964562767,0.0412804890318732
1327.58048695645,0.0395083777319699
1323.85132828522,0.0381136225097231
1320.122169614,0.0392475223297586
1316.39301094277,0.0452178967124139
1312.66385227154,0.0571114236093301
1308.93469360032,0.0714261881892562
1305.20553492909,0.082456122631305
1301.47637625786,0.0958500176302172
1297.74721758664,0.118604112850567
1294.01805891541,0.149517022172049
1290.28890024419,0.185930282494307
1286.55974157296,0.223753309320158
1282.83058290173,0.219158166185634
1279.10142423051,0.161770882764523
1275.37226555928,0.114530752289015
1271.64310688805,0.0969236452603291
1267.91394821683,0.0925605526001493
1264.1847895456,0.0929096278064212
1260.45563087438,0.0981311502474278
1256.72647220315,0.108612844922666
1252.99731353192,0.123551570980779
1249.2681548607,0.140389913191131
1245.53899618947,0.151282297612705
1241.80983751824,0.14818990813536
1238.08067884702,0.13469057420517
1234.35152017579,0.122562876423513
1230.62236150457,0.115928650032745
1226.89320283334,0.113495531832236
1223.16404416211,0.11399886569732
1219.43488549089,0.116418449916883
1215.70572681966,0.120339864945539
1211.97656814843,0.126267268122467
1208.24740947721,0.133076836596203
1204.51825080598,0.139111941334943
1200.78909213475,0.147583917230076
1197.05993346353,0.1611764573475
1193.3307747923,0.176885685803308
1189.60161612108,0.189802548775567
1185.87245744985,0.203662969522413
1182.14329877862,0.227032418100275
1178.4141401074,0.24634873525513
1174.68498143617,0.231726127067691
1170.95582276494,0.193063509942468
1167.22666409372,0.158742353661108
1163.49750542249,0.137671925977034
1159.76834675127,0.129597270921668
1156.03918808004,0.133573738154065
1152.31002940881,0.148462471062792
1148.58087073759,0.172727195174223
1144.85171206636,0.190242449858793
1141.12255339513,0.179872330329305
1137.39339472391,0.151549029038012
1133.66423605268,0.126200912184606
1129.93507738146,0.110617935395373
1126.20591871023,0.103123560855179
1122.476760039,0.101596301558123
1118.74760136778,0.105075802729942
1115.01844269655,0.112370848082704
1111.28928402532,0.120874826353038
1107.5601253541,0.131609472466339
1103.83096668287,0.148577124720876
1100.10180801165,0.173754929789183
1096.37264934042,0.20698369916487
1092.64349066919,0.249857092054908
1088.91433199797,0.311307604125182
1085.18517332674,0.40876706180259
1081.45601465551,0.566476253573166
1077.72685598429,0.817571633126988
1073.99769731306,1.18930078513228
1070.26853864183,1.61260570777092
1066.53937997061,1.74534351209042
1062.81022129938,1.51434044839717
1059.08106262816,1.19786963330478
1055.35190395693,0.917696785895976
1051.6227452857,0.705612322000806
1047.89358661448,0.556870914017396
1044.16442794325,0.459807371043559
1040.43526927202,0.40500012026591
1036.7061106008,0.385745641448331
1032.97695192957,0.383761255896077
1029.24779325835,0.365302575984874
1025.51863458712,0.311622721218554
1021.78947591589,0.244109707830905
1018.06031724467,0.189363049309797
1014.33115857344,0.153458141791589
1010.60199990221,0.13023880878545
1006.87284123099,0.114327644900001
1003.14368255976,0.102781568289374
999.414523888535,0.0943636714635688
995.685365217309,0.0882518787715356
991.956206546083,0.084512227457433
988.227047874856,0.0826930161852623
984.49788920363,0.0824644675333229
980.768730532404,0.0835636092660776
977.039571861178,0.0860548447174736
973.310413189951,0.0902071034404522
969.581254518725,0.0961551271342557
965.852095847499,0.104280563104788
962.122937176272,0.115401846703889
958.393778505046,0.129845649506304
954.66461983382,0.147821869463581
950.935461162594,0.169730477618914
947.206302491367,0.192306875434213
943.477143820141,0.214669696624529
939.747985148915,0.242898752832993
936.018826477688,0.282498170264526
932.289667806462,0.336563395749097
928.560509135236,0.409972417253726
924.83135046401,0.508390638781385
921.102191792783,0.637067647073992
917.373033121557,0.786551701824546
913.643874450331,0.921776891508784
909.914715779104,0.994025427286216
906.185557107878,0.988880076073662
902.456398436652,0.915610312982712
898.727239765426,0.802656568158535
894.998081094199,0.682829127830712
891.268922422973,0.577173713613665
887.539763751747,0.493625925507894
883.81060508052,0.433640378204092
880.081446409294,0.392376072242873
876.352287738068,0.36344611179624
872.623129066842,0.341881167170606
868.893970395615,0.322346389033795
865.164811724389,0.301843828926393
861.435653053163,0.28147451240052
857.706494381936,0.264145305182441
853.97733571071,0.251615996765353
850.248177039484,0.243328899394484
846.519018368258,0.231898644599505
842.789859697031,0.217957060422579
839.060701025805,0.205957931698223
835.331542354579,0.195217541226157
831.602383683352,0.183625931463009
827.873225012126,0.171796738170898
824.1440663409,0.160742150999694
820.414907669674,0.151327161514082
816.685748998447,0.140648808772795
812.956590327221,0.128083176468805
809.227431655995,0.115748610760803
805.498272984768,0.105778560388337
801.769114313542,0.0985083596004169
798.039955642316,0.0940232551912095
794.31079697109,0.0897113746077434
790.581638299863,0.0860567460630704
786.852479628637,0.088349824011921
783.123320957411,0.10690815440621
779.394162286184,0.116012786760135
775.665003614958,0.0946640141477583
771.935844943732,0.0802851289624033
768.206686272506,0.0795250585169607
764.477527601279,0.0847074276862379
760.748368930053,0.0957682222786472
757.019210258827,0.10395772854876
753.2900515876,0.102466096529701
749.560892916374,0.0988601650456605
745.831734245148,0.0953232601375271
742.102575573922,0.0895615431149211
738.373416902695,0.0839574315370936
734.644258231469,0.0775332273401466
730.915099560243,0.0702185822756919
727.185940889016,0.0628009098168986
723.45678221779,0.0591739379397259
719.727623546564,0.06128353220977
715.998464875338,0.0754404422374573
712.269306204111,0.0923139393055753
708.540147532885,0.0901386684738796
704.810988861659,0.0872465040234301
701.081830190432,0.0897694234936664
697.352671519206,0.0863308619849255
693.62351284798,0.0882123120163342
689.894354176754,0.0970316801277069
686.165195505527,0.126384086876684
682.436036834301,0.161394160133118
678.706878163075,0.160033648245529
674.977719491848,0.156965214192619
671.248560820622,0.193385218282841
667.519402149396,0.242686459813396
663.790243478169,0.273480916998504
660.061084806943,0.276344736875546
656.331926135717,0.274594943405754
652.602767464491,0.269505194917462
648.873608793276,0.258647108956093
