Wavenumbercm-1,00:54:51
2998.24357166583,0.179302721058176
2994.5144129946,0.210976026055643
2990.78525432337,0.244372059330583
2987.05609565215,0.300242601810088
2983.32693698092,0.334578448307731
2979.59777830969,0.316665709828502
2975.86861963847,0.283500403102369
2972.13946096724,0.26278433948138
2968.41030229601,0.259395698918676
2964.68114362479,0.258355866993637
2960.95198495356,0.269216339317152
2957.22282628234,0.284752185503907
2953.49366761111,0.301664888501231
2949.76450893988,0.305070104258563
2946.03535026866,0.289564939619171
2942.30619159743,0.278089688227
2938.5770329262,0.286462495555732
2934.84787425498,0.292041902830184
2931.11871558375,0.288080519629335
2927.38955691253,0.28669385914114
2923.6603982413,0.299761182772464
2919.93123957007,0.306348408510472
2916.20208089885,0.289403545333544
2912.47292222762,0.269511143143979
2908.74376355639,0.264043405016714
2905.01460488517,0.270975932436236
2901.28544621394,0.285573186213042
2897.55628754272,0.293846039476016
2893.82712887149,0.295505240171725
2890.09797020026,0.304217711385369
2886.36881152904,0.319290990960893
2882.63965285781,0.345559271636942
2878.91049418658,0.370100736690106
2875.18133551536,0.36053403667358
2871.45217684413,0.340391398411374
2867.72301817291,0.341407732560779
2863.99385950168,0.339761100449245
2860.26470083045,0.326542719883194
2856.53554215923,0.315323291956392
2852.806383488,0.308758110405346
2849.07722481677,0.298741516184953
2845.34806614555,0.299149158593264
2841.61890747432,0.2841095013068
2837.88974880309,0.2470801026491
2834.16059013187,0.213455920815313
2830.43143146064,0.188969000287545
2826.70227278942,0.167676700342279
2822.97311411819,0.147124036146492
2819.24395544696,0.131084604069083
2815.51479677574,0.120517493505946
2811.78563810451,0.108542811359214
2808.05647943328,0.0944443437847508
2804.32732076206,0.085741111793363
2800.59816209083,0.0792713448391439
2796.86900341961,0.0729113223083561
2793.13984474838,0.0662649566629748
2789.41068607715,0.0583535462945964
2785.68152740593,0.0506343409954683
2781.9523687347,0.0458830331084226
2778.22321006347,0.0427135235828871
2774.49405139225,0.0389438944768658
2770.76489272102,0.03526134582134
2767.0357340498,0.0325790513342736
2763.30657537857,0.0302661335656408
2759.57741670734,0.0288445718899547
2755.84825803612,0.0286708151186992
2752.11909936489,0.0290826399951571
2748.38994069366,0.0287308730082947
2744.66078202244,0.0292563391989689
2740.93162335121,0.0318616388508222
2737.20246467999,0.035098772029947
2733.47330600876,0.038404997899923
2729.74414733753,0.0406529758088442
2726.01498866631,0.0406896995241137
2722.28582999508,0.0384696567871552
2718.55667132385,0.0356104432254232
2714.82751265263,0.0326540531768743
2711.0983539814,0.0300298776081727
2707.36919531017,0.0282335053072917
2703.64003663895,0.0281985557515629
2699.91087796772,0.0300949000181671
2696.1817192965,0.0343338573661782
2692.45256062527,0.039766144405422
2688.72340195404,0.043136365233915
2684.99424328282,0.0427450516232144
2681.26508461159,0.0396795722075811
2677.53592594036,0.0355651201973925
2673.80676726914,0.0321099009104867
2670.07760859791,0.0293261658511467
2666.34844992669,0.027780831428093
2662.61929125546,0.0283646854999503
2658.89013258423,0.0291647521825672
2655.16097391301,0.0276104683498928
2651.43181524178,0.0238288422924368
2647.70265657055,0.0200340633939458
2643.97349789933,0.0172036773991161
2640.2443392281,0.0163050568749997
2636.51518055688,0.0168963670442153
2632.78602188565,0.0174150758390991
2629.05686321442,0.0177869700328936
2625.3277045432,0.0186981485526847
2621.59854587197,0.0200713589975408
2617.86938720074,0.0214678114543249
2614.14022852952,0.022399383642413
2610.41106985829,0.023430750724961
2606.68191118707,0.0245402063482263
2602.95275251584,0.0252017690854715
2599.22359384461,0.0250385310697687
2595.49443517339,0.0258526507073349
2591.76527650216,0.0280261049197383
2588.03611783093,0.0303440749297895
2584.30695915971,0.0332133196458689
2580.57780048848,0.0358788484099968
2576.84864181725,0.0362871889055977
2573.11948314603,0.0348705458109054
2569.3903244748,0.0334938050972237
2565.66116580358,0.0317363935174131
2561.93200713235,0.0304571797660507
2558.20284846112,0.0307652364361428
2554.4736897899,0.0321455954409954
2550.74453111867,0.0324971989280699
2547.01537244744,0.0314871670474536
2543.28621377622,0.0298072971630659
2539.55705510499,0.027922610847207
2535.82789643377,0.0262431337221856
2532.09873776254,0.0256466891686296
2528.36957909131,0.0256279544430255
2524.64042042009,0.0251315874388685
2520.91126174886,0.0242560823354463
2517.18210307763,0.0239443276039687
2513.45294440641,0.0244591011883629
2509.72378573518,0.025158826180748
2505.99462706396,0.0257116552738193
2502.26546839273,0.026338118507298
2498.5363097215,0.0268949043814873
2494.80715105028,0.0265123075418865
2491.07799237905,0.025908537855023
2487.34883370782,0.0257557956165514
2483.6196750366,0.0254289621615515
2479.89051636537,0.0244975430470517
2476.16135769415,0.0237111829925516
2472.43219902292,0.0228819270050652
2468.70304035169,0.0214131673700092
2464.97388168047,0.0195318860668532
2461.24472300924,0.0184927897290035
2457.51556433801,0.0182930603916836
2453.78640566679,0.0184935245225169
2450.05724699556,0.0186066877458508
2446.32808832433,0.0184481019296771
2442.59892965311,0.0181363478474924
2438.86977098188,0.0178013778483935
2435.14061231066,0.017258852946189
2431.41145363943,0.0164973483653005
2427.6822949682,0.0159698257054402
2423.95313629698,0.0157451372832143
2420.22397762575,0.0161406578176254
2416.49481895452,0.016983777424172
2412.7656602833,0.0173526286873731
2409.03650161207,0.0163093858548482
2405.30734294085,0.0146555116732361
2401.57818426962,0.0133506418402711
2397.84902559839,0.0128952362869464
2394.11986692717,0.0126327739357782
2390.39070825594,0.0130352067165281
2386.66154958471,0.0152306217985477
2382.93239091349,0.0205126796652366
2379.20323224226,0.0302597823229308
2375.47407357104,0.0432421687510193
2371.74491489981,0.0552181756843343
2368.01575622858,0.0626141432083756
2364.28659755736,0.0635371582334726
2360.55743888613,0.0554256896071636
2356.8282802149,0.0385426777658476
2353.09912154368,0.0264518402224578
2349.36996287245,0.0305238745117242
2345.64080420122,0.0408462586262328
2341.91164553,0.0444806890815231
2338.18248685877,0.0424960506940623
2334.45332818755,0.0376554763691406
2330.72416951632,0.0312231069447577
2326.99501084509,0.0246544822339922
2323.26585217387,0.0184829407834814
2319.53669350264,0.0129717845017853
2315.80753483141,0.00904104760886181
2312.07837616019,0.00744656665777812
2308.34921748896,0.00697057347951642
2304.62005881774,0.00596139619493874
2300.89090014651,0.00384022831803432
2297.16174147528,0.00121908106588494
2293.43258280406,-0.000403716234255942
2289.70342413283,-3.02614969787309E-05
2285.9742654616,0.00169981144291546
2282.24510679038,0.00407025732938153
2278.51594811915,0.00604073774985571
2274.78678944793,0.00772725146219395
2271.0576307767,0.00973671889620661
2267.32847210547,0.0114689466946137
2263.59931343425,0.0128494649054141
2259.87015476302,0.014069752181868
2256.14099609179,0.0150871592697546
2252.41183742057,0.0163022989929426
2248.68267874934,0.0184738533921961
2244.95352007812,0.0198778875063833
2241.22436140689,0.0211554038756263
2237.49520273566,0.0227560866640636
2233.76604406444,0.0240829361151533
2230.03688539321,0.0252828060543798
2226.30772672198,0.0278466086786066
2222.57856805076,0.030284733806662
2218.84940937953,0.0325925229614469
2215.1202507083,0.0359609294572786
2211.39109203708,0.0399587912140827
2207.66193336585,0.0422628976564703
2203.93277469463,0.043668964179855
2200.2036160234,0.0457088482211569
2196.47445735217,0.0487245811427217
2192.74529868095,0.0541145833000402
2189.01614000972,0.0623719064188337
2185.28698133849,0.0726867135488361
2181.55782266727,0.0804906379153958
2177.82866399604,0.0852361785591608
2174.09950532482,0.0901633267062055
2170.37034665359,0.102014132507783
2166.64118798236,0.125365750557029
2162.91202931114,0.153888473054773
2159.18287063991,0.15747747868092
2155.45371196868,0.142405274817896
2151.72455329746,0.127235021887693
2147.99539462623,0.116776659033224
2144.26623595501,0.106235573569397
2140.53707728378,0.0966813482056295
2136.80791861255,0.0852976197309571
2133.07875994133,0.071313435253639
2129.3496012701,0.0574458910765595
2125.62044259887,0.0469181161635762
2121.89128392765,0.0399318135722027
2118.16212525642,0.035710934684025
2114.4329665852,0.0338498136884164
2110.70380791397,0.0327659776348369
2106.97464924274,0.0321004957461474
2103.24549057152,0.0314580121457349
2099.51633190029,0.0306892154720652
2095.78717322906,0.0276453387044463
2092.05801455784,0.0230013549500792
2088.32885588661,0.018876279397365
2084.59969721538,0.016505672803308
2080.87053854416,0.014944249230807
2077.14137987293,0.0144575570410125
2073.41222120171,0.0143997645493615
2069.68306253048,0.0158155551954039
2065.95390385925,0.0174160531236174
2062.22474518803,0.0184315990302689
2058.4955865168,0.0186426274728941
2054.76642784557,0.0203996514601239
2051.03726917435,0.0250801742077551
2047.30811050312,0.0298785209436278
2043.5789518319,0.0319476605952976
2039.84979316067,0.0350009583607389
2036.12063448944,0.0386813697219958
2032.39147581822,0.0392545597832996
2028.66231714699,0.0370993856397852
2024.93315847576,0.0338910150521767
2021.20399980454,0.0306524774442472
2017.47484113331,0.02737459968402
2013.74568246209,0.0256043087989365
2010.01652379086,0.0246400269542274
2006.28736511963,0.0222553452266678
2002.55820644841,0.0180714984369247
1998.82904777718,0.0159696114772641
1995.09988910595,0.0164773784967031
1991.37073043473,0.0174910283426846
1987.6415717635,0.017643346447486
1983.91241309228,0.0213481586518689
1980.18325442105,0.0276712626120836
1976.45409574982,0.0320788157976286
1972.7249370786,0.0315870591774244
1968.99577840737,0.0294686613343874
1965.26661973614,0.0259772132561739
1961.53746106492,0.022041466644759
1957.80830239369,0.016898064162303
1954.07914372246,0.0124587951354232
1950.34998505124,0.00940699938492343
1946.62082638001,0.0072741040665814
1942.89166770879,0.004237731027751
1939.16250903756,0.00104682896641729
1935.43335036633,-0.00132631103553712
1931.70419169511,-0.00297986860693822
1927.97503302388,-0.00330026575164118
1924.24587435265,-0.00308857648152584
1920.51671568143,-0.00382703801212174
1916.7875570102,-0.00586391115992677
1913.05839833898,-0.00696425893766473
1909.32923966775,-0.00771264908327002
1905.60008099652,-0.00879819527849146
1901.8709223253,-0.00910933172023525
1898.14176365407,-0.00860948813746083
1894.41260498284,-0.0080690471198994
1890.68344631162,-0.00847705671664407
1886.95428764039,-0.0102649708933355
1883.22512896917,-0.0113299560743091
1879.49597029794,-0.011517557847955
1875.76681162671,-0.00973049342895387
1872.03765295549,-0.00658145364971895
1868.30849428426,-0.00710632084063876
1864.57933561303,-0.00963628495899941
1860.85017694181,-0.0102584467908561
1857.12101827058,-0.0104003473203636
1853.39185959936,-0.00918876609028286
1849.66270092813,-0.00531489896736457
1845.9335422569,-0.00326968283872308
1842.20438358568,-0.00625765956142035
1838.47522491445,-0.00762617212411243
1834.74606624322,-0.0047274437789085
1831.016907572,-0.00169576097280961
1827.28774890077,-0.00253023593363999
1823.55859022954,-0.00496750090298435
1819.82943155832,-0.00527503996027211
1816.10027288709,-0.00417960325980188
1812.37111421587,-0.00370342045744224
1808.64195554464,-0.00426218027783442
1804.91279687341,-0.00301274110688973
1801.18363820219,-0.00167465657576608
1797.45447953096,4.13103163561203E-05
1793.72532085973,0.000485928904133551
1789.99616218851,-0.00262680983333018
1786.26700351728,-0.00406226075877557
1782.53784484606,-0.00375829504258062
1778.80868617483,-0.0014410088125167
1775.0795275036,0.00309881729969534
1771.35036883238,0.00108307518277271
1767.62121016115,-0.0029560312306141
1763.89205148992,-0.00307045291195321
1760.1628928187,-0.00291414921158107
1756.43373414747,-0.00169836574306238
1752.70457547625,0.0013298378709615
1748.97541680502,0.00019730281259415
1745.24625813379,-0.00153151655694891
1741.51709946257,0.000630884370853892
1737.78794079134,0.0045562291616854
1734.05878212011,0.00251360914120465
1730.32962344889,-0.00487206972919581
1726.60046477766,-0.00538360397263009
1722.87130610643,0.00285074864908636
1719.14214743521,0.010090173673792
1715.41298876398,0.00267651757502021
1711.68383009276,-0.00333878537221055
1707.95467142153,0.000133135513702766
1704.2255127503,0.0084360423679574
1700.49635407908,0.0105649110901333
1696.76719540785,0.00113134508941136
1693.03803673662,-0.00461375141118046
1689.3088780654,0.000665571734353944
1685.57971939417,0.0046924276336406
1681.85056072295,-0.000908551758588067
1678.12140205172,-0.00145946978519905
1674.39224338049,0.00120745353434999
1670.66308470927,-0.000995488743638674
1666.93392603804,-0.00489523906136019
1663.20476736681,-0.0063886491679841
1659.47560869559,-0.00164101715891194
1655.74645002436,0.00978446556155401
1652.01729135314,0.00966419287045082
1648.28813268191,0.0018826916224277
1644.55897401068,-0.00396033559171493
1640.82981533946,-0.00151196010608201
1637.10065666823,0.00275306800351026
1633.371497997,-0.00242210607563265
1629.64233932578,-0.00180226280952497
1625.91318065455,0.00322714560689532
1622.18402198333,0.00716389611892033
1618.4548633121,0.00962884913397269
1614.72570464087,0.00828239137827076
1610.99654596965,0.0082824852143728
1607.26738729842,0.00953012115551568
1603.53822862719,0.00921797020882166
1599.80906995597,0.00878719739911464
1596.07991128474,0.00698267615766922
1592.35075261351,0.00212888137472806
1588.62159394229,-0.00287903149408712
1584.89243527106,-0.00435474408583999
1581.16327659984,-0.000919136735291234
1577.43411792861,0.00236311225691178
1573.70495925738,0.00136186242899869
1569.97580058616,0.000497478299918174
1566.24664191493,0.00344061991490975
1562.5174832437,0.0164073694251387
1558.78832457248,0.0186143989223837
1555.05916590125,0.00604175302640955
1551.33000723003,0.00282458989841412
1547.6008485588,0.0104257249351972
1543.87168988757,0.0231102676420469
1540.14253121635,0.0204012539148178
1536.41337254512,0.0121177589602799
1532.68421387389,0.0106560461491191
1528.95505520267,0.0149169815870305
1525.22589653144,0.0233464359474705
1521.49673786022,0.0256446337026384
1517.76757918899,0.0221808839694801
1514.03842051776,0.0244699682055505
1510.30926184654,0.035385292278176
1506.58010317531,0.0355426534382584
1502.85094450408,0.0314132388062406
1499.12178583286,0.0369629283147007
1495.39262716163,0.0428344035006023
1491.66346849041,0.0496467798281083
1487.93430981918,0.0534616269411167
1484.20515114795,0.0578549978172845
1480.47599247673,0.0698457388871341
1476.7468338055,0.0866718252630424
1473.01767513427,0.104154995980789
1469.28851646305,0.128021166503476
1465.55935779182,0.16483067363173
1461.83019912059,0.189235436656435
1458.10104044937,0.180720908011394
1454.37188177814,0.157687551390435
1450.64272310692,0.144076969113751
1446.91356443569,0.121703432455164
1443.18440576446,0.0947180306550156
1439.45524709324,0.075874773302797
1435.72608842201,0.0597633421855891
1431.99692975078,0.046795787004302
1428.26777107956,0.038861881652551
1424.53861240833,0.0353348014027233
1420.80945373711,0.0326760209820386
1417.08029506588,0.0240304558402257
1413.35113639465,0.0171553372463126
1409.62197772343,0.0147790934952731
1405.8928190522,0.0140255138772203
1402.16366038097,0.0144097451088993
1398.43450170975,0.0151723950516254
1394.70534303852,0.0131043202770078
1390.9761843673,0.0122188768100838
1387.24702569607,0.0126903317598758
1383.51786702484,0.0127062544939639
1379.78870835362,0.0170784455610235
1376.05954968239,0.0283065914175641
1372.33039101116,0.0496327940872867
1368.60123233994,0.0771240728268093
1364.87207366871,0.0836397626178608
1361.14291499749,0.0594235929093011
1357.41375632626,0.0372097535876552
1353.68459765503,0.0270131975745142
1349.95543898381,0.0229547839217078
1346.22628031258,0.0229141328103257
1342.49712164135,0.0270392873677111
1338.76796297013,0.0315712421677677
1335.0388042989,0.0327432508407755
1331.30964562767,0.0306356390876854
1327.58048695645,0.0277637773752021
1323.85132828522,0.0272519607628306
1320.122169614,0.0287760583517686
1316.39301094277,0.0312303140702052
1312.66385227154,0.0344618328637553
1308.93469360032,0.0377379630157403
1305.20553492909,0.040107736958188
1301.47637625786,0.0444287168391625
1297.74721758664,0.0559195777409802
1294.01805891541,0.0739309448766023
1290.28890024419,0.0821989689799914
1286.55974157296,0.0747854470482867
1282.83058290173,0.0663245454906047
1279.10142423051,0.0633885934202265
1275.37226555928,0.0634583589330405
1271.64310688805,0.0647305578158943
1267.91394821683,0.066716430454081
1264.1847895456,0.0706733201516477
1260.45563087438,0.0761127351390554
1256.72647220315,0.082241131931675
1252.99731353192,0.0889999105316417
1249.2681548607,0.0955856052123075
1245.53899618947,0.100264026184183
1241.80983751824,0.102399248278064
1238.08067884702,0.102664166846089
1234.35152017579,0.102336856566075
1230.62236150457,0.102210187301291
1226.89320283334,0.10311448392831
1223.16404416211,0.105638626240074
1219.43488549089,0.109389916743629
1215.70572681966,0.115827605434812
1211.97656814843,0.12810007384747
1208.24740947721,0.140604559953479
1204.51825080598,0.142965841387505
1200.78909213475,0.143312432452445
1197.05993346353,0.149238143806896
1193.3307747923,0.154570739096685
1189.60161612108,0.157350105380894
1185.87245744985,0.159899135364172
1182.14329877862,0.160914324336712
1178.4141401074,0.158254159798792
1174.68498143617,0.150055144709751
1170.95582276494,0.137089442225254
1167.22666409372,0.122709587342724
1163.49750542249,0.113488652412245
1159.76834675127,0.115173854031428
1156.03918808004,0.120390624409264
1152.31002940881,0.109214600563811
1148.58087073759,0.087873043926115
1144.85171206636,0.0762224342016537
1141.12255339513,0.0741254830864267
1137.39339472391,0.0758606216836812
1133.66423605268,0.0780322934317281
1129.93507738146,0.0798190804897847
1126.20591871023,0.0818514007548915
1122.476760039,0.0850146816085198
1118.74760136778,0.0896632420311661
1115.01844269655,0.0966230592977225
1111.28928402532,0.106546255341006
1107.5601253541,0.120040450409834
1103.83096668287,0.13803845338998
1100.10180801165,0.162448816923194
1096.37264934042,0.195752193786877
1092.64349066919,0.242433863942139
1088.91433199797,0.310528904344178
1085.18517332674,0.414986035045245
1081.45601465551,0.580030596814419
1077.72685598429,0.840167827009941
1073.99769731306,1.22520542604342
1070.26853864183,1.66308327596365
1066.53937997061,1.77371330552126
1062.81022129938,1.48950492885112
1059.08106262816,1.14644598102611
1055.35190395693,0.865618142340997
1051.6227452857,0.664708585456684
1047.89358661448,0.528512002271584
1044.16442794325,0.440808964540089
1040.43526927202,0.391082994365475
1036.7061106008,0.372936989030141
1032.97695192957,0.367994663866201
1029.24779325835,0.343438166413726
1025.51863458712,0.286957431183121
1021.78947591589,0.224203183662694
1018.06031724467,0.175741824634238
1014.33115857344,0.143150230225642
1010.60199990221,0.121155363851882
1006.87284123099,0.105717071054065
1003.14368255976,0.0945267486398309
999.414523888535,0.0866189973215327
995.685365217309,0.0813352221720325
991.956206546083,0.0783131019113361
988.227047874856,0.0769881999929597
984.49788920363,0.0771869565830922
980.768730532404,0.0786723339409574
977.039571861178,0.0815492302223934
973.310413189951,0.0862144143068212
969.581254518725,0.0926191603592158
965.852095847499,0.101088133610858
962.122937176272,0.112462852811095
958.393778505046,0.126949050128399
954.66461983382,0.143872848845784
950.935461162594,0.163227027134409
947.206302491367,0.185410101501984
943.477143820141,0.211408024144428
939.747985148915,0.242897171175715
936.018826477688,0.284141313069682
932.289667806462,0.339732113713212
928.560509135236,0.415231116460316
924.83135046401,0.51596076027835
921.102191792783,0.646747127253663
917.373033121557,0.79856283103383
913.643874450331,0.935966787200056
909.914715779104,1.0069886000015
906.185557107878,0.99399013989054
902.456398436652,0.908678825640939
898.727239765426,0.785093741728853
894.998081094199,0.659146160689868
891.268922422973,0.553012663516819
887.539763751747,0.47329568945302
883.81060508052,0.41705832825938
880.081446409294,0.378447213804422
876.352287738068,0.350426599179097
872.623129066842,0.328111393672262
868.893970395615,0.30717934695636
865.164811724389,0.286731246301542
861.435653053163,0.266505174543297
857.706494381936,0.247841190668052
853.97733571071,0.231231912750774
850.248177039484,0.217224919990051
846.519018368258,0.204954991041838
842.789859697031,0.193852548204898
839.060701025805,0.182125294459465
835.331542354579,0.17010410873174
831.602383683352,0.158249370115673
827.873225012126,0.1465619283133
824.1440663409,0.133889128876591
820.414907669674,0.121934511244782
816.685748998447,0.111158497689436
812.956590327221,0.101449667351049
809.227431655995,0.0929403212623819
805.498272984768,0.0848388059130043
801.769114313542,0.0783010541144173
798.039955642316,0.073638078829686
794.31079697109,0.0692064089231968
790.581638299863,0.0639489158691142
786.852479628637,0.0593024308489751
783.123320957411,0.0559212888061029
779.394162286184,0.0527749674146054
775.665003614958,0.0484668199621747
771.935844943732,0.0445550515892877
768.206686272506,0.0423950645740037
764.477527601279,0.0409267882265142
760.748368930053,0.0387659926295112
757.019210258827,0.0362372274846831
753.2900515876,0.0347667010324818
749.560892916374,0.0349468821125409
745.831734245148,0.0347173721194322
742.102575573922,0.0333911346034765
738.373416902695,0.0324372182156828
734.644258231469,0.0335110155819035
730.915099560243,0.0347914501938386
727.185940889016,0.0349428752595353
723.45678221779,0.0353298110026793
719.727623546564,0.0376120583595196
715.998464875338,0.0402786953980879
712.269306204111,0.0424944012665858
708.540147532885,0.0449016307837018
704.810988861659,0.0490443397533852
701.081830190432,0.0553655774386129
697.352671519206,0.0619586412374251
693.62351284798,0.0697166039789692
689.894354176754,0.0796759986218665
686.165195505527,0.0935318932118105
682.436036834301,0.106792275213253
678.706878163075,0.119689724631199
674.977719491848,0.135690613967722
671.248560820622,0.165490744931454
667.519402149396,0.193097971621985
663.790243478169,0.203758397200216
660.061084806943,0.212250949036103
656.331926135717,0.221046701383843
652.602767464491,0.214529008090355
648.873608793276,0.201978939439483
