Wavenumbercm-1,00:34:52
2998.24357166583,0.178843298181998
2994.5144129946,0.210106237890249
2990.78525432337,0.242846171739043
2987.05609565215,0.295635679060754
2983.32693698092,0.327604658840172
2979.59777830969,0.308913769096318
2975.86861963847,0.275240802385088
2972.13946096724,0.256161461940362
2968.41030229601,0.254280070992145
2964.68114362479,0.254610938764492
2960.95198495356,0.264810626773222
2957.22282628234,0.278632841304833
2953.49366761111,0.296181367621864
2949.76450893988,0.301152383467121
2946.03535026866,0.286809406731779
2942.30619159743,0.276161552914011
2938.5770329262,0.284821490675764
2934.84787425498,0.290998533210225
2931.11871558375,0.286950416244084
2927.38955691253,0.284553231429808
2923.6603982413,0.295590761510295
2919.93123957007,0.300577039506402
2916.20208089885,0.284594645860261
2912.47292222762,0.266983412548164
2908.74376355639,0.262657117560104
2905.01460488517,0.268398070139803
2901.28544621394,0.281000795325748
2897.55628754272,0.289544731832644
2893.82712887149,0.29428183191014
2890.09797020026,0.306057485086315
2886.36881152904,0.32195713438974
2882.63965285781,0.345243297987599
2878.91049418658,0.365575283188984
2875.18133551536,0.355267244705534
2871.45217684413,0.337044840643381
2867.72301817291,0.340874566505752
2863.99385950168,0.341124132542758
2860.26470083045,0.329148771632407
2856.53554215923,0.318271837259992
2852.806383488,0.308261184018118
2849.07722481677,0.294696734166712
2845.34806614555,0.29375783339025
2841.61890747432,0.278564416535686
2837.88974880309,0.242834522945596
2834.16059013187,0.211404026776617
2830.43143146064,0.188071759888066
2826.70227278942,0.166921350058357
2822.97311411819,0.14656443981314
2819.24395544696,0.12996787449372
2815.51479677574,0.117908987228505
2811.78563810451,0.106108431247513
2808.05647943328,0.09406979318536
2804.32732076206,0.0856580456268533
2800.59816209083,0.077315802214743
2796.86900341961,0.0695775314902497
2793.13984474838,0.0636460974220469
2789.41068607715,0.0569343627521956
2785.68152740593,0.0492070603955535
2781.9523687347,0.044210167889239
2778.22321006347,0.0410561610474127
2774.49405139225,0.0376602355804099
2770.76489272102,0.0346883480556493
2767.0357340498,0.0320783563357334
2763.30657537857,0.029935547151101
2759.57741670734,0.0292063733289194
2755.84825803612,0.028474513128708
2752.11909936489,0.0274360797182463
2748.38994069366,0.026635412652587
2744.66078202244,0.0269865450187199
2740.93162335121,0.0295616341599926
2737.20246467999,0.033602971833856
2733.47330600876,0.0373788951950931
2729.74414733753,0.039371158978181
2726.01498866631,0.0393278804776351
2722.28582999508,0.037128490546782
2718.55667132385,0.03393850421428
2714.82751265263,0.0307004999290113
2711.0983539814,0.0282462677465182
2707.36919531017,0.0269548675888507
2703.64003663895,0.0270363002788637
2699.91087796772,0.0288608918984668
2696.1817192965,0.0330075345821929
2692.45256062527,0.0380587962190489
2688.72340195404,0.0414391573214968
2684.99424328282,0.0414563033329024
2681.26508461159,0.038308379782769
2677.53592594036,0.0336874712248843
2673.80676726914,0.0300732338125757
2670.07760859791,0.0277840695672848
2666.34844992669,0.0266153138316048
2662.61929125546,0.0272214453111443
2658.89013258423,0.0280497662640665
2655.16097391301,0.0266361140007952
2651.43181524178,0.0231515415484851
2647.70265657055,0.0190210817588414
2643.97349789933,0.0155702033646164
2640.2443392281,0.0145269237179659
2636.51518055688,0.0149080388949071
2632.78602188565,0.0156530544802605
2629.05686321442,0.0165360027203329
2625.3277045432,0.0172457084088238
2621.59854587197,0.0183442594309578
2617.86938720074,0.0200215403922023
2614.14022852952,0.0210843369129329
2610.41106985829,0.0216850265664265
2606.68191118707,0.0227409567513408
2602.95275251584,0.0240346276141152
2599.22359384461,0.0244855006807636
2595.49443517339,0.0247405517874523
2591.76527650216,0.0256947412287211
2588.03611783093,0.0277552541454101
2584.30695915971,0.0316023277642597
2580.57780048848,0.0350811337035827
2576.84864181725,0.0355992429689621
2573.11948314603,0.0339290469159421
2569.3903244748,0.0318699068520082
2565.66116580358,0.0301273637183978
2561.93200713235,0.0293276980367804
2558.20284846112,0.0296488563000935
2554.4736897899,0.0308538626508658
2550.74453111867,0.0308336704537746
2547.01537244744,0.0293837495947508
2543.28621377622,0.0280551876878624
2539.55705510499,0.0266377004899227
2535.82789643377,0.0244595941673291
2532.09873776254,0.023853844978748
2528.36957909131,0.0248429213288189
2524.64042042009,0.024844086196145
2520.91126174886,0.0240133982668245
2517.18210307763,0.0236702842167597
2513.45294440641,0.0241750789074284
2509.72378573518,0.0249010964801978
2505.99462706396,0.0249325620978757
2502.26546839273,0.0245312108943067
2498.5363097215,0.0244729986002549
2494.80715105028,0.0248622561442636
2491.07799237905,0.0252418017256962
2487.34883370782,0.0248075826738062
2483.6196750366,0.024132045325156
2479.89051636537,0.0235066634753808
2476.16135769415,0.0226595221203601
2472.43219902292,0.0217325034996699
2468.70304035169,0.020858273339439
2464.97388168047,0.0193321086369596
2461.24472300924,0.0178169876018659
2457.51556433801,0.0170811240940681
2453.78640566679,0.0171550336832233
2450.05724699556,0.0172875879959142
2446.32808832433,0.0172001414027117
2442.59892965311,0.0170667682607992
2438.86977098188,0.0168276708772855
2435.14061231066,0.0166353857428683
2431.41145363943,0.0160193225256574
2427.6822949682,0.0148180223755253
2423.95313629698,0.0141630584022281
2420.22397762575,0.0149288202639987
2416.49481895452,0.0162077161959186
2412.7656602833,0.0165437570817559
2409.03650161207,0.0152348101111502
2405.30734294085,0.013357556693367
2401.57818426962,0.0119556675942308
2397.84902559839,0.0115872303954393
2394.11986692717,0.0114939657663713
2390.39070825594,0.0114838744804061
2386.66154958471,0.0125665602815945
2382.93239091349,0.0167747353011955
2379.20323224226,0.0253178495433485
2375.47407357104,0.0362655482405573
2371.74491489981,0.0459153487146814
2368.01575622858,0.0519300116224952
2364.28659755736,0.052916224349562
2360.55743888613,0.0463397334744709
2356.8282802149,0.0319447309669701
2353.09912154368,0.0211448371333875
2349.36996287245,0.0241630550446901
2345.64080420122,0.0327616050004263
2341.91164553,0.0359308881082306
2338.18248685877,0.0344877130757175
2334.45332818755,0.0302633656839771
2330.72416951632,0.0242253257920133
2326.99501084509,0.0181313880190243
2323.26585217387,0.0127802228346577
2319.53669350264,0.00839847173798248
2315.80753483141,0.00565363331145793
2312.07837616019,0.00488633055029216
2308.34921748896,0.00463452482408695
2304.62005881774,0.00368449821168273
2300.89090014651,0.00184843837304792
2297.16174147528,-0.000354573879755931
2293.43258280406,-0.00168036082517707
2289.70342413283,-0.00148194725517858
2285.9742654616,0.000249633188569733
2282.24510679038,0.00304428448250271
2278.51594811915,0.00529230367694991
2274.78678944793,0.00698561948764246
2271.0576307767,0.00895716463000195
2267.32847210547,0.0103514938807228
2263.59931343425,0.0112921304845657
2259.87015476302,0.0127070907987131
2256.14099609179,0.0138868594728795
2252.41183742057,0.0145652616127307
2248.68267874934,0.0162606645108095
2244.95352007812,0.0179526081799451
2241.22436140689,0.0198214081310486
2237.49520273566,0.0216014420321791
2233.76604406444,0.0228126233713538
2230.03688539321,0.0239796163296399
2226.30772672198,0.0261482087930603
2222.57856805076,0.0283154185333011
2218.84940937953,0.0309685697241472
2215.1202507083,0.0346138095780926
2211.39109203708,0.038180894641671
2207.66193336585,0.0403079122208562
2203.93277469463,0.042483910513697
2200.2036160234,0.0455549613103105
2196.47445735217,0.0488541157153631
2192.74529868095,0.0537222721295143
2189.01614000972,0.0616322965176611
2185.28698133849,0.0717044701411939
2181.55782266727,0.0792913059553598
2177.82866399604,0.0845467874160698
2174.09950532482,0.08973070590589
2170.37034665359,0.102023674111573
2166.64118798236,0.125667150303351
2162.91202931114,0.152448831606691
2159.18287063991,0.154991271007107
2155.45371196868,0.140480954079262
2151.72455329746,0.125683729366458
2147.99539462623,0.115347787977689
2144.26623595501,0.105470433414605
2140.53707728378,0.0963351414419797
2136.80791861255,0.0846604285340275
2133.07875994133,0.0700147153311356
2129.3496012701,0.0557446601016955
2125.62044259887,0.0453756742249866
2121.89128392765,0.0388487628782186
2118.16212525642,0.0346316255044499
2114.4329665852,0.0325786336394193
2110.70380791397,0.031479025593612
2106.97464924274,0.0309018854178291
2103.24549057152,0.0306365519496751
2099.51633190029,0.030128698307548
2095.78717322906,0.0265025960344954
2092.05801455784,0.0212139640459752
2088.32885588661,0.0170073417599811
2084.59969721538,0.0144595044453928
2080.87053854416,0.0130228896737744
2077.14137987293,0.0130290773530043
2073.41222120171,0.0132066352537998
2069.68306253048,0.0148645626359759
2065.95390385925,0.0168418321233097
2062.22474518803,0.0176331962893542
2058.4955865168,0.0175399557057253
2054.76642784557,0.0195713264739835
2051.03726917435,0.0246003472014843
2047.30811050312,0.0291242581944027
2043.5789518319,0.0309540691973818
2039.84979316067,0.0338766903466009
2036.12063448944,0.0376434482222432
2032.39147581822,0.0386262755793382
2028.66231714699,0.0367368724183114
2024.93315847576,0.0331161247499907
2021.20399980454,0.0294455816603483
2017.47484113331,0.0263584964750905
2013.74568246209,0.0248166164173161
2010.01652379086,0.0234037654999546
2006.28736511963,0.0209027565557008
2002.55820644841,0.0171526317442844
1998.82904777718,0.0150532592623714
1995.09988910595,0.0152793638453197
1991.37073043473,0.0164069620164039
1987.6415717635,0.0168047825295612
1983.91241309228,0.020633527920339
1980.18325442105,0.0270351917540366
1976.45409574982,0.0309616949022303
1972.7249370786,0.0306080913360299
1968.99577840737,0.0285486427474421
1965.26661973614,0.0246137828548213
1961.53746106492,0.0206704484494573
1957.80830239369,0.0157733901447613
1954.07914372246,0.0109398950078567
1950.34998505124,0.00754871035403464
1946.62082638001,0.00535324942125374
1942.89166770879,0.00284035593400181
1939.16250903756,0.00011180457527824
1935.43335036633,-0.0024619184423949
1931.70419169511,-0.00451192266760921
1927.97503302388,-0.00510185969825734
1924.24587435265,-0.00501433837495373
1920.51671568143,-0.00562669419557009
1916.7875570102,-0.00718364137229518
1913.05839833898,-0.00810502869295875
1909.32923966775,-0.00885732326064879
1905.60008099652,-0.0100399026030496
1901.8709223253,-0.0106273084710087
1898.14176365407,-0.010355446430228
1894.41260498284,-0.00980197874362011
1890.68344631162,-0.0100230657853581
1886.95428764039,-0.0114431642643414
1883.22512896917,-0.0122996392647918
1879.49597029794,-0.0125597978493796
1875.76681162671,-0.0113650197207673
1872.03765295549,-0.00894249934439793
1868.30849428426,-0.00922232834140152
1864.57933561303,-0.0111009383298179
1860.85017694181,-0.0114961786506278
1857.12101827058,-0.01155106449618
1853.39185959936,-0.0106666364296557
1849.66270092813,-0.00758190510334931
1845.9335422569,-0.00571533612080468
1842.20438358568,-0.00800800828781141
1838.47522491445,-0.00914387315868586
1834.74606624322,-0.0066967761060101
1831.016907572,-0.00406484025100148
1827.28774890077,-0.00466067030733845
1823.55859022954,-0.00650755779843777
1819.82943155832,-0.00663433267468676
1816.10027288709,-0.00577518955105708
1812.37111421587,-0.00547799283519039
1808.64195554464,-0.00600809906996137
1804.91279687341,-0.00505490146161248
1801.18363820219,-0.00394172434682269
1797.45447953096,-0.00255292617504206
1793.72532085973,-0.00222144117240746
1789.99616218851,-0.00474777168375792
1786.26700351728,-0.00590220630525141
1782.53784484606,-0.0056506366724382
1778.80868617483,-0.00383985040110886
1775.0795275036,-0.000197690047600029
1771.35036883238,-0.0018612061603571
1767.62121016115,-0.00523710758569635
1763.89205148992,-0.00541609592062699
1760.1628928187,-0.00530901895943894
1756.43373414747,-0.00438421242740001
1752.70457547625,-0.00203730905091572
1748.97541680502,-0.00300719561069942
1745.24625813379,-0.00438113992033211
1741.51709946257,-0.00255141812377931
1737.78794079134,0.000719573962682328
1734.05878212011,-0.00096809337284177
1730.32962344889,-0.00706874970640448
1726.60046477766,-0.00749678903076525
1722.87130610643,-0.000702527353259815
1719.14214743521,0.00526707686124922
1715.41298876398,-0.000824694949475078
1711.68383009276,-0.00600547733815285
1707.95467142153,-0.00344604832680682
1704.2255127503,0.00323342087599275
1700.49635407908,0.00509907447383531
1696.76719540785,-0.00248208058547568
1693.03803673662,-0.00726953394353475
1689.3088780654,-0.00307978200693654
1685.57971939417,0.000225166227212842
1681.85056072295,-0.00428154873716607
1678.12140205172,-0.0047546287518547
1674.39224338049,-0.00263022964598469
1670.66308470927,-0.00438696571988347
1666.93392603804,-0.00747495679131075
1663.20476736681,-0.00865763402265579
1659.47560869559,-0.00481639857390071
1655.74645002436,0.00439996895867152
1652.01729135314,0.00432624547465343
1648.28813268191,-0.00197299751428762
1644.55897401068,-0.00667792195757693
1640.82981533946,-0.00472433961986155
1637.10065666823,-0.00111016322056694
1633.371497997,-0.00508359436417619
1629.64233932578,-0.00433433440550155
1625.91318065455,0.000274299200666767
1622.18402198333,0.00419640110259492
1618.4548633121,0.00684095242780672
1614.72570464087,0.00621932564197875
1610.99654596965,0.00660603774864061
1607.26738729842,0.00782565893761725
1603.53822862719,0.00755375271672035
1599.80906995597,0.00718264364230179
1596.07991128474,0.00543725579687376
1592.35075261351,0.000669124229066773
1588.62159394229,-0.00423134391967373
1584.89243527106,-0.0058529317584023
1581.16327659984,-0.00316405849571197
1577.43411792861,-0.00057614182811136
1573.70495925738,-0.00143786211634062
1569.97580058616,-0.00216316239681981
1566.24664191493,0.000264695763415295
1562.5174832437,0.0108300956032445
1558.78832457248,0.0127741756381205
1555.05916590125,0.00261275392616312
1551.33000723003,1.9231438999044E-05
1547.6008485588,0.00627746499078553
1543.87168988757,0.0168443651552275
1540.14253121635,0.0150081874036586
1536.41337254512,0.00846287800470484
1532.68421387389,0.00743049036560216
1528.95505520267,0.0110926250058881
1525.22589653144,0.0181793003290815
1521.49673786022,0.0203894288683869
1517.76757918899,0.0180388542181298
1514.03842051776,0.0203771691691165
1510.30926184654,0.0298661073491875
1506.58010317531,0.0309293006685143
1502.85094450408,0.0284009900582662
1499.12178583286,0.0338555571468164
1495.39262716163,0.0397394212094837
1491.66346849041,0.0463146578634913
1487.93430981918,0.0508801552801019
1484.20515114795,0.0561044630093514
1480.47599247673,0.0675047694101468
1476.7468338055,0.0830449128884156
1473.01767513427,0.100774538848658
1469.28851646305,0.125774379209101
1465.55935779182,0.1624111416632
1461.83019912059,0.185614060746064
1458.10104044937,0.176574017681429
1454.37188177814,0.155091438585702
1450.64272310692,0.142201863157183
1446.91356443569,0.120062949276843
1443.18440576446,0.0928946948261307
1439.45524709324,0.0732173913705442
1435.72608842201,0.0572275026417172
1431.99692975078,0.0448023030220643
1428.26777107956,0.0368819110905848
1424.53861240833,0.0327618071447601
1420.80945373711,0.0295651381149922
1417.08029506588,0.0217959163348879
1413.35113639465,0.0156701388436799
1409.62197772343,0.0131945503250724
1405.8928190522,0.0121786129825181
1402.16366038097,0.0121218163622845
1398.43450170975,0.0124890235260948
1394.70534303852,0.0108054820072065
1390.9761843673,0.0102641522327572
1387.24702569607,0.0109003712288288
1383.51786702484,0.0112574144575584
1379.78870835362,0.0154047260044702
1376.05954968239,0.0263415472991117
1372.33039101116,0.0478147051365603
1368.60123233994,0.0752744379305161
1364.87207366871,0.0813967475236744
1361.14291499749,0.0574713664314058
1357.41375632626,0.035674750177648
1353.68459765503,0.0256162522481378
1349.95543898381,0.0216248865210828
1346.22628031258,0.0214719102019022
1342.49712164135,0.0252247400199151
1338.76796297013,0.0297956203021069
1335.0388042989,0.0314285905626408
1331.30964562767,0.0294715376482898
1327.58048695645,0.0265640022516029
1323.85132828522,0.0259045028493892
1320.122169614,0.0272994570226097
1316.39301094277,0.0297874295494409
1312.66385227154,0.033131879648589
1308.93469360032,0.03648125707159
1305.20553492909,0.0389109953017556
1301.47637625786,0.0432443495592844
1297.74721758664,0.0547223283805622
1294.01805891541,0.072708299715316
1290.28890024419,0.0809689417311736
1286.55974157296,0.0735844260428589
1282.83058290173,0.0651678973020075
1279.10142423051,0.0622197526468093
1275.37226555928,0.0622452103359641
1271.64310688805,0.0634907045935385
1267.91394821683,0.0655022865667917
1264.1847895456,0.0694581375234239
1260.45563087438,0.0748986165806396
1256.72647220315,0.0810639979560693
1252.99731353192,0.0878401676272011
1249.2681548607,0.0944109311793048
1245.53899618947,0.0990590034865398
1241.80983751824,0.101191467678169
1238.08067884702,0.101482600081339
1234.35152017579,0.101158795531041
1230.62236150457,0.10096380388915
1226.89320283334,0.101762864613418
1223.16404416211,0.104179537980781
1219.43488549089,0.107931228359114
1215.70572681966,0.114458856286757
1211.97656814843,0.126789496266576
1208.24740947721,0.139288778974511
1204.51825080598,0.14166631007706
1200.78909213475,0.142037836061661
1197.05993346353,0.147993210785746
1193.3307747923,0.153356226919752
1189.60161612108,0.156157592014439
1185.87245744985,0.158707526234305
1182.14329877862,0.159730681796109
1178.4141401074,0.157059333701969
1174.68498143617,0.148853608392001
1170.95582276494,0.135897829787221
1167.22666409372,0.121517864256677
1163.49750542249,0.112257846842504
1159.76834675127,0.113889674415422
1156.03918808004,0.119062632800542
1152.31002940881,0.107896167055304
1148.58087073759,0.0866157600323762
1144.85171206636,0.0750152029109027
1141.12255339513,0.0729486824948126
1137.39339472391,0.0746919324277227
1133.66423605268,0.0768742588716126
1129.93507738146,0.0786616427267391
1126.20591871023,0.0806859622310342
1122.476760039,0.0838364409820717
1118.74760136778,0.0885047527827588
1115.01844269655,0.095497661105927
1111.28928402532,0.105438078636462
1107.5601253541,0.118888527654215
1103.83096668287,0.136886073964954
1100.10180801165,0.161347096807994
1096.37264934042,0.194691853049623
1092.64349066919,0.241408862991557
1088.91433199797,0.309545852109642
1085.18517332674,0.414047024195371
1081.45601465551,0.579149326517164
1077.72685598429,0.839337358942685
1073.99769731306,1.22437035090683
1070.26853864183,1.66172499048471
1066.53937997061,1.77119088509772
1062.81022129938,1.48695132622422
1059.08106262816,1.14410637763084
1055.35190395693,0.86365222200943
1051.6227452857,0.663069487799048
1047.89358661448,0.527074528195585
1044.16442794325,0.439444918167243
1040.43526927202,0.389792303233368
1036.7061106008,0.371686191376379
1032.97695192957,0.366767411981103
1029.24779325835,0.34223069734395
1025.51863458712,0.285763301367029
1021.78947591589,0.223006714801236
1018.06031724467,0.174559918875792
1014.33115857344,0.141977283036072
1010.60199990221,0.119983849735159
1006.87284123099,0.104527774852574
1003.14368255976,0.0933176830228674
999.414523888535,0.0854077109523028
995.685365217309,0.0801441446163355
991.956206546083,0.0771254289184102
988.227047874856,0.0757934719311933
984.49788920363,0.0759835415188492
980.768730532404,0.0774468871640185
977.039571861178,0.0803301633559513
973.310413189951,0.0850288516359012
969.581254518725,0.0914512602015008
965.852095847499,0.0998931447162339
962.122937176272,0.111243239110401
958.393778505046,0.125741726981226
954.66461983382,0.142697668223595
950.935461162594,0.162057385178816
947.206302491367,0.184243308601183
943.477143820141,0.210238477637749
939.747985148915,0.241753402872553
936.018826477688,0.283017747422034
932.289667806462,0.338586943011139
928.560509135236,0.414033952204526
924.83135046401,0.514747879848906
921.102191792783,0.645631053298935
917.373033121557,0.797580389044686
913.643874450331,0.935031960425226
909.914715779104,1.00597545109203
906.185557107878,0.992614519881824
902.456398436652,0.907191603917747
898.727239765426,0.783663574412623
894.998081094199,0.65769813541866
891.268922422973,0.551514285366463
887.539763751747,0.471832246159704
883.81060508052,0.415658609756349
880.081446409294,0.377091624322548
876.352287738068,0.349100942708089
872.623129066842,0.326748146980561
868.893970395615,0.305798220940181
865.164811724389,0.285342236498519
861.435653053163,0.265150598869774
857.706494381936,0.246500922881382
853.97733571071,0.22989535527749
850.248177039484,0.215894036741016
846.519018368258,0.203568056534919
842.789859697031,0.192394995104088
839.060701025805,0.180672502090295
835.331542354579,0.168655599843204
831.602383683352,0.156810426215698
827.873225012126,0.145121299518051
824.1440663409,0.132500318782886
820.414907669674,0.120544581104614
816.685748998447,0.109727995114455
812.956590327221,0.099999487028952
809.227431655995,0.0915241835502894
805.498272984768,0.0834826672364064
801.769114313542,0.0769757954064176
798.039955642316,0.0723161390514036
794.31079697109,0.0678437634773933
790.581638299863,0.0626348339745603
786.852479628637,0.0579952615723244
783.123320957411,0.0545513380587705
779.394162286184,0.0513162232842779
775.665003614958,0.046976877870298
771.935844943732,0.0431402909235466
768.206686272506,0.0410193396494571
764.477527601279,0.039486967520582
760.748368930053,0.037297361447962
757.019210258827,0.0347867072267677
753.2900515876,0.0333863953865923
749.560892916374,0.033550081920249
745.831734245148,0.0332636660281884
742.102575573922,0.0319333986357266
738.373416902695,0.03109162660878
734.644258231469,0.0321993400065465
730.915099560243,0.0334363863295421
727.185940889016,0.0335591191910037
723.45678221779,0.0338595980948818
719.727623546564,0.0360165881513197
715.998464875338,0.0387304565187609
712.269306204111,0.0410403852405352
708.540147532885,0.0434286351551219
704.810988861659,0.047562962885188
701.081830190432,0.0536794986592661
697.352671519206,0.0599883170793557
693.62351284798,0.0675913933149754
689.894354176754,0.0775553014770319
686.165195505527,0.0913391517613124
682.436036834301,0.104803956729161
678.706878163075,0.117937789479438
674.977719491848,0.133665095141973
671.248560820622,0.161504318897038
667.519402149396,0.188353500087675
663.790243478169,0.201416043723121
660.061084806943,0.210235279457219
656.331926135717,0.217512847055084
652.602767464491,0.21109047669123
648.873608793276,0.199244821908308
