Wavenumbercm-1,08:19:53
2998.24357166583,0.174178255745938
2994.5144129946,0.207120649798853
2990.78525432337,0.240940332755766
2987.05609565215,0.292297150643825
2983.32693698092,0.322644295402585
2979.59777830969,0.306862820152438
2975.86861963847,0.275460473879457
2972.13946096724,0.254904184983179
2968.41030229601,0.253264389470769
2964.68114362479,0.256785809918366
2960.95198495356,0.266664460608225
2957.22282628234,0.2758588167844
2953.49366761111,0.288858844645838
2949.76450893988,0.29739953267489
2946.03535026866,0.287976141922453
2942.30619159743,0.275526883597456
2938.5770329262,0.280306565905466
2934.84787425498,0.283465293335512
2931.11871558375,0.278890357700145
2927.38955691253,0.277776837333008
2923.6603982413,0.288810482245154
2919.93123957007,0.296297538329647
2916.20208089885,0.283372450418073
2912.47292222762,0.26338250917536
2908.74376355639,0.255897652721756
2905.01460488517,0.261591219179165
2901.28544621394,0.275504571954653
2897.55628754272,0.284417243608268
2893.82712887149,0.289965483870718
2890.09797020026,0.303500481429456
2886.36881152904,0.319393330223773
2882.63965285781,0.343026101940605
2878.91049418658,0.365049052166451
2875.18133551536,0.354265636391635
2871.45217684413,0.335769109956772
2867.72301817291,0.338584860442193
2863.99385950168,0.335794763501286
2860.26470083045,0.321207748778948
2856.53554215923,0.309797286216924
2852.806383488,0.30238882092791
2849.07722481677,0.291641861023685
2845.34806614555,0.289497573068436
2841.61890747432,0.273528500843023
2837.88974880309,0.238639376756242
2834.16059013187,0.206039871943734
2830.43143146064,0.181650778734463
2826.70227278942,0.161980626822659
2822.97311411819,0.143225236497798
2819.24395544696,0.127375784254177
2815.51479677574,0.11511923495125
2811.78563810451,0.102930046707748
2808.05647943328,0.0916585469073336
2804.32732076206,0.0844445437484519
2800.59816209083,0.0771280597920005
2796.86900341961,0.069883567638413
2793.13984474838,0.064248338123756
2789.41068607715,0.0574403039753315
2785.68152740593,0.0495717996350608
2781.9523687347,0.0441316849937703
2778.22321006347,0.0405317061389723
2774.49405139225,0.0367093544413832
2770.76489272102,0.0332051346223375
2767.0357340498,0.0300324811045258
2763.30657537857,0.0274601720959923
2759.57741670734,0.0270822259177495
2755.84825803612,0.0273971428614036
2752.11909936489,0.0267376462802346
2748.38994069366,0.025787609808682
2744.66078202244,0.0271094112734765
2740.93162335121,0.0314655533023539
2737.20246467999,0.0368770547194327
2733.47330600876,0.0413314008930634
2729.74414733753,0.0433901275748401
2726.01498866631,0.0427263193200385
2722.28582999508,0.039493994198183
2718.55667132385,0.034843526587221
2714.82751265263,0.0303041587354973
2711.0983539814,0.0272304028474934
2707.36919531017,0.0258455154926626
2703.64003663895,0.0264792546284678
2699.91087796772,0.0287461183902104
2696.1817192965,0.0326152201182334
2692.45256062527,0.0374817928700091
2688.72340195404,0.0400584897461878
2684.99424328282,0.0391223066624684
2681.26508461159,0.0362819160438521
2677.53592594036,0.032352753879775
2673.80676726914,0.0291156149332372
2670.07760859791,0.0277432404343221
2666.34844992669,0.0275810380664808
2662.61929125546,0.0279084917186669
2658.89013258423,0.0278836185498229
2655.16097391301,0.0260403839055438
2651.43181524178,0.0227656455211315
2647.70265657055,0.019396113919653
2643.97349789933,0.0161625607398257
2640.2443392281,0.015242073373347
2636.51518055688,0.0162164247797585
2632.78602188565,0.0166267796578804
2629.05686321442,0.0172658063779373
2625.3277045432,0.0191263189827077
2621.59854587197,0.021607236044554
2617.86938720074,0.0243126678237741
2614.14022852952,0.0262589354832416
2610.41106985829,0.0273778059841413
2606.68191118707,0.0292536954621106
2602.95275251584,0.0316824929832278
2599.22359384461,0.0333581065057647
2595.49443517339,0.0354254580055024
2591.76527650216,0.0379479581399664
2588.03611783093,0.0406050465816061
2584.30695915971,0.044131787966676
2580.57780048848,0.0475117811787798
2576.84864181725,0.050983615748872
2573.11948314603,0.0566162429583528
2569.3903244748,0.0636125265832264
2565.66116580358,0.0662961060855276
2561.93200713235,0.0630870462825917
2558.20284846112,0.0574441723247648
2554.4736897899,0.0513402664227557
2550.74453111867,0.0448533386710489
2547.01537244744,0.0394028739508757
2543.28621377622,0.035264890497305
2539.55705510499,0.0316701763413248
2535.82789643377,0.0288733900262821
2532.09873776254,0.0279364496182557
2528.36957909131,0.0277195640051524
2524.64042042009,0.0269843644716379
2520.91126174886,0.026132714615246
2517.18210307763,0.0259282790513373
2513.45294440641,0.0267445374915958
2509.72378573518,0.0274681471846183
2505.99462706396,0.0280320651651312
2502.26546839273,0.0292702137262444
2498.5363097215,0.0307565668725432
2494.80715105028,0.0312038214749784
2491.07799237905,0.0312161840240356
2487.34883370782,0.0316245082285668
2483.6196750366,0.0311685207928567
2479.89051636537,0.0289050037755736
2476.16135769415,0.0260838628557857
2472.43219902292,0.0237604106280405
2468.70304035169,0.0219335796198865
2464.97388168047,0.020165469849057
2461.24472300924,0.0191456949167859
2457.51556433801,0.0183815988828176
2453.78640566679,0.0170744350468299
2450.05724699556,0.0162027507965573
2446.32808832433,0.0161094450381786
2442.59892965311,0.0162718093559017
2438.86977098188,0.0166511845764683
2435.14061231066,0.016620420154948
2431.41145363943,0.0159914562642573
2427.6822949682,0.0151889337342299
2423.95313629698,0.01408346209797
2420.22397762575,0.0132837595005016
2416.49481895452,0.0133602405367376
2412.7656602833,0.0137273700324687
2409.03650161207,0.0130104820641752
2405.30734294085,0.0120381351652511
2401.57818426962,0.0116052736117638
2397.84902559839,0.0113750645541566
2394.11986692717,0.0111210365039017
2390.39070825594,0.0117653723125641
2386.66154958471,0.0145731130267786
2382.93239091349,0.0217605654902641
2379.20323224226,0.0350245202277372
2375.47407357104,0.0513487201502777
2371.74491489981,0.0655464244520503
2368.01575622858,0.0744521803647182
2364.28659755736,0.0765121289989077
2360.55743888613,0.0692879973748277
2356.8282802149,0.0517605435151019
2353.09912154368,0.0391329846270141
2349.36996287245,0.0469922884305149
2345.64080420122,0.0671061156849097
2341.91164553,0.0792033497822099
2338.18248685877,0.072664086453831
2334.45332818755,0.0563515485771733
2330.72416951632,0.0435811485080761
2326.99501084509,0.0344873051082128
2323.26585217387,0.0260201620012375
2319.53669350264,0.018353001411476
2315.80753483141,0.0123316508424169
2312.07837616019,0.00808741515746297
2308.34921748896,0.00509694547893136
2304.62005881774,0.00335165733938427
2300.89090014651,0.00249348215884897
2297.16174147528,0.00238533953274128
2293.43258280406,0.0041208335917712
2289.70342413283,0.00755275610363647
2285.9742654616,0.0117505301354498
2282.24510679038,0.0163323831103173
2278.51594811915,0.0195499174061875
2274.78678944793,0.0207678510426111
2271.0576307767,0.0208619041915898
2267.32847210547,0.0202646153188591
2263.59931343425,0.019479450949054
2259.87015476302,0.0191137849080404
2256.14099609179,0.0193929564356983
2252.41183742057,0.0196981142683388
2248.68267874934,0.0204838487448058
2244.95352007812,0.0209319484057654
2241.22436140689,0.0216309414566744
2237.49520273566,0.0234695741597416
2233.76604406444,0.0257964700083399
2230.03688539321,0.0280165436489114
2226.30772672198,0.0302254506652208
2222.57856805076,0.031925681818824
2218.84940937953,0.034206135206093
2215.1202507083,0.0378422620440581
2211.39109203708,0.0414096091525277
2207.66193336585,0.0435651185189305
2203.93277469463,0.045500068692103
2200.2036160234,0.047734329947721
2196.47445735217,0.0510949337669554
2192.74529868095,0.0572288274137904
2189.01614000972,0.0654962163534941
2185.28698133849,0.0745288164111218
2181.55782266727,0.0807939602086215
2177.82866399604,0.0843273006821358
2174.09950532482,0.0881265161743229
2170.37034665359,0.0992177771485113
2166.64118798236,0.121767361764862
2162.91202931114,0.148468001349896
2159.18287063991,0.152165994710018
2155.45371196868,0.138644413701579
2151.72455329746,0.124199098811572
2147.99539462623,0.113392728319193
2144.26623595501,0.103093638370787
2140.53707728378,0.0940449729787036
2136.80791861255,0.0827903807842132
2133.07875994133,0.0682242988448764
2129.3496012701,0.0542217551137561
2125.62044259887,0.0445080224414399
2121.89128392765,0.0384201280922594
2118.16212525642,0.0342150826480773
2114.4329665852,0.032098647830634
2110.70380791397,0.0313967944498968
2106.97464924274,0.031370951166121
2103.24549057152,0.0311430610608013
2099.51633190029,0.0305874594296252
2095.78717322906,0.0275287386368897
2092.05801455784,0.0226503239148443
2088.32885588661,0.0184297256145944
2084.59969721538,0.0161159678491763
2080.87053854416,0.0149091875920029
2077.14137987293,0.0147210221489021
2073.41222120171,0.0149389216079292
2069.68306253048,0.0163936493402557
2065.95390385925,0.0182594202896696
2062.22474518803,0.0192316238738665
2058.4955865168,0.0193618462194233
2054.76642784557,0.0216460009123108
2051.03726917435,0.0274264545745143
2047.30811050312,0.032755300483018
2043.5789518319,0.03438029239731
2039.84979316067,0.036910617908839
2036.12063448944,0.0412880754549524
2032.39147581822,0.0427432963034408
2028.66231714699,0.0405082067274955
2024.93315847576,0.037125600363761
2021.20399980454,0.0340656628193182
2017.47484113331,0.0310172948709334
2013.74568246209,0.0291377905526581
2010.01652379086,0.027411668030325
2006.28736511963,0.0244699814208377
2002.55820644841,0.0206063414579183
1998.82904777718,0.0183841980040422
1995.09988910595,0.01819592456243
1991.37073043473,0.0191616781611419
1987.6415717635,0.0199312722857085
1983.91241309228,0.024032196270953
1980.18325442105,0.0305517193623209
1976.45409574982,0.0343026818688113
1972.7249370786,0.0332535971257982
1968.99577840737,0.0309753412985116
1965.26661973614,0.0280692408066894
1961.53746106492,0.0244797832391253
1957.80830239369,0.0191802736530866
1954.07914372246,0.0144297551649436
1950.34998505124,0.0110682922665226
1946.62082638001,0.00858155007935751
1942.89166770879,0.00582926389274339
1939.16250903756,0.00302079443363813
1935.43335036633,0.000605700793503578
1931.70419169511,-0.00143408723740289
1927.97503302388,-0.00232208405564962
1924.24587435265,-0.00218426357688814
1920.51671568143,-0.00254607984968776
1916.7875570102,-0.00424145585874608
1913.05839833898,-0.00551407322969576
1909.32923966775,-0.00631778590168987
1905.60008099652,-0.00728713339551892
1901.8709223253,-0.00766478726723297
1898.14176365407,-0.00732205971813542
1894.41260498284,-0.00662750966623307
1890.68344631162,-0.00686141347045957
1886.95428764039,-0.0084193881385593
1883.22512896917,-0.00940535384764567
1879.49597029794,-0.00975715928851547
1875.76681162671,-0.00857164974357471
1872.03765295549,-0.00598100835932745
1868.30849428426,-0.00606702719981627
1864.57933561303,-0.00796613528525868
1860.85017694181,-0.00845999136864404
1857.12101827058,-0.00852728814480118
1853.39185959936,-0.00765965134906158
1849.66270092813,-0.00464197198195462
1845.9335422569,-0.00274027012268551
1842.20438358568,-0.00484513513714142
1838.47522491445,-0.00592602065094027
1834.74606624322,-0.00366350183415552
1831.016907572,-0.00105337595026018
1827.28774890077,-0.00143658037317349
1823.55859022954,-0.00319062340253399
1819.82943155832,-0.00337446750748689
1816.10027288709,-0.00245366187611193
1812.37111421587,-0.00192568245599686
1808.64195554464,-0.0021608037506365
1804.91279687341,-0.00110426782020962
1801.18363820219,-0.000125584374277063
1797.45447953096,0.00109929665106856
1793.72532085973,0.00162100754158348
1789.99616218851,-0.000536923178189511
1786.26700351728,-0.00143109075582265
1782.53784484606,-0.000917887053404453
1778.80868617483,0.00112249037363824
1775.0795275036,0.00504027645131809
1771.35036883238,0.0038522520204017
1767.62121016115,0.000716375604547337
1763.89205148992,0.000470162288798368
1760.1628928187,0.000572912999662598
1756.43373414747,0.00168945773999725
1752.70457547625,0.00461150577036993
1748.97541680502,0.00497612710256118
1745.24625813379,0.00576149583096623
1741.51709946257,0.0111380033554435
1737.78794079134,0.0198648245852947
1734.05878212011,0.0242264296212447
1730.32962344889,0.0208072556640812
1726.60046477766,0.0211542726295568
1722.87130610643,0.0277076075470039
1719.14214743521,0.0303180963191102
1715.41298876398,0.0190672728600083
1711.68383009276,0.00975779367087298
1707.95467142153,0.00904050478884113
1704.2255127503,0.0134206743284762
1700.49635407908,0.0140275223851549
1696.76719540785,0.00629845871379356
1693.03803673662,0.00138971831109441
1689.3088780654,0.00507219798953358
1685.57971939417,0.00808848719124736
1681.85056072295,0.00385570390766431
1678.12140205172,0.00349138094974353
1674.39224338049,0.00589017654631549
1670.66308470927,0.00468136785038172
1666.93392603804,0.00230590922473448
1663.20476736681,0.00181900178374225
1659.47560869559,0.00620803583376903
1655.74645002436,0.0158847020446895
1652.01729135314,0.0162947974019259
1648.28813268191,0.0101523286703263
1644.55897401068,0.00545572245179167
1640.82981533946,0.00723512586268256
1637.10065666823,0.0109341078523436
1633.371497997,0.0069909880511042
1629.64233932578,0.00663725763991971
1625.91318065455,0.00910097036315503
1622.18402198333,0.0105737903836975
1618.4548633121,0.0101758533320196
1614.72570464087,0.00597284320149913
1610.99654596965,0.00328772059206107
1607.26738729842,0.00270974838002013
1603.53822862719,0.00204575455413362
1599.80906995597,0.00163516692065425
1596.07991128474,0.000885588929764897
1592.35075261351,-0.00103339962847879
1588.62159394229,-0.00303600544054406
1584.89243527106,-0.00354434693257844
1581.16327659984,-0.000901981821249929
1577.43411792861,0.00178017330692276
1573.70495925738,0.00153426578447377
1569.97580058616,0.00131753782364992
1566.24664191493,0.00388215455232717
1562.5174832437,0.0141334192592628
1558.78832457248,0.0164093092730858
1555.05916590125,0.00685142861270095
1551.33000723003,0.00428794225701909
1547.6008485588,0.0101064445713263
1543.87168988757,0.0205441463550242
1540.14253121635,0.0203173433756856
1536.41337254512,0.0163884965797769
1532.68421387389,0.017723709415625
1528.95505520267,0.0214867656875058
1525.22589653144,0.0266248572251158
1521.49673786022,0.0270801492040586
1517.76757918899,0.0239215455561568
1514.03842051776,0.0256813423322645
1510.30926184654,0.0347404714173351
1506.58010317531,0.0362205395471753
1502.85094450408,0.034349359717614
1499.12178583286,0.0403570313063317
1495.39262716163,0.0469472223300154
1491.66346849041,0.0539495317399046
1487.93430981918,0.0584874831014272
1484.20515114795,0.0632289523205891
1480.47599247673,0.0747641381470311
1476.7468338055,0.0914561511722688
1473.01767513427,0.109771812675885
1469.28851646305,0.133736610887055
1465.55935779182,0.168246289944227
1461.83019912059,0.188959013996984
1458.10104044937,0.178467837301735
1454.37188177814,0.157211605485115
1450.64272310692,0.144633544708213
1446.91356443569,0.122770524941844
1443.18440576446,0.095843097298563
1439.45524709324,0.0763009148610586
1435.72608842201,0.0606984965125454
1431.99692975078,0.048750636609794
1428.26777107956,0.0412273148714643
1424.53861240833,0.0374925035016935
1420.80945373711,0.0347413825185223
1417.08029506588,0.0276446682158611
1413.35113639465,0.0223172285321839
1409.62197772343,0.0215047198426216
1405.8928190522,0.024178166825977
1402.16366038097,0.0297556655831683
1398.43450170975,0.0328307675558122
1394.70534303852,0.0272276077569734
1390.9761843673,0.0210306970823172
1387.24702569607,0.0183739002808512
1383.51786702484,0.0174537778580126
1379.78870835362,0.0213124249147026
1376.05954968239,0.0343347746912164
1372.33039101116,0.0640862630114437
1368.60123233994,0.103651348571947
1364.87207366871,0.110465052332953
1361.14291499749,0.0744353583195753
1357.41375632626,0.0440040061463259
1353.68459765503,0.0312024490644282
1349.95543898381,0.0272290913322512
1346.22628031258,0.0280217554011749
1342.49712164135,0.0335536444366419
1338.76796297013,0.040414224286685
1335.0388042989,0.0447968179410869
1331.30964562767,0.0455478151081394
1327.58048695645,0.0432122342881771
1323.85132828522,0.0409479140614874
1320.122169614,0.0406994277173594
1316.39301094277,0.0446227416065301
1312.66385227154,0.0542659396000589
1308.93469360032,0.0668456141676376
1305.20553492909,0.0769649839342414
1301.47637625786,0.0894190836200571
1297.74721758664,0.110913790949011
1294.01805891541,0.140805192980784
1290.28890024419,0.1765676500116
1286.55974157296,0.216340661568374
1282.83058290173,0.22047632975093
1279.10142423051,0.168689455552119
1275.37226555928,0.119473306137197
1271.64310688805,0.0996784664094244
1267.91394821683,0.0951024844817404
1264.1847895456,0.0960216259679096
1260.45563087438,0.101160933414264
1256.72647220315,0.110280966748726
1252.99731353192,0.122741885088856
1249.2681548607,0.13676352087742
1245.53899618947,0.146031679543617
1241.80983751824,0.143716987679486
1238.08067884702,0.132593210980492
1234.35152017579,0.122505140489673
1230.62236150457,0.116943647552731
1226.89320283334,0.114881396963847
1223.16404416211,0.115456684161147
1219.43488549089,0.117872344502561
1215.70572681966,0.121801545378395
1211.97656814843,0.127875026956974
1208.24740947721,0.134937093405906
1204.51825080598,0.140970280759697
1200.78909213475,0.149025760830285
1197.05993346353,0.161827960174125
1193.3307747923,0.176773385430036
1189.60161612108,0.189940682363192
1185.87245744985,0.204718757302456
1182.14329877862,0.227341767686136
1178.4141401074,0.244662255775339
1174.68498143617,0.230736931349906
1170.95582276494,0.194374335546397
1167.22666409372,0.160711535614871
1163.49750542249,0.139166910438717
1159.76834675127,0.130396124529262
1156.03918808004,0.133090799021876
1152.31002940881,0.145592060835562
1148.58087073759,0.16785530710862
1144.85171206636,0.188297627410831
1141.12255339513,0.186643849816391
1137.39339472391,0.164654363153846
1133.66423605268,0.138761178125326
1129.93507738146,0.119646417341125
1126.20591871023,0.109277903155244
1122.476760039,0.106006205328268
1118.74760136778,0.1081498669964
1115.01844269655,0.114319067972328
1111.28928402532,0.122408711953701
1107.5601253541,0.133283943798813
1103.83096668287,0.150133623351999
1100.10180801165,0.174847111911734
1096.37264934042,0.207887682302193
1092.64349066919,0.251163650255388
1088.91433199797,0.313055480878825
1085.18517332674,0.410588098337041
1081.45601465551,0.568165284485826
1077.72685598429,0.819089548726386
1073.99769731306,1.1913862422321
1070.26853864183,1.61707567215785
1066.53937997061,1.75130981992097
1062.81022129938,1.519224991673
1059.08106262816,1.20249123656747
1055.35190395693,0.922658486695533
1051.6227452857,0.710811303584458
1047.89358661448,0.561887878245681
1044.16442794325,0.464490046180016
1040.43526927202,0.409404348962103
1036.7061106008,0.38973860832714
1032.97695192957,0.38662758732047
1029.24779325835,0.366246729826762
1025.51863458712,0.311588441920918
1021.78947591589,0.245217220740992
1018.06031724467,0.19232155733524
1014.33115857344,0.157666084613404
1010.60199990221,0.135039354368689
1006.87284123099,0.119249978105036
1003.14368255976,0.107610019868244
999.414523888535,0.0992179645838168
995.685365217309,0.0932469241603205
991.956206546083,0.0895123113350766
988.227047874856,0.0875275312052269
984.49788920363,0.0870387546382609
980.768730532404,0.0878225661999955
977.039571861178,0.0899287561803509
973.310413189951,0.0936617384077489
969.581254518725,0.0991928719668797
965.852095847499,0.106922538073732
962.122937176272,0.117671324201935
958.393778505046,0.131702503103575
954.66461983382,0.149076852454037
950.935461162594,0.170113550631554
947.206302491367,0.192220429956477
943.477143820141,0.215011493030957
939.747985148915,0.243937947343875
936.018826477688,0.284031718932994
932.289667806462,0.33830422553758
928.560509135236,0.411763216337677
924.83135046401,0.510216287071462
921.102191792783,0.638868705696586
917.373033121557,0.78837761896848
913.643874450331,0.923576230567557
909.914715779104,0.995966155724004
906.185557107878,0.991140474395857
902.456398436652,0.917856729583172
898.727239765426,0.804594871386438
894.998081094199,0.684738453170432
891.268922422973,0.579577417808861
887.539763751747,0.496597180752228
883.81060508052,0.436739068909628
880.081446409294,0.395524134212745
876.352287738068,0.366386235228687
872.623129066842,0.343790235954499
868.893970395615,0.323321693013127
865.164811724389,0.303635297005198
861.435653053163,0.284691896539531
857.706494381936,0.267957462022831
853.97733571071,0.255338852087017
850.248177039484,0.247168520841587
846.519018368258,0.23733889941764
842.789859697031,0.224401310260021
839.060701025805,0.211526043440562
835.331542354579,0.200048429949498
831.602383683352,0.188271000879869
827.873225012126,0.176522553354132
824.1440663409,0.165661305713305
820.414907669674,0.156261072259263
816.685748998447,0.14562101954443
812.956590327221,0.133201921133509
809.227431655995,0.121030080829524
805.498272984768,0.111125845702667
801.769114313542,0.104055053118586
798.039955642316,0.0999230896972624
794.31079697109,0.0963949273939613
790.581638299863,0.0934082656733776
786.852479628637,0.0952386808613355
783.123320957411,0.1102330478969
779.394162286184,0.116751349507403
775.665003614958,0.0982497957025342
771.935844943732,0.0861225025648727
768.206686272506,0.0855562854509539
764.477527601279,0.0900118320497438
760.748368930053,0.0992564806191206
757.019210258827,0.106258304531351
753.2900515876,0.105487451349685
749.560892916374,0.102770239389887
745.831734245148,0.0997910554286249
742.102575573922,0.0945240775953759
738.373416902695,0.0890370325932593
734.644258231469,0.0825956088530789
730.915099560243,0.0751895334167866
727.185940889016,0.0678744768586017
723.45678221779,0.0642405975313888
719.727623546564,0.0657870915244737
715.998464875338,0.0775808881999027
712.269306204111,0.092214598898267
708.540147532885,0.0925724765719252
704.810988861659,0.0927974582841944
701.081830190432,0.0963467006254121
697.352671519206,0.0954214686483863
693.62351284798,0.098686836634685
689.894354176754,0.105848424087302
686.165195505527,0.132876324879353
682.436036834301,0.167163880692063
678.706878163075,0.16600714928096
674.977719491848,0.162512146754167
671.248560820622,0.197574419391897
667.519402149396,0.245639063313068
663.790243478169,0.276137226460609
660.061084806943,0.278128682288866
656.331926135717,0.274258555955007
652.602767464491,0.265548600336091
648.873608793276,0.253254089464335
