Wavenumbercm-1,01:36:52
2998.24357166583,0.188996975995003
2994.5144129946,0.218466454341578
2990.78525432337,0.25022117998288
2987.05609565215,0.30477851131899
2983.32693698092,0.340244124235473
2979.59777830969,0.323536909990873
2975.86861963847,0.287234722617396
2972.13946096724,0.263996608619239
2968.41030229601,0.264591065880315
2964.68114362479,0.268071415735223
2960.95198495356,0.278395104867037
2957.22282628234,0.290406912120879
2953.49366761111,0.306904015172358
2949.76450893988,0.312334986012255
2946.03535026866,0.297344210489497
2942.30619159743,0.284606664115302
2938.5770329262,0.293674859585204
2934.84787425498,0.301567334337716
2931.11871558375,0.29522288904177
2927.38955691253,0.288791123122635
2923.6603982413,0.300583654363989
2919.93123957007,0.311170892001541
2916.20208089885,0.298402248122181
2912.47292222762,0.280578669838064
2908.74376355639,0.275616366683686
2905.01460488517,0.278938583334796
2901.28544621394,0.288988143016815
2897.55628754272,0.298131505553671
2893.82712887149,0.304708837123417
2890.09797020026,0.316556343836242
2886.36881152904,0.330127073101729
2882.63965285781,0.352838874397105
2878.91049418658,0.376147486010194
2875.18133551536,0.36887213518261
2871.45217684413,0.351828974048058
2867.72301817291,0.356104255886076
2863.99385950168,0.35264462878735
2860.26470083045,0.336604477894688
2856.53554215923,0.324111368751642
2852.806383488,0.316734650846165
2849.07722481677,0.304453574871799
2845.34806614555,0.303993329968739
2841.61890747432,0.290686407374424
2837.88974880309,0.254086650271038
2834.16059013187,0.218986476305769
2830.43143146064,0.19381528936488
2826.70227278942,0.1746603008978
2822.97311411819,0.155011777499791
2819.24395544696,0.136874078421546
2815.51479677574,0.12371918428341
2811.78563810451,0.111787132334788
2808.05647943328,0.0998715929966109
2804.32732076206,0.0928037698351505
2800.59816209083,0.0860901721117232
2796.86900341961,0.0795590537517469
2793.13984474838,0.0736528523741423
2789.41068607715,0.0654890503023565
2785.68152740593,0.0569433650958776
2781.9523687347,0.0532235871819655
2778.22321006347,0.0518521857070681
2774.49405139225,0.0486190389605051
2770.76489272102,0.0438794388673861
2767.0357340498,0.0398693569279539
2763.30657537857,0.037272531976742
2759.57741670734,0.0365651824745639
2755.84825803612,0.0371541401717823
2752.11909936489,0.0377093799252681
2748.38994069366,0.0370691959506543
2744.66078202244,0.0374265776687069
2740.93162335121,0.0402699852381555
2737.20246467999,0.04318441098522
2733.47330600876,0.0459294656765402
2729.74414733753,0.0483044435279074
2726.01498866631,0.0483120771817649
2722.28582999508,0.0453301034135662
2718.55667132385,0.0418004620175942
2714.82751265263,0.0383551714148858
2711.0983539814,0.0356152235987418
2707.36919531017,0.0340651496584055
2703.64003663895,0.0341470561323023
2699.91087796772,0.0359265640555793
2696.1817192965,0.0401252371168945
2692.45256062527,0.0444856080079055
2688.72340195404,0.0467445700379724
2684.99424328282,0.0470028142858723
2681.26508461159,0.0448466682521211
2677.53592594036,0.0403258046750489
2673.80676726914,0.0361673311186937
2670.07760859791,0.0336402601228981
2666.34844992669,0.0329427562766854
2662.61929125546,0.0339725926791836
2658.89013258423,0.0346000296365184
2655.16097391301,0.0328576834412589
2651.43181524178,0.0297107221788631
2647.70265657055,0.0267393817294925
2643.97349789933,0.0240166438044013
2640.2443392281,0.0232904739931654
2636.51518055688,0.0235806370421308
2632.78602188565,0.023651981860231
2629.05686321442,0.0236972425022651
2625.3277045432,0.0242098135958788
2621.59854587197,0.0261671186146119
2617.86938720074,0.028940862347173
2614.14022852952,0.0303780289237374
2610.41106985829,0.0310024559274917
2606.68191118707,0.0317637122354664
2602.95275251584,0.0329469014613669
2599.22359384461,0.0338227021451522
2595.49443517339,0.035113809174385
2591.76527650216,0.0372557351036101
2588.03611783093,0.0393712979046571
2584.30695915971,0.0420883243066865
2580.57780048848,0.0464255840371873
2576.84864181725,0.0535973796249238
2573.11948314603,0.0639004962313983
2569.3903244748,0.0749178454761874
2565.66116580358,0.0808504201878717
2561.93200713235,0.0793443404884986
2558.20284846112,0.0728439271488428
2554.4736897899,0.066451657494276
2550.74453111867,0.062650790539836
2547.01537244744,0.0608100827357987
2543.28621377622,0.0569129449291209
2539.55705510499,0.0502324927388816
2535.82789643377,0.0433741094438325
2532.09873776254,0.0392164657995364
2528.36957909131,0.0376727397988841
2524.64042042009,0.0365478889118927
2520.91126174886,0.0356631029417671
2517.18210307763,0.036243872140876
2513.45294440641,0.0374686273824953
2509.72378573518,0.0384281337708565
2505.99462706396,0.0396747007011781
2502.26546839273,0.0409640723879433
2498.5363097215,0.0420264768360742
2494.80715105028,0.0423715729478968
2491.07799237905,0.0422599161957663
2487.34883370782,0.041850615048374
2483.6196750366,0.0412978182846512
2479.89051636537,0.0403335498262402
2476.16135769415,0.0387498243252679
2472.43219902292,0.0362697100065793
2468.70304035169,0.0337086949101301
2464.97388168047,0.0311149246981361
2461.24472300924,0.0290130368745226
2457.51556433801,0.0275431877582335
2453.78640566679,0.0265805705995287
2450.05724699556,0.0255222479252739
2446.32808832433,0.0244349078460272
2442.59892965311,0.0240320962745758
2438.86977098188,0.0239131876536962
2435.14061231066,0.0231409796952807
2431.41145363943,0.0218753532204571
2427.6822949682,0.021094667228381
2423.95313629698,0.0204075773518368
2420.22397762575,0.0197256035989216
2416.49481895452,0.0196500864253983
2412.7656602833,0.0198709929493791
2409.03650161207,0.0188662456716563
2405.30734294085,0.0173717727821947
2401.57818426962,0.0162894981265299
2397.84902559839,0.0157800651577038
2394.11986692717,0.0153173744240233
2390.39070825594,0.015528151900149
2386.66154958471,0.0179043689793356
2382.93239091349,0.0245570928557831
2379.20323224226,0.0369798924982478
2375.47407357104,0.0531570542743833
2371.74491489981,0.0682148909252439
2368.01575622858,0.0783227690125022
2364.28659755736,0.0804391639917958
2360.55743888613,0.0713931644713697
2356.8282802149,0.0516490775281301
2353.09912154368,0.0369288868594982
2349.36996287245,0.0412194012794858
2345.64080420122,0.0529630955455669
2341.91164553,0.0563611183551752
2338.18248685877,0.0534170777187477
2334.45332818755,0.0476295806389235
2330.72416951632,0.0397715706826946
2326.99501084509,0.031765535708936
2323.26585217387,0.0245861838283093
2319.53669350264,0.018283293001982
2315.80753483141,0.0133881072895942
2312.07837616019,0.0107187148224829
2308.34921748896,0.00909188655247438
2304.62005881774,0.00763698848528679
2300.89090014651,0.00619501931774088
2297.16174147528,0.00552546789172822
2293.43258280406,0.00717210764556462
2289.70342413283,0.0117523337062231
2285.9742654616,0.0183424006090205
2282.24510679038,0.0245909345929379
2278.51594811915,0.0275980782297784
2274.78678944793,0.0281151012651819
2271.0576307767,0.0282337574938167
2267.32847210547,0.0278752466599902
2263.59931343425,0.0275902517770968
2259.87015476302,0.0275599566690878
2256.14099609179,0.0270732058083595
2252.41183742057,0.0255747885620071
2248.68267874934,0.0252552316836001
2244.95352007812,0.0253455265284265
2241.22436140689,0.0259820226050735
2237.49520273566,0.0272041924316477
2233.76604406444,0.0289141334976446
2230.03688539321,0.0300899607271643
2226.30772672198,0.0317524092031431
2222.57856805076,0.0337901167112052
2218.84940937953,0.036740359376998
2215.1202507083,0.0408204095235682
2211.39109203708,0.0450941804685337
2207.66193336585,0.0470205767341507
2203.93277469463,0.0482868100071242
2200.2036160234,0.0499050650773644
2196.47445735217,0.0522468775185557
2192.74529868095,0.058193872246258
2189.01614000972,0.0669480621385119
2185.28698133849,0.0767907037066193
2181.55782266727,0.0842202074699819
2177.82866399604,0.0888420623110569
2174.09950532482,0.0920502590713043
2170.37034665359,0.102355836936401
2166.64118798236,0.125755216129432
2162.91202931114,0.154502955451692
2159.18287063991,0.157998925378574
2155.45371196868,0.14356707318196
2151.72455329746,0.128064418974119
2147.99539462623,0.117103109750879
2144.26623595501,0.106653068206585
2140.53707728378,0.0967627052722038
2136.80791861255,0.0845602637261267
2133.07875994133,0.0701322678728985
2129.3496012701,0.056043401359434
2125.62044259887,0.0459034835619098
2121.89128392765,0.0397774658410388
2118.16212525642,0.0357860310149293
2114.4329665852,0.0335495244765884
2110.70380791397,0.0322731640185577
2106.97464924274,0.0315118769600679
2103.24549057152,0.0309499209919957
2099.51633190029,0.0306176869141443
2095.78717322906,0.0276436707698481
2092.05801455784,0.0230612292018496
2088.32885588661,0.0189894255152265
2084.59969721538,0.0166688380887537
2080.87053854416,0.0152743886060539
2077.14137987293,0.0151465706733633
2073.41222120171,0.0150773060082948
2069.68306253048,0.0167159708517131
2065.95390385925,0.0189338838846572
2062.22474518803,0.020099543814576
2058.4955865168,0.0197715415147734
2054.76642784557,0.0214708532074637
2051.03726917435,0.0262806977043715
2047.30811050312,0.0314187750200911
2043.5789518319,0.0338647519001209
2039.84979316067,0.0368546621595506
2036.12063448944,0.0412832596467303
2032.39147581822,0.042813406305581
2028.66231714699,0.0402572165953069
2024.93315847576,0.0368220464173325
2021.20399980454,0.0338566193097414
2017.47484113331,0.0305419925295247
2013.74568246209,0.0285478949942626
2010.01652379086,0.0269234431970895
2006.28736511963,0.0239065392703909
2002.55820644841,0.0193746673882894
1998.82904777718,0.0176499341171849
1995.09988910595,0.018506047651472
1991.37073043473,0.0193673714923583
1987.6415717635,0.0193830033584696
1983.91241309228,0.0238623584235109
1980.18325442105,0.0304880206314862
1976.45409574982,0.0348859000885558
1972.7249370786,0.034096579355416
1968.99577840737,0.0314062298570425
1965.26661973614,0.0272734402133494
1961.53746106492,0.0235961786927512
1957.80830239369,0.0187939521471207
1954.07914372246,0.0141163944554027
1950.34998505124,0.0109468782790587
1946.62082638001,0.00931698148202143
1942.89166770879,0.00637218919193595
1939.16250903756,0.00272551658019671
1935.43335036633,2.13349290492021E-05
1931.70419169511,-0.00171963009485067
1927.97503302388,-0.00167284686421809
1924.24587435265,-0.00107445091883681
1920.51671568143,-0.00165562399968554
1916.7875570102,-0.00383449292561311
1913.05839833898,-0.00505008469333461
1909.32923966775,-0.00592919606522881
1905.60008099652,-0.00706189818795093
1901.8709223253,-0.00748245481042106
1898.14176365407,-0.00682131244051929
1894.41260498284,-0.00603567575452438
1890.68344631162,-0.00647665509823742
1886.95428764039,-0.00840160882109783
1883.22512896917,-0.00925171951096747
1879.49597029794,-0.00937252736084152
1875.76681162671,-0.00731639479678823
1872.03765295549,-0.00370126217954128
1868.30849428426,-0.00456018480785766
1864.57933561303,-0.00775221973883269
1860.85017694181,-0.00856834792820895
1857.12101827058,-0.00869318873326989
1853.39185959936,-0.00728797412401745
1849.66270092813,-0.00283742122620826
1845.9335422569,-0.000665655489912717
1842.20438358568,-0.00433147207256518
1838.47522491445,-0.00601477235544191
1834.74606624322,-0.00263007120156231
1831.016907572,0.000871911024004459
1827.28774890077,-1.71947626333483E-05
1823.55859022954,-0.0028167263878815
1819.82943155832,-0.00327634635500676
1816.10027288709,-0.00216089954887817
1812.37111421587,-0.00157191886088324
1808.64195554464,-0.00203563814589876
1804.91279687341,-0.000334669627265805
1801.18363820219,0.00122352254762168
1797.45447953096,0.00309831959082518
1793.72532085973,0.00351300473808035
1789.99616218851,-0.000185122442815142
1786.26700351728,-0.00167816187787278
1782.53784484606,-0.000972230493491617
1778.80868617483,0.00209292862040212
1775.0795275036,0.00785228671555488
1771.35036883238,0.00586058146397909
1767.62121016115,0.00164074289761478
1763.89205148992,0.0029070116246679
1760.1628928187,0.00525131346443756
1756.43373414747,0.00873912194171793
1752.70457547625,0.0136206242909318
1748.97541680502,0.0133844439439107
1745.24625813379,0.0136158790113371
1741.51709946257,0.0220782870202807
1737.78794079134,0.0399053428774885
1734.05878212011,0.0563551207021209
1730.32962344889,0.0549299241793178
1726.60046477766,0.0457916279381162
1722.87130610643,0.0384579771015479
1719.14214743521,0.0312205854173716
1715.41298876398,0.0147871364616406
1711.68383009276,0.00549336889353228
1707.95467142153,0.0084327676045742
1704.2255127503,0.0172424383692087
1700.49635407908,0.0185956081347931
1696.76719540785,0.0067662103719997
1693.03803673662,-0.000203172217743443
1689.3088780654,0.00596047808003405
1685.57971939417,0.0104083153757556
1681.85056072295,0.00331039585465484
1678.12140205172,0.0021479908469558
1674.39224338049,0.00494189681609162
1670.66308470927,0.00205484331607021
1666.93392603804,-0.00279927015554357
1663.20476736681,-0.00467234520685421
1659.47560869559,0.000896655058553999
1655.74645002436,0.014429318449811
1652.01729135314,0.0141229356926326
1648.28813268191,0.00469025771896519
1644.55897401068,-0.00240031882880948
1640.82981533946,0.000480178731781812
1637.10065666823,0.0056948879987202
1633.371497997,0.000262734540524703
1629.64233932578,0.00233438624893788
1625.91318065455,0.00908468341291369
1622.18402198333,0.0125917937814329
1618.4548633121,0.0124956833329493
1614.72570464087,0.00765348945838799
1610.99654596965,0.00564170315816486
1607.26738729842,0.0059810769023148
1603.53822862719,0.00516654577092478
1599.80906995597,0.00449389138805751
1596.07991128474,0.00284297758750385
1592.35075261351,-0.00134519801769068
1588.62159394229,-0.00567607617938913
1584.89243527106,-0.00672707724023403
1581.16327659984,-0.0025816241145566
1577.43411792861,0.0014843484588857
1573.70495925738,0.000733434695429551
1569.97580058616,0.000189610534978708
1566.24664191493,0.00392178888006276
1562.5174832437,0.0194881712726611
1558.78832457248,0.0222695720450479
1555.05916590125,0.00734427834791631
1551.33000723003,0.00331814260321679
1547.6008485588,0.0119388645333776
1543.87168988757,0.0265091578074868
1540.14253121635,0.0230073899652717
1536.41337254512,0.013193414646925
1532.68421387389,0.0115310002592006
1528.95505520267,0.0164992387873819
1525.22589653144,0.026339291350282
1521.49673786022,0.0288330584282295
1517.76757918899,0.0243682638028971
1514.03842051776,0.0265707977832391
1510.30926184654,0.0387950303925663
1506.58010317531,0.0379688528459586
1502.85094450408,0.0321576358828748
1499.12178583286,0.0377613933895779
1495.39262716163,0.0435814943080411
1491.66346849041,0.0503866387540798
1487.93430981918,0.0528912940756715
1484.20515114795,0.055742065710285
1480.47599247673,0.0677844779062051
1476.7468338055,0.0858667378870402
1473.01767513427,0.103541808422118
1469.28851646305,0.126674334500665
1465.55935779182,0.163642497748804
1461.83019912059,0.188830199519011
1458.10104044937,0.180599172476582
1454.37188177814,0.156210660807297
1450.64272310692,0.14192496535339
1446.91356443569,0.11938608449958
1443.18440576446,0.0929350494545859
1439.45524709324,0.0755328389847393
1435.72608842201,0.0598904585418456
1431.99692975078,0.046877019021646
1428.26777107956,0.0393994543372133
1424.53861240833,0.0368281428402289
1420.80945373711,0.0348777991107654
1417.08029506588,0.0252213241606739
1413.35113639465,0.0172425430049351
1409.62197772343,0.0147728348096902
1405.8928190522,0.0143855899658633
1402.16366038097,0.0153999279050528
1398.43450170975,0.0167789724750753
1394.70534303852,0.014642997667199
1390.9761843673,0.0139621781346559
1387.24702569607,0.0153503216056281
1383.51786702484,0.0170135534509838
1379.78870835362,0.0250901348954081
1376.05954968239,0.0410486355578735
1372.33039101116,0.0648186317098195
1368.60123233994,0.090975674049064
1364.87207366871,0.0946914470739574
1361.14291499749,0.0683364940950126
1357.41375632626,0.0447083011410025
1353.68459765503,0.0335128656739064
1349.95543898381,0.0285882672391777
1346.22628031258,0.027873390497637
1342.49712164135,0.0316048465528367
1338.76796297013,0.0355314827561303
1335.0388042989,0.0361668099043492
1331.30964562767,0.0345026643944926
1327.58048695645,0.0322114678358934
1323.85132828522,0.0315589304929071
1320.122169614,0.0328805699178059
1316.39301094277,0.0357780086665088
1312.66385227154,0.0398215272689608
1308.93469360032,0.0440782560914893
1305.20553492909,0.0477588314699359
1301.47637625786,0.0538277170132925
1297.74721758664,0.0683230398337941
1294.01805891541,0.0979978684552239
1290.28890024419,0.14810352520836
1286.55974157296,0.216359124606493
1282.83058290173,0.250047293291161
1279.10142423051,0.21295084914638
1275.37226555928,0.172161968419003
1271.64310688805,0.147314846271975
1267.91394821683,0.121355898410663
1264.1847895456,0.111096031961702
1260.45563087438,0.118238327780413
1256.72647220315,0.132445759391363
1252.99731353192,0.149055702253889
1249.2681548607,0.163505806728977
1245.53899618947,0.170763212064788
1241.80983751824,0.169215045472867
1238.08067884702,0.161705185871023
1234.35152017579,0.152183170707545
1230.62236150457,0.143466361068237
1226.89320283334,0.137014359451842
1223.16404416211,0.133735806672073
1219.43488549089,0.133072983014321
1215.70572681966,0.136067053265125
1211.97656814843,0.144763128886632
1208.24740947721,0.154691009466247
1204.51825080598,0.157691783488922
1200.78909213475,0.160345859619637
1197.05993346353,0.169542849123525
1193.3307747923,0.184269107633174
1189.60161612108,0.2065903535472
1185.87245744985,0.233232765592515
1182.14329877862,0.246351343018141
1178.4141401074,0.237567170336165
1174.68498143617,0.214918883503572
1170.95582276494,0.186626107787457
1167.22666409372,0.160156068195331
1163.49750542249,0.144354605754996
1159.76834675127,0.143923391169165
1156.03918808004,0.15497189778796
1152.31002940881,0.169409878970896
1148.58087073759,0.195314750066741
1144.85171206636,0.229445511988234
1141.12255339513,0.233397322857101
1137.39339472391,0.201986146315056
1133.66423605268,0.16800040043573
1129.93507738146,0.142658398493442
1126.20591871023,0.123472640764955
1122.476760039,0.112468828146934
1118.74760136778,0.108906444153176
1115.01844269655,0.111358525163096
1111.28928402532,0.119078364544547
1107.5601253541,0.130769802903808
1103.83096668287,0.14605347661788
1100.10180801165,0.168220997955838
1096.37264934042,0.200198102903841
1092.64349066919,0.24588454440661
1088.91433199797,0.312926083966469
1085.18517332674,0.416335481175222
1081.45601465551,0.580533545046091
1077.72685598429,0.84016687391602
1073.99769731306,1.22486076076873
1070.26853864183,1.66147242839202
1066.53937997061,1.76304716068392
1062.81022129938,1.47169856143373
1059.08106262816,1.1348639961466
1055.35190395693,0.866077334729496
1051.6227452857,0.676702173247068
1047.89358661448,0.546432714811505
1044.16442794325,0.457832647193683
1040.43526927202,0.403920229391832
1036.7061106008,0.382070573671072
1032.97695192957,0.374325185534026
1029.24779325835,0.347552167658616
1025.51863458712,0.289770365617876
1021.78947591589,0.226587425007182
1018.06031724467,0.178043240701671
1014.33115857344,0.145542601137736
1010.60199990221,0.123715803950426
1006.87284123099,0.108494645493112
1003.14368255976,0.0973805995851185
999.414523888535,0.0894237964278327
995.685365217309,0.0840935034094066
991.956206546083,0.0810602799220212
988.227047874856,0.0797555694422911
984.49788920363,0.0800178911437287
980.768730532404,0.0816257955312557
977.039571861178,0.0846152280879522
973.310413189951,0.089370064709016
969.581254518725,0.0958507090143318
965.852095847499,0.104383699065133
962.122937176272,0.115776395181227
958.393778505046,0.130224155658554
954.66461983382,0.146959740065394
950.935461162594,0.166013750033341
947.206302491367,0.187851876188848
943.477143820141,0.213625298289977
939.747985148915,0.244997624612786
936.018826477688,0.286044668081991
932.289667806462,0.341449369149273
928.560509135236,0.41701007517833
924.83135046401,0.517695079275565
921.102191792783,0.64778989201646
917.373033121557,0.798581875299271
913.643874450331,0.936200704367031
909.914715779104,1.00762993509314
906.185557107878,0.992577311532746
902.456398436652,0.906129461374987
898.727239765426,0.784640609360924
894.998081094199,0.663409435924035
891.268922422973,0.563471580391579
887.539763751747,0.490014127804971
883.81060508052,0.438153959710572
880.081446409294,0.400707178891737
876.352287738068,0.37047449344682
872.623129066842,0.344601579457972
868.893970395615,0.320959409625601
865.164811724389,0.298889487211103
861.435653053163,0.277666318926054
857.706494381936,0.258499537809736
853.97733571071,0.24336997241951
850.248177039484,0.235746677267875
846.519018368258,0.230423818848332
842.789859697031,0.215774626447616
839.060701025805,0.194961763358889
835.331542354579,0.178268943404259
831.602383683352,0.164413786731014
827.873225012126,0.151289450929935
824.1440663409,0.137641522786803
820.414907669674,0.125204744650082
816.685748998447,0.11404999897379
812.956590327221,0.104141206266743
809.227431655995,0.095560396741826
805.498272984768,0.0877361006108281
801.769114313542,0.0814933727376203
798.039955642316,0.0770546262454613
794.31079697109,0.0725913750700817
790.581638299863,0.0674638683638651
786.852479628637,0.0630252128818384
783.123320957411,0.0608199583669696
779.394162286184,0.0634171990368111
775.665003614958,0.0712288036573321
771.935844943732,0.0701455996460639
768.206686272506,0.0552815039799457
764.477527601279,0.0449688753419897
760.748368930053,0.0408968533841693
757.019210258827,0.0384097167281497
753.2900515876,0.0370050398055439
749.560892916374,0.0367318440223254
745.831734245148,0.0359850462755521
742.102575573922,0.034826416311088
738.373416902695,0.0361444450383976
734.644258231469,0.0388039137648383
730.915099560243,0.0379682482761429
727.185940889016,0.0364199342421098
723.45678221779,0.0368225723785791
719.727623546564,0.0388120371191
715.998464875338,0.0416899939867418
712.269306204111,0.0460863234877911
708.540147532885,0.0585499328517198
704.810988861659,0.0794970004422249
701.081830190432,0.0895242253803612
697.352671519206,0.079762995315877
693.62351284798,0.0764834698262298
689.894354176754,0.0863958355735537
686.165195505527,0.124322102104149
682.436036834301,0.176610954835425
678.706878163075,0.194857837861335
674.977719491848,0.202112610226051
671.248560820622,0.218066554934801
667.519402149396,0.223307910173976
663.790243478169,0.222730463805704
660.061084806943,0.224553022653818
656.331926135717,0.231037489824747
652.602767464491,0.220789829457988
648.873608793276,0.206849131487405
