Wavenumbercm-1,06:50:53
2998.24357166583,0.177002318444301
2994.5144129946,0.207351934835078
2990.78525432337,0.24287712401456
2987.05609565215,0.298783603167616
2983.32693698092,0.329397125693713
2979.59777830969,0.30807723319092
2975.86861963847,0.275502345383482
2972.13946096724,0.257819605667405
2968.41030229601,0.256713691656494
2964.68114362479,0.258394573559466
2960.95198495356,0.268767217443564
2957.22282628234,0.279509097970026
2953.49366761111,0.29203332550123
2949.76450893988,0.296334517015371
2946.03535026866,0.284644938038451
2942.30619159743,0.274797275640579
2938.5770329262,0.28233940753886
2934.84787425498,0.288370959734864
2931.11871558375,0.284667083190713
2927.38955691253,0.281858685668364
2923.6603982413,0.292840733352808
2919.93123957007,0.301026976234032
2916.20208089885,0.287820250842129
2912.47292222762,0.267208913660911
2908.74376355639,0.259253128561704
2905.01460488517,0.264351637583321
2901.28544621394,0.277020378162997
2897.55628754272,0.284923932840183
2893.82712887149,0.289035916474272
2890.09797020026,0.301469984451579
2886.36881152904,0.318601839367366
2882.63965285781,0.34291102590032
2878.91049418658,0.364766685908977
2875.18133551536,0.354636025215406
2871.45217684413,0.337472962857241
2867.72301817291,0.342849067148527
2863.99385950168,0.342862764447486
2860.26470083045,0.327360447157921
2856.53554215923,0.311381894519426
2852.806383488,0.301704655029955
2849.07722481677,0.290312148155965
2845.34806614555,0.288459020806407
2841.61890747432,0.27536728740687
2837.88974880309,0.242550313038325
2834.16059013187,0.209741252559581
2830.43143146064,0.183827637953081
2826.70227278942,0.162103909307173
2822.97311411819,0.142389311258513
2819.24395544696,0.128014799071857
2815.51479677574,0.11761987416328
2811.78563810451,0.105353530265957
2808.05647943328,0.0935543267627415
2804.32732076206,0.0862519465658357
2800.59816209083,0.0796510430697611
2796.86900341961,0.0727452010594057
2793.13984474838,0.0658007387864268
2789.41068607715,0.0586674094953181
2785.68152740593,0.0515638707541744
2781.9523687347,0.046071368880315
2778.22321006347,0.042045715626525
2774.49405139225,0.0385295522562639
2770.76489272102,0.035241299987195
2767.0357340498,0.0319978183568455
2763.30657537857,0.0293584000100506
2759.57741670734,0.0282227326384959
2755.84825803612,0.0278680423142102
2752.11909936489,0.0277850719290367
2748.38994069366,0.0278857946858543
2744.66078202244,0.0292208091534777
2740.93162335121,0.0325855321330336
2737.20246467999,0.0378042797739692
2733.47330600876,0.042673493855713
2729.74414733753,0.0445431421181465
2726.01498866631,0.0436646460767938
2722.28582999508,0.0406992642941115
2718.55667132385,0.0363782245539662
2714.82751265263,0.0314357784891823
2711.0983539814,0.0276353150146762
2707.36919531017,0.0262232722767211
2703.64003663895,0.0271793500426193
2699.91087796772,0.0297274278509235
2696.1817192965,0.0338413210928254
2692.45256062527,0.0380195932090138
2688.72340195404,0.0401829742317979
2684.99424328282,0.0401349799498695
2681.26508461159,0.0377017921463514
2677.53592594036,0.0336977181937549
2673.80676726914,0.0305560403010252
2670.07760859791,0.0281809790653398
2666.34844992669,0.0266167621906241
2662.61929125546,0.0270811731052854
2658.89013258423,0.0278940697696139
2655.16097391301,0.0263008604354905
2651.43181524178,0.0230700194772641
2647.70265657055,0.0198533716028558
2643.97349789933,0.0170112044594317
2640.2443392281,0.0162185970017232
2636.51518055688,0.0169658977930976
2632.78602188565,0.0176717655054757
2629.05686321442,0.0184422071294203
2625.3277045432,0.0198488152225657
2621.59854587197,0.0223151502271873
2617.86938720074,0.0252289024383123
2614.14022852952,0.0271029710149328
2610.41106985829,0.0285827851271574
2606.68191118707,0.0306853468008676
2602.95275251584,0.0330688281726208
2599.22359384461,0.0345957170457277
2595.49443517339,0.0362257414158045
2591.76527650216,0.0391287790360917
2588.03611783093,0.0426674299095139
2584.30695915971,0.0465620496663805
2580.57780048848,0.0497516560641837
2576.84864181725,0.0530935436629053
2573.11948314603,0.0595481690172488
2569.3903244748,0.067075183533682
2565.66116580358,0.068775195254798
2561.93200713235,0.063724450237025
2558.20284846112,0.0563522208195832
2554.4736897899,0.0501838543877383
2550.74453111867,0.0444444493940391
2547.01537244744,0.0389902292139428
2543.28621377622,0.0351916803156031
2539.55705510499,0.0326524069460111
2535.82789643377,0.0302679623224447
2532.09873776254,0.0287396971130456
2528.36957909131,0.0279543026816994
2524.64042042009,0.0269256445133724
2520.91126174886,0.0260344754163491
2517.18210307763,0.0264132513331148
2513.45294440641,0.0278753105461229
2509.72378573518,0.0289590425067115
2505.99462706396,0.0293552540546682
2502.26546839273,0.030106348602146
2498.5363097215,0.0316075707761056
2494.80715105028,0.0324869219467483
2491.07799237905,0.0326106973967793
2487.34883370782,0.0327585635797239
2483.6196750366,0.0324365590998661
2479.89051636537,0.0306293211610783
2476.16135769415,0.028202142436171
2472.43219902292,0.0257055887198395
2468.70304035169,0.0229952061268811
2464.97388168047,0.0204316491678671
2461.24472300924,0.0191666567868717
2457.51556433801,0.0186737545417739
2453.78640566679,0.0178571371479043
2450.05724699556,0.0171521041872914
2446.32808832433,0.0169812703158246
2442.59892965311,0.0170091015439079
2438.86977098188,0.0171099757881963
2435.14061231066,0.0168396446384366
2431.41145363943,0.0161109990043902
2427.6822949682,0.015520483367177
2423.95313629698,0.0146657155504987
2420.22397762575,0.0138769242289754
2416.49481895452,0.0139098784018389
2412.7656602833,0.014178277580331
2409.03650161207,0.0136849343974562
2405.30734294085,0.0129213541409333
2401.57818426962,0.0120293407895951
2397.84902559839,0.0114230147155294
2394.11986692717,0.0114567491137278
2390.39070825594,0.012645439569129
2386.66154958471,0.0161122431849873
2382.93239091349,0.0239131549669619
2379.20323224226,0.0371999084374298
2375.47407357104,0.053116767038706
2371.74491489981,0.0668191293806739
2368.01575622858,0.0759764098925025
2364.28659755736,0.0790188552856859
2360.55743888613,0.0723408398197999
2356.8282802149,0.0552381045981467
2353.09912154368,0.0436938971371466
2349.36996287245,0.0544441318485037
2345.64080420122,0.081973719769178
2341.91164553,0.101903656752056
2338.18248685877,0.09196660063531
2334.45332818755,0.0664904660638551
2330.72416951632,0.0495313327475558
2326.99501084509,0.0395136801818654
2323.26585217387,0.0301553317975368
2319.53669350264,0.0215081595011613
2315.80753483141,0.0147414751409758
2312.07837616019,0.00993596171199906
2308.34921748896,0.00649797832341414
2304.62005881774,0.00455094646550008
2300.89090014651,0.0038938111947212
2297.16174147528,0.00415131275153289
2293.43258280406,0.00588800454209947
2289.70342413283,0.00924970811291392
2285.9742654616,0.0134544725532376
2282.24510679038,0.0174803005625305
2278.51594811915,0.0195341379110217
2274.78678944793,0.0204544223719196
2271.0576307767,0.0210403071796686
2267.32847210547,0.0204948820573225
2263.59931343425,0.0194391912417079
2259.87015476302,0.0188735585315777
2256.14099609179,0.0189184407269349
2252.41183742057,0.0189038405295659
2248.68267874934,0.0194648554901451
2244.95352007812,0.0201947565471955
2241.22436140689,0.0216776572423219
2237.49520273566,0.024111669933615
2233.76604406444,0.0265027443618118
2230.03688539321,0.0286367477680263
2226.30772672198,0.0310786817309825
2222.57856805076,0.0328868265887663
2218.84940937953,0.0349012947925675
2215.1202507083,0.038062422316743
2211.39109203708,0.0412202226143907
2207.66193336585,0.0432232769428487
2203.93277469463,0.0456210396793339
2200.2036160234,0.0485240342101296
2196.47445735217,0.0518020830280302
2192.74529868095,0.0569173275588606
2189.01614000972,0.0649034539314233
2185.28698133849,0.0746864634220355
2181.55782266727,0.0816338744437874
2177.82866399604,0.0856859225060405
2174.09950532482,0.089347972400742
2170.37034665359,0.0993770396006922
2166.64118798236,0.121126575273344
2162.91202931114,0.149472764542535
2159.18287063991,0.15466109193049
2155.45371196868,0.140181684074275
2151.72455329746,0.124953930062662
2147.99539462623,0.114345482993049
2144.26623595501,0.104230862526247
2140.53707728378,0.0953131859143512
2136.80791861255,0.0838427146004019
2133.07875994133,0.0690727906592144
2129.3496012701,0.0551228760150405
2125.62044259887,0.0453670350597338
2121.89128392765,0.0387076466178084
2118.16212525642,0.0340031193018196
2114.4329665852,0.0321343765450116
2110.70380791397,0.03171145482219
2106.97464924274,0.0316935196371263
2103.24549057152,0.0317835951587902
2099.51633190029,0.0315983471761284
2095.78717322906,0.028579349728005
2092.05801455784,0.0236153720948674
2088.32885588661,0.0193883386707827
2084.59969721538,0.016851939020546
2080.87053854416,0.0150760415731595
2077.14137987293,0.0146557378275476
2073.41222120171,0.0149633013341657
2069.68306253048,0.0164575792718464
2065.95390385925,0.0179337462143742
2062.22474518803,0.0184490173467131
2058.4955865168,0.0185474833043273
2054.76642784557,0.0209968874573141
2051.03726917435,0.0268595587991344
2047.30811050312,0.0330640342639465
2043.5789518319,0.0357051002178745
2039.84979316067,0.0377763004738671
2036.12063448944,0.041146245185115
2032.39147581822,0.0421680352278364
2028.66231714699,0.0399136428945469
2024.93315847576,0.0367651148940555
2021.20399980454,0.0338227934634575
2017.47484113331,0.0310393332300878
2013.74568246209,0.0295486332167408
2010.01652379086,0.0278549550461846
2006.28736511963,0.0243009775450567
2002.55820644841,0.0195383255059254
1998.82904777718,0.01739980261934
1995.09988910595,0.0178693694277728
1991.37073043473,0.0189161660892778
1987.6415717635,0.0196046278489116
1983.91241309228,0.0234889966680836
1980.18325442105,0.0296304378595878
1976.45409574982,0.0336849285794333
1972.7249370786,0.0331614257965073
1968.99577840737,0.031244155564212
1965.26661973614,0.0279065034817069
1961.53746106492,0.023626157302421
1957.80830239369,0.0182092977339011
1954.07914372246,0.013404148173957
1950.34998505124,0.0101980848566636
1946.62082638001,0.00832459215783415
1942.89166770879,0.00575580095484078
1939.16250903756,0.00288522901755918
1935.43335036633,0.000691049658776035
1931.70419169511,-0.00130240277645583
1927.97503302388,-0.00225252485489475
1924.24587435265,-0.00196400855126014
1920.51671568143,-0.00248825484182795
1916.7875570102,-0.00442261425329727
1913.05839833898,-0.00546062227629967
1909.32923966775,-0.00616944878733613
1905.60008099652,-0.00742132464079546
1901.8709223253,-0.00790248468366296
1898.14176365407,-0.00736642259519585
1894.41260498284,-0.00667293514296869
1890.68344631162,-0.00699465030999706
1886.95428764039,-0.00861365461561322
1883.22512896917,-0.00964221357688011
1879.49597029794,-0.00992444895938909
1875.76681162671,-0.00837354082561603
1872.03765295549,-0.00545934767541813
1868.30849428426,-0.00593275023109633
1864.57933561303,-0.00826794625359658
1860.85017694181,-0.00879368445524674
1857.12101827058,-0.00887242121705048
1853.39185959936,-0.00778778477153782
1849.66270092813,-0.00423341271657103
1845.9335422569,-0.00218936937878707
1842.20438358568,-0.00479547430392336
1838.47522491445,-0.00607315355101734
1834.74606624322,-0.00351254796446478
1831.016907572,-0.000585079441026112
1827.28774890077,-0.00107143231083238
1823.55859022954,-0.0031754705503083
1819.82943155832,-0.00353807250301818
1816.10027288709,-0.00260764901750251
1812.37111421587,-0.00201226738249197
1808.64195554464,-0.00229303094360786
1804.91279687341,-0.00107675020192263
1801.18363820219,0.000131960186520404
1797.45447953096,0.00162525614264301
1793.72532085973,0.00215243894327719
1789.99616218851,-0.000434048147463751
1786.26700351728,-0.00140818353880908
1782.53784484606,-0.000804769887055931
1778.80868617483,0.00149350212694824
1775.0795275036,0.0059819386061872
1771.35036883238,0.00458385185813415
1767.62121016115,0.00106445335430568
1763.89205148992,0.00100115092055265
1760.1628928187,0.00121395869442376
1756.43373414747,0.00242776247065856
1752.70457547625,0.00565760590243541
1748.97541680502,0.00590955666178296
1745.24625813379,0.00673755266897743
1741.51709946257,0.0129104908912546
1737.78794079134,0.0228711989508938
1734.05878212011,0.0275708566293415
1730.32962344889,0.0233108426162455
1726.60046477766,0.0236601118811572
1722.87130610643,0.0312589352069241
1719.14214743521,0.0341393066512387
1715.41298876398,0.0209115573998819
1711.68383009276,0.0102206056358727
1707.95467142153,0.00960453267396596
1704.2255127503,0.0149039246603323
1700.49635407908,0.01574603990174
1696.76719540785,0.00682690288982688
1693.03803673662,0.00133437915057126
1689.3088780654,0.00592169827371165
1685.57971939417,0.00957674425954036
1681.85056072295,0.00462775865646868
1678.12140205172,0.00421684443477276
1674.39224338049,0.00705077396974962
1670.66308470927,0.00560982958167523
1666.93392603804,0.00276647015889136
1663.20476736681,0.00220175681191143
1659.47560869559,0.00734080139943807
1655.74645002436,0.0185761138578322
1652.01729135314,0.0189269762762805
1648.28813268191,0.0117492591477155
1644.55897401068,0.00624082413192539
1640.82981533946,0.00827997740848722
1637.10065666823,0.012384982378498
1633.371497997,0.00767303809850377
1629.64233932578,0.00727509067969614
1625.91318065455,0.0100568088209387
1622.18402198333,0.0116929843803324
1618.4548633121,0.0112488821181722
1614.72570464087,0.00635466675904398
1610.99654596965,0.00317607552036373
1607.26738729842,0.00243558750254811
1603.53822862719,0.00163717625812713
1599.80906995597,0.00119069790702831
1596.07991128474,0.000450123937353791
1592.35075261351,-0.00145210735276627
1588.62159394229,-0.00345653981021513
1584.89243527106,-0.00379115757745482
1581.16327659984,-0.000518392827355851
1577.43411792861,0.00268856624354549
1573.70495925738,0.00233201923454066
1569.97580058616,0.0020091288298368
1566.24664191493,0.00495868225907032
1562.5174832437,0.0169270895707219
1558.78832457248,0.0194224660855814
1555.05916590125,0.00818243511138894
1551.33000723003,0.00515052247208841
1547.6008485588,0.0118918298995864
1543.87168988757,0.0238732092974075
1540.14253121635,0.0231058854168646
1536.41337254512,0.0181263622872069
1532.68421387389,0.0193958417218901
1528.95505520267,0.0236057122373656
1525.22589653144,0.0295352203177526
1521.49673786022,0.0299617636822876
1517.76757918899,0.0260663776146788
1514.03842051776,0.0278065193999335
1510.30926184654,0.0377819722132276
1506.58010317531,0.0385099767361854
1502.85094450408,0.035488992302387
1499.12178583286,0.0416500505103701
1495.39262716163,0.0483628519036735
1491.66346849041,0.0555960932501527
1487.93430981918,0.0596710954413524
1484.20515114795,0.0640286351237182
1480.47599247673,0.076307730110377
1476.7468338055,0.0942655687863617
1473.01767513427,0.112610227317167
1469.28851646305,0.135666503693799
1465.55935779182,0.17000666910454
1461.83019912059,0.191175258561948
1458.10104044937,0.180583649970159
1454.37188177814,0.15791322141089
1450.64272310692,0.144721111599873
1446.91356443569,0.122623728003349
1443.18440576446,0.0958222341257151
1439.45524709324,0.0769114414394206
1435.72608842201,0.06120152424491
1431.99692975078,0.0488532827772835
1428.26777107956,0.0413983281512662
1424.53861240833,0.038227887124725
1420.80945373711,0.0359475479083077
1417.08029506588,0.0282852695530332
1413.35113639465,0.0225578967524821
1409.62197772343,0.0221747431795455
1405.8928190522,0.025902769532169
1402.16366038097,0.0330980902830575
1398.43450170975,0.037052355019767
1394.70534303852,0.0302655645082805
1390.9761843673,0.0225661125288617
1387.24702569607,0.0190928301178542
1383.51786702484,0.0177342601335859
1379.78870835362,0.021775251123544
1376.05954968239,0.0353505835926397
1372.33039101116,0.0663265378672169
1368.60123233994,0.108098269998429
1364.87207366871,0.115632736697645
1361.14291499749,0.0773782326695024
1357.41375632626,0.0450314475084312
1353.68459765503,0.0313781190268578
1349.95543898381,0.0268453174273585
1346.22628031258,0.0269299784207495
1342.49712164135,0.0316301694145599
1338.76796297013,0.0375498738507922
1335.0388042989,0.041370741434944
1331.30964562767,0.0422598289687069
1327.58048695645,0.0403700289393055
1323.85132828522,0.0386143147142301
1320.122169614,0.0388887685925525
1316.39301094277,0.043558745260789
1312.66385227154,0.0544587846148056
1308.93469360032,0.0685081573650863
1305.20553492909,0.0796661320153769
1301.47637625786,0.0932231175178766
1297.74721758664,0.116084277173497
1294.01805891541,0.147102342581488
1290.28890024419,0.183584224782222
1286.55974157296,0.22193083130221
1282.83058290173,0.219231664969987
1279.10142423051,0.163023651747952
1275.37226555928,0.115365679695803
1271.64310688805,0.0972759348278247
1267.91394821683,0.0928554262553699
1264.1847895456,0.0933298478866801
1260.45563087438,0.0985689414246775
1256.72647220315,0.108763760323391
1252.99731353192,0.12304920685166
1249.2681548607,0.139072551296834
1245.53899618947,0.149505176815662
1241.80983751824,0.146601087024397
1238.08067884702,0.13368917500649
1234.35152017579,0.122121335239577
1230.62236150457,0.115841749774348
1226.89320283334,0.113519614041608
1223.16404416211,0.113986736613654
1219.43488549089,0.116371484388435
1215.70572681966,0.120299303693531
1211.97656814843,0.126327066874641
1208.24740947721,0.133311423460431
1204.51825080598,0.139431022857748
1200.78909213475,0.147843322232555
1197.05993346353,0.161283228464279
1193.3307747923,0.176841432846229
1189.60161612108,0.189826076359136
1185.87245744985,0.203915820642317
1182.14329877862,0.22716635249083
1178.4141401074,0.246053385902938
1174.68498143617,0.231546441793343
1170.95582276494,0.193361265395728
1167.22666409372,0.159181414678629
1163.49750542249,0.138009617079885
1159.76834675127,0.129779583799818
1156.03918808004,0.133475552019407
1152.31002940881,0.147858413536261
1148.58087073759,0.171723715726283
1144.85171206636,0.189914971154109
1141.12255339513,0.18144977857533
1137.39339472391,0.154472386438071
1133.66423605268,0.128963827238371
1129.93507738146,0.112585985218182
1126.20591871023,0.104438146139115
1122.476760039,0.10249031445204
1118.74760136778,0.105643757419411
1115.01844269655,0.112653916536883
1111.28928402532,0.121018872577374
1107.5601253541,0.131747485241839
1103.83096668287,0.14866262973245
1100.10180801165,0.173734934919167
1096.37264934042,0.206979025462347
1092.64349066919,0.250019590751895
1088.91433199797,0.31162218975262
1085.18517332674,0.409134678500601
1081.45601465551,0.566855088546806
1077.72685598429,0.817993809092428
1073.99769731306,1.18995210672789
1070.26853864183,1.61391550814045
1066.53937997061,1.74705620077026
1062.81022129938,1.51569356798956
1059.08106262816,1.1992997118302
1055.35190395693,0.919198058451603
1051.6227452857,0.707141194489487
1047.89358661448,0.558265997010737
1044.16442794325,0.461005571308092
1040.43526927202,0.406070335399472
1036.7061106008,0.386690483716554
1032.97695192957,0.384295059567952
1029.24779325835,0.365011306367577
1025.51863458712,0.310773469720363
1021.78947591589,0.243559661308481
1018.06031724467,0.189505541149078
1014.33115857344,0.154081766754698
1010.60199990221,0.131085457567238
1006.87284123099,0.115229874208212
1003.14368255976,0.103608351099085
999.414523888535,0.0951549928012492
995.685365217309,0.0891559562613528
991.956206546083,0.0855193436247427
988.227047874856,0.0837055240719527
984.49788920363,0.0834333178868092
980.768730532404,0.0844627795696495
977.039571861178,0.0868711353624141
973.310413189951,0.0909518352994252
969.581254518725,0.0968163411863392
965.852095847499,0.10484839919497
962.122937176272,0.115904726667913
958.393778505046,0.130273356293487
954.66461983382,0.148131728378767
950.935461162594,0.169863590550353
947.206302491367,0.192350606058314
943.477143820141,0.214821333079624
939.747985148915,0.243195540750563
936.018826477688,0.282937080891953
932.289667806462,0.33713225959647
928.560509135236,0.410568090557957
924.83135046401,0.50896662695878
921.102191792783,0.637608810181904
917.373033121557,0.787119640830329
913.643874450331,0.922344076161597
909.914715779104,0.994576992295125
906.185557107878,0.989626885235176
902.456398436652,0.916414673867699
898.727239765426,0.803365076232888
894.998081094199,0.683439095482454
891.268922422973,0.577844559411684
887.539763751747,0.494384574913818
883.81060508052,0.434393577622702
880.081446409294,0.393156369606059
876.352287738068,0.36402079624566
872.623129066842,0.341450301760858
868.893970395615,0.320986036807129
865.164811724389,0.301036502493885
861.435653053163,0.281726947641748
857.706494381936,0.264841901696793
853.97733571071,0.252411571247557
850.248177039484,0.244214770186462
846.519018368258,0.233181663565496
842.789859697031,0.219517837828885
839.060701025805,0.207365355705549
835.331542354579,0.196409524374876
831.602383683352,0.184717142532672
827.873225012126,0.173006655904977
824.1440663409,0.162141481027276
820.414907669674,0.152780162752512
816.685748998447,0.142161934729597
812.956590327221,0.12969655654144
809.227431655995,0.117351468620403
805.498272984768,0.107315890981811
801.769114313542,0.0999715187319189
798.039955642316,0.0954827831410971
794.31079697109,0.0913437261678617
790.581638299863,0.0878286696887693
786.852479628637,0.0900445182243756
783.123320957411,0.107868940474885
779.394162286184,0.116360299710805
775.665003614958,0.0955898340195423
771.935844943732,0.0817561202648934
768.206686272506,0.0810785099473452
764.477527601279,0.0861059342202381
760.748368930053,0.0967421872830872
757.019210258827,0.104398249520052
753.2900515876,0.102534491126116
749.560892916374,0.0989879503467804
745.831734245148,0.0959049599398577
742.102575573922,0.090650000483081
738.373416902695,0.0853621098794393
734.644258231469,0.0789897170474102
730.915099560243,0.0715200816533369
727.185940889016,0.0640411944597676
723.45678221779,0.0603429966744602
719.727623546564,0.0623279815681008
715.998464875338,0.0759385752718481
712.269306204111,0.0923125717771
708.540147532885,0.0909364348942151
704.810988861659,0.0887093432962601
701.081830190432,0.09137861551168
697.352671519206,0.088393615602883
693.62351284798,0.0905471559919428
689.894354176754,0.0991427471695001
686.165195505527,0.127741869656515
682.436036834301,0.162452408656158
678.706878163075,0.161704643284736
674.977719491848,0.158633692301061
671.248560820622,0.194457121352605
667.519402149396,0.243256773711891
663.790243478169,0.274247423669457
660.061084806943,0.277034226987575
656.331926135717,0.274922882314555
652.602767464491,0.269535511057558
648.873608793276,0.25779729405912
