Wavenumbercm-1,00:44:52
2998.24357166583,0.1773506424121
2994.5144129946,0.208895836921512
2990.78525432337,0.242984769235382
2987.05609565215,0.295869407841402
2983.32693698092,0.327862184579562
2979.59777830969,0.30982029737017
2975.86861963847,0.277490995629009
2972.13946096724,0.25975551595718
2968.41030229601,0.257913212985001
2964.68114362479,0.257617291667523
2960.95198495356,0.267977539871665
2957.22282628234,0.279890151264075
2953.49366761111,0.294170284423431
2949.76450893988,0.300348391885121
2946.03535026866,0.289060937245483
2942.30619159743,0.278352090335761
2938.5770329262,0.287034938377111
2934.84787425498,0.291653098057418
2931.11871558375,0.283686643303245
2927.38955691253,0.280043469476389
2923.6603982413,0.292334404338248
2919.93123957007,0.300863247440516
2916.20208089885,0.287735713193296
2912.47292222762,0.270240340983594
2908.74376355639,0.264368238692883
2905.01460488517,0.269335846599989
2901.28544621394,0.283584289324765
2897.55628754272,0.291735404897006
2893.82712887149,0.29379958713502
2890.09797020026,0.304163537220613
2886.36881152904,0.31970601752986
2882.63965285781,0.345339492563863
2878.91049418658,0.368610850488869
2875.18133551536,0.35836245314522
2871.45217684413,0.33932523893997
2867.72301817291,0.341810393992618
2863.99385950168,0.341499147760851
2860.26470083045,0.327414972685617
2856.53554215923,0.314811824916918
2852.806383488,0.307678192038026
2849.07722481677,0.295887619130567
2845.34806614555,0.294448444204499
2841.61890747432,0.280209602107993
2837.88974880309,0.245877425549321
2834.16059013187,0.213617031153385
2830.43143146064,0.188964090579072
2826.70227278942,0.167906137142649
2822.97311411819,0.147477618927733
2819.24395544696,0.130207768546062
2815.51479677574,0.118004238521416
2811.78563810451,0.106717045158289
2808.05647943328,0.0946188326608766
2804.32732076206,0.0861699813363669
2800.59816209083,0.0783889816133691
2796.86900341961,0.071080700924668
2793.13984474838,0.0648593764476239
2789.41068607715,0.0580101801846278
2785.68152740593,0.0513920666654344
2781.9523687347,0.0467198187405388
2778.22321006347,0.0425146424358533
2774.49405139225,0.0382510605511834
2770.76489272102,0.0347618043806401
2767.0357340498,0.0319676015343361
2763.30657537857,0.0302897792251083
2759.57741670734,0.0303289190637082
2755.84825803612,0.0296324364504857
2752.11909936489,0.0278352268620875
2748.38994069366,0.026670534083002
2744.66078202244,0.0271627149887473
2740.93162335121,0.0299773530068694
2737.20246467999,0.0340755587571449
2733.47330600876,0.0376315180095934
2729.74414733753,0.039731671910514
2726.01498866631,0.0397396322262996
2722.28582999508,0.037521456641475
2718.55667132385,0.0347427946732218
2714.82751265263,0.0316187205199189
2711.0983539814,0.0289802926764627
2707.36919531017,0.0277603850235562
2703.64003663895,0.0279030897960211
2699.91087796772,0.0298536994063879
2696.1817192965,0.0343265677020551
2692.45256062527,0.0393598495785291
2688.72340195404,0.0424158715662223
2684.99424328282,0.0420617963237172
2681.26508461159,0.0385886570837483
2677.53592594036,0.0340166346685214
2673.80676726914,0.0305591939594019
2670.07760859791,0.0286256012723098
2666.34844992669,0.0280260446423202
2662.61929125546,0.0281936618559242
2658.89013258423,0.0279727036586253
2655.16097391301,0.0263903127767449
2651.43181524178,0.0230093081291459
2647.70265657055,0.0190953815262827
2643.97349789933,0.0163402468432097
2640.2443392281,0.0157752413389405
2636.51518055688,0.01634821572783
2632.78602188565,0.0168845559971913
2629.05686321442,0.0175144106470784
2625.3277045432,0.0183545877119301
2621.59854587197,0.0190703807737328
2617.86938720074,0.0202879424322131
2614.14022852952,0.0221609297694856
2610.41106985829,0.0233782562429263
2606.68191118707,0.023698676507537
2602.95275251584,0.0243607390245645
2599.22359384461,0.024581639697153
2595.49443517339,0.0249046313213822
2591.76527650216,0.026502796245182
2588.03611783093,0.0291031446857634
2584.30695915971,0.0326018558574238
2580.57780048848,0.035347139591331
2576.84864181725,0.0357559920836976
2573.11948314603,0.0343515714228153
2569.3903244748,0.0325202061480104
2565.66116580358,0.0309816467494015
2561.93200713235,0.0301457836633012
2558.20284846112,0.030589393238854
2554.4736897899,0.0316938456094696
2550.74453111867,0.0314018129520939
2547.01537244744,0.0306985157324401
2543.28621377622,0.0300744483909947
2539.55705510499,0.0284336952014148
2535.82789643377,0.0256755453700581
2532.09873776254,0.0244786193671748
2528.36957909131,0.0253451884309056
2524.64042042009,0.025620389482615
2520.91126174886,0.0246270378307611
2517.18210307763,0.0237909937924613
2513.45294440641,0.0240902849354409
2509.72378573518,0.0249339461725794
2505.99462706396,0.0252972305230723
2502.26546839273,0.0253996844492679
2498.5363097215,0.025882100155233
2494.80715105028,0.0260326636311089
2491.07799237905,0.025633235281836
2487.34883370782,0.025117349670974
2483.6196750366,0.024487120270796
2479.89051636537,0.0238187213617462
2476.16135769415,0.02342696108256
2472.43219902292,0.0222351079010125
2468.70304035169,0.0204654278520479
2464.97388168047,0.019131101378418
2461.24472300924,0.0185183049458301
2457.51556433801,0.0179162484858178
2453.78640566679,0.0173797845195308
2450.05724699556,0.0172908861843612
2446.32808832433,0.0173718785847995
2442.59892965311,0.0173424514212168
2438.86977098188,0.0171674228269817
2435.14061231066,0.0169360524868107
2431.41145363943,0.0164704171569326
2427.6822949682,0.0155065694245644
2423.95313629698,0.0146832171644872
2420.22397762575,0.0151209950565377
2416.49481895452,0.016397507124316
2412.7656602833,0.0170388579479186
2409.03650161207,0.0159646910395468
2405.30734294085,0.014131727570304
2401.57818426962,0.0124462395787107
2397.84902559839,0.0116158888721887
2394.11986692717,0.0115621872749213
2390.39070825594,0.0120606618159666
2386.66154958471,0.0138096167176505
2382.93239091349,0.01884738655854
2379.20323224226,0.0284514552291121
2375.47407357104,0.0406632186253417
2371.74491489981,0.0514744317921602
2368.01575622858,0.058038193355018
2364.28659755736,0.0587782751847967
2360.55743888613,0.0512779811615493
2356.8282802149,0.0355200777090118
2353.09912154368,0.0239897306840238
2349.36996287245,0.0276155808198842
2345.64080420122,0.0373736099228026
2341.91164553,0.0410413346334209
2338.18248685877,0.039406520898837
2334.45332818755,0.0347489056507599
2330.72416951632,0.0283903041102196
2326.99501084509,0.0218867983098917
2323.26585217387,0.0158149303502355
2319.53669350264,0.0107848193859225
2315.80753483141,0.00756646636331242
2312.07837616019,0.00628031076692693
2308.34921748896,0.00563461866437299
2304.62005881774,0.00456764494272183
2300.89090014651,0.00270329909852378
2297.16174147528,0.000464554210400832
2293.43258280406,-0.000867784178041098
2289.70342413283,-0.000555909011876481
2285.9742654616,0.000975317713668728
2282.24510679038,0.00337861139849894
2278.51594811915,0.00566891215824225
2274.78678944793,0.00754330255832033
2271.0576307767,0.00928107161263621
2267.32847210547,0.0106447995864226
2263.59931343425,0.011932762788431
2259.87015476302,0.0132207207434798
2256.14099609179,0.0138696818734953
2252.41183742057,0.0141571753865657
2248.68267874934,0.0162512241121508
2244.95352007812,0.018760678464485
2241.22436140689,0.0206209189375299
2237.49520273566,0.0220557104170997
2233.76604406444,0.0232863070781875
2230.03688539321,0.0247151955773301
2226.30772672198,0.0272895845075991
2222.57856805076,0.0296579202619528
2218.84940937953,0.0321215776693414
2215.1202507083,0.0353479430021967
2211.39109203708,0.0386572089283787
2207.66193336585,0.0411601387192187
2203.93277469463,0.0437833638748969
2200.2036160234,0.046246291328417
2196.47445735217,0.0490582768937215
2192.74529868095,0.0539997293492607
2189.01614000972,0.0620696787739804
2185.28698133849,0.0720597305617591
2181.55782266727,0.0789039606055517
2177.82866399604,0.0833623201858788
2174.09950532482,0.0887969869708503
2170.37034665359,0.10110105778603
2166.64118798236,0.12385982986181
2162.91202931114,0.151451132065426
2159.18287063991,0.155639895982303
2155.45371196868,0.141363346317602
2151.72455329746,0.126192887951278
2147.99539462623,0.115687522441578
2144.26623595501,0.10563757545469
2140.53707728378,0.0964489423428459
2136.80791861255,0.0848425618794429
2133.07875994133,0.0702997048321833
2129.3496012701,0.0561796696935197
2125.62044259887,0.0458668843084984
2121.89128392765,0.0392784079066823
2118.16212525642,0.0351590707033856
2114.4329665852,0.0330095162657861
2110.70380791397,0.0317794362358549
2106.97464924274,0.0312722759303986
2103.24549057152,0.0310702529849594
2099.51633190029,0.0308249748492476
2095.78717322906,0.0275219370264928
2092.05801455784,0.0223909771250422
2088.32885588661,0.0182061381872862
2084.59969721538,0.0157059311309552
2080.87053854416,0.0140544771916664
2077.14137987293,0.0137673101840257
2073.41222120171,0.0140979716138994
2069.68306253048,0.0155755728342719
2065.95390385925,0.0170577520212689
2062.22474518803,0.0179668074459459
2058.4955865168,0.0181483622329573
2054.76642784557,0.0200714523767674
2051.03726917435,0.0247054225142227
2047.30811050312,0.0290401362436448
2043.5789518319,0.0309342343896778
2039.84979316067,0.0341881751979274
2036.12063448944,0.0385435444655346
2032.39147581822,0.0396111905236469
2028.66231714699,0.0371853166315276
2024.93315847576,0.0335220822532824
2021.20399980454,0.0297193692108311
2017.47484113331,0.0264926827065007
2013.74568246209,0.02512561791486
2010.01652379086,0.0237149876012114
2006.28736511963,0.0212147665985563
2002.55820644841,0.0175523122337598
1998.82904777718,0.0154240536625885
1995.09988910595,0.0156536911261678
1991.37073043473,0.0166452141703559
1987.6415717635,0.0170396460233479
1983.91241309228,0.0213004678768169
1980.18325442105,0.0278001391129557
1976.45409574982,0.0315876916957778
1972.7249370786,0.0310599349728066
1968.99577840737,0.0290100273799821
1965.26661973614,0.0253123638136013
1961.53746106492,0.0212320161837503
1957.80830239369,0.0161108466004159
1954.07914372246,0.0115984798885885
1950.34998505124,0.0083195192651695
1946.62082638001,0.0062474620034367
1942.89166770879,0.00366766038009712
1939.16250903756,0.000670404614946004
1935.43335036633,-0.0018792959677928
1931.70419169511,-0.00380591196283938
1927.97503302388,-0.00438070239832345
1924.24587435265,-0.0041145205076264
1920.51671568143,-0.00459243324441639
1916.7875570102,-0.00641708869205756
1913.05839833898,-0.00752607137512723
1909.32923966775,-0.00829084869774596
1905.60008099652,-0.00941130631355259
1901.8709223253,-0.0100121268704942
1898.14176365407,-0.00977810679376205
1894.41260498284,-0.00915984129406671
1890.68344631162,-0.00934903162718186
1886.95428764039,-0.0108476250185112
1883.22512896917,-0.0117315980426937
1879.49597029794,-0.0119829421528495
1875.76681162671,-0.0105191713894618
1872.03765295549,-0.00771373217432408
1868.30849428426,-0.00808903913717574
1864.57933561303,-0.010295668162142
1860.85017694181,-0.010823373129068
1857.12101827058,-0.0109597545296878
1853.39185959936,-0.00995239681780189
1849.66270092813,-0.00647376854395412
1845.9335422569,-0.00447238907388389
1842.20438358568,-0.00708241818904265
1838.47522491445,-0.0083559202147365
1834.74606624322,-0.00576691897106496
1831.016907572,-0.00298334763297723
1827.28774890077,-0.00364593033544106
1823.55859022954,-0.00571707188984587
1819.82943155832,-0.00590557525771391
1816.10027288709,-0.00492070631748253
1812.37111421587,-0.00453423980519559
1808.64195554464,-0.00511150306292354
1804.91279687341,-0.00403050996465233
1801.18363820219,-0.00279385143219438
1797.45447953096,-0.00116677946046814
1793.72532085973,-0.000711645146856495
1789.99616218851,-0.00356039807732444
1786.26700351728,-0.00488687675580088
1782.53784484606,-0.00463451731835293
1778.80868617483,-0.00256777368230751
1775.0795275036,0.00160052934158577
1771.35036883238,-0.000254052288963148
1767.62121016115,-0.00402167826021923
1763.89205148992,-0.00415706584679079
1760.1628928187,-0.00399527142861886
1756.43373414747,-0.00291313330999598
1752.70457547625,-0.000226825984543954
1748.97541680502,-0.001323550113951
1745.24625813379,-0.00288723507604981
1741.51709946257,-0.000827950468196634
1737.78794079134,0.00286422005716373
1734.05878212011,0.000983357312445949
1730.32962344889,-0.00587461130253079
1726.60046477766,-0.00637043259431771
1722.87130610643,0.00122994651000012
1719.14214743521,0.00793435405050858
1715.41298876398,0.00111610234847263
1711.68383009276,-0.00453108630782421
1707.95467142153,-0.00148561186859005
1704.2255127503,0.00611664454607416
1700.49635407908,0.00816148189229344
1696.76719540785,-0.000490705518432496
1693.03803673662,-0.00583817973493877
1689.3088780654,-0.00105498928980601
1685.57971939417,0.00263155770684971
1681.85056072295,-0.00245684277649483
1678.12140205172,-0.00295576474037763
1674.39224338049,-0.000547849587800207
1670.66308470927,-0.00256555457331914
1666.93392603804,-0.00609315895194451
1663.20476736681,-0.00743270203397445
1659.47560869559,-0.00307413823929396
1655.74645002436,0.00743600392173538
1652.01729135314,0.00731588625474179
1648.28813268191,0.000108974369584419
1644.55897401068,-0.00523554241071854
1640.82981533946,-0.00293971836165173
1637.10065666823,0.00107078350406642
1633.371497997,-0.00364122701522888
1629.64233932578,-0.00302413441979902
1625.91318065455,0.00179262977603135
1622.18402198333,0.00572795120743992
1618.4548633121,0.00828721179342362
1614.72570464087,0.00729150528293468
1610.99654596965,0.00750274048951022
1607.26738729842,0.00872461254319928
1603.53822862719,0.00841501081891767
1599.80906995597,0.00798494536964018
1596.07991128474,0.00616633467931145
1592.35075261351,0.00135687754136257
1588.62159394229,-0.00357188231343111
1584.89243527106,-0.0050702327042203
1581.16327659984,-0.00194872761263218
1577.43411792861,0.0010096499763562
1573.70495925738,6.64884919291473E-05
1569.97580058616,-0.000720757839253063
1566.24664191493,0.00201252074800443
1562.5174832437,0.0139797425610252
1558.78832457248,0.0160740701578094
1555.05916590125,0.00449389337408875
1551.33000723003,0.00152003890985307
1547.6008485588,0.00854622946510706
1543.87168988757,0.0203752214385028
1540.14253121635,0.0180540094937653
1536.41337254512,0.0104783653513401
1532.68421387389,0.00919918338004935
1528.95505520267,0.0132167173982087
1525.22589653144,0.0210690056285691
1521.49673786022,0.0233231768752022
1517.76757918899,0.0203308348972092
1514.03842051776,0.0226346909478556
1510.30926184654,0.0329516919804878
1506.58010317531,0.0335061091394649
1502.85094450408,0.0300602435610901
1499.12178583286,0.0355717770170484
1495.39262716163,0.0414458582570361
1491.66346849041,0.0481517431957836
1487.93430981918,0.0522792639416604
1484.20515114795,0.0570315510317465
1480.47599247673,0.0687805249684767
1476.7468338055,0.0850694681473765
1473.01767513427,0.102664465078305
1469.28851646305,0.12698767263447
1465.55935779182,0.163710017507209
1461.83019912059,0.187643529412099
1458.10104044937,0.178921608166725
1454.37188177814,0.156522247004157
1450.64272310692,0.143211187199029
1446.91356443569,0.120928682218037
1443.18440576446,0.0938633260241347
1439.45524709324,0.0746692421095577
1435.72608842201,0.0585932926375169
1431.99692975078,0.0458476107074557
1428.26777107956,0.0379191746131238
1424.53861240833,0.0341506937163652
1420.80945373711,0.0312819617772197
1417.08029506588,0.0230176197639823
1413.35113639465,0.0164456291221403
1409.62197772343,0.0139914410442379
1405.8928190522,0.0131211242892999
1402.16366038097,0.013346965079647
1398.43450170975,0.0139642118977987
1394.70534303852,0.0120592214180384
1390.9761843673,0.0113131762388092
1387.24702569607,0.011849574402662
1383.51786702484,0.0120033449951289
1379.78870835362,0.0162764550969217
1376.05954968239,0.0273727174354656
1372.33039101116,0.0487583754382436
1368.60123233994,0.0762453872813139
1364.87207366871,0.0826093938050659
1361.14291499749,0.0585326265945289
1357.41375632626,0.0364849985279951
1353.68459765503,0.0263229281078211
1349.95543898381,0.0222888831444756
1346.22628031258,0.0222136867756469
1342.49712164135,0.0262012844432887
1338.76796297013,0.0307568020858375
1335.0388042989,0.0321081574756226
1331.30964562767,0.0300537236715398
1327.58048695645,0.0271669310535907
1323.85132828522,0.0265946822076586
1320.122169614,0.0280660028159412
1316.39301094277,0.0305325465992403
1312.66385227154,0.0338166632224678
1308.93469360032,0.0371250859078576
1305.20553492909,0.0395160904898057
1301.47637625786,0.043835630610037
1297.74721758664,0.0553040287643213
1294.01805891541,0.0733035244504668
1290.28890024419,0.0815778255993149
1286.55974157296,0.0741828940360409
1282.83058290173,0.0657514091204798
1279.10142423051,0.0628179171924169
1275.37226555928,0.0628603995108655
1271.64310688805,0.0641042045175132
1267.91394821683,0.0661013710097549
1264.1847895456,0.070073781773434
1260.45563087438,0.075532304283224
1256.72647220315,0.0816734608162902
1252.99731353192,0.0884262150017653
1249.2681548607,0.0950054976320908
1245.53899618947,0.0996787784470631
1241.80983751824,0.101818048967629
1238.08067884702,0.102086740275089
1234.35152017579,0.101756869559447
1230.62236150457,0.101598711936659
1226.89320283334,0.102447383039658
1223.16404416211,0.104920154184747
1219.43488549089,0.108675539715691
1215.70572681966,0.115152116595166
1211.97656814843,0.127443039957237
1208.24740947721,0.139934181979735
1204.51825080598,0.142300224175298
1200.78909213475,0.142672386730069
1197.05993346353,0.14863770172889
1193.3307747923,0.153997500130858
1189.60161612108,0.156779619699447
1185.87245744985,0.159327822337877
1182.14329877862,0.160338549248262
1178.4141401074,0.157663748225053
1174.68498143617,0.14946214989908
1170.95582276494,0.136499800651904
1167.22666409372,0.122112530287298
1163.49750542249,0.112876984995481
1159.76834675127,0.114550014862422
1156.03918808004,0.119763559701664
1152.31002940881,0.108594317663176
1148.58087073759,0.0872661564008174
1144.85171206636,0.0756283452255808
1141.12255339513,0.0735455593595765
1137.39339472391,0.0752914907062277
1133.66423605268,0.077459056297763
1129.93507738146,0.0792408526078851
1126.20591871023,0.0812746331370219
1122.476760039,0.0844171855618416
1118.74760136778,0.0890625761077055
1115.01844269655,0.0960564137287447
1111.28928402532,0.105997152082212
1107.5601253541,0.119460753403163
1103.83096668287,0.13743946735324
1100.10180801165,0.161872840955493
1096.37264934042,0.195206732639501
1092.64349066919,0.241902287210542
1088.91433199797,0.310018010176557
1085.18517332674,0.414500658321518
1081.45601465551,0.579543377863429
1077.72685598429,0.839580285910407
1073.99769731306,1.2245698516358
1070.26853864183,1.66304099189549
1066.53937997061,1.77338214195734
1062.81022129938,1.48825267183929
1059.08106262816,1.14519842638502
1055.35190395693,0.864673208769566
1051.6227452857,0.663959334015103
1047.89358661448,0.527862323708538
1044.16442794325,0.440180231161683
1040.43526927202,0.39044999349886
1036.7061106008,0.372334471024251
1032.97695192957,0.367427582329653
1029.24779325835,0.34287693834579
1025.51863458712,0.28637193821816
1021.78947591589,0.223617604368992
1018.06031724467,0.175174943485085
1014.33115857344,0.142585764762699
1010.60199990221,0.120591694019959
1006.87284123099,0.105150534581824
1003.14368255976,0.0939524830451125
999.414523888535,0.0860302316980102
995.685365217309,0.080754294319526
991.956206546083,0.0777288960746883
988.227047874856,0.0763893185586412
984.49788920363,0.0765929030341215
980.768730532404,0.0780819785292276
977.039571861178,0.0809531565324156
973.310413189951,0.0856208239337662
969.581254518725,0.0920337816526542
965.852095847499,0.100488732937857
962.122937176272,0.111843210563933
958.393778505046,0.126339624347265
954.66461983382,0.143289862078008
950.935461162594,0.162647135727209
947.206302491367,0.184821510663363
943.477143820141,0.210817890012349
939.747985148915,0.242343124914374
936.018826477688,0.283606545883854
932.289667806462,0.33914894113955
928.560509135236,0.414604647729326
924.83135046401,0.515327601111923
921.102191792783,0.646205441903702
917.373033121557,0.798170649025285
913.643874450331,0.935550957973816
909.914715779104,1.00642765536114
906.185557107878,0.993208562463117
902.456398436652,0.907936975189562
898.727239765426,0.784426119002336
894.998081094199,0.658536120524927
891.268922422973,0.552373669245531
887.539763751747,0.472605243926179
883.81060508052,0.416386591278455
880.081446409294,0.377794212987096
876.352287738068,0.349769999675418
872.623129066842,0.327466318579259
868.893970395615,0.306538156723089
865.164811724389,0.286064627848761
861.435653053163,0.265850922205739
857.706494381936,0.247209845980832
853.97733571071,0.230590332070565
850.248177039484,0.216582175575172
846.519018368258,0.20430823568813
842.789859697031,0.19318116236369
839.060701025805,0.181457223174766
835.331542354579,0.169400967223341
831.602383683352,0.157490800773528
827.873225012126,0.145798321999096
824.1440663409,0.133211581304006
820.414907669674,0.121265393613519
816.685748998447,0.110460213830311
812.956590327221,0.100730079473417
809.227431655995,0.0922396930924086
805.498272984768,0.0842023971510517
801.769114313542,0.0777334120136711
798.039955642316,0.073081068248835
794.31079697109,0.06856373557575
790.581638299863,0.0633149130026584
786.852479628637,0.0586991953060457
783.123320957411,0.0553077602818786
779.394162286184,0.0520744380808632
775.665003614958,0.0477148541605182
771.935844943732,0.043843307268067
768.206686272506,0.0416893552349838
764.477527601279,0.0402103578113842
760.748368930053,0.0380385057985933
757.019210258827,0.0355281511731877
753.2900515876,0.0340738665020831
749.560892916374,0.0341886693761148
745.831734245148,0.0339857690204043
742.102575573922,0.0327141117133734
738.373416902695,0.0317541173701448
734.644258231469,0.0328468763348321
730.915099560243,0.0341056477956003
727.185940889016,0.0342406635113466
723.45678221779,0.0346360797793295
719.727623546564,0.0367933474185169
715.998464875338,0.0393980212167811
712.269306204111,0.0417023375450605
708.540147532885,0.0443136415231292
704.810988861659,0.0484958106817277
701.081830190432,0.0545546087341068
697.352671519206,0.0610460894036087
693.62351284798,0.0687918159900475
689.894354176754,0.0786165218296784
686.165195505527,0.0923334592030255
682.436036834301,0.105693919031536
678.706878163075,0.118883700808711
674.977719491848,0.134973193562684
671.248560820622,0.163960244842364
667.519402149396,0.190949278027693
663.790243478169,0.202465536541876
660.061084806943,0.210827648006517
656.331926135717,0.218650980052346
652.602767464491,0.212573491843755
648.873608793276,0.200806527041413
