Wavenumbercm-1,04:07:52
2998.24357166583,0.19123360368244
2994.5144129946,0.221566610539509
2990.78525432337,0.25174228950922
2987.05609565215,0.304746505136759
2983.32693698092,0.34283104937665
2979.59777830969,0.32505123660173
2975.86861963847,0.286792400139619
2972.13946096724,0.263732300141121
2968.41030229601,0.264235726618864
2964.68114362479,0.266347943900112
2960.95198495356,0.278301485794461
2957.22282628234,0.293003975672455
2953.49366761111,0.311487008710021
2949.76450893988,0.317577655711559
2946.03535026866,0.301935770145229
2942.30619159743,0.287990422846182
2938.5770329262,0.292962046705491
2934.84787425498,0.296201922689034
2931.11871558375,0.291848983300872
2927.38955691253,0.290730610139687
2923.6603982413,0.304971408490612
2919.93123957007,0.31464932898021
2916.20208089885,0.298575524479134
2912.47292222762,0.2771997432529
2908.74376355639,0.26933545535613
2905.01460488517,0.273477734975084
2901.28544621394,0.286960649363082
2897.55628754272,0.297293556579562
2893.82712887149,0.300813738322222
2890.09797020026,0.312458465855054
2886.36881152904,0.329180508436739
2882.63965285781,0.353104467968805
2878.91049418658,0.375237934907474
2875.18133551536,0.368710617925249
2871.45217684413,0.352953575720225
2867.72301817291,0.357545482284897
2863.99385950168,0.354998740271569
2860.26470083045,0.337562386395836
2856.53554215923,0.323214630454792
2852.806383488,0.317551966196306
2849.07722481677,0.306547004305275
2845.34806614555,0.304975223646361
2841.61890747432,0.290770246548861
2837.88974880309,0.254742461716355
2834.16059013187,0.219803949330807
2830.43143146064,0.1931354201119
2826.70227278942,0.172278109714544
2822.97311411819,0.152662974007642
2819.24395544696,0.136231807744071
2815.51479677574,0.12411405337701
2811.78563810451,0.1122000994855
2808.05647943328,0.10026389925529
2804.32732076206,0.0940013548408074
2800.59816209083,0.0876075109492403
2796.86900341961,0.0808798103593392
2793.13984474838,0.0747618843195084
2789.41068607715,0.0669387010079236
2785.68152740593,0.0599373100024905
2781.9523687347,0.0575262330259676
2778.22321006347,0.0558142548341129
2774.49405139225,0.0516553885703263
2770.76489272102,0.0471337559553021
2767.0357340498,0.043511630948931
2763.30657537857,0.0413950796222213
2759.57741670734,0.04118690252722
2755.84825803612,0.0413261030793339
2752.11909936489,0.041646824076888
2748.38994069366,0.041414073985274
2744.66078202244,0.0422080759210064
2740.93162335121,0.0451126961152724
2737.20246467999,0.0474821946798113
2733.47330600876,0.0498062983687125
2729.74414733753,0.0517941526509146
2726.01498866631,0.0516312598879488
2722.28582999508,0.0488874048458916
2718.55667132385,0.0455452093248278
2714.82751265263,0.0417585991408881
2711.0983539814,0.0385998136409513
2707.36919531017,0.0368569688879577
2703.64003663895,0.0370535425152429
2699.91087796772,0.0389217874617118
2696.1817192965,0.0425913620308847
2692.45256062527,0.0464037391937672
2688.72340195404,0.0481503143760862
2684.99424328282,0.047754403535565
2681.26508461159,0.0456962349706311
2677.53592594036,0.0420268309250822
2673.80676726914,0.0391165675561419
2670.07760859791,0.0371116140412025
2666.34844992669,0.0357296961173889
2662.61929125546,0.0363955611174175
2658.89013258423,0.0373560324687342
2655.16097391301,0.0361159899292225
2651.43181524178,0.0331031936979249
2647.70265657055,0.0301687587848619
2643.97349789933,0.0277009383716921
2640.2443392281,0.0268825885281641
2636.51518055688,0.0266993213798471
2632.78602188565,0.0266058062692517
2629.05686321442,0.0272232717056596
2625.3277045432,0.028729366452756
2621.59854587197,0.0305247976198025
2617.86938720074,0.0323730397261646
2614.14022852952,0.0339440222250145
2610.41106985829,0.0352931046723313
2606.68191118707,0.0364895649973618
2602.95275251584,0.0379764086590143
2599.22359384461,0.0387869237444298
2595.49443517339,0.0397493635068594
2591.76527650216,0.0418797737586025
2588.03611783093,0.0450164343074724
2584.30695915971,0.0496218648893799
2580.57780048848,0.0553204457320058
2576.84864181725,0.0631262949557152
2573.11948314603,0.0750253581675845
2569.3903244748,0.0897111943873039
2565.66116580358,0.0997307353436343
2561.93200713235,0.100575681959915
2558.20284846112,0.0930764154946772
2554.4736897899,0.0838899652804386
2550.74453111867,0.0780995739145719
2547.01537244744,0.0762633068073159
2543.28621377622,0.0725364505789178
2539.55705510499,0.0634012350651469
2535.82789643377,0.0528652888766517
2532.09873776254,0.0462957950267044
2528.36957909131,0.0436597898877636
2524.64042042009,0.0429884731254323
2520.91126174886,0.0427084088283787
2517.18210307763,0.0427579765710518
2513.45294440641,0.0440309552317185
2509.72378573518,0.0458249092461821
2505.99462706396,0.0476590114398871
2502.26546839273,0.0493999602968056
2498.5363097215,0.0509163154295985
2494.80715105028,0.0513844314241132
2491.07799237905,0.0513602317607177
2487.34883370782,0.0509802430355325
2483.6196750366,0.0501277286661123
2479.89051636537,0.0482518644952887
2476.16135769415,0.0460189091347534
2472.43219902292,0.0435298964589677
2468.70304035169,0.0406955462979321
2464.97388168047,0.0372959315502269
2461.24472300924,0.0345556101244457
2457.51556433801,0.0330151051172668
2453.78640566679,0.0319667588768526
2450.05724699556,0.0306446665519514
2446.32808832433,0.029441727778395
2442.59892965311,0.0288101218436854
2438.86977098188,0.0281649884188963
2435.14061231066,0.0268805185969349
2431.41145363943,0.0252797078361191
2427.6822949682,0.0240122852144256
2423.95313629698,0.0228315214170848
2420.22397762575,0.0222947207714808
2416.49481895452,0.0222718050513286
2412.7656602833,0.0222528941675379
2409.03650161207,0.021069315815873
2405.30734294085,0.0193520029139295
2401.57818426962,0.017875708492443
2397.84902559839,0.0172324213734506
2394.11986692717,0.0172054382791542
2390.39070825594,0.0177577047036942
2386.66154958471,0.02005478302079
2382.93239091349,0.0268359471791502
2379.20323224226,0.0401671170882748
2375.47407357104,0.0576957749315461
2371.74491489981,0.0737317546120893
2368.01575622858,0.0844460848947271
2364.28659755736,0.0873379597233392
2360.55743888613,0.0785131331315193
2356.8282802149,0.0576662002028917
2353.09912154368,0.0417820178244436
2349.36996287245,0.0460650723054424
2345.64080420122,0.0583732572895035
2341.91164553,0.0620201296975791
2338.18248685877,0.0589053785019848
2334.45332818755,0.0525112145087551
2330.72416951632,0.043985017878977
2326.99501084509,0.0354834146828265
2323.26585217387,0.0276427554190946
2319.53669350264,0.02089897720438
2315.80753483141,0.0158713662208652
2312.07837616019,0.0129347437597369
2308.34921748896,0.0107726602639595
2304.62005881774,0.00901081165276973
2300.89090014651,0.00812949691022947
2297.16174147528,0.00858484309484547
2293.43258280406,0.011483555643743
2289.70342413283,0.0174454595558911
2285.9742654616,0.0251214660302665
2282.24510679038,0.0323225049220277
2278.51594811915,0.0368113936994636
2274.78678944793,0.0382026252986113
2271.0576307767,0.0379745779002182
2267.32847210547,0.0367778106607329
2263.59931343425,0.0360561423986107
2259.87015476302,0.0353828958735222
2256.14099609179,0.0337088138337039
2252.41183742057,0.031127034296677
2248.68267874934,0.0298843692732756
2244.95352007812,0.0289719237374041
2241.22436140689,0.0294707359560885
2237.49520273566,0.030790567468625
2233.76604406444,0.0318307095207171
2230.03688539321,0.0325312614593842
2226.30772672198,0.034790055885356
2222.57856805076,0.0372769812711778
2218.84940937953,0.0400270191775735
2215.1202507083,0.0436445394541795
2211.39109203708,0.0470075198879466
2207.66193336585,0.0483293018940164
2203.93277469463,0.0494577755049864
2200.2036160234,0.0510820910347883
2196.47445735217,0.0533821970432454
2192.74529868095,0.0589327023652795
2189.01614000972,0.0674892996553461
2185.28698133849,0.0777338138298816
2181.55782266727,0.0850043815419805
2177.82866399604,0.0889739926193476
2174.09950532482,0.0921536901180352
2170.37034665359,0.103316264852248
2166.64118798236,0.126207892488477
2162.91202931114,0.154860935733705
2159.18287063991,0.159647283989589
2155.45371196868,0.145064598765009
2151.72455329746,0.128866294967145
2147.99539462623,0.117587162716495
2144.26623595501,0.106874147015913
2140.53707728378,0.0974599103387209
2136.80791861255,0.0855669796768872
2133.07875994133,0.0708427188046662
2129.3496012701,0.0567939435087744
2125.62044259887,0.0467930436957058
2121.89128392765,0.0404987733517597
2118.16212525642,0.0360015691402125
2114.4329665852,0.0332969228819953
2110.70380791397,0.032019196085821
2106.97464924274,0.0316742222314875
2103.24549057152,0.0312658979927333
2099.51633190029,0.0310689838899988
2095.78717322906,0.028733842237624
2092.05801455784,0.024658117551393
2088.32885588661,0.0204195877203359
2084.59969721538,0.0178536989385017
2080.87053854416,0.0162361553694885
2077.14137987293,0.0162311117210112
2073.41222120171,0.0167810182531562
2069.68306253048,0.0187219054007906
2065.95390385925,0.0203497075581613
2062.22474518803,0.0212437861480935
2058.4955865168,0.0211086219102392
2054.76642784557,0.0230293939383227
2051.03726917435,0.028312707431896
2047.30811050312,0.0335403059400418
2043.5789518319,0.0356916327160503
2039.84979316067,0.0388248650182142
2036.12063448944,0.0430058489225881
2032.39147581822,0.0438051866346668
2028.66231714699,0.0412981969972133
2024.93315847576,0.038357570413601
2021.20399980454,0.035661060479796
2017.47484113331,0.0326293531345809
2013.74568246209,0.0310165828081403
2010.01652379086,0.0288297120612538
2006.28736511963,0.0253107042181186
2002.55820644841,0.0208052579407578
1998.82904777718,0.0191291903548683
1995.09988910595,0.0198326130868039
1991.37073043473,0.0216177365793391
1987.6415717635,0.0222132111629334
1983.91241309228,0.0258664845273227
1980.18325442105,0.0316402998205735
1976.45409574982,0.0359467809392622
1972.7249370786,0.0354402681884749
1968.99577840737,0.0329951472980465
1965.26661973614,0.0287134695840802
1961.53746106492,0.0250466495508342
1957.80830239369,0.0203851636539201
1954.07914372246,0.0157356741462253
1950.34998505124,0.012532211305216
1946.62082638001,0.0107739144830072
1942.89166770879,0.00792402101858743
1939.16250903756,0.00445796196132628
1935.43335036633,0.00201927819883782
1931.70419169511,0.000245620030094709
1927.97503302388,-2.65055340935154E-05
1924.24587435265,0.000510650767660875
1920.51671568143,0.00029542059406327
1916.7875570102,-0.00172548811898996
1913.05839833898,-0.00290636166924599
1909.32923966775,-0.00366438133579301
1905.60008099652,-0.00469307523906293
1901.8709223253,-0.00525269916999632
1898.14176365407,-0.00470722481154552
1894.41260498284,-0.00387483474090954
1890.68344631162,-0.00417401212195271
1886.95428764039,-0.0060993550908129
1883.22512896917,-0.00702709851910384
1879.49597029794,-0.00707906732553921
1875.76681162671,-0.00480836070302478
1872.03765295549,-0.00108426471028449
1868.30849428426,-0.00205352678633313
1864.57933561303,-0.00537455324284144
1860.85017694181,-0.00625561587694942
1857.12101827058,-0.00639503811291425
1853.39185959936,-0.00507131557221017
1849.66270092813,-0.000645457541432581
1845.9335422569,0.00155879389814438
1842.20438358568,-0.0021178427460812
1838.47522491445,-0.00391353543820722
1834.74606624322,-0.000558033996992705
1831.016907572,0.00293541439351285
1827.28774890077,0.00199282359058277
1823.55859022954,-0.000877838407060243
1819.82943155832,-0.0012943622341996
1816.10027288709,-0.00014788310566441
1812.37111421587,0.000568630087450809
1808.64195554464,0.000289372204423946
1804.91279687341,0.00207177790036583
1801.18363820219,0.00357886563598129
1797.45447953096,0.00541423153841908
1793.72532085973,0.00584925608501932
1789.99616218851,0.00220365724059923
1786.26700351728,0.000756194573485978
1782.53784484606,0.00156640390549023
1778.80868617483,0.00479436629639252
1775.0795275036,0.0107563700093192
1771.35036883238,0.00910747208115476
1767.62121016115,0.00533098163062253
1763.89205148992,0.00752150985376339
1760.1628928187,0.0112323359638223
1756.43373414747,0.0159372842353697
1752.70457547625,0.0215738953273802
1748.97541680502,0.0221616243231665
1745.24625813379,0.0240438002115692
1741.51709946257,0.0363000044562875
1737.78794079134,0.0619870288636886
1734.05878212011,0.0898532796167054
1730.32962344889,0.0932070824481437
1726.60046477766,0.0793687089064569
1722.87130610643,0.0621353664581921
1719.14214743521,0.045224121345587
1715.41298876398,0.0235496153308744
1711.68383009276,0.0123411318870704
1707.95467142153,0.0140865211375955
1704.2255127503,0.0219242996471493
1700.49635407908,0.0226667574279388
1696.76719540785,0.0106410394006543
1693.03803673662,0.0035124607725247
1689.3088780654,0.00944104414393793
1685.57971939417,0.0136550409326622
1681.85056072295,0.00638768886328474
1678.12140205172,0.00496472827544047
1674.39224338049,0.00753260533427984
1670.66308470927,0.00449315085224572
1666.93392603804,-0.000414604671153133
1663.20476736681,-0.00224068380407435
1659.47560869559,0.0033662959609729
1655.74645002436,0.0169538390028643
1652.01729135314,0.0166853265241977
1648.28813268191,0.00724499153837184
1644.55897401068,9.38886355094188E-05
1640.82981533946,0.00292245385763227
1637.10065666823,0.00834829398799456
1633.371497997,0.00357580903475953
1629.64233932578,0.00684649932257774
1625.91318065455,0.0145694137787211
1622.18402198333,0.0176666648080869
1618.4548633121,0.0158709847617067
1614.72570464087,0.00920943135008206
1610.99654596965,0.00617114941318625
1607.26738729842,0.00593690184434837
1603.53822862719,0.00476047001660646
1599.80906995597,0.00389388573757219
1596.07991128474,0.00233024407634776
1592.35075261351,-0.00143091107796583
1588.62159394229,-0.00529661222542932
1584.89243527106,-0.00613929796264491
1581.16327659984,-0.00197400640831162
1577.43411792861,0.00213295257390456
1573.70495925738,0.00148927090690541
1569.97580058616,0.00102408289374823
1566.24664191493,0.00475434563541836
1562.5174832437,0.0203410832320893
1558.78832457248,0.0233082091809693
1555.05916590125,0.00847702380854119
1551.33000723003,0.00441318940657153
1547.6008485588,0.0129857317137112
1543.87168988757,0.0274525517860979
1540.14253121635,0.0238364659670716
1536.41337254512,0.0139588158030732
1532.68421387389,0.0123156898500319
1528.95505520267,0.017234305994781
1525.22589653144,0.0270888715473395
1521.49673786022,0.0297178867059344
1517.76757918899,0.0252692562807628
1514.03842051776,0.0273884425640523
1510.30926184654,0.0395256258605102
1506.58010317531,0.0386768568112149
1502.85094450408,0.0327963056780282
1499.12178583286,0.0383281331050091
1495.39262716163,0.0440439858040687
1491.66346849041,0.0507009050370816
1487.93430981918,0.0529541581399543
1484.20515114795,0.0555092269028878
1480.47599247673,0.0673586850212756
1476.7468338055,0.0855201742861041
1473.01767513427,0.103429362570368
1469.28851646305,0.126723179529648
1465.55935779182,0.163582350885369
1461.83019912059,0.188379918033849
1458.10104044937,0.179908462899682
1454.37188177814,0.155575540672352
1450.64272310692,0.141255360578113
1446.91356443569,0.118840063896922
1443.18440576446,0.092749859984757
1439.45524709324,0.0758010955715957
1435.72608842201,0.0606616916938871
1431.99692975078,0.0480759415258643
1428.26777107956,0.0409774554282454
1424.53861240833,0.0386704086697922
1420.80945373711,0.0368735014834464
1417.08029506588,0.0270838294941799
1413.35113639465,0.0188151457835904
1409.62197772343,0.0161686966360593
1405.8928190522,0.0157875135126449
1402.16366038097,0.0168964821315258
1398.43450170975,0.018431595346209
1394.70534303852,0.0164983916564124
1390.9761843673,0.0161852445101057
1387.24702569607,0.018277195068444
1383.51786702484,0.0212700322697681
1379.78870835362,0.0316184330050098
1376.05954968239,0.0504452282366493
1372.33039101116,0.0759226288327899
1368.60123233994,0.10120943353792
1364.87207366871,0.102868938795085
1361.14291499749,0.0752441970411623
1357.41375632626,0.0507923097411109
1353.68459765503,0.0388513174125603
1349.95543898381,0.0333409451247739
1346.22628031258,0.0321104165187747
1342.49712164135,0.0353591294479957
1338.76796297013,0.0388663571266002
1335.0388042989,0.0393802089959555
1331.30964562767,0.0380639565719202
1327.58048695645,0.0362272921040901
1323.85132828522,0.0355388489772123
1320.122169614,0.0368246302321198
1316.39301094277,0.040063854515341
1312.66385227154,0.0446072911859943
1308.93469360032,0.0492913711431256
1305.20553492909,0.0536517833234375
1301.47637625786,0.0608624533567611
1297.74721758664,0.0776423017081702
1294.01805891541,0.114186201725964
1290.28890024419,0.185349470709842
1286.55974157296,0.293693367492073
1282.83058290173,0.355987719195657
1279.10142423051,0.304054351297674
1275.37226555928,0.242535389008171
1271.64310688805,0.201872325958318
1267.91394821683,0.158524730292109
1264.1847895456,0.139265337233807
1260.45563087438,0.147249083362975
1256.72647220315,0.166391330447228
1252.99731353192,0.189071145073358
1249.2681548607,0.208287367138682
1245.53899618947,0.217205890429591
1241.80983751824,0.213488021679209
1238.08067884702,0.201317649800641
1234.35152017579,0.186127716131108
1230.62236150457,0.172020843294269
1226.89320283334,0.16090132316987
1223.16404416211,0.153937265515529
1219.43488549089,0.150378948675625
1215.70572681966,0.151012043150602
1211.97656814843,0.157356747509791
1208.24740947721,0.165664176957318
1204.51825080598,0.169051014939008
1200.78909213475,0.173124452001862
1197.05993346353,0.18449053431668
1193.3307747923,0.205091863877557
1189.60161612108,0.239054753420311
1185.87245744985,0.280020648330528
1182.14329877862,0.30097033018765
1178.4141401074,0.289436381836301
1174.68498143617,0.258594554916497
1170.95582276494,0.22085224257354
1167.22666409372,0.186584824717812
1163.49750542249,0.166485163357286
1159.76834675127,0.164998388886935
1156.03918808004,0.180043278482927
1152.31002940881,0.208957263670931
1148.58087073759,0.260370081330585
1144.85171206636,0.321180110874953
1141.12255339513,0.332627380242744
1137.39339472391,0.285907931768492
1133.66423605268,0.231760548895592
1129.93507738146,0.188807066870976
1126.20591871023,0.154875829504353
1122.476760039,0.13378263953331
1118.74760136778,0.124353153741939
1115.01844269655,0.123666688866784
1111.28928402532,0.129903852658315
1107.5601253541,0.140312632789653
1103.83096668287,0.153529393466421
1100.10180801165,0.173867594331389
1096.37264934042,0.204766421292729
1092.64349066919,0.249652850941825
1088.91433199797,0.31597296020153
1085.18517332674,0.41865062746708
1081.45601465551,0.582114727530478
1077.72685598429,0.840794411346386
1073.99769731306,1.22370214651692
1070.26853864183,1.6553839347714
1066.53937997061,1.75091431742532
1062.81022129938,1.46050115384916
1059.08106262816,1.13019960918408
1055.35190395693,0.86948597620451
1051.6227452857,0.687250875510756
1047.89358661448,0.560396011728236
1044.16442794325,0.470912368533096
1040.43526927202,0.41404945044757
1036.7061106008,0.389596100655787
1032.97695192957,0.379867004834567
1029.24779325835,0.351512788337219
1025.51863458712,0.292904662294839
1021.78947591589,0.229521848806914
1018.06031724467,0.180988450861558
1014.33115857344,0.148585837448883
1010.60199990221,0.126928201063515
1006.87284123099,0.111881639476937
1003.14368255976,0.100837889060312
999.414523888535,0.092864959323271
995.685365217309,0.0875012540297692
991.956206546083,0.0844737860778239
988.227047874856,0.0832172404124939
984.49788920363,0.0835187939828718
980.768730532404,0.0851827387647661
977.039571861178,0.0882014280326098
973.310413189951,0.0929525415576897
969.581254518725,0.0994516461426005
965.852095847499,0.108048711441934
962.122937176272,0.119461819876059
958.393778505046,0.133841791020164
954.66461983382,0.150365481405535
950.935461162594,0.169147613204768
947.206302491367,0.190723384686751
943.477143820141,0.216365405955951
939.747985148915,0.247654093080628
936.018826477688,0.288509881672252
932.289667806462,0.343728177184793
928.560509135236,0.41918663563628
924.83135046401,0.519635645483512
921.102191792783,0.649074273135851
917.373033121557,0.799131935936353
913.643874450331,0.936735835595171
909.914715779104,1.00812633733956
906.185557107878,0.991534617365389
902.456398436652,0.90473478003859
898.727239765426,0.785240793606299
894.998081094199,0.667605902478815
891.268922422973,0.572100055752107
887.539763751747,0.502822735368529
883.81060508052,0.453575811959762
880.081446409294,0.416738194416316
876.352287738068,0.385065980310787
872.623129066842,0.356941693459111
868.893970395615,0.331532003784715
865.164811724389,0.308421514424767
861.435653053163,0.286603441972215
857.706494381936,0.267193927822136
853.97733571071,0.253125282885589
850.248177039484,0.249732506783641
846.519018368258,0.249091009322166
842.789859697031,0.232141020749972
839.060701025805,0.205402411153788
835.331542354579,0.185600534039463
831.602383683352,0.170411061602191
827.873225012126,0.156385780988112
824.1440663409,0.142117193657082
820.414907669674,0.129279206221712
816.685748998447,0.117851277336173
812.956590327221,0.10783951313496
809.227431655995,0.0992115231772733
805.498272984768,0.0914824126457794
801.769114313542,0.0854456813387342
798.039955642316,0.0812101648293028
794.31079697109,0.0768560106616798
790.581638299863,0.0717702527559145
786.852479628637,0.0674392142193969
783.123320957411,0.0661958282995476
779.394162286184,0.0726586160272858
775.665003614958,0.0881954748670183
771.935844943732,0.0885756018725582
768.206686272506,0.0654484551489956
764.477527601279,0.0496981073216202
760.748368930053,0.0444344799537864
757.019210258827,0.041885879692617
753.2900515876,0.0404199554449325
749.560892916374,0.0398200153647999
745.831734245148,0.0387954788096899
742.102575573922,0.037798005453742
738.373416902695,0.0406690169037622
734.644258231469,0.0442612185569921
730.915099560243,0.0419858924084685
727.185940889016,0.0393794303993726
723.45678221779,0.0398447211703441
719.727623546564,0.0416886981588238
715.998464875338,0.0445295050572513
712.269306204111,0.0502292987526462
708.540147532885,0.0690181854787128
704.810988861659,0.100844192329431
701.081830190432,0.113607144372353
697.352671519206,0.0933659392239808
693.62351284798,0.0831404777718719
689.894354176754,0.0930723216767901
686.165195505527,0.14331362471875
682.436036834301,0.218508084834932
678.706878163075,0.242895808584882
674.977719491848,0.246401861453355
671.248560820622,0.253707250899638
667.519402149396,0.245099065382222
663.790243478169,0.237145699593377
660.061084806943,0.235342790049935
656.331926135717,0.240518689487232
652.602767464491,0.228840006810218
648.873608793276,0.215060476392375
