Wavenumbercm-1,00:48:51
2998.24357166583,0.180313079848398
2994.5144129946,0.210166562763473
2990.78525432337,0.245075560526684
2987.05609565215,0.299395054978206
2983.32693698092,0.329329634998193
2979.59777830969,0.308609917339695
2975.86861963847,0.274699458808193
2972.13946096724,0.257940715376453
2968.41030229601,0.258240054929768
2964.68114362479,0.25681227922237
2960.95198495356,0.265340824747621
2957.22282628234,0.279476086692141
2953.49366761111,0.297784250450576
2949.76450893988,0.304625214760674
2946.03535026866,0.290874723414228
2942.30619159743,0.276879732335062
2938.5770329262,0.284245023270616
2934.84787425498,0.291015771932923
2931.11871558375,0.286899306591293
2927.38955691253,0.284971007342866
2923.6603982413,0.296061540750912
2919.93123957007,0.302387813876703
2916.20208089885,0.288455565634605
2912.47292222762,0.269378099293056
2908.74376355639,0.262699130609856
2905.01460488517,0.267474960085326
2901.28544621394,0.280849761186868
2897.55628754272,0.29121760365992
2893.82712887149,0.295749259462478
2890.09797020026,0.306811845795359
2886.36881152904,0.322661904176637
2882.63965285781,0.346656450742029
2878.91049418658,0.366852431468532
2875.18133551536,0.355457024209693
2871.45217684413,0.339028387135039
2867.72301817291,0.343429481707225
2863.99385950168,0.340787066260899
2860.26470083045,0.327432572133745
2856.53554215923,0.316801939050438
2852.806383488,0.308818948492134
2849.07722481677,0.297001267942231
2845.34806614555,0.295163329282728
2841.61890747432,0.280433045885605
2837.88974880309,0.246195501337655
2834.16059013187,0.213773839174166
2830.43143146064,0.189450947312915
2826.70227278942,0.168678079924877
2822.97311411819,0.148374095229994
2819.24395544696,0.13174316127877
2815.51479677574,0.120003113006191
2811.78563810451,0.107829069106403
2808.05647943328,0.0943133829489853
2804.32732076206,0.0848522215938558
2800.59816209083,0.0773450930868394
2796.86900341961,0.0712635825734104
2793.13984474838,0.0652218340690999
2789.41068607715,0.0574330329807463
2785.68152740593,0.0495206085173703
2781.9523687347,0.0442679643923544
2778.22321006347,0.0411790890506136
2774.49405139225,0.0385158611167492
2770.76489272102,0.0354678156229891
2767.0357340498,0.0324958280982045
2763.30657537857,0.0302053332530651
2759.57741670734,0.0291728741756415
2755.84825803612,0.0287440110835726
2752.11909936489,0.0281230122406248
2748.38994069366,0.0271733535034076
2744.66078202244,0.0274586179002394
2740.93162335121,0.0298006666961881
2737.20246467999,0.0334204719348856
2733.47330600876,0.0373611443889106
2729.74414733753,0.03999290577242
2726.01498866631,0.0399845256488702
2722.28582999508,0.0374822106587477
2718.55667132385,0.0347532591544042
2714.82751265263,0.0318460926671315
2711.0983539814,0.028808557144101
2707.36919531017,0.0269402731573482
2703.64003663895,0.0274974914438579
2699.91087796772,0.0301288480946431
2696.1817192965,0.033878411518175
2692.45256062527,0.0383324663956627
2688.72340195404,0.0417524759740911
2684.99424328282,0.0421066055794922
2681.26508461159,0.0393914717860772
2677.53592594036,0.0348616046280218
2673.80676726914,0.0310027409455721
2670.07760859791,0.0283027809903941
2666.34844992669,0.0271026026007306
2662.61929125546,0.0275291773348805
2658.89013258423,0.0277412477563706
2655.16097391301,0.0260640166185957
2651.43181524178,0.0230368652114598
2647.70265657055,0.0196562598055219
2643.97349789933,0.0163376300091379
2640.2443392281,0.014943901180768
2636.51518055688,0.0154448195594329
2632.78602188565,0.016225234406684
2629.05686321442,0.0166849454767074
2625.3277045432,0.0174563415255423
2621.59854587197,0.0187138501954123
2617.86938720074,0.0204304620104454
2614.14022852952,0.0217351861586532
2610.41106985829,0.0224464216044313
2606.68191118707,0.0235923843934352
2602.95275251584,0.0247946707698094
2599.22359384461,0.0243025339925204
2595.49443517339,0.0239965095337165
2591.76527650216,0.0256564763644185
2588.03611783093,0.0286541872517841
2584.30695915971,0.032567512879665
2580.57780048848,0.0356781811672752
2576.84864181725,0.035837633547476
2573.11948314603,0.0339779938679246
2569.3903244748,0.0324959504731855
2565.66116580358,0.0311211345790703
2561.93200713235,0.0301762644244418
2558.20284846112,0.0305079779846319
2554.4736897899,0.0319244043282261
2550.74453111867,0.0319023127414562
2547.01537244744,0.0302528237510208
2543.28621377622,0.0286227339208754
2539.55705510499,0.0268530297335433
2535.82789643377,0.0247871582080232
2532.09873776254,0.0243496866028674
2528.36957909131,0.0249607455840425
2524.64042042009,0.0245105593026209
2520.91126174886,0.0236730066826711
2517.18210307763,0.023882611946457
2513.45294440641,0.0246843310601883
2509.72378573518,0.0246866158753633
2505.99462706396,0.0240639357253323
2502.26546839273,0.0242099644290499
2498.5363097215,0.025237438440078
2494.80715105028,0.0259685288943276
2491.07799237905,0.0259640749029057
2487.34883370782,0.0253432369326007
2483.6196750366,0.0247333833017142
2479.89051636537,0.0239862482521868
2476.16135769415,0.0230554801782666
2472.43219902292,0.0221064382094183
2468.70304035169,0.0209867467809253
2464.97388168047,0.0192581839095442
2461.24472300924,0.01776666760451
2457.51556433801,0.0169882631937709
2453.78640566679,0.0169761729586921
2450.05724699556,0.0173124339612253
2446.32808832433,0.0175138712672475
2442.59892965311,0.0176981712329188
2438.86977098188,0.0176860481423356
2435.14061231066,0.0171735520531656
2431.41145363943,0.016391595319878
2427.6822949682,0.0154742549998048
2423.95313629698,0.0149003567038772
2420.22397762575,0.0154021798434015
2416.49481895452,0.0165744778521446
2412.7656602833,0.0169757388735343
2409.03650161207,0.0155438506781521
2405.30734294085,0.0138342898762447
2401.57818426962,0.0125778317425699
2397.84902559839,0.0120141201760865
2394.11986692717,0.0120917368218724
2390.39070825594,0.0125226721407236
2386.66154958471,0.0139361941550737
2382.93239091349,0.0188002115986016
2379.20323224226,0.028665399067111
2375.47407357104,0.0413659272923671
2371.74491489981,0.0526975809611057
2368.01575622858,0.0597321825003471
2364.28659755736,0.0606270886493146
2360.55743888613,0.0528319805165968
2356.8282802149,0.0364008377459805
2353.09912154368,0.0244750451880149
2349.36996287245,0.0284516902441226
2345.64080420122,0.0385431948087444
2341.91164553,0.0422175918957787
2338.18248685877,0.0404476483182773
2334.45332818755,0.0355067377930857
2330.72416951632,0.0289792723489883
2326.99501084509,0.0225183500920122
2323.26585217387,0.0164301100461183
2319.53669350264,0.0110453377171484
2315.80753483141,0.00757676772037138
2312.07837616019,0.00637905784907524
2308.34921748896,0.0058192299591624
2304.62005881774,0.00455708117293029
2300.89090014651,0.00238634262222858
2297.16174147528,3.38382531012135E-05
2293.43258280406,-0.00145339032427754
2289.70342413283,-0.00125962442651924
2285.9742654616,0.000639655930210052
2282.24510679038,0.00337906978929264
2278.51594811915,0.00545463307638434
2274.78678944793,0.00725133640222468
2271.0576307767,0.00920295617832195
2267.32847210547,0.0104587375953714
2263.59931343425,0.0117029563166584
2259.87015476302,0.0134742344916099
2256.14099609179,0.0144547432289611
2252.41183742057,0.014635443628509
2248.68267874934,0.0161055718436452
2244.95352007812,0.0178306983500454
2241.22436140689,0.0198434376817978
2237.49520273566,0.0218183038789375
2233.76604406444,0.0236999660407815
2230.03688539321,0.0256452014816758
2226.30772672198,0.0278951898610144
2222.57856805076,0.0298873249256274
2218.84940937953,0.0321384501203029
2215.1202507083,0.035178334721309
2211.39109203708,0.0388200243187241
2207.66193336585,0.0410109442063066
2203.93277469463,0.0425440839512657
2200.2036160234,0.0447439340065117
2196.47445735217,0.0477588788761939
2192.74529868095,0.053096775286126
2189.01614000972,0.0616864929006485
2185.28698133849,0.0720299278362893
2181.55782266727,0.079129092558079
2177.82866399604,0.0834689087547129
2174.09950532482,0.0885245498105748
2170.37034665359,0.10075107970085
2166.64118798236,0.124092639558301
2162.91202931114,0.151764036440774
2159.18287063991,0.155055261610797
2155.45371196868,0.140835236237508
2151.72455329746,0.126491914036828
2147.99539462623,0.116187583044434
2144.26623595501,0.106079229233389
2140.53707728378,0.0969887237998886
2136.80791861255,0.084924233703088
2133.07875994133,0.0697511425079905
2129.3496012701,0.0555260676208337
2125.62044259887,0.0455484856192161
2121.89128392765,0.0392027110571735
2118.16212525642,0.0350280784770547
2114.4329665852,0.032764360230049
2110.70380791397,0.0314917309733088
2106.97464924274,0.0310757454291132
2103.24549057152,0.0307470170888409
2099.51633190029,0.0299982749121473
2095.78717322906,0.0268118236174004
2092.05801455784,0.0221297791027291
2088.32885588661,0.017939011074163
2084.59969721538,0.015462231637006
2080.87053854416,0.0137977124440984
2077.14137987293,0.0134867456219061
2073.41222120171,0.0140204175882787
2069.68306253048,0.0156825359977571
2065.95390385925,0.0172467341694613
2062.22474518803,0.0178229285782787
2058.4955865168,0.0171662069472338
2054.76642784557,0.0188220311413696
2051.03726917435,0.0241288253485174
2047.30811050312,0.0293665693161716
2043.5789518319,0.0317786089525491
2039.84979316067,0.0346386559645873
2036.12063448944,0.0379317317306285
2032.39147581822,0.0385078275774525
2028.66231714699,0.0366432157548336
2024.93315847576,0.033936509932075
2021.20399980454,0.0302831276353494
2017.47484113331,0.026283630720446
2013.74568246209,0.0248423729875415
2010.01652379086,0.0241312359944831
2006.28736511963,0.0213837392612119
2002.55820644841,0.0171251950311274
1998.82904777718,0.0152803979196182
1995.09988910595,0.0158303556594441
1991.37073043473,0.0166731009240393
1987.6415717635,0.0169293619354667
1983.91241309228,0.0210357429698873
1980.18325442105,0.0274179221027301
1976.45409574982,0.03160349853003
1972.7249370786,0.0311638776714199
1968.99577840737,0.0290101485250409
1965.26661973614,0.025239293942599
1961.53746106492,0.0211620666335222
1957.80830239369,0.0160644262057055
1954.07914372246,0.011409923841392
1950.34998505124,0.00829244664352405
1946.62082638001,0.00641669711070886
1942.89166770879,0.00362435904111489
1939.16250903756,0.000344590529909392
1935.43335036633,-0.00207808710417244
1931.70419169511,-0.00366574854183472
1927.97503302388,-0.00414918951940357
1924.24587435265,-0.0040716420374926
1920.51671568143,-0.00476881577561648
1916.7875570102,-0.00672740377283445
1913.05839833898,-0.00783610218057701
1909.32923966775,-0.00847072674042144
1905.60008099652,-0.00944582138228625
1901.8709223253,-0.0100031515915414
1898.14176365407,-0.00980985229169431
1894.41260498284,-0.00922729342628855
1890.68344631162,-0.00941348462219456
1886.95428764039,-0.0109559504507822
1883.22512896917,-0.01184851820076
1879.49597029794,-0.0120417532623747
1875.76681162671,-0.0104566196203046
1872.03765295549,-0.00749167228768782
1868.30849428426,-0.00791081672185767
1864.57933561303,-0.0102341681725326
1860.85017694181,-0.0108448978930728
1857.12101827058,-0.0110252007842764
1853.39185959936,-0.0099137269832595
1849.66270092813,-0.00622467213844486
1845.9335422569,-0.00418519769434289
1842.20438358568,-0.00700354275042084
1838.47522491445,-0.00833325135075824
1834.74606624322,-0.00555021009465236
1831.016907572,-0.00263376844838161
1827.28774890077,-0.00342107344472608
1823.55859022954,-0.00567064306426971
1819.82943155832,-0.00595682956417313
1816.10027288709,-0.00495284849171368
1812.37111421587,-0.00448822626223291
1808.64195554464,-0.00501101314955954
1804.91279687341,-0.00380303808103738
1801.18363820219,-0.00248874143377308
1797.45447953096,-0.000871053626454197
1793.72532085973,-0.000512282251596372
1789.99616218851,-0.0035050685646118
1786.26700351728,-0.00482401584024229
1782.53784484606,-0.00450168792247509
1778.80868617483,-0.00231590068322564
1775.0795275036,0.00201868022164586
1771.35036883238,7.4061875924121E-05
1767.62121016115,-0.0038193116882612
1763.89205148992,-0.00393385520774644
1760.1628928187,-0.00377397164699956
1756.43373414747,-0.00262632669138156
1752.70457547625,0.000244307620416731
1748.97541680502,-0.000870591878639365
1745.24625813379,-0.00252806007738819
1741.51709946257,-0.000394748542007639
1737.78794079134,0.00340971593899911
1734.05878212011,0.00140450676578911
1730.32962344889,-0.00573453382522865
1726.60046477766,-0.00622383406282311
1722.87130610643,0.00168986718123554
1719.14214743521,0.00859259527931644
1715.41298876398,0.00146320498075714
1711.68383009276,-0.0043364065305368
1707.95467142153,-0.00102053670897916
1704.2255127503,0.00692911666738406
1700.49635407908,0.00895627783233168
1696.76719540785,-5.99143042319523E-05
1693.03803673662,-0.00557506945002722
1689.3088780654,-0.000548519504837092
1685.57971939417,0.00330962211076752
1681.85056072295,-0.00200782306518564
1678.12140205172,-0.00253289445382651
1674.39224338049,-1.78407391734827E-05
1670.66308470927,-0.00211918432322559
1666.93392603804,-0.00579013809772349
1663.20476736681,-0.00716269423682081
1659.47560869559,-0.00262614521867891
1655.74645002436,0.00824679216602698
1652.01729135314,0.0080614687111475
1648.28813268191,0.00057139643109459
1644.55897401068,-0.00498086657550977
1640.82981533946,-0.00260911192787226
1637.10065666823,0.00154845223370872
1633.371497997,-0.00332843332011862
1629.64233932578,-0.0027356660679979
1625.91318065455,0.00214193019967939
1622.18402198333,0.00608232878242614
1618.4548633121,0.0086372955469449
1614.72570464087,0.0075334233613817
1610.99654596965,0.00762437954877308
1607.26738729842,0.00884679620148315
1603.53822862719,0.00857659696682337
1599.80906995597,0.00815784262306995
1596.07991128474,0.00633635632225113
1592.35075261351,0.00148176423358861
1588.62159394229,-0.00350259268777569
1584.89243527106,-0.0049811807743444
1581.16327659984,-0.00169065672141071
1577.43411792861,0.00144475098127448
1573.70495925738,0.000472349565285531
1569.97580058616,-0.000381484841364133
1566.24664191493,0.00242095357526137
1562.5174832437,0.0147845006928524
1558.78832457248,0.0169413104756548
1555.05916590125,0.00497771262006788
1551.33000723003,0.00188571826160662
1547.6008485588,0.00913140755116536
1543.87168988757,0.0213355332960789
1540.14253121635,0.0188607089070987
1536.41337254512,0.0109834382344118
1532.68421387389,0.00962969298883064
1528.95505520267,0.0137346305614346
1525.22589653144,0.0218219401151502
1521.49673786022,0.024114637810067
1517.76757918899,0.0209386586243862
1514.03842051776,0.0232396534005436
1510.30926184654,0.0337769118220046
1506.58010317531,0.0341413466038445
1502.85094450408,0.0304207754595157
1499.12178583286,0.035960405504884
1495.39262716163,0.0418616541127323
1491.66346849041,0.0486252851853003
1487.93430981918,0.0526208334189955
1484.20515114795,0.0572275679848296
1480.47599247673,0.0690748308224668
1476.7468338055,0.0855615283402905
1473.01767513427,0.103097280046517
1469.28851646305,0.127258096625903
1465.55935779182,0.163998339983453
1461.83019912059,0.188076914286353
1458.10104044937,0.179445540817318
1454.37188177814,0.156818679245261
1450.64272310692,0.14340703751815
1446.91356443569,0.121093180456356
1443.18440576446,0.094065331211706
1439.45524709324,0.0750033688000222
1435.72608842201,0.0589201446325919
1431.99692975078,0.0461064479667983
1428.26777107956,0.0381791828165105
1424.53861240833,0.0345046522156087
1420.80945373711,0.0317062107669086
1417.08029506588,0.0232756711567184
1413.35113639465,0.0165892877873393
1409.62197772343,0.0141809040437024
1405.8928190522,0.0133775984021976
1402.16366038097,0.0136733537466651
1398.43450170975,0.0143325135139045
1394.70534303852,0.0123487014762742
1390.9761843673,0.0115268658507386
1387.24702569607,0.012037558077128
1383.51786702484,0.0121521551408092
1379.78870835362,0.0164778910049228
1376.05954968239,0.0276418335067405
1372.33039101116,0.0490065489226962
1368.60123233994,0.0764873696031292
1364.87207366871,0.0829032015263417
1361.14291499749,0.0587640351044114
1357.41375632626,0.0366613249379692
1353.68459765503,0.0264959396683205
1349.95543898381,0.0224424549235579
1346.22628031258,0.0223835398236865
1342.49712164135,0.0264389124855899
1338.76796297013,0.0309814979180851
1335.0388042989,0.0322553309817156
1331.30964562767,0.0301694700938015
1327.58048695645,0.0272821985836244
1323.85132828522,0.0267400277716408
1320.122169614,0.0282384819596226
1316.39301094277,0.030707661287918
1312.66385227154,0.0339630214778018
1308.93469360032,0.0372515765581793
1305.20553492909,0.0396496221506697
1301.47637625786,0.0439872391454415
1297.74721758664,0.0554634614022912
1294.01805891541,0.0734521432463865
1290.28890024419,0.0817135926682227
1286.55974157296,0.0743186754014159
1282.83058290173,0.0658799545152338
1279.10142423051,0.0629507164727911
1275.37226555928,0.0630069226360404
1271.64310688805,0.0642540999394257
1267.91394821683,0.0662481160201393
1264.1847895456,0.0702232029348223
1260.45563087438,0.0756676207090564
1256.72647220315,0.0818076047973907
1252.99731353192,0.0885772627368168
1249.2681548607,0.0951473282866983
1245.53899618947,0.0998051069948965
1241.80983751824,0.1019444331611
1238.08067884702,0.102225672098679
1234.35152017579,0.101899614831335
1230.62236150457,0.101750885975942
1226.89320283334,0.102629724845039
1223.16404416211,0.10512879661881
1219.43488549089,0.108871829501123
1215.70572681966,0.115341066284763
1211.97656814843,0.127636126984044
1208.24740947721,0.140120869471041
1204.51825080598,0.142480632577514
1200.78909213475,0.142840350965657
1197.05993346353,0.148788247823592
1193.3307747923,0.154139180658335
1189.60161612108,0.156908815097102
1185.87245744985,0.159463555462695
1182.14329877862,0.16049202407844
1178.4141401074,0.15783013004002
1174.68498143617,0.149633874104606
1170.95582276494,0.136664037575688
1167.22666409372,0.122269221541193
1163.49750542249,0.113042615670369
1159.76834675127,0.114730253171903
1156.03918808004,0.119925398840512
1152.31002940881,0.108739765839683
1148.58087073759,0.0874234540134769
1144.85171206636,0.0758037708280392
1141.12255339513,0.073719287029692
1137.39339472391,0.0754464596860479
1133.66423605268,0.0776127226532352
1129.93507738146,0.0794056486917261
1126.20591871023,0.0814282473238284
1122.476760039,0.0845799059548501
1118.74760136778,0.0892441539452433
1115.01844269655,0.0962369911737257
1111.28928402532,0.106176480672272
1107.5601253541,0.119641062996107
1103.83096668287,0.137624990397481
1100.10180801165,0.162059098542634
1096.37264934042,0.195381695499621
1092.64349066919,0.242065246110338
1088.91433199797,0.310179155402883
1085.18517332674,0.414659391180824
1081.45601465551,0.579703337327414
1077.72685598429,0.839811130290715
1073.99769731306,1.22488750841672
1070.26853864183,1.66246499933483
1066.53937997061,1.77194374456874
1062.81022129938,1.48779064591936
1059.08106262816,1.14533495309944
1055.35190395693,0.864930610623913
1051.6227452857,0.664199471073838
1047.89358661448,0.528069289147731
1044.16442794325,0.440356636314812
1040.43526927202,0.390636245382922
1036.7061106008,0.372520298479415
1032.97695192957,0.367585737310476
1029.24779325835,0.343028798742374
1025.51863458712,0.286557971458563
1021.78947591589,0.223822312340415
1018.06031724467,0.175355280978988
1014.33115857344,0.14274921819758
1010.60199990221,0.120768248922852
1006.87284123099,0.105340339130545
1003.14368255976,0.0941475384715293
999.414523888535,0.0862249653348006
995.685365217309,0.0809355383582907
991.956206546083,0.0779129605552532
988.227047874856,0.0765862123995491
984.49788920363,0.0767848685616587
980.768730532404,0.0782622885797828
977.039571861178,0.0811376930243287
973.310413189951,0.085825252474971
969.581254518725,0.0922391047915853
965.852095847499,0.100686157386823
962.122937176272,0.112057485226632
958.393778505046,0.126558746321689
954.66461983382,0.143479438554386
950.935461162594,0.162815264867975
947.206302491367,0.184997561204648
943.477143820141,0.211035422815932
939.747985148915,0.242569838447003
936.018826477688,0.283799474466771
932.289667806462,0.339328043234522
928.560509135236,0.414795450271006
924.83135046401,0.515557638520961
921.102191792783,0.646413157767261
917.373033121557,0.798269857261343
913.643874450331,0.935611343847385
909.914715779104,1.00644080636326
906.185557107878,0.993180236438797
902.456398436652,0.908021450834545
898.727239765426,0.784617086848875
894.998081094199,0.658698930369974
891.268922422973,0.55258664958237
887.539763751747,0.472931181337559
883.81060508052,0.416650533961191
880.081446409294,0.377978792852067
876.352287738068,0.349981377608197
872.623129066842,0.327687720275158
868.893970395615,0.306764428535568
865.164811724389,0.286293757747658
861.435653053163,0.266085158804542
857.706494381936,0.24744189779376
853.97733571071,0.230840555270331
850.248177039484,0.216820482499766
846.519018368258,0.204469121093086
842.789859697031,0.193327063266985
839.060701025805,0.181654163819972
835.331542354579,0.169660964813025
831.602383683352,0.157804239257166
827.873225012126,0.146132442481898
824.1440663409,0.133495268878354
820.414907669674,0.121542475191806
816.685748998447,0.110743583153024
812.956590327221,0.101007561179368
809.227431655995,0.092480925923292
805.498272984768,0.0844018109821594
801.769114313542,0.0778958527104732
798.039955642316,0.0732327529699793
794.31079697109,0.0687770920710032
790.581638299863,0.0635109679627212
786.852479628637,0.0588767153356434
783.123320957411,0.0555134417232748
779.394162286184,0.0523363628325574
775.665003614958,0.0480062280909265
771.935844943732,0.0441184149736171
768.206686272506,0.041940969020467
764.477527601279,0.0404478468160998
760.748368930053,0.0382747378496798
757.019210258827,0.0357964523171709
753.2900515876,0.0343747586429476
749.560892916374,0.0345319511090251
745.831734245148,0.0343261392379651
742.102575573922,0.0330151946322149
738.373416902695,0.0320718081348421
734.644258231469,0.0332213291498429
730.915099560243,0.0345427391588612
727.185940889016,0.0346532178959603
723.45678221779,0.0349242511926419
719.727623546564,0.0370319739947057
715.998464875338,0.0396931374327665
712.269306204111,0.0419331985507481
708.540147532885,0.0444568247726278
704.810988861659,0.0487496867051472
701.081830190432,0.054888540785362
697.352671519206,0.0612519191986086
693.62351284798,0.0689879065108945
689.894354176754,0.0789457780647805
686.165195505527,0.0927818549635016
682.436036834301,0.106223246091878
678.706878163075,0.119426735377321
674.977719491848,0.135411431869925
671.248560820622,0.16485646814021
667.519402149396,0.191694757997064
663.790243478169,0.20265329658899
660.061084806943,0.211460617029575
656.331926135717,0.219914597779993
652.602767464491,0.214188781269477
648.873608793276,0.2014755038375
