Wavenumbercm-1,03:33:52
2998.24357166583,0.192425299089584
2994.5144129946,0.221171011711486
2990.78525432337,0.252740275488999
2987.05609565215,0.306936759827403
2983.32693698092,0.344308356922825
2979.59777830969,0.328233441173215
2975.86861963847,0.291515323125334
2972.13946096724,0.268506150832234
2968.41030229601,0.267199436290826
2964.68114362479,0.267743370635285
2960.95198495356,0.279653697186178
2957.22282628234,0.292375355503413
2953.49366761111,0.308535027862424
2949.76450893988,0.31465892768744
2946.03535026866,0.300294015031118
2942.30619159743,0.288900110759459
2938.5770329262,0.298606457315474
2934.84787425498,0.305465097634817
2931.11871558375,0.299229529775747
2927.38955691253,0.292245199581707
2923.6603982413,0.305621899544233
2919.93123957007,0.31891463725663
2916.20208089885,0.303989488729142
2912.47292222762,0.281897958418258
2908.74376355639,0.272924752466881
2905.01460488517,0.276491162206259
2901.28544621394,0.290179862809474
2897.55628754272,0.301552548586809
2893.82712887149,0.305112610377314
2890.09797020026,0.313714987465812
2886.36881152904,0.327073925849831
2882.63965285781,0.353392035736687
2878.91049418658,0.378564851754434
2875.18133551536,0.370263022655028
2871.45217684413,0.351037228049411
2867.72301817291,0.35597145995057
2863.99385950168,0.357748286646154
2860.26470083045,0.341901229682841
2856.53554215923,0.325660957622201
2852.806383488,0.317890077201995
2849.07722481677,0.3071001092338
2845.34806614555,0.306667594532689
2841.61890747432,0.293935987946706
2837.88974880309,0.258414282441658
2834.16059013187,0.223091407588775
2830.43143146064,0.195978470625308
2826.70227278942,0.174291988060701
2822.97311411819,0.153880510545344
2819.24395544696,0.137650585526999
2815.51479677574,0.126458786288932
2811.78563810451,0.114873136593769
2808.05647943328,0.102419451702451
2804.32732076206,0.095000749745988
2800.59816209083,0.0883355851756828
2796.86900341961,0.0816108181067987
2793.13984474838,0.0752600242083643
2789.41068607715,0.0677286382989449
2785.68152740593,0.0600845202326485
2781.9523687347,0.0568319743382087
2778.22321006347,0.0555174112433201
2774.49405139225,0.0520193841048466
2770.76489272102,0.0474938446173474
2767.0357340498,0.0439262255921352
2763.30657537857,0.0417267882097573
2759.57741670734,0.0412810605466621
2755.84825803612,0.0414501484380224
2752.11909936489,0.0422620935068968
2748.38994069366,0.042399497363215
2744.66078202244,0.0424369676490113
2740.93162335121,0.0447842849170816
2737.20246467999,0.0477860756635516
2733.47330600876,0.0506084974862089
2729.74414733753,0.0525414290728148
2726.01498866631,0.0527098930662855
2722.28582999508,0.0500727907230479
2718.55667132385,0.0460654610075326
2714.82751265263,0.0415986037873434
2711.0983539814,0.0383740522352072
2707.36919531017,0.0370134555793585
2703.64003663895,0.037621661644691
2699.91087796772,0.0392790260987599
2696.1817192965,0.0426111205029133
2692.45256062527,0.0468484829570123
2688.72340195404,0.0491974973405889
2684.99424328282,0.0491453115609038
2681.26508461159,0.0472299983272218
2677.53592594036,0.0433974450064369
2673.80676726914,0.0395556666010846
2670.07760859791,0.0371907499070489
2666.34844992669,0.0364934836674928
2662.61929125546,0.0369050029104693
2658.89013258423,0.0372652487349477
2655.16097391301,0.0364252934804971
2651.43181524178,0.0338600574958792
2647.70265657055,0.0309273913746172
2643.97349789933,0.0285727828260678
2640.2443392281,0.0276247739693263
2636.51518055688,0.0272144525549033
2632.78602188565,0.0275164732954706
2629.05686321442,0.0280671068622886
2625.3277045432,0.0286878104771513
2621.59854587197,0.0300279315573615
2617.86938720074,0.0324255161106148
2614.14022852952,0.034588339435281
2610.41106985829,0.0358622590147277
2606.68191118707,0.0370431849834282
2602.95275251584,0.0390054733073352
2599.22359384461,0.0401732246623718
2595.49443517339,0.0409440619211734
2591.76527650216,0.0429056472487408
2588.03611783093,0.0454589713798119
2584.30695915971,0.0488649168189879
2580.57780048848,0.0544696172275889
2576.84864181725,0.0639251963624167
2573.11948314603,0.0773558912219409
2569.3903244748,0.0917984749365749
2565.66116580358,0.10047995921294
2561.93200713235,0.100050850785566
2558.20284846112,0.0919869442600447
2554.4736897899,0.0834677938230124
2550.74453111867,0.0786020746789766
2547.01537244744,0.0761208797783955
2543.28621377622,0.0713287392094233
2539.55705510499,0.0629140068901138
2535.82789643377,0.0531802914543214
2532.09873776254,0.0466561380690873
2528.36957909131,0.04431350444625
2524.64042042009,0.0433419225459264
2520.91126174886,0.0427561284865795
2517.18210307763,0.0430588235297455
2513.45294440641,0.0442849223558915
2509.72378573518,0.045820156186514
2505.99462706396,0.0472761352094282
2502.26546839273,0.0490146135723199
2498.5363097215,0.051516660495581
2494.80715105028,0.0526264113027949
2491.07799237905,0.0518788995276484
2487.34883370782,0.0509752334202425
2483.6196750366,0.0502739293357804
2479.89051636537,0.0483629373899327
2476.16135769415,0.0461086661766398
2472.43219902292,0.0440539354191229
2468.70304035169,0.0416464691424579
2464.97388168047,0.0383536654702957
2461.24472300924,0.0354240021162026
2457.51556433801,0.0330093483522147
2453.78640566679,0.0313599487577687
2450.05724699556,0.0307910224580984
2446.32808832433,0.0303198980516647
2442.59892965311,0.029077167029657
2438.86977098188,0.0275617890558683
2435.14061231066,0.0261436779012576
2431.41145363943,0.0248613718157656
2427.6822949682,0.0239949237183565
2423.95313629698,0.0230135896938996
2420.22397762575,0.0225205941399246
2416.49481895452,0.0227235647958837
2412.7656602833,0.0227860697055566
2409.03650161207,0.0215398239167127
2405.30734294085,0.0197599635857921
2401.57818426962,0.018069061430058
2397.84902559839,0.0174319685939708
2394.11986692717,0.0174462027257208
2390.39070825594,0.0178817615591903
2386.66154958471,0.0201903521513155
2382.93239091349,0.0270446129719165
2379.20323224226,0.0404903641954344
2375.47407357104,0.0585300110491385
2371.74491489981,0.075221558882567
2368.01575622858,0.0862009942462446
2364.28659755736,0.0887741842448479
2360.55743888613,0.0795736134088953
2356.8282802149,0.0586758036499865
2353.09912154368,0.0427546573119738
2349.36996287245,0.0470236068577773
2345.64080420122,0.0593705377771227
2341.91164553,0.0631449751758155
2338.18248685877,0.0601007946831044
2334.45332818755,0.0534605098857047
2330.72416951632,0.0444299480186779
2326.99501084509,0.0358926635957146
2323.26585217387,0.0283781788747579
2319.53669350264,0.0214216011398824
2315.80753483141,0.0160874185391781
2312.07837616019,0.0131223394514949
2308.34921748896,0.0111174890332742
2304.62005881774,0.00953661030213659
2300.89090014651,0.00848891388898475
2297.16174147528,0.00891486918144294
2293.43258280406,0.0121401634962562
2289.70342413283,0.0178947660266664
2285.9742654616,0.0251036232503345
2282.24510679038,0.0322994337583398
2278.51594811915,0.0368178635923732
2274.78678944793,0.0381346070145705
2271.0576307767,0.0378924694327095
2267.32847210547,0.0367976958221557
2263.59931343425,0.0359783270838984
2259.87015476302,0.035167498227927
2256.14099609179,0.0340424843266424
2252.41183742057,0.0321339230879414
2248.68267874934,0.0309958276329791
2244.95352007812,0.0298384491092887
2241.22436140689,0.0299010074274832
2237.49520273566,0.0309209482425373
2233.76604406444,0.0319684642846832
2230.03688539321,0.0324666321102983
2226.30772672198,0.0339554030726196
2222.57856805076,0.0360085727228336
2218.84940937953,0.0393174548291424
2215.1202507083,0.0436460604154207
2211.39109203708,0.0475628975144296
2207.66193336585,0.0489555148505389
2203.93277469463,0.0495067539023358
2200.2036160234,0.0513000894712478
2196.47445735217,0.0542963091302016
2192.74529868095,0.0598943923109974
2189.01614000972,0.068763002177588
2185.28698133849,0.0788715421659942
2181.55782266727,0.0853096051747927
2177.82866399604,0.0893821420369374
2174.09950532482,0.0931027370719367
2170.37034665359,0.104297352950833
2166.64118798236,0.127184152431782
2162.91202931114,0.156244255151954
2159.18287063991,0.160461460046847
2155.45371196868,0.144538716067787
2151.72455329746,0.127887399495022
2147.99539462623,0.116964372507408
2144.26623595501,0.106392466396744
2140.53707728378,0.0972457506326372
2136.80791861255,0.0858772188646382
2133.07875994133,0.0713293148098163
2129.3496012701,0.0568762650289607
2125.62044259887,0.0464453334431794
2121.89128392765,0.040141276843782
2118.16212525642,0.0362313379246088
2114.4329665852,0.0341052543093116
2110.70380791397,0.0325590802476619
2106.97464924274,0.0319673064709021
2103.24549057152,0.0319225382020424
2099.51633190029,0.031918592836279
2095.78717322906,0.0291321525443327
2092.05801455784,0.0246711411916285
2088.32885588661,0.0206953793536794
2084.59969721538,0.0184780418653372
2080.87053854416,0.0168130111401765
2077.14137987293,0.0165696501355103
2073.41222120171,0.0166735382631584
2069.68306253048,0.0183481200923807
2065.95390385925,0.0201129129036883
2062.22474518803,0.0210953291673816
2058.4955865168,0.0209602902633243
2054.76642784557,0.0228109646150771
2051.03726917435,0.0279754862622107
2047.30811050312,0.033380831373032
2043.5789518319,0.0358521284082417
2039.84979316067,0.0392643635697704
2036.12063448944,0.0435046369768127
2032.39147581822,0.0442543977369062
2028.66231714699,0.0417115582517447
2024.93315847576,0.0384874319827895
2021.20399980454,0.0355502517103389
2017.47484113331,0.0323631193699756
2013.74568246209,0.0311285269387793
2010.01652379086,0.029859225852674
2006.28736511963,0.0263536159623459
2002.55820644841,0.0214247641608977
1998.82904777718,0.0195715375192254
1995.09988910595,0.0200505939373371
1991.37073043473,0.0215058955161565
1987.6415717635,0.021940922198483
1983.91241309228,0.025954546325288
1980.18325442105,0.0318959220719769
1976.45409574982,0.0359925768166091
1972.7249370786,0.0354061173930681
1968.99577840737,0.0335385551667217
1965.26661973614,0.029714227488573
1961.53746106492,0.0255525347172545
1957.80830239369,0.0204532976808322
1954.07914372246,0.016020743566087
1950.34998505124,0.0129867618553046
1946.62082638001,0.0112064983766471
1942.89166770879,0.00837236858137988
1939.16250903756,0.00477854451522745
1935.43335036633,0.00209446777924944
1931.70419169511,0.000313687528488786
1927.97503302388,0.000309487224392669
1924.24587435265,0.00104575787343372
1920.51671568143,0.000680824914201848
1916.7875570102,-0.00164151235943156
1913.05839833898,-0.00287290699530914
1909.32923966775,-0.00369482027057392
1905.60008099652,-0.00477337369966052
1901.8709223253,-0.00516363785203587
1898.14176365407,-0.00446871747378036
1894.41260498284,-0.00364306746409202
1890.68344631162,-0.00404099805348326
1886.95428764039,-0.00610234573236791
1883.22512896917,-0.00716340073966337
1879.49597029794,-0.00725490479275517
1875.76681162671,-0.00482399766809249
1872.03765295549,-0.000876224926254492
1868.30849428426,-0.00184067195177177
1864.57933561303,-0.00525390554196778
1860.85017694181,-0.00619557194286102
1857.12101827058,-0.00644505041137677
1853.39185959936,-0.00507437889379753
1849.66270092813,-0.000394633574133124
1845.9335422569,0.00188799859945194
1842.20438358568,-0.00202778478915651
1838.47522491445,-0.00392167983773534
1834.74606624322,-0.000422671651689514
1831.016907572,0.00324036105011133
1827.28774890077,0.00227693880941452
1823.55859022954,-0.000758713868608195
1819.82943155832,-0.00121908299264871
1816.10027288709,-2.30725057980159E-05
1812.37111421587,0.000695475048142971
1808.64195554464,0.000337110387702734
1804.91279687341,0.00222151647514179
1801.18363820219,0.00390620383157538
1797.45447953096,0.0058049420833033
1793.72532085973,0.00615361151460359
1789.99616218851,0.00230958919589851
1786.26700351728,0.000848034303334369
1782.53784484606,0.00174995344095029
1778.80868617483,0.00511008659762445
1775.0795275036,0.0112456318626439
1771.35036883238,0.00946569519317981
1767.62121016115,0.00552160306662433
1763.89205148992,0.0077404088645958
1760.1628928187,0.0114650566114028
1756.43373414747,0.0162320108460932
1752.70457547625,0.0220167887460015
1748.97541680502,0.022484875113608
1745.24625813379,0.0241819489154244
1741.51709946257,0.0364897444059506
1737.78794079134,0.0623294605921863
1734.05878212011,0.0900907418524567
1730.32962344889,0.0931330565700817
1726.60046477766,0.0792234332486591
1722.87130610643,0.0622546625269551
1719.14214743521,0.0456301398033419
1715.41298876398,0.0237262100286765
1711.68383009276,0.0124421481996479
1707.95467142153,0.0145030838569578
1704.2255127503,0.0227713736732578
1700.49635407908,0.0235532149014777
1696.76719540785,0.0110431380046236
1693.03803673662,0.00369022841530437
1689.3088780654,0.00997259641200172
1685.57971939417,0.0144113279044847
1681.85056072295,0.0068369902147766
1678.12140205172,0.00538060151852747
1674.39224338049,0.00805023785209895
1670.66308470927,0.00485135672479142
1666.93392603804,-0.000271874816937109
1663.20476736681,-0.00217453074259426
1659.47560869559,0.00363799617119866
1655.74645002436,0.0177339360807068
1652.01729135314,0.017438090069576
1648.28813268191,0.00765707895022072
1644.55897401068,0.00022180721179157
1640.82981533946,0.00311575316803817
1637.10065666823,0.00869394249016889
1633.371497997,0.00363963114838116
1629.64233932578,0.00685725882886697
1625.91318065455,0.0147387701789381
1622.18402198333,0.0179199492657279
1618.4548633121,0.0160894639742034
1614.72570464087,0.00921948440782198
1610.99654596965,0.00607286666537055
1607.26738729842,0.00582327810179633
1603.53822862719,0.00465108354758029
1599.80906995597,0.00381872231578205
1596.07991128474,0.00230875235817175
1592.35075261351,-0.00142540754822329
1588.62159394229,-0.00531793407322377
1584.89243527106,-0.0061288642608427
1581.16327659984,-0.00178036342615231
1577.43411792861,0.00253307150228143
1573.70495925738,0.00188091441143302
1569.97580058616,0.00140483797390605
1566.24664191493,0.00526468627074639
1562.5174832437,0.0214392953059256
1558.78832457248,0.0244581799793296
1555.05916590125,0.00899630300230243
1551.33000723003,0.00474149634712575
1547.6008485588,0.0136380252427865
1543.87168988757,0.0287027101357424
1540.14253121635,0.0249525106460985
1536.41337254512,0.0146589100658844
1532.68421387389,0.0128579562544931
1528.95505520267,0.0178946953587594
1525.22589653144,0.0280927304743645
1521.49673786022,0.0307576812761583
1517.76757918899,0.0260526231547097
1514.03842051776,0.0281435494075195
1510.30926184654,0.0405972709339192
1506.58010317531,0.0395386558544827
1502.85094450408,0.0332734542899391
1499.12178583286,0.0388456661789093
1495.39262716163,0.0445825184613317
1491.66346849041,0.0512860871948034
1487.93430981918,0.0533118433371614
1484.20515114795,0.055634042911541
1480.47599247673,0.0676349588560206
1476.7468338055,0.0861301549779765
1473.01767513427,0.103987308830401
1469.28851646305,0.127001366981165
1465.55935779182,0.163919315225159
1461.83019912059,0.189019704941741
1458.10104044937,0.180696423088194
1454.37188177814,0.156003642624263
1450.64272310692,0.14152609239346
1446.91356443569,0.11903416539604
1443.18440576446,0.0929335384764172
1439.45524709324,0.0761773900670293
1435.72608842201,0.0610012226801887
1431.99692975078,0.0482396429973174
1428.26777107956,0.0411138394501569
1424.53861240833,0.038966841411712
1420.80945373711,0.0373160371466391
1417.08029506588,0.027321778153231
1413.35113639465,0.0188754638719394
1409.62197772343,0.0162531397516785
1405.8928190522,0.0159610923470566
1402.16366038097,0.0171921965577492
1398.43450170975,0.0187994119264154
1394.70534303852,0.0167463606338047
1390.9761843673,0.0163369514235226
1387.24702569607,0.0183819886614246
1383.51786702484,0.0212653824100899
1379.78870835362,0.0316463444683101
1376.05954968239,0.0505414258330014
1372.33039101116,0.0759707099704893
1368.60123233994,0.101260094562306
1364.87207366871,0.103024216127687
1361.14291499749,0.0753286868656928
1357.41375632626,0.0507667458997886
1353.68459765503,0.0388020504386281
1349.95543898381,0.0333006213758479
1346.22628031258,0.0321175045098263
1342.49712164135,0.0354691783534696
1338.76796297013,0.0389717315681994
1335.0388042989,0.0393795626805243
1331.30964562767,0.0380301595805914
1327.58048695645,0.0361928441199431
1323.85132828522,0.0355267247736266
1320.122169614,0.0368401347403921
1316.39301094277,0.0400726024140527
1312.66385227154,0.0445922375423347
1308.93469360032,0.049261079853816
1305.20553492909,0.0536028773016723
1301.47637625786,0.0607895244087819
1297.74721758664,0.0775284761080138
1294.01805891541,0.114017937827751
1290.28890024419,0.185022328119756
1286.55974157296,0.292952730902611
1282.83058290173,0.354779461779602
1279.10142423051,0.302933918082675
1275.37226555928,0.241708519259628
1271.64310688805,0.201298346867853
1267.91394821683,0.15813738845478
1264.1847895456,0.138918597621015
1260.45563087438,0.146877971485557
1256.72647220315,0.166009195726749
1252.99731353192,0.188684651764212
1249.2681548607,0.207919060281083
1245.53899618947,0.216851896600081
1241.80983751824,0.213142061693191
1238.08067884702,0.20099969454908
1234.35152017579,0.185849112765127
1230.62236150457,0.171787803335351
1226.89320283334,0.16070165632827
1223.16404416211,0.153738863596711
1219.43488549089,0.150180867153398
1215.70572681966,0.150847634244958
1211.97656814843,0.15719092746599
1208.24740947721,0.165477933982248
1204.51825080598,0.168884595269936
1200.78909213475,0.172978756451543
1197.05993346353,0.184317600441477
1193.3307747923,0.204852753866177
1189.60161612108,0.238720233404954
1185.87245744985,0.279578669018891
1182.14329877862,0.30044537898097
1178.4141401074,0.288908431456918
1174.68498143617,0.258143377297061
1170.95582276494,0.220470891378298
1167.22666409372,0.186229138739573
1163.49750542249,0.166134502714717
1159.76834675127,0.164594496142039
1156.03918808004,0.179530650369069
1152.31002940881,0.208307065616513
1148.58087073759,0.259509467979173
1144.85171206636,0.320059789562956
1141.12255339513,0.331406159903923
1137.39339472391,0.284863687271787
1133.66423605268,0.230970375805252
1129.93507738146,0.18822501718009
1126.20591871023,0.154456416417507
1122.476760039,0.13347496732187
1118.74760136778,0.124108834715369
1115.01844269655,0.12346072934171
1111.28928402532,0.12972311952946
1107.5601253541,0.140149908346607
1103.83096668287,0.153374249351836
1100.10180801165,0.173727259501523
1096.37264934042,0.20464572563223
1092.64349066919,0.249540609874739
1088.91433199797,0.315867158726841
1085.18517332674,0.418573056328097
1081.45601465551,0.582047213797311
1077.72685598429,0.840705529010994
1073.99769731306,1.22358967753701
1070.26853864183,1.65554809778026
1066.53937997061,1.7514989459529
1062.81022129938,1.46040110950494
1059.08106262816,1.12992988402703
1055.35190395693,0.869241597650121
1051.6227452857,0.686975624297579
1047.89358661448,0.560142206469337
1044.16442794325,0.47073698995841
1040.43526927202,0.413971178018338
1036.7061106008,0.389574703604048
1032.97695192957,0.379868298540047
1029.24779325835,0.351566682746299
1025.51863458712,0.29294148025468
1021.78947591589,0.229539372128323
1018.06031724467,0.181003129836483
1014.33115857344,0.148586365897149
1010.60199990221,0.126908795463392
1006.87284123099,0.111852554445828
1003.14368255976,0.100800051885618
999.414523888535,0.09282028902819
995.685365217309,0.0874654447515801
991.956206546083,0.0844346062485068
988.227047874856,0.0831774356449264
984.49788920363,0.083477568543995
980.768730532404,0.0851276828324262
977.039571861178,0.0881374776931467
973.310413189951,0.09290187556194
969.581254518725,0.099415348576508
965.852095847499,0.108010111057446
962.122937176272,0.119426845589222
958.393778505046,0.133826563810589
954.66461983382,0.150370859781873
950.935461162594,0.169177020608919
947.206302491367,0.19075559811555
943.477143820141,0.216369225849421
939.747985148915,0.247633224846429
936.018826477688,0.288502912829181
932.289667806462,0.343770275297876
928.560509135236,0.41928664148598
924.83135046401,0.519743574742401
921.102191792783,0.649157409434999
917.373033121557,0.799311093197472
913.643874450331,0.936983170277592
909.914715779104,1.00844714213884
906.185557107878,0.992079883495024
902.456398436652,0.905214935165105
898.727239765426,0.785490751392106
894.998081094199,0.667654771567036
891.268922422973,0.572005979699567
887.539763751747,0.502706110901865
883.81060508052,0.453516106101484
880.081446409294,0.416712469669626
876.352287738068,0.385051857761498
872.623129066842,0.356931801967404
868.893970395615,0.331526064949445
865.164811724389,0.308409801947765
861.435653053163,0.286570352215972
857.706494381936,0.267164744467381
853.97733571071,0.253098834879659
850.248177039484,0.249626301860315
846.519018368258,0.248905050790206
842.789859697031,0.231947636755846
839.060701025805,0.205269212076872
835.331542354579,0.185506979139112
831.602383683352,0.170299695013113
827.873225012126,0.156258584996048
824.1440663409,0.141983158214552
820.414907669674,0.129197728051118
816.685748998447,0.117785329672459
812.956590327221,0.107747352891125
809.227431655995,0.0991046507641885
805.498272984768,0.0913949173099741
801.769114313542,0.0853632191870048
798.039955642316,0.0810924242931898
794.31079697109,0.0767109426196657
790.581638299863,0.0716668451327447
786.852479628637,0.0673532176868519
783.123320957411,0.066060536868012
779.394162286184,0.0724779007133001
775.665003614958,0.0879936841550859
771.935844943732,0.0884319708759912
768.206686272506,0.0652930091220183
764.477527601279,0.0495381393909058
760.748368930053,0.0443224206919979
757.019210258827,0.0418007548062126
753.2900515876,0.0403511888029498
749.560892916374,0.0397405517966847
745.831734245148,0.0387415833403532
742.102575573922,0.0377637147021151
738.373416902695,0.0405962569014572
734.644258231469,0.0442006824600069
730.915099560243,0.0419087337661859
727.185940889016,0.0392803032923238
723.45678221779,0.0397508490564915
719.727623546564,0.0416458314528126
715.998464875338,0.0445744367601822
712.269306204111,0.0502442247866975
708.540147532885,0.0686850659667539
704.810988861659,0.100368043248944
701.081830190432,0.113435383191163
697.352671519206,0.0932922317725265
693.62351284798,0.0829432916610309
689.894354176754,0.0927041553855861
686.165195505527,0.142907111511778
682.436036834301,0.21794963384801
678.706878163075,0.24255041829742
674.977719491848,0.24642139357173
671.248560820622,0.253896627612462
667.519402149396,0.244830623318921
663.790243478169,0.236090057624355
660.061084806943,0.234718786718796
656.331926135717,0.240709114890463
652.602767464491,0.228493710017173
648.873608793276,0.213425503044641
