Wavenumbercm-1,02:46:52
2998.24357166583,0.189317392007473
2994.5144129946,0.218664617781489
2990.78525432337,0.251940991565174
2987.05609565215,0.30872142801158
2983.32693698092,0.34786189664155
2979.59777830969,0.331179177314637
2975.86861963847,0.293072536983112
2972.13946096724,0.268622397096735
2968.41030229601,0.269930120250683
2964.68114362479,0.272149567320705
2960.95198495356,0.281067441194726
2957.22282628234,0.294093520077245
2953.49366761111,0.310529771461824
2949.76450893988,0.314792075603358
2946.03535026866,0.30178220578896
2942.30619159743,0.29005991669454
2938.5770329262,0.297300172248433
2934.84787425498,0.304144677988405
2931.11871558375,0.300380533626754
2927.38955691253,0.297592869926434
2923.6603982413,0.311210911232553
2919.93123957007,0.321339104239992
2916.20208089885,0.305176972687757
2912.47292222762,0.282339722773084
2908.74376355639,0.275574710443389
2905.01460488517,0.281789151392214
2901.28544621394,0.293347084921043
2897.55628754272,0.301831288977614
2893.82712887149,0.305766254261845
2890.09797020026,0.315498126237178
2886.36881152904,0.330819919783584
2882.63965285781,0.357789225864546
2878.91049418658,0.382754086504742
2875.18133551536,0.374484373044191
2871.45217684413,0.355805526820363
2867.72301817291,0.360321251402226
2863.99385950168,0.359466994689264
2860.26470083045,0.343186423777625
2856.53554215923,0.327800370366732
2852.806383488,0.319422033989035
2849.07722481677,0.307118843437541
2845.34806614555,0.307286057665171
2841.61890747432,0.295537046750569
2837.88974880309,0.259063878014901
2834.16059013187,0.224006926693796
2830.43143146064,0.197399989457481
2826.70227278942,0.174999922262498
2822.97311411819,0.155114375853793
2819.24395544696,0.139070909044359
2815.51479677574,0.126999106010093
2811.78563810451,0.114962269974809
2808.05647943328,0.102340109907283
2804.32732076206,0.0954128165766986
2800.59816209083,0.0887222802826468
2796.86900341961,0.0815552200010358
2793.13984474838,0.0754410551882986
2789.41068607715,0.0685654430362607
2785.68152740593,0.0612389012029745
2781.9523687347,0.057612384655632
2778.22321006347,0.0556026328912626
2774.49405139225,0.0522870123371156
2770.76489272102,0.0486189133840921
2767.0357340498,0.0454221615461425
2763.30657537857,0.0431321700186769
2759.57741670734,0.0425975722687775
2755.84825803612,0.0427014043697319
2752.11909936489,0.0425076079311405
2748.38994069366,0.0421060752988489
2744.66078202244,0.0427718707686439
2740.93162335121,0.0451968517798604
2737.20246467999,0.0482363776707291
2733.47330600876,0.0512374273251705
2729.74414733753,0.0526659450865293
2726.01498866631,0.0521110610841385
2722.28582999508,0.0492573259549904
2718.55667132385,0.0459417873639372
2714.82751265263,0.0423881173921898
2711.0983539814,0.0390758302701125
2707.36919531017,0.0375613899830897
2703.64003663895,0.0382857648355762
2699.91087796772,0.0398621456783871
2696.1817192965,0.0428518297916741
2692.45256062527,0.0467034757119921
2688.72340195404,0.0492246021700544
2684.99424328282,0.049218451394863
2681.26508461159,0.0470064539224471
2677.53592594036,0.0425693061612136
2673.80676726914,0.0388911887763747
2670.07760859791,0.0372645802049215
2666.34844992669,0.036291884424817
2662.61929125546,0.0366731261732497
2658.89013258423,0.0376413587914914
2655.16097391301,0.0367053465234828
2651.43181524178,0.0335713480920924
2647.70265657055,0.029998859308065
2643.97349789933,0.0272300220371192
2640.2443392281,0.0271364819481928
2636.51518055688,0.0278418836128616
2632.78602188565,0.0279939217307361
2629.05686321442,0.028196625681653
2625.3277045432,0.0290574947347447
2621.59854587197,0.0304620969004351
2617.86938720074,0.032378319998631
2614.14022852952,0.0342291520533491
2610.41106985829,0.0360753970172228
2606.68191118707,0.0378909704939976
2602.95275251584,0.0395266300260226
2599.22359384461,0.0402336496525418
2595.49443517339,0.041043380915111
2591.76527650216,0.0430347344340043
2588.03611783093,0.0461493309390777
2584.30695915971,0.0506154700315705
2580.57780048848,0.0560344357859193
2576.84864181725,0.0641066122488973
2573.11948314603,0.0769824403601921
2569.3903244748,0.0918405355168591
2565.66116580358,0.10083329334559
2561.93200713235,0.100791951439495
2558.20284846112,0.0928341065672755
2554.4736897899,0.0834921971514858
2550.74453111867,0.0779586288535728
2547.01537244744,0.0763674292361586
2543.28621377622,0.0725274854738137
2539.55705510499,0.0635739181857892
2535.82789643377,0.0537673158230136
2532.09873776254,0.0478916232539705
2528.36957909131,0.0451113977582052
2524.64042042009,0.043554886884757
2520.91126174886,0.0428581922503253
2517.18210307763,0.0429987679736877
2513.45294440641,0.0443744582789992
2509.72378573518,0.0459225273918701
2505.99462706396,0.0472077697968149
2502.26546839273,0.048918581457984
2498.5363097215,0.0512304941761117
2494.80715105028,0.0526255390188424
2491.07799237905,0.052531486174081
2487.34883370782,0.0513642444822325
2483.6196750366,0.0499526126510395
2479.89051636537,0.0478467069775188
2476.16135769415,0.0454759918404215
2472.43219902292,0.0430346285503019
2468.70304035169,0.0409400065511135
2464.97388168047,0.0384882959889595
2461.24472300924,0.035608579809838
2457.51556433801,0.0329121451165025
2453.78640566679,0.0313976002447555
2450.05724699556,0.0308602635100206
2446.32808832433,0.0302610235247814
2442.59892965311,0.0293072244498941
2438.86977098188,0.0279405530422294
2435.14061231066,0.0264205290853326
2431.41145363943,0.0252352268669251
2427.6822949682,0.0243543716261126
2423.95313629698,0.0232430871391524
2420.22397762575,0.0225084268442501
2416.49481895452,0.0226360354386617
2412.7656602833,0.0228364063131388
2409.03650161207,0.0213262245612693
2405.30734294085,0.0194237292933027
2401.57818426962,0.018197633356821
2397.84902559839,0.0177188845808142
2394.11986692717,0.0174897647634209
2390.39070825594,0.0178417182738583
2386.66154958471,0.0201669224222556
2382.93239091349,0.0272237093364934
2379.20323224226,0.0405333916791867
2375.47407357104,0.0578775272692356
2371.74491489981,0.0743219771448496
2368.01575622858,0.0853843078421512
2364.28659755736,0.0881869276031841
2360.55743888613,0.0791537376368636
2356.8282802149,0.0580458312097699
2353.09912154368,0.041994449967531
2349.36996287245,0.0461940424781786
2345.64080420122,0.058434814041732
2341.91164553,0.0620875282462572
2338.18248685877,0.0590004473162477
2334.45332818755,0.0527139797546934
2330.72416951632,0.044168444561131
2326.99501084509,0.0356658756323173
2323.26585217387,0.0280548143184512
2319.53669350264,0.0213065527562055
2315.80753483141,0.0162672129357529
2312.07837616019,0.0135099286810842
2308.34921748896,0.0113323348257695
2304.62005881774,0.00931579210693759
2300.89090014651,0.00822908882683028
2297.16174147528,0.00885635435316247
2293.43258280406,0.0118499288011889
2289.70342413283,0.0174812816871147
2285.9742654616,0.0250182181171872
2282.24510679038,0.0322956145372736
2278.51594811915,0.0368027271799428
2274.78678944793,0.0381483419709963
2271.0576307767,0.0378079700854166
2267.32847210547,0.036812247485187
2263.59931343425,0.0364337501958843
2259.87015476302,0.0357564911957177
2256.14099609179,0.0340165565437956
2252.41183742057,0.031518593439088
2248.68267874934,0.0304568800871478
2244.95352007812,0.0298011108170815
2241.22436140689,0.0301581776790074
2237.49520273566,0.0309823932693452
2233.76604406444,0.0320565461757988
2230.03688539321,0.0329779461295893
2226.30772672198,0.0340954889967545
2222.57856805076,0.0358381889890992
2218.84940937953,0.0393912287718219
2215.1202507083,0.043142878847485
2211.39109203708,0.0465536333359028
2207.66193336585,0.048672089783882
2203.93277469463,0.0504389009240777
2200.2036160234,0.0522932306695248
2196.47445735217,0.0543998262742669
2192.74529868095,0.0593800080545561
2189.01614000972,0.0675585621343736
2185.28698133849,0.0777807166158449
2181.55782266727,0.0853362874138309
2177.82866399604,0.0894956693121632
2174.09950532482,0.0923315399629267
2170.37034665359,0.103394643875778
2166.64118798236,0.127022445312527
2162.91202931114,0.155262307668546
2159.18287063991,0.15868628252609
2155.45371196868,0.143764662148021
2151.72455329746,0.127901765564549
2147.99539462623,0.117446533999567
2144.26623595501,0.107297905965095
2140.53707728378,0.0978166380491809
2136.80791861255,0.0857060175720939
2133.07875994133,0.0710462510129904
2129.3496012701,0.0571320794158617
2125.62044259887,0.0470555733814458
2121.89128392765,0.0402213113867972
2118.16212525642,0.0357280619602845
2114.4329665852,0.0336690758755652
2110.70380791397,0.0325052200689014
2106.97464924274,0.0321739349296621
2103.24549057152,0.0319287000254684
2099.51633190029,0.0314804889702877
2095.78717322906,0.0286359949142518
2092.05801455784,0.0243582553310488
2088.32885588661,0.0202469636395466
2084.59969721538,0.0181538820915015
2080.87053854416,0.0168534958707634
2077.14137987293,0.0163732317326129
2073.41222120171,0.0161882947657543
2069.68306253048,0.018067302865757
2065.95390385925,0.0202156349783442
2062.22474518803,0.0211026372608262
2058.4955865168,0.0206523999187229
2054.76642784557,0.0226400261432306
2051.03726917435,0.0279505272047206
2047.30811050312,0.0334870268176584
2043.5789518319,0.0360549015215981
2039.84979316067,0.0391722302360282
2036.12063448944,0.0426876897116023
2032.39147581822,0.0433332960689376
2028.66231714699,0.0415613223074267
2024.93315847576,0.0386207374022634
2021.20399980454,0.0352104039328062
2017.47484113331,0.0321157157457323
2013.74568246209,0.0313844391986853
2010.01652379086,0.0296969312448955
2006.28736511963,0.0258265963768939
2002.55820644841,0.0211096817084388
1998.82904777718,0.0196147382242437
1995.09988910595,0.0202103524183934
1991.37073043473,0.0212916225439194
1987.6415717635,0.0213631276717837
1983.91241309228,0.0253493699658144
1980.18325442105,0.0317036018365051
1976.45409574982,0.0362394413080161
1972.7249370786,0.0354639450420657
1968.99577840737,0.0329135791028677
1965.26661973614,0.0285868459940166
1961.53746106492,0.0246339045736803
1957.80830239369,0.0198975753760384
1954.07914372246,0.0152659181434957
1950.34998505124,0.0121063273140976
1946.62082638001,0.010521262400582
1942.89166770879,0.00788165177213605
1939.16250903756,0.00449498276266568
1935.43335036633,0.00193690866044134
1931.70419169511,8.39987398079087E-05
1927.97503302388,-5.89429473247166E-05
1924.24587435265,0.000696564116011661
1920.51671568143,0.000411252343294681
1916.7875570102,-0.00186457449015032
1913.05839833898,-0.00319575188418845
1909.32923966775,-0.00413853936487255
1905.60008099652,-0.0052060103673258
1901.8709223253,-0.00557429745863167
1898.14176365407,-0.00480288653726139
1894.41260498284,-0.00384537553016828
1890.68344631162,-0.00418769300567665
1886.95428764039,-0.00617606375113384
1883.22512896917,-0.00718334628769769
1879.49597029794,-0.00736100133595201
1875.76681162671,-0.00501973097277578
1872.03765295549,-0.00119698053338524
1868.30849428426,-0.00233500313924365
1864.57933561303,-0.00580782455657248
1860.85017694181,-0.00665113920282757
1857.12101827058,-0.00677201180357157
1853.39185959936,-0.00537855861470125
1849.66270092813,-0.000824305728757826
1845.9335422569,0.00143057179910874
1842.20438358568,-0.0023861008884944
1838.47522491445,-0.00427667189419773
1834.74606624322,-0.000763918089844226
1831.016907572,0.00292058308969178
1827.28774890077,0.00191834184960876
1823.55859022954,-0.00114268946831769
1819.82943155832,-0.00162191146291884
1816.10027288709,-0.000389419053447763
1812.37111421587,0.000375176605227407
1808.64195554464,3.76744538330038E-05
1804.91279687341,0.00193592588017821
1801.18363820219,0.00356974597569757
1797.45447953096,0.0054254645063705
1793.72532085973,0.00579016679654446
1789.99616218851,0.00198493651301607
1786.26700351728,0.000498640351434615
1782.53784484606,0.00136099397082224
1778.80868617483,0.00473495606317507
1775.0795275036,0.0108821138987574
1771.35036883238,0.00904831694255081
1767.62121016115,0.00506540172127548
1763.89205148992,0.00730703913059609
1760.1628928187,0.0110359734029796
1756.43373414747,0.015778946164475
1752.70457547625,0.0215518254565869
1748.97541680502,0.0220606525778747
1745.24625813379,0.0237732553478338
1741.51709946257,0.036016074585553
1737.78794079134,0.061774050029662
1734.05878212011,0.0893357299391995
1730.32962344889,0.0921970310227805
1726.60046477766,0.0782803025634968
1722.87130610643,0.0613451542240051
1719.14214743521,0.044777663244535
1715.41298876398,0.0229804928265478
1711.68383009276,0.0117929716227699
1707.95467142153,0.013990576768209
1704.2255127503,0.0223999868949295
1700.49635407908,0.0231525549713416
1696.76719540785,0.0105598839131618
1693.03803673662,0.00317536680016471
1689.3088780654,0.00945617847088186
1685.57971939417,0.0138920986773397
1681.85056072295,0.00630122731828736
1678.12140205172,0.00486362976526872
1674.39224338049,0.0075411362362123
1670.66308470927,0.0043437407211239
1666.93392603804,-0.000819634552245522
1663.20476736681,-0.00280756796487443
1659.47560869559,0.00297740211165738
1655.74645002436,0.0171153241105577
1652.01729135314,0.0168223918877631
1648.28813268191,0.00700646364238513
1644.55897401068,-0.000439176327559726
1640.82981533946,0.00245613611639945
1637.10065666823,0.00801978234832912
1633.371497997,0.00300164116107185
1629.64233932578,0.00622409538903307
1625.91318065455,0.0139789630609305
1622.18402198333,0.0171325434950725
1618.4548633121,0.0154319581918933
1614.72570464087,0.00863036529262939
1610.99654596965,0.00546006388373278
1607.26738729842,0.00522637186647722
1603.53822862719,0.00412180379595031
1599.80906995597,0.00330822821240599
1596.07991128474,0.00176209213737966
1592.35075261351,-0.00198806081638393
1588.62159394229,-0.00583495947185472
1584.89243527106,-0.00656670315692003
1581.16327659984,-0.00212403289601433
1577.43411792861,0.0022145155551927
1573.70495925738,0.00152356734478494
1569.97580058616,0.00101103559397587
1566.24664191493,0.00485334586041799
1562.5174832437,0.0210750886965737
1558.78832457248,0.0240884500835772
1555.05916590125,0.00859216585948458
1551.33000723003,0.0043602790292704
1547.6008485588,0.0133100280807964
1543.87168988757,0.0284003934919833
1540.14253121635,0.0245709148379627
1536.41337254512,0.0142216729465584
1532.68421387389,0.0124582726531021
1528.95505520267,0.0175679267054841
1525.22589653144,0.0277742778396686
1521.49673786022,0.0303931611391566
1517.76757918899,0.0256740731754887
1514.03842051776,0.0278063384867512
1510.30926184654,0.0403170892847705
1506.58010317531,0.0392084773402979
1502.85094450408,0.0329170897445593
1499.12178583286,0.0385091222684036
1495.39262716163,0.0442472307410927
1491.66346849041,0.0509649860656971
1487.93430981918,0.0529468128736278
1484.20515114795,0.05520571632519
1480.47599247673,0.0672037078627485
1476.7468338055,0.0857629532599749
1473.01767513427,0.103635451960359
1469.28851646305,0.126599070469762
1465.55935779182,0.163530453037124
1461.83019912059,0.188709482824212
1458.10104044937,0.18039804843794
1454.37188177814,0.155676459415947
1450.64272310692,0.14119136396985
1446.91356443569,0.118669901891274
1443.18440576446,0.0925693162803334
1439.45524709324,0.075809905400806
1435.72608842201,0.0605854904420761
1431.99692975078,0.0478164949421565
1428.26777107956,0.0406932620306277
1424.53861240833,0.0385181632842912
1420.80945373711,0.0368532031850147
1417.08029506588,0.0268509445086374
1413.35113639465,0.0184055019829355
1409.62197772343,0.0158026121553436
1405.8928190522,0.0155129776667648
1402.16366038097,0.0167414982743042
1398.43450170975,0.0183614744022446
1394.70534303852,0.0162974645770021
1390.9761843673,0.0158696084701831
1387.24702569607,0.0179004699868219
1383.51786702484,0.0207509633394552
1379.78870835362,0.0311016538713797
1376.05954968239,0.0499877593694268
1372.33039101116,0.075403528178396
1368.60123233994,0.100703211158051
1364.87207366871,0.102472190042607
1361.14291499749,0.074760682152409
1357.41375632626,0.0502268072256429
1353.68459765503,0.0382909080057782
1349.95543898381,0.0327851884617309
1346.22628031258,0.0316076550730135
1342.49712164135,0.0349898932801539
1338.76796297013,0.0385123785374755
1335.0388042989,0.0389252839289198
1331.30964562767,0.0375549549847214
1327.58048695645,0.0356918093138876
1323.85132828522,0.0350287359006186
1320.122169614,0.0363424221749272
1316.39301094277,0.039564771425487
1312.66385227154,0.0440831526855255
1308.93469360032,0.0487450341335667
1305.20553492909,0.0530739683793033
1301.47637625786,0.0602395478308577
1297.74721758664,0.076924437114332
1294.01805891541,0.113304882615353
1290.28890024419,0.184039382140819
1286.55974157296,0.291381402222945
1282.83058290173,0.352589842507817
1279.10142423051,0.300850910782053
1275.37226555928,0.240029063645157
1271.64310688805,0.199934778160083
1267.91394821683,0.157005522659355
1264.1847895456,0.137904172006018
1260.45563087438,0.14586682505804
1256.72647220315,0.164973222051613
1252.99731353192,0.18765675106694
1249.2681548607,0.20692857484565
1245.53899618947,0.215914816605218
1241.80983751824,0.212264428430207
1238.08067884702,0.200173516646218
1234.35152017579,0.185069438723494
1230.62236150457,0.171020573389485
1226.89320283334,0.159928649371526
1223.16404416211,0.152973952094675
1219.43488549089,0.14944962354493
1215.70572681966,0.150149116666655
1211.97656814843,0.156485539799139
1208.24740947721,0.164733992228907
1204.51825080598,0.168124775449497
1200.78909213475,0.172251301207719
1197.05993346353,0.183594817338064
1193.3307747923,0.204051561485393
1189.60161612108,0.237748624599839
1185.87245744985,0.278397757671069
1182.14329877862,0.299143251335041
1178.4141401074,0.287611630863187
1174.68498143617,0.256915740830456
1170.95582276494,0.219358464489357
1167.22666409372,0.185220911846396
1163.49750542249,0.165132427126484
1159.76834675127,0.16353018075354
1156.03918808004,0.178346261836509
1152.31002940881,0.206922558749493
1148.58087073759,0.257883050716448
1144.85171206636,0.318142424428258
1141.12255339513,0.329317190362063
1137.39339472391,0.282900419899512
1133.66423605268,0.229301705986871
1129.93507738146,0.186878958509221
1126.20591871023,0.153346359457579
1122.476760039,0.132501176725174
1118.74760136778,0.123230026237747
1115.01844269655,0.122664902905989
1111.28928402532,0.128962192015755
1107.5601253541,0.139401309190504
1103.83096668287,0.152680411008354
1100.10180801165,0.173089373259862
1096.37264934042,0.204030445942275
1092.64349066919,0.248954192167871
1088.91433199797,0.31532326027743
1085.18517332674,0.418074402356388
1081.45601465551,0.581643864043954
1077.72685598429,0.840512809005762
1073.99769731306,1.2237723741065
1070.26853864183,1.65588388884772
1066.53937997061,1.75120616694159
1062.81022129938,1.46001889844941
1059.08106262816,1.1290894584518
1055.35190395693,0.868011291163833
1051.6227452857,0.685856281566897
1047.89358661448,0.559232997901142
1044.16442794325,0.469938728660595
1040.43526927202,0.413238206363824
1036.7061106008,0.388896370747447
1032.97695192957,0.379283553780623
1029.24779325835,0.351025764566076
1025.51863458712,0.292403536696037
1021.78947591589,0.228990022857819
1018.06031724467,0.180435741243527
1014.33115857344,0.148015833691174
1010.60199990221,0.126335291651756
1006.87284123099,0.111271723031713
1003.14368255976,0.100217307690186
999.414523888535,0.0922248765330644
995.685365217309,0.0868473493376119
991.956206546083,0.0838144410939256
988.227047874856,0.0825545421118927
984.49788920363,0.0828625863165867
980.768730532404,0.0845371612609996
977.039571861178,0.0875725700324604
973.310413189951,0.0923512148759163
969.581254518725,0.0988651444942143
965.852095847499,0.1074542846162
962.122937176272,0.11886016467018
958.393778505046,0.133283696386532
954.66461983382,0.149869975201516
950.935461162594,0.168695324863029
947.206302491367,0.190275430023648
943.477143820141,0.2158806723608
939.747985148915,0.247155720692365
936.018826477688,0.288050670952368
932.289667806462,0.343331320295627
928.560509135236,0.41886797630585
924.83135046401,0.519376237992402
921.102191792783,0.648877747945713
917.373033121557,0.799120604082615
913.643874450331,0.936900207667528
909.914715779104,1.00840675786554
906.185557107878,0.991842902489523
902.456398436652,0.904678285934716
898.727239765426,0.784812410081414
894.998081094199,0.666974529061924
891.268922422973,0.571257537453654
887.539763751747,0.501904491812385
883.81060508052,0.452730797509608
880.081446409294,0.415929166365008
876.352287738068,0.384270590064507
872.623129066842,0.356174586604557
868.893970395615,0.330840746983515
865.164811724389,0.307776105274701
861.435653053163,0.285888904155443
857.706494381936,0.26638563811077
853.97733571071,0.25226921374282
850.248177039484,0.24879026569285
846.519018368258,0.248023326624538
842.789859697031,0.2310975841097
839.060701025805,0.204460346268339
835.331542354579,0.184683797075958
831.602383683352,0.169531615072819
827.873225012126,0.15552244646247
824.1440663409,0.141240193411591
820.414907669674,0.128407355036265
816.685748998447,0.116992002454831
812.956590327221,0.10700320777128
809.227431655995,0.0983750444786688
805.498272984768,0.0906726338008746
801.769114313542,0.0846068200368656
798.039955642316,0.0803167719823722
794.31079697109,0.0759116769822429
790.581638299863,0.0708527564794995
786.852479628637,0.066565137265844
783.123320957411,0.0652217606773154
779.394162286184,0.0714923914582427
775.665003614958,0.0869294379816606
771.935844943732,0.0874804262568528
768.206686272506,0.0645034471563516
764.477527601279,0.048768313028745
760.748368930053,0.0435107094770698
757.019210258827,0.0409690452988952
753.2900515876,0.039546293608906
749.560892916374,0.0389753499400727
745.831734245148,0.0379476519190522
742.102575573922,0.0368945423821659
738.373416902695,0.03966668773709
734.644258231469,0.0433242759564106
730.915099560243,0.0411196463589737
727.185940889016,0.0385222677060857
723.45678221779,0.0389805132051505
719.727623546564,0.0408626692359279
715.998464875338,0.0437360841583225
712.269306204111,0.0494724576483804
708.540147532885,0.0680306722039194
704.810988861659,0.0993646420364167
701.081830190432,0.111948400626655
697.352671519206,0.0918027634422486
693.62351284798,0.0816840930371799
689.894354176754,0.091840711841648
686.165195505527,0.142058391358498
682.436036834301,0.216448841557114
678.706878163075,0.240737593711867
674.977719491848,0.244603328741745
671.248560820622,0.252160547861205
667.519402149396,0.243703343267121
663.790243478169,0.23551817012311
660.061084806943,0.233805356273688
656.331926135717,0.239009821506742
652.602767464491,0.226279254352698
648.873608793276,0.212174397545717
