Wavenumbercm-1,03:11:52
2998.24357166583,0.193860603193636
2994.5144129946,0.219703437064013
2990.78525432337,0.249363274642358
2987.05609565215,0.306524868836277
2983.32693698092,0.345999938189971
2979.59777830969,0.326895000731183
2975.86861963847,0.288821784713569
2972.13946096724,0.267934312497996
2968.41030229601,0.269796212859123
2964.68114362479,0.269685401050604
2960.95198495356,0.279544385040229
2957.22282628234,0.293968726043979
2953.49366761111,0.309831825434118
2949.76450893988,0.313139148892923
2946.03535026866,0.298710468738645
2942.30619159743,0.28860938980522
2938.5770329262,0.298667765838835
2934.84787425498,0.30498432132099
2931.11871558375,0.297840208135924
2927.38955691253,0.291418435032922
2923.6603982413,0.305012580605894
2919.93123957007,0.319003614109166
2916.20208089885,0.306299088186219
2912.47292222762,0.284057322406806
2908.74376355639,0.274629677720093
2905.01460488517,0.27879266377757
2901.28544621394,0.292078804734988
2897.55628754272,0.301403314880336
2893.82712887149,0.304494072985188
2890.09797020026,0.313950156404532
2886.36881152904,0.327902775311969
2882.63965285781,0.35466775158052
2878.91049418658,0.381275237435805
2875.18133551536,0.374649968965436
2871.45217684413,0.354602778075964
2867.72301817291,0.35688295904061
2863.99385950168,0.356748768744006
2860.26470083045,0.342128503482421
2856.53554215923,0.328059889936764
2852.806383488,0.320190536460807
2849.07722481677,0.307067473440724
2845.34806614555,0.304986577400087
2841.61890747432,0.292340067569392
2837.88974880309,0.257793703345568
2834.16059013187,0.223427207492605
2830.43143146064,0.196632742347891
2826.70227278942,0.175349291653279
2822.97311411819,0.155757770523702
2819.24395544696,0.138848131871378
2815.51479677574,0.126259034710692
2811.78563810451,0.114614093151376
2808.05647943328,0.102746608247818
2804.32732076206,0.0953699871824308
2800.59816209083,0.0883457088033642
2796.86900341961,0.0821564316448123
2793.13984474838,0.0766010679973366
2789.41068607715,0.068891793639768
2785.68152740593,0.0608475900051373
2781.9523687347,0.0573605669434646
2778.22321006347,0.0554619891380511
2774.49405139225,0.0516433335741198
2770.76489272102,0.0475105163673186
2767.0357340498,0.0444144797681887
2763.30657537857,0.0424858218261714
2759.57741670734,0.0421160414011846
2755.84825803612,0.0420098560167012
2752.11909936489,0.041747617755495
2748.38994069366,0.0415079831398099
2744.66078202244,0.0427285207138031
2740.93162335121,0.045909310203264
2737.20246467999,0.0487345670001365
2733.47330600876,0.0511966239204359
2729.74414733753,0.052688468756298
2726.01498866631,0.0524703340198498
2722.28582999508,0.0499151318687436
2718.55667132385,0.04625849699032
2714.82751265263,0.0420325225489194
2711.0983539814,0.0384636248522282
2707.36919531017,0.0369003856325513
2703.64003663895,0.0379967508669656
2699.91087796772,0.0400651650757156
2696.1817192965,0.0432094963350454
2692.45256062527,0.0469029608966825
2688.72340195404,0.0491282264596223
2684.99424328282,0.0493036173630822
2681.26508461159,0.0472987963571338
2677.53592594036,0.0429404627561435
2673.80676726914,0.0390568701592895
2670.07760859791,0.0368065546491865
2666.34844992669,0.0360110880951623
2662.61929125546,0.0369430688344244
2658.89013258423,0.0376173948353026
2655.16097391301,0.0364571216619229
2651.43181524178,0.0337160168623673
2647.70265657055,0.0306027717071725
2643.97349789933,0.0275306612842774
2640.2443392281,0.0263331123653997
2636.51518055688,0.0265140999410602
2632.78602188565,0.0270003156350441
2629.05686321442,0.0280675772158577
2625.3277045432,0.0297516508612691
2621.59854587197,0.0314494730574175
2617.86938720074,0.0333893956023189
2614.14022852952,0.0347623822273155
2610.41106985829,0.035610163644552
2606.68191118707,0.0367637123849946
2602.95275251584,0.0387445081859067
2599.22359384461,0.0399762704676797
2595.49443517339,0.0409407041610426
2591.76527650216,0.0431177197642885
2588.03611783093,0.0457544513744394
2584.30695915971,0.0494971538071305
2580.57780048848,0.0549289987427944
2576.84864181725,0.0634650246187011
2573.11948314603,0.0770263042007216
2569.3903244748,0.0924521975901484
2565.66116580358,0.101153838899177
2561.93200713235,0.100183789366395
2558.20284846112,0.0922873205868353
2554.4736897899,0.0837647200184556
2550.74453111867,0.0785444022526516
2547.01537244744,0.076853770384315
2543.28621377622,0.0727439923021276
2539.55705510499,0.063483045412821
2535.82789643377,0.0534232279140531
2532.09873776254,0.0472240845548635
2528.36957909131,0.0448108225086062
2524.64042042009,0.0439529652125303
2520.91126174886,0.0427130009415701
2517.18210307763,0.0417640191837924
2513.45294440641,0.0433184810685553
2509.72378573518,0.0460033660279958
2505.99462706396,0.0479310035371879
2502.26546839273,0.0495237702576401
2498.5363097215,0.0509485823621611
2494.80715105028,0.0515813893627596
2491.07799237905,0.0517941613878533
2487.34883370782,0.0510199063123036
2483.6196750366,0.0499508283056627
2479.89051636537,0.0486963058912266
2476.16135769415,0.0470144865395096
2472.43219902292,0.0444674620731253
2468.70304035169,0.0411124092931752
2464.97388168047,0.0375760209159224
2461.24472300924,0.0349273079688175
2457.51556433801,0.0326539217690502
2453.78640566679,0.0311103339502734
2450.05724699556,0.0302183429868754
2446.32808832433,0.0293852414507847
2442.59892965311,0.0284782588917266
2438.86977098188,0.0276329681425076
2435.14061231066,0.0266674663376818
2431.41145363943,0.0252167409986531
2427.6822949682,0.0239712462601211
2423.95313629698,0.023034073461895
2420.22397762575,0.0225243622871549
2416.49481895452,0.0223702842690316
2412.7656602833,0.0222152120338945
2409.03650161207,0.0210508469270192
2405.30734294085,0.0196340647440148
2401.57818426962,0.0183118962450523
2397.84902559839,0.017615071162156
2394.11986692717,0.0174297443898488
2390.39070825594,0.0178128013262697
2386.66154958471,0.0200747994229149
2382.93239091349,0.027076609393779
2379.20323224226,0.0404504669554237
2375.47407357104,0.0580823702803667
2371.74491489981,0.0747313833246524
2368.01575622858,0.0855591977417899
2364.28659755736,0.087858365081932
2360.55743888613,0.0787718824551912
2356.8282802149,0.0580734304259461
2353.09912154368,0.0421528464245768
2349.36996287245,0.046223310564841
2345.64080420122,0.0585937658754343
2341.91164553,0.0625160096711366
2338.18248685877,0.0592510440224033
2334.45332818755,0.052642485594036
2330.72416951632,0.0442517773747464
2326.99501084509,0.036015743343676
2323.26585217387,0.0282842450780613
2319.53669350264,0.0212745237603082
2315.80753483141,0.0159964814729212
2312.07837616019,0.0131963722799169
2308.34921748896,0.0112284006569411
2304.62005881774,0.0095312829300646
2300.89090014651,0.00864325967820901
2297.16174147528,0.00898221558317448
2293.43258280406,0.0117757706428303
2289.70342413283,0.017537744271627
2285.9742654616,0.0250891020526153
2282.24510679038,0.0326123243825943
2278.51594811915,0.0372237180738274
2274.78678944793,0.0382455487657901
2271.0576307767,0.0377574690911895
2267.32847210547,0.0369208866641779
2263.59931343425,0.036599047021613
2259.87015476302,0.0358345804879794
2256.14099609179,0.0342179374272321
2252.41183742057,0.0319399281642228
2248.68267874934,0.030745750958949
2244.95352007812,0.0294185778478264
2241.22436140689,0.0295831597361536
2237.49520273566,0.0307853686046438
2233.76604406444,0.0319622892754118
2230.03688539321,0.0328168969795431
2226.30772672198,0.0344149692036195
2222.57856805076,0.0364248776537704
2218.84940937953,0.0394793785459405
2215.1202507083,0.043357030893075
2211.39109203708,0.0472521888570012
2207.66193336585,0.0490363335858477
2203.93277469463,0.05008364914658
2200.2036160234,0.0517662399721577
2196.47445735217,0.0544349824271777
2192.74529868095,0.0601811203983465
2189.01614000972,0.0690646991087367
2185.28698133849,0.0791589826605682
2181.55782266727,0.0854098544282283
2177.82866399604,0.0895394646724384
2174.09950532482,0.0932398999591447
2170.37034665359,0.103368714815614
2166.64118798236,0.125541260743643
2162.91202931114,0.154660725225178
2159.18287063991,0.159248608428461
2155.45371196868,0.144610186179512
2151.72455329746,0.128877938453304
2147.99539462623,0.117872466121517
2144.26623595501,0.107215610373417
2140.53707728378,0.0976588970942535
2136.80791861255,0.0856447008256516
2133.07875994133,0.0710515764142982
2129.3496012701,0.0566285897864599
2125.62044259887,0.046032173510303
2121.89128392765,0.0396039854020446
2118.16212525642,0.0354637369094113
2114.4329665852,0.0333340055052626
2110.70380791397,0.0322387086447154
2106.97464924274,0.0316779389062459
2103.24549057152,0.0311894376292461
2099.51633190029,0.0310948224731813
2095.78717322906,0.0283829726282233
2092.05801455784,0.0239796334318835
2088.32885588661,0.0201585367532323
2084.59969721538,0.0183740185623562
2080.87053854416,0.0172232020551385
2077.14137987293,0.0167217097968237
2073.41222120171,0.0164456193543134
2069.68306253048,0.0184784997381744
2065.95390385925,0.0207858426130571
2062.22474518803,0.0216166223412844
2058.4955865168,0.0208770505238669
2054.76642784557,0.0224718457481539
2051.03726917435,0.02727429052828
2047.30811050312,0.0324402269489708
2043.5789518319,0.0354736401946672
2039.84979316067,0.0390688263423718
2036.12063448944,0.0428548841593563
2032.39147581822,0.0438778323499803
2028.66231714699,0.0417253805573561
2024.93315847576,0.0386670380015891
2021.20399980454,0.0360990723244661
2017.47484113331,0.0327982879905964
2013.74568246209,0.030658997400407
2010.01652379086,0.0289610519903818
2006.28736511963,0.0257903400869489
2002.55820644841,0.0209435609892151
1998.82904777718,0.0193849530879773
1995.09988910595,0.0203714712284875
1991.37073043473,0.0215668776406231
1987.6415717635,0.0211979924076634
1983.91241309228,0.0249809576082932
1980.18325442105,0.0318491625310942
1976.45409574982,0.0367677463649165
1972.7249370786,0.0359395531781223
1968.99577840737,0.0338618724869872
1965.26661973614,0.0298414545123854
1961.53746106492,0.0252711281326864
1957.80830239369,0.0200105563709222
1954.07914372246,0.0156319588900534
1950.34998505124,0.0127711899814854
1946.62082638001,0.0110519462670346
1942.89166770879,0.00785705745874869
1939.16250903756,0.004078998666956
1935.43335036633,0.00181997912973813
1931.70419169511,0.000513506554541672
1927.97503302388,0.000539722349217207
1924.24587435265,0.00103662870317006
1920.51671568143,0.000587736906120983
1916.7875570102,-0.00173111395433209
1913.05839833898,-0.00303303177350839
1909.32923966775,-0.00392455751206628
1905.60008099652,-0.00506514774693227
1901.8709223253,-0.00553105949586924
1898.14176365407,-0.00479124886448599
1894.41260498284,-0.0037819585201646
1890.68344631162,-0.00403025989819006
1886.95428764039,-0.00613352024772696
1883.22512896917,-0.00722054404639867
1879.49597029794,-0.00736312676848203
1875.76681162671,-0.00506201959375754
1872.03765295549,-0.00114830342487828
1868.30849428426,-0.00212144801991675
1864.57933561303,-0.00552808278034506
1860.85017694181,-0.00643393880243277
1857.12101827058,-0.00663171489254574
1853.39185959936,-0.00523293647192346
1849.66270092813,-0.000571612707498088
1845.9335422569,0.00162744431806397
1842.20438358568,-0.00225962265439601
1838.47522491445,-0.00407001861381879
1834.74606624322,-0.000546129252747242
1831.016907572,0.00312712833720053
1827.28774890077,0.0021330691977529
1823.55859022954,-0.000929516353967922
1819.82943155832,-0.00139316915666676
1816.10027288709,-0.000186057160995614
1812.37111421587,0.000553743080204635
1808.64195554464,0.000234133048971348
1804.91279687341,0.00210710207697183
1801.18363820219,0.00372164870620497
1797.45447953096,0.00562606898530302
1793.72532085973,0.00601310973480978
1789.99616218851,0.00215500046491602
1786.26700351728,0.00066862785107001
1782.53784484606,0.00154808623140405
1778.80868617483,0.00491148982077585
1775.0795275036,0.0110659566203082
1771.35036883238,0.00928307211662693
1767.62121016115,0.00533531967360326
1763.89205148992,0.00757110230135316
1760.1628928187,0.0112823011254787
1756.43373414747,0.0160445823041784
1752.70457547625,0.0218748398701127
1748.97541680502,0.0223607191616886
1745.24625813379,0.0239993295090924
1741.51709946257,0.0362175170414743
1737.78794079134,0.0620544718150462
1734.05878212011,0.0897794789796555
1730.32962344889,0.0926972539293403
1726.60046477766,0.0787273070586483
1722.87130610643,0.0617575732580173
1719.14214743521,0.0451967028892741
1715.41298876398,0.0233992185043215
1711.68383009276,0.0121441771662737
1707.95467142153,0.0142613796764772
1704.2255127503,0.0226780012739572
1700.49635407908,0.0234590351859841
1696.76719540785,0.0108618680197022
1693.03803673662,0.00351455639086556
1689.3088780654,0.00980451202582706
1685.57971939417,0.0141784690580105
1681.85056072295,0.0065675951327537
1678.12140205172,0.00515797724351679
1674.39224338049,0.00786466207574642
1670.66308470927,0.00468093252688576
1666.93392603804,-0.000461859732967003
1663.20476736681,-0.00244205688381215
1659.47560869559,0.00333147838283228
1655.74645002436,0.0174713427368239
1652.01729135314,0.0171921770523943
1648.28813268191,0.00738646617039097
1644.55897401068,-2.52151035743246E-05
1640.82981533946,0.00290242248068092
1637.10065666823,0.00840010511176411
1633.371497997,0.00329784126726974
1629.64233932578,0.0065672741192124
1625.91318065455,0.0144222868885449
1622.18402198333,0.0175783298751915
1618.4548633121,0.0157921939245531
1614.72570464087,0.00892728300928969
1610.99654596965,0.00576345100904772
1607.26738729842,0.00555178686757696
1603.53822862719,0.00444768581477089
1599.80906995597,0.00363205236658699
1596.07991128474,0.00207697609704959
1592.35075261351,-0.00168803672335669
1588.62159394229,-0.00558345256403517
1584.89243527106,-0.00637419916684718
1581.16327659984,-0.00195442740040049
1577.43411792861,0.00238992649342488
1573.70495925738,0.00172556941727351
1569.97580058616,0.00123889583455543
1566.24664191493,0.00508421434076681
1562.5174832437,0.0212931191092432
1558.78832457248,0.0243129490735129
1555.05916590125,0.00883958308804834
1551.33000723003,0.00462124716737633
1547.6008485588,0.0135561066575122
1543.87168988757,0.0286224103876879
1540.14253121635,0.0247857891728336
1536.41337254512,0.0144250617594221
1532.68421387389,0.0126216530594923
1528.95505520267,0.0177084049047876
1525.22589653144,0.0279855091877625
1521.49673786022,0.030657214236271
1517.76757918899,0.0258929710989386
1514.03842051776,0.0280049449962122
1510.30926184654,0.0405178607026733
1506.58010317531,0.0394100099647955
1502.85094450408,0.0331085811723942
1499.12178583286,0.0386897063802172
1495.39262716163,0.0444389551855109
1491.66346849041,0.0511778634803784
1487.93430981918,0.0531993910119542
1484.20515114795,0.0554938886860333
1480.47599247673,0.0674933902986091
1476.7468338055,0.0860025536170657
1473.01767513427,0.103843825954881
1469.28851646305,0.126811995202478
1465.55935779182,0.163748188628066
1461.83019912059,0.188941845977517
1458.10104044937,0.180624335821542
1454.37188177814,0.155891989238755
1450.64272310692,0.141403332726507
1446.91356443569,0.118867007377853
1443.18440576446,0.0927866237046973
1439.45524709324,0.0760685161454779
1435.72608842201,0.0608346245581555
1431.99692975078,0.0480457679520339
1428.26777107956,0.0409315805812059
1424.53861240833,0.0387756987274664
1420.80945373711,0.0371136068953378
1417.08029506588,0.0271030977246951
1413.35113639465,0.0186622622688567
1409.62197772343,0.0160573606458844
1405.8928190522,0.0157607736921666
1402.16366038097,0.0169910843202586
1398.43450170975,0.0186174657881682
1394.70534303852,0.0165646406002718
1390.9761843673,0.0161402499040733
1387.24702569607,0.0181665300081996
1383.51786702484,0.0210369737165922
1379.78870835362,0.0314184772321754
1376.05954968239,0.050310149336434
1372.33039101116,0.0757235951408604
1368.60123233994,0.101007814957117
1364.87207366871,0.102773252566001
1361.14291499749,0.0750760948962369
1357.41375632626,0.0505309160847091
1353.68459765503,0.0385784339828815
1349.95543898381,0.0330671938006422
1346.22628031258,0.0318964483622206
1342.49712164135,0.0352920842921666
1338.76796297013,0.0387998290295365
1335.0388042989,0.039192873567145
1331.30964562767,0.0378389726758915
1327.58048695645,0.0359836423954292
1323.85132828522,0.0353004223107552
1320.122169614,0.0366075242222298
1316.39301094277,0.0398430877012326
1312.66385227154,0.0443747437451282
1308.93469360032,0.0490405907879025
1305.20553492909,0.0533667983140695
1301.47637625786,0.0605389955294112
1297.74721758664,0.0772652461797051
1294.01805891541,0.113715783439861
1290.28890024419,0.184585524182001
1286.55974157296,0.292232007175725
1282.83058290173,0.353758269645196
1279.10142423051,0.301953049905893
1275.37226555928,0.240920636940204
1271.64310688805,0.20066588832646
1267.91394821683,0.157623295331828
1264.1847895456,0.138466117257889
1260.45563087438,0.146421028836187
1256.72647220315,0.165534534217692
1252.99731353192,0.188200217693663
1249.2681548607,0.207461885266173
1245.53899618947,0.216447127742263
1241.80983751824,0.212770157324591
1238.08067884702,0.20065104130022
1234.35152017579,0.185525719715551
1230.62236150457,0.17146349723695
1226.89320283334,0.160354433330983
1223.16404416211,0.153394318911939
1219.43488549089,0.149866771600605
1215.70572681966,0.150553378285086
1211.97656814843,0.156883661646329
1208.24740947721,0.165145441974527
1204.51825080598,0.168541940929681
1200.78909213475,0.172656124782095
1197.05993346353,0.183994159661919
1193.3307747923,0.204479334134361
1189.60161612108,0.238263904895546
1185.87245744985,0.279016597245968
1182.14329877862,0.299823571899724
1178.4141401074,0.28830787896468
1174.68498143617,0.257577074079941
1170.95582276494,0.219952017777603
1167.22666409372,0.185768391949362
1163.49750542249,0.165688361152215
1159.76834675127,0.164132700933075
1156.03918808004,0.179012624626873
1152.31002940881,0.207682232587276
1148.58087073759,0.258773927288937
1144.85171206636,0.319202496157365
1141.12255339513,0.330462147896543
1137.39339472391,0.283960901115363
1133.66423605268,0.230213839342907
1129.93507738146,0.187645859241733
1126.20591871023,0.153987729117526
1122.476760039,0.133053161254758
1118.74760136778,0.123729867598339
1115.01844269655,0.12312193552569
1111.28928402532,0.129398921296909
1107.5601253541,0.139830760453201
1103.83096668287,0.153092894758314
1100.10180801165,0.173482210108456
1096.37264934042,0.204407544006306
1092.64349066919,0.249328977279708
1088.91433199797,0.315689283561113
1085.18517332674,0.418395458112605
1081.45601465551,0.58186597010637
1077.72685598429,0.840604519432642
1073.99769731306,1.22376543722852
1070.26853864183,1.65607978959705
1066.53937997061,1.75144191123617
1062.81022129938,1.46021526294744
1059.08106262816,1.12955928136978
1055.35190395693,0.868685153295821
1051.6227452857,0.686467911678607
1047.89358661448,0.559717269727891
1044.16442794325,0.470347543552556
1040.43526927202,0.413613978946174
1036.7061106008,0.389287421120186
1032.97695192957,0.37961872248528
1029.24779325835,0.351298108787891
1025.51863458712,0.292674115280167
1021.78947591589,0.229287088664239
1018.06031724467,0.180759351783718
1014.33115857344,0.148335162874741
1010.60199990221,0.126648095095521
1006.87284123099,0.111586755944637
1003.14368255976,0.10053917151747
999.414523888535,0.0925641283893642
995.685365217309,0.0872035284843871
991.956206546083,0.084175091077781
988.227047874856,0.082912190382541
984.49788920363,0.0832135301464713
980.768730532404,0.0848813044434753
977.039571861178,0.0879042267379243
973.310413189951,0.0926750283942584
969.581254518725,0.099194670430684
965.852095847499,0.107783546603807
962.122937176272,0.119180338334441
958.393778505046,0.133596768434558
954.66461983382,0.150172651214795
950.935461162594,0.16897325645335
947.206302491367,0.190541198419278
943.477143820141,0.216173943085978
939.747985148915,0.247449280001932
936.018826477688,0.288322485607917
932.289667806462,0.343601074037521
928.560509135236,0.41914670986008
924.83135046401,0.519664319717399
921.102191792783,0.649057325325742
917.373033121557,0.79910860165726
913.643874450331,0.936881272992478
909.914715779104,1.00856939107968
906.185557107878,0.99210462190817
902.456398436652,0.905063544981584
898.727239765426,0.785221695426753
894.998081094199,0.667278535279536
891.268922422973,0.571607789753826
887.539763751747,0.502299372252119
883.81060508052,0.453077954896347
880.081446409294,0.416290243127157
876.352287738068,0.384692084360315
872.623129066842,0.356630849599613
868.893970395615,0.33123401255758
865.164811724389,0.308095962118557
861.435653053163,0.286219605636062
857.706494381936,0.266801830069756
853.97733571071,0.252726028832333
850.248177039484,0.249206659500008
846.519018368258,0.248453902835016
842.789859697031,0.231529156837066
839.060701025805,0.204883790314559
835.331542354579,0.185136214415836
831.602383683352,0.169975698705553
827.873225012126,0.155947933337201
824.1440663409,0.141658215321613
820.414907669674,0.128837013913588
816.685748998447,0.117429747907074
812.956590327221,0.107425900380934
809.227431655995,0.0988083748893851
805.498272984768,0.091091720302849
801.769114313542,0.0849984365390523
798.039955642316,0.0807122829344798
794.31079697109,0.0763675696038047
790.581638299863,0.0713094981138001
786.852479628637,0.0669969046057824
783.123320957411,0.0657321725010677
779.394162286184,0.072045913911358
775.665003614958,0.0874761808093931
771.935844943732,0.0879484610444331
768.206686272506,0.0649518761517424
764.477527601279,0.0492384274365273
760.748368930053,0.0439287968054369
757.019210258827,0.0414091354009319
753.2900515876,0.0399988872614873
749.560892916374,0.0394178739495925
745.831734245148,0.0384141328685818
742.102575573922,0.0373714843370055
738.373416902695,0.0401488678376927
734.644258231469,0.0437607702389626
730.915099560243,0.0415515512656519
727.185940889016,0.0389662943286865
723.45678221779,0.0393510845789471
719.727623546564,0.0411701534254445
715.998464875338,0.0439944038275747
712.269306204111,0.0496840210608499
708.540147532885,0.0684058535158273
704.810988861659,0.100093946555843
701.081830190432,0.11284564594756
697.352671519206,0.0925960686213217
693.62351284798,0.0822959354691547
689.894354176754,0.092235008897392
686.165195505527,0.142354614540367
682.436036834301,0.217150257140289
678.706878163075,0.241935829877751
674.977719491848,0.245586849576679
671.248560820622,0.252519913272707
667.519402149396,0.244002200759459
663.790243478169,0.235991278098592
660.061084806943,0.234433907976966
656.331926135717,0.240328274364229
652.602767464491,0.228236291768576
648.873608793276,0.212919653345816
