Wavenumbercm-1,01:34:52
2998.24357166583,0.191028803747759
2994.5144129946,0.221698406027917
2990.78525432337,0.250505356902682
2987.05609565215,0.301014589307202
2983.32693698092,0.336693648854472
2979.59777830969,0.319417609241024
2975.86861963847,0.283718418733862
2972.13946096724,0.265100507260067
2968.41030229601,0.26707272093114
2964.68114362479,0.26594477677007
2960.95198495356,0.273938995146669
2957.22282628234,0.287671963031815
2953.49366761111,0.306110825974183
2949.76450893988,0.313884775611702
2946.03535026866,0.299200624041006
2942.30619159743,0.284287430546036
2938.5770329262,0.292162703025853
2934.84787425498,0.300508788867802
2931.11871558375,0.29452800958791
2927.38955691253,0.287449397117441
2923.6603982413,0.299608571399349
2919.93123957007,0.3112615926087
2916.20208089885,0.298289522104634
2912.47292222762,0.278721575550055
2908.74376355639,0.273409836141884
2905.01460488517,0.279425345375516
2901.28544621394,0.292196715202302
2897.55628754272,0.30145056168665
2893.82712887149,0.304440422551683
2890.09797020026,0.313069959520203
2886.36881152904,0.327701464416699
2882.63965285781,0.354011936029314
2878.91049418658,0.377961681836614
2875.18133551536,0.367743163617529
2871.45217684413,0.349345075149453
2867.72301817291,0.353571747296827
2863.99385950168,0.352080911219736
2860.26470083045,0.339197123649833
2856.53554215923,0.327628760944749
2852.806383488,0.319173874002662
2849.07722481677,0.305220324228341
2845.34806614555,0.302055768543962
2841.61890747432,0.287864936637436
2837.88974880309,0.253938266268229
2834.16059013187,0.220862495788159
2830.43143146064,0.194563466094623
2826.70227278942,0.17247425509077
2822.97311411819,0.152047105045056
2819.24395544696,0.136387655905993
2815.51479677574,0.125642093767776
2811.78563810451,0.113551164611053
2808.05647943328,0.0998963526643277
2804.32732076206,0.0916104168723253
2800.59816209083,0.0850196164645304
2796.86900341961,0.0783687714075318
2793.13984474838,0.0719512721823173
2789.41068607715,0.0645851843501787
2785.68152740593,0.0565452587114069
2781.9523687347,0.0520128766001274
2778.22321006347,0.050634305324478
2774.49405139225,0.0480978693639517
2770.76489272102,0.043885528666009
2767.0357340498,0.0403132139954652
2763.30657537857,0.0375175387298864
2759.57741670734,0.036081452597499
2755.84825803612,0.0362937685197293
2752.11909936489,0.0369672726368465
2748.38994069366,0.0361063386259958
2744.66078202244,0.0362852130001668
2740.93162335121,0.0396195591977267
2737.20246467999,0.0433602161789458
2733.47330600876,0.0465956293156218
2729.74414733753,0.0486702239823352
2726.01498866631,0.0480394087817067
2722.28582999508,0.0445980182508052
2718.55667132385,0.0408417741868836
2714.82751265263,0.0374120783355917
2711.0983539814,0.034832381646815
2707.36919531017,0.0337451670558438
2703.64003663895,0.0345892844819325
2699.91087796772,0.0364737553116335
2696.1817192965,0.0399430915261091
2692.45256062527,0.0443466484307399
2688.72340195404,0.047105361471228
2684.99424328282,0.0467008624488519
2681.26508461159,0.0435874951138188
2677.53592594036,0.0392084847296685
2673.80676726914,0.0357774632027437
2670.07760859791,0.0335097049890354
2666.34844992669,0.0324676907750107
2662.61929125546,0.0332285897231922
2658.89013258423,0.0342875113932859
2655.16097391301,0.0330303082918958
2651.43181524178,0.029330927854145
2647.70265657055,0.025571516125738
2643.97349789933,0.0228427009766621
2640.2443392281,0.0224866538292
2636.51518055688,0.0231532489024986
2632.78602188565,0.0231198849107931
2629.05686321442,0.0231361709626537
2625.3277045432,0.0241349833827118
2621.59854587197,0.026045284194377
2617.86938720074,0.0284855287435458
2614.14022852952,0.0298214311480086
2610.41106985829,0.0302595596879917
2606.68191118707,0.0309831896355635
2602.95275251584,0.0327230927181636
2599.22359384461,0.033835773002748
2595.49443517339,0.0340716606298791
2591.76527650216,0.0355755272447906
2588.03611783093,0.038861349762583
2584.30695915971,0.04311254461683
2580.57780048848,0.047725679368677
2576.84864181725,0.053770988745344
2573.11948314603,0.062652355892635
2569.3903244748,0.0734847942836408
2565.66116580358,0.0804877073407073
2561.93200713235,0.0793642491760111
2558.20284846112,0.0724075910990196
2554.4736897899,0.0659267482652597
2550.74453111867,0.061975911919328
2547.01537244744,0.0599374688419306
2543.28621377622,0.056507417125944
2539.55705510499,0.0499606960764577
2535.82789643377,0.0422966559679337
2532.09873776254,0.0377171881372493
2528.36957909131,0.0365992954511162
2524.64042042009,0.0363980132738759
2520.91126174886,0.0360453181078144
2517.18210307763,0.0362266053212171
2513.45294440641,0.037538310442779
2509.72378573518,0.0387330192981011
2505.99462706396,0.038998601050731
2502.26546839273,0.039717851065398
2498.5363097215,0.0416722757484707
2494.80715105028,0.0426267320623969
2491.07799237905,0.0420160738777278
2487.34883370782,0.0411970276689566
2483.6196750366,0.040689505673873
2479.89051636537,0.0394143123931237
2476.16135769415,0.0376565944285882
2472.43219902292,0.035593259879515
2468.70304035169,0.033109655683405
2464.97388168047,0.0303968611380382
2461.24472300924,0.0285973614003287
2457.51556433801,0.0274017957408335
2453.78640566679,0.0264270083664034
2450.05724699556,0.0256552596901586
2446.32808832433,0.0250546530599142
2442.59892965311,0.0245304662150809
2438.86977098188,0.0237213823887852
2435.14061231066,0.0225889525757962
2431.41145363943,0.0216400518061856
2427.6822949682,0.0207464524626996
2423.95313629698,0.0198164382988918
2420.22397762575,0.0196094894197028
2416.49481895452,0.019906746408839
2412.7656602833,0.0198209994398505
2409.03650161207,0.0181535452867594
2405.30734294085,0.0165454144014348
2401.57818426962,0.0157563071565566
2397.84902559839,0.0154272502084725
2394.11986692717,0.0150285370806862
2390.39070825594,0.0149927152159307
2386.66154958471,0.0170149958868391
2382.93239091349,0.0237664106750427
2379.20323224226,0.0366568379453097
2375.47407357104,0.0529824407645314
2371.74491489981,0.0678036746900035
2368.01575622858,0.0776854494640502
2364.28659755736,0.0799493836924736
2360.55743888613,0.0711769707494265
2356.8282802149,0.0514820764261855
2353.09912154368,0.0367453518878874
2349.36996287245,0.0408415786757914
2345.64080420122,0.0524706620261718
2341.91164553,0.0561714017892118
2338.18248685877,0.0533468664362509
2334.45332818755,0.0474237562515286
2330.72416951632,0.0397230238930165
2326.99501084509,0.0319034262255946
2323.26585217387,0.0242488223125757
2319.53669350264,0.0175467625913034
2315.80753483141,0.0130819257644679
2312.07837616019,0.0106889943557817
2308.34921748896,0.00889903677661393
2304.62005881774,0.00740859944191087
2300.89090014651,0.00607748326153884
2297.16174147528,0.00532293578230803
2293.43258280406,0.00668769321251276
2289.70342413283,0.011131573977034
2285.9742654616,0.0177792097541285
2282.24510679038,0.024201861919053
2278.51594811915,0.0274985028333955
2274.78678944793,0.0283619043005022
2271.0576307767,0.0284761019164067
2267.32847210547,0.0274590707228339
2263.59931343425,0.0265479215680514
2259.87015476302,0.0264598496630145
2256.14099609179,0.0262543048825215
2252.41183742057,0.0252297157103674
2248.68267874934,0.0251790367948724
2244.95352007812,0.0251135851425728
2241.22436140689,0.0257386638111597
2237.49520273566,0.0272895258308479
2233.76604406444,0.0290249468903929
2230.03688539321,0.0299872363621454
2226.30772672198,0.0315076817540893
2222.57856805076,0.0336686568687297
2218.84940937953,0.0372696045771598
2215.1202507083,0.0411000469594934
2211.39109203708,0.0439176126704687
2207.66193336585,0.045131415828116
2203.93277469463,0.0466096346433453
2200.2036160234,0.0491906397649677
2196.47445735217,0.0520259410247199
2192.74529868095,0.0573860060083666
2189.01614000972,0.0666245229763156
2185.28698133849,0.0766033100802351
2181.55782266727,0.0829170611226353
2177.82866399604,0.0872893731938607
2174.09950532482,0.0916112721669483
2170.37034665359,0.103339395170229
2166.64118798236,0.126667787896489
2162.91202931114,0.154574566710083
2159.18287063991,0.157856083330356
2155.45371196868,0.142895982106732
2151.72455329746,0.127691821493476
2147.99539462623,0.117003089745436
2144.26623595501,0.105895426655734
2140.53707728378,0.0967952998647031
2136.80791861255,0.0854120919547263
2133.07875994133,0.0703119267640885
2129.3496012701,0.0555610515659994
2125.62044259887,0.0453201758357531
2121.89128392765,0.0394364642047717
2118.16212525642,0.0355399540772107
2114.4329665852,0.0329069029877301
2110.70380791397,0.0313584230120327
2106.97464924274,0.0311086629996899
2103.24549057152,0.0310544348739951
2099.51633190029,0.0306416595842436
2095.78717322906,0.0276087753007744
2092.05801455784,0.0230650629036153
2088.32885588661,0.0190233865319295
2084.59969721538,0.016956732162505
2080.87053854416,0.0155076477679203
2077.14137987293,0.0149782866350894
2073.41222120171,0.0149717795919364
2069.68306253048,0.0166043487810299
2065.95390385925,0.0185835032041637
2062.22474518803,0.019970230038807
2058.4955865168,0.0197784150923549
2054.76642784557,0.0214066312139355
2051.03726917435,0.0268163126129112
2047.30811050312,0.0324122885122787
2043.5789518319,0.0343719104070517
2039.84979316067,0.0367816211891593
2036.12063448944,0.0405216028379849
2032.39147581822,0.0415680136263589
2028.66231714699,0.0391574348634726
2024.93315847576,0.0361676455681346
2021.20399980454,0.0334406390129159
2017.47484113331,0.0305834443775441
2013.74568246209,0.028819877432042
2010.01652379086,0.0265608383510778
2006.28736511963,0.0232558161534378
2002.55820644841,0.0189866663994102
1998.82904777718,0.0173816097341878
1995.09988910595,0.0180951303118829
1991.37073043473,0.0195302173898536
1987.6415717635,0.0198252406444265
1983.91241309228,0.0235586124239136
1980.18325442105,0.0302282157636315
1976.45409574982,0.0347254114453293
1972.7249370786,0.0335200345147997
1968.99577840737,0.0310467394827601
1965.26661973614,0.0271277899206344
1961.53746106492,0.0230949691885662
1957.80830239369,0.018103224624721
1954.07914372246,0.0135669989651368
1950.34998505124,0.0103133602140022
1946.62082638001,0.0084391370400888
1942.89166770879,0.0056476502072147
1939.16250903756,0.00224867011274546
1935.43335036633,-0.000231116565078634
1931.70419169511,-0.00185078746970541
1927.97503302388,-0.00198334504219494
1924.24587435265,-0.0013477655180997
1920.51671568143,-0.00168653536313304
1916.7875570102,-0.0039447912816857
1913.05839833898,-0.00532673315309242
1909.32923966775,-0.00622819584471084
1905.60008099652,-0.00727540665876438
1901.8709223253,-0.00771244902384409
1898.14176365407,-0.00715108745677979
1894.41260498284,-0.00617658331057005
1890.68344631162,-0.00645570602138507
1886.95428764039,-0.00850814863547819
1883.22512896917,-0.00957201490106164
1879.49597029794,-0.00970163200447726
1875.76681162671,-0.00747433853797671
1872.03765295549,-0.00385868796877284
1868.30849428426,-0.00483909119570448
1864.57933561303,-0.0080163362361338
1860.85017694181,-0.00873426733205364
1857.12101827058,-0.00879017397684355
1853.39185959936,-0.00736715379861473
1849.66270092813,-0.00290410385357618
1845.9335422569,-0.000753119842649069
1842.20438358568,-0.00449668843901358
1838.47522491445,-0.00623172496086634
1834.74606624322,-0.00281300211671386
1831.016907572,0.000726760776077636
1827.28774890077,-0.000275057485789312
1823.55859022954,-0.00320783870097457
1819.82943155832,-0.00370820176262354
1816.10027288709,-0.00254498446380638
1812.37111421587,-0.00181783452195813
1808.64195554464,-0.00219584918868938
1804.91279687341,-0.000532991675735767
1801.18363820219,0.00103372155355927
1797.45447953096,0.00293108722788186
1793.72532085973,0.00333960377103219
1789.99616218851,-0.000349972765182274
1786.26700351728,-0.00187662809395317
1782.53784484606,-0.00118462201775933
1778.80868617483,0.00185271762776993
1775.0795275036,0.00752698473469082
1771.35036883238,0.00556118087627983
1767.62121016115,0.00141377114022342
1763.89205148992,0.00268337367221896
1760.1628928187,0.00501180540225981
1756.43373414747,0.00850367182063664
1752.70457547625,0.0133722302211812
1748.97541680502,0.0131070066564299
1745.24625813379,0.0133819091088124
1741.51709946257,0.021918546021353
1737.78794079134,0.0397749896855273
1734.05878212011,0.0561769347153942
1730.32962344889,0.0546875613050449
1726.60046477766,0.0455323023751683
1722.87130610643,0.038203896824957
1719.14214743521,0.0309430092362165
1715.41298876398,0.0144977120577071
1711.68383009276,0.00525633789602292
1707.95467142153,0.00821749847640185
1704.2255127503,0.016954594174693
1700.49635407908,0.0182971028299425
1696.76719540785,0.00649641090386869
1693.03803673662,-0.00043315364014554
1689.3088780654,0.00573867840343168
1685.57971939417,0.0101217661769621
1681.85056072295,0.0030645327907779
1678.12140205172,0.00194150134403853
1674.39224338049,0.00468429477509689
1670.66308470927,0.00176486325999245
1666.93392603804,-0.00305132756481883
1663.20476736681,-0.00488690215943616
1659.47560869559,0.000654581863753746
1655.74645002436,0.0141070843068268
1652.01729135314,0.0138572147041952
1648.28813268191,0.00454748862444634
1644.55897401068,-0.0025303981215447
1640.82981533946,0.000260666740455221
1637.10065666823,0.00540809095048247
1633.371497997,-2.4408682430801E-05
1629.64233932578,0.00208401595363011
1625.91318065455,0.00889784860485644
1622.18402198333,0.0124223052363881
1618.4548633121,0.0123046944885325
1614.72570464087,0.00746425123943181
1610.99654596965,0.00549606931984464
1607.26738729842,0.00583998981146793
1603.53822862719,0.00498227254326568
1599.80906995597,0.00431164644355583
1596.07991128474,0.00271371277940488
1592.35075261351,-0.00148439591436787
1588.62159394229,-0.0058752545507194
1584.89243527106,-0.00695118618435913
1581.16327659984,-0.00276613237033846
1577.43411792861,0.00133960579430682
1573.70495925738,0.000587485689488241
1569.97580058616,2.02240401241768E-05
1566.24664191493,0.00371589404918471
1562.5174832437,0.0192204708810827
1558.78832457248,0.0219990696100412
1555.05916590125,0.00713657600432877
1551.33000723003,0.00313458582244109
1547.6008485588,0.0117639893415438
1543.87168988757,0.0262855090155508
1540.14253121635,0.0227517943015527
1536.41337254512,0.0129823206682895
1532.68421387389,0.0113449753196578
1528.95505520267,0.0162884322368265
1525.22589653144,0.0260759972966057
1521.49673786022,0.0285613739325121
1517.76757918899,0.0241376953049606
1514.03842051776,0.0263546155453692
1510.30926184654,0.0385650531050205
1506.58010317531,0.0377664598087965
1502.85094450408,0.0319674025672431
1499.12178583286,0.0375642774419152
1495.39262716163,0.0434090930671699
1491.66346849041,0.0502061245552749
1487.93430981918,0.052692021641961
1484.20515114795,0.0555620915804223
1480.47599247673,0.0676196059651626
1476.7468338055,0.0856908951359345
1473.01767513427,0.103371573920381
1469.28851646305,0.126523004551354
1465.55935779182,0.163480642487785
1461.83019912059,0.188628809443546
1458.10104044937,0.180371233048639
1454.37188177814,0.156030112865512
1450.64272310692,0.141796310729313
1446.91356443569,0.119263620363498
1443.18440576446,0.0927939296346846
1439.45524709324,0.0753579153663139
1435.72608842201,0.0596932263494504
1431.99692975078,0.0467046978160399
1428.26777107956,0.0392557461528509
1424.53861240833,0.0366754274001441
1420.80945373711,0.0346896401835232
1417.08029506588,0.0250365679922479
1413.35113639465,0.0170947387324031
1409.62197772343,0.0146355388787726
1405.8928190522,0.0142374345036785
1402.16366038097,0.0152501961481529
1398.43450170975,0.0166262639451109
1394.70534303852,0.0144831508899815
1390.9761843673,0.0137810078991075
1387.24702569607,0.0151647089365825
1383.51786702484,0.0168611992054751
1379.78870835362,0.0249582383418955
1376.05954968239,0.0409138314133727
1372.33039101116,0.0646668557273036
1368.60123233994,0.0908104264236095
1364.87207366871,0.094531726408684
1361.14291499749,0.0681819961864784
1357.41375632626,0.0445380220072581
1353.68459765503,0.0333456775856567
1349.95543898381,0.0284389795698613
1346.22628031258,0.0277190844177365
1342.49712164135,0.0314439738747894
1338.76796297013,0.0353806895309387
1335.0388042989,0.0360368274002299
1331.30964562767,0.0343818118489301
1327.58048695645,0.0320843688335195
1323.85132828522,0.0314175698287207
1320.122169614,0.0327271184631052
1316.39301094277,0.0356232672445983
1312.66385227154,0.0396657655388433
1308.93469360032,0.0439202272376345
1305.20553492909,0.0475979914723309
1301.47637625786,0.0536710674468595
1297.74721758664,0.0681707112192874
1294.01805891541,0.097848506428034
1290.28890024419,0.147953142256816
1286.55974157296,0.216180577285421
1282.83058290173,0.249837467648874
1279.10142423051,0.212749492055021
1275.37226555928,0.171986357053658
1271.64310688805,0.147166875399663
1267.91394821683,0.121209185463141
1264.1847895456,0.110918653156851
1260.45563087438,0.118041595013182
1256.72647220315,0.13226561045662
1252.99731353192,0.148906085007246
1249.2681548607,0.163367132100085
1245.53899618947,0.170626115433035
1241.80983751824,0.169072840437084
1238.08067884702,0.161565429316142
1234.35152017579,0.1520555248168
1230.62236150457,0.143354722743599
1226.89320283334,0.136904237648755
1223.16404416211,0.133604882989971
1219.43488549089,0.132925773293206
1215.70572681966,0.135911291909117
1211.97656814843,0.144605186141939
1208.24740947721,0.154538248376262
1204.51825080598,0.15754376809322
1200.78909213475,0.160197684434748
1197.05993346353,0.16939150149459
1193.3307747923,0.184105786164543
1189.60161612108,0.206423639132744
1185.87245744985,0.233068838099993
1182.14329877862,0.24619271611497
1178.4141401074,0.237404726599727
1174.68498143617,0.214746254897088
1170.95582276494,0.186446450296945
1167.22666409372,0.159976438015827
1163.49750542249,0.144177737689869
1159.76834675127,0.143743006842435
1156.03918808004,0.154797126976201
1152.31002940881,0.169230365344718
1148.58087073759,0.195120439861359
1144.85171206636,0.229250085856985
1141.12255339513,0.233197918037401
1137.39339472391,0.201789866247557
1133.66423605268,0.167819511010058
1129.93507738146,0.142485772792537
1126.20591871023,0.123299961424288
1122.476760039,0.112286475025674
1118.74760136778,0.108723466162072
1115.01844269655,0.111173407972379
1111.28928402532,0.118882947154138
1107.5601253541,0.130570880238541
1103.83096668287,0.145857025094646
1100.10180801165,0.168033077642099
1096.37264934042,0.200021038687898
1092.64349066919,0.245723591224093
1088.91433199797,0.312780093284021
1085.18517332674,0.416159571679328
1081.45601465551,0.580281796285396
1077.72685598429,0.839843050823277
1073.99769731306,1.2244191321465
1070.26853864183,1.66035255308022
1066.53937997061,1.7616612825064
1062.81022129938,1.47169089821417
1059.08106262816,1.13500253898814
1055.35190395693,0.866080709862796
1051.6227452857,0.676613737706073
1047.89358661448,0.546266403073979
1044.16442794325,0.457685826252057
1040.43526927202,0.403826552280267
1036.7061106008,0.381984718999631
1032.97695192957,0.374225258353059
1029.24779325835,0.34742660913448
1025.51863458712,0.289638243558189
1021.78947591589,0.226474898364329
1018.06031724467,0.177931550786368
1014.33115857344,0.145417714162071
1010.60199990221,0.123595676746767
1006.87284123099,0.108385018408635
1003.14368255976,0.097274660835852
999.414523888535,0.0893151773858297
995.685365217309,0.0839663423790243
991.956206546083,0.0809300879491866
988.227047874856,0.0796460660794968
984.49788920363,0.0799163483882274
980.768730532404,0.081503121589136
977.039571861178,0.0844806752375216
973.310413189951,0.0892433642007382
969.581254518725,0.0957338465478878
965.852095847499,0.104254303255637
962.122937176272,0.115631925525485
958.393778505046,0.130093758034612
954.66461983382,0.146843031786768
950.935461162594,0.165892354273224
947.206302491367,0.187702665210176
943.477143820141,0.213470424364236
939.747985148915,0.244861613703055
936.018826477688,0.285931806250498
932.289667806462,0.34135668161441
928.560509135236,0.416934958760397
924.83135046401,0.517609796150627
921.102191792783,0.647652805020857
917.373033121557,0.798359890388709
913.643874450331,0.935954040309527
909.914715779104,1.00741968005253
906.185557107878,0.992313290176162
902.456398436652,0.905955076117761
898.727239765426,0.784562823518431
894.998081094199,0.66326585330464
891.268922422973,0.563325079974994
887.539763751747,0.489937023560241
883.81060508052,0.438015200429639
880.081446409294,0.400510917677724
876.352287738068,0.370324547718395
872.623129066842,0.34447194064005
868.893970395615,0.32079094401188
865.164811724389,0.29872766229193
861.435653053163,0.277494073780526
857.706494381936,0.258312573158303
853.97733571071,0.24322153190209
850.248177039484,0.235660282811892
846.519018368258,0.230371743591825
842.789859697031,0.215701288272477
839.060701025805,0.194866372177476
835.331542354579,0.178149891261272
831.602383683352,0.164297831278914
827.873225012126,0.151203846944255
824.1440663409,0.137566954990269
820.414907669674,0.125118775681926
816.685748998447,0.113953831700648
812.956590327221,0.104016761136553
809.227431655995,0.095403854827334
805.498272984768,0.0875737179416699
801.769114313542,0.081355906027269
798.039955642316,0.0769435560059273
794.31079697109,0.072513762191852
790.581638299863,0.0673662494403041
786.852479628637,0.0629330404264888
783.123320957411,0.0607829596364021
779.394162286184,0.0633563868389976
775.665003614958,0.0711357436438574
771.935844943732,0.0699727691625733
768.206686272506,0.0550988618485236
764.477527601279,0.0448635761180329
760.748368930053,0.0407418522436991
757.019210258827,0.0382428133271918
753.2900515876,0.0368634985338734
749.560892916374,0.0365889466102174
745.831734245148,0.0358519015287024
742.102575573922,0.0346433385574715
738.373416902695,0.0359914523260271
734.644258231469,0.038703152292784
730.915099560243,0.0378508712040136
727.185940889016,0.0363098680115813
723.45678221779,0.0367106837247387
719.727623546564,0.0386694999379545
715.998464875338,0.0414267865713515
712.269306204111,0.0457639413639188
708.540147532885,0.0583217530948058
704.810988861659,0.0793197275126219
701.081830190432,0.0894184425112668
697.352671519206,0.0796237977250159
693.62351284798,0.0763387709146923
689.894354176754,0.0863012514382139
686.165195505527,0.124234105168135
682.436036834301,0.176348274544141
678.706878163075,0.194555318552225
674.977719491848,0.201954394689942
671.248560820622,0.217881065108814
667.519402149396,0.222919931993038
663.790243478169,0.221911774165654
660.061084806943,0.22395900167585
656.331926135717,0.230423577300753
652.602767464491,0.220804635663662
648.873608793276,0.207351757152716
