Wavenumbercm-1,01:11:52
2998.24357166583,0.18891650133562
2994.5144129946,0.218398743670629
2990.78525432337,0.249703883052785
2987.05609565215,0.301550591024148
2983.32693698092,0.335735273395398
2979.59777830969,0.319367293860751
2975.86861963847,0.28449147483091
2972.13946096724,0.262862393396633
2968.41030229601,0.262541856279767
2964.68114362479,0.265656400904483
2960.95198495356,0.277383314936291
2957.22282628234,0.289104817231816
2953.49366761111,0.303754782109077
2949.76450893988,0.30709329308156
2946.03535026866,0.294261986429064
2942.30619159743,0.283114066921347
2938.5770329262,0.289787332172119
2934.84787425498,0.297637544241119
2931.11871558375,0.295233881567048
2927.38955691253,0.290994733784116
2923.6603982413,0.301716930167155
2919.93123957007,0.310956239506263
2916.20208089885,0.296209967117765
2912.47292222762,0.27592900310144
2908.74376355639,0.270435703171311
2905.01460488517,0.276599124961387
2901.28544621394,0.287879303574711
2897.55628754272,0.294535432149836
2893.82712887149,0.298113213899866
2890.09797020026,0.310710085903356
2886.36881152904,0.328436958465697
2882.63965285781,0.353018056380567
2878.91049418658,0.375390333909385
2875.18133551536,0.367502228125753
2871.45217684413,0.348789145295642
2867.72301817291,0.349631488981286
2863.99385950168,0.347421936573149
2860.26470083045,0.334316314332631
2856.53554215923,0.322726430361678
2852.806383488,0.31654659592695
2849.07722481677,0.304159918187937
2845.34806614555,0.301348056124087
2841.61890747432,0.287226487593307
2837.88974880309,0.251474730328906
2834.16059013187,0.217493067562726
2830.43143146064,0.193308469263497
2826.70227278942,0.173100763110939
2822.97311411819,0.152216274993776
2819.24395544696,0.134928372641822
2815.51479677574,0.123321372227119
2811.78563810451,0.111788600037608
2808.05647943328,0.0991302463296293
2804.32732076206,0.0907846026403892
2800.59816209083,0.0833333038871893
2796.86900341961,0.0765747257786252
2793.13984474838,0.0710538465709231
2789.41068607715,0.0640729575681271
2785.68152740593,0.0555439168662909
2781.9523687347,0.0510006636985445
2778.22321006347,0.0495658325756331
2774.49405139225,0.046769946252555
2770.76489272102,0.0429248022468617
2767.0357340498,0.0394505441784049
2763.30657537857,0.0368037438619738
2759.57741670734,0.0357975670323522
2755.84825803612,0.0355896968853619
2752.11909936489,0.0357581646515639
2748.38994069366,0.0356945154520891
2744.66078202244,0.0362622001395481
2740.93162335121,0.0384695131640031
2737.20246467999,0.0415553076095253
2733.47330600876,0.0450158138752046
2729.74414733753,0.0470069409361128
2726.01498866631,0.0468008663955354
2722.28582999508,0.044293995405753
2718.55667132385,0.0409620158669001
2714.82751265263,0.0376380906763682
2711.0983539814,0.0349158099312183
2707.36919531017,0.0330426170006431
2703.64003663895,0.0330832389544609
2699.91087796772,0.0355057705792165
2696.1817192965,0.0394527518295267
2692.45256062527,0.0432921068540534
2688.72340195404,0.0455474595635651
2684.99424328282,0.0454085902607605
2681.26508461159,0.0429400458756834
2677.53592594036,0.0386015250374447
2673.80676726914,0.0347550345130844
2670.07760859791,0.0320977218005366
2666.34844992669,0.0311954105191887
2662.61929125546,0.032502055013783
2658.89013258423,0.0332893462125882
2655.16097391301,0.0314759097815625
2651.43181524178,0.0282801835183362
2647.70265657055,0.0249460649139073
2643.97349789933,0.0218051322576943
2640.2443392281,0.0209317997188051
2636.51518055688,0.0213358586526122
2632.78602188565,0.0216520725492619
2629.05686321442,0.0223349899584552
2625.3277045432,0.0235029003819694
2621.59854587197,0.024993931057694
2617.86938720074,0.0267261089505713
2614.14022852952,0.0282842819877128
2610.41106985829,0.0298597975813346
2606.68191118707,0.0311145385582195
2602.95275251584,0.0323408083441831
2599.22359384461,0.0327261751061635
2595.49443517339,0.0331613817408379
2591.76527650216,0.034912935992373
2588.03611783093,0.0375734234261549
2584.30695915971,0.0413071600169951
2580.57780048848,0.0460724731171466
2576.84864181725,0.0523629747144444
2573.11948314603,0.0615641614458368
2569.3903244748,0.0729201642538881
2565.66116580358,0.0797218070406979
2561.93200713235,0.0782537627849162
2558.20284846112,0.0714585102542293
2554.4736897899,0.0648164469611126
2550.74453111867,0.0606250383003738
2547.01537244744,0.0590777149323823
2543.28621377622,0.056257951105212
2539.55705510499,0.049513706539563
2535.82789643377,0.0414683736610215
2532.09873776254,0.0368130117498084
2528.36957909131,0.0357406265578419
2524.64042042009,0.0356584222484031
2520.91126174886,0.0355521414808122
2517.18210307763,0.0355586822129401
2513.45294440641,0.0363632684748246
2509.72378573518,0.0376443793930796
2505.99462706396,0.0384355035656717
2502.26546839273,0.0391764977991683
2498.5363097215,0.0403263208684468
2494.80715105028,0.0408500458248115
2491.07799237905,0.0408468754489781
2487.34883370782,0.0405820623628508
2483.6196750366,0.040155284752959
2479.89051636537,0.0388799594898324
2476.16135769415,0.0368733143671336
2472.43219902292,0.0346285670905225
2468.70304035169,0.0324957869535112
2464.97388168047,0.0298610577642617
2461.24472300924,0.0277100853897253
2457.51556433801,0.0264037111725592
2453.78640566679,0.0254269780949026
2450.05724699556,0.0246165611738134
2446.32808832433,0.0238870963103911
2442.59892965311,0.0230453476967503
2438.86977098188,0.0223507540664406
2435.14061231066,0.0218596549146964
2431.41145363943,0.0208178818438412
2427.6822949682,0.0194492654820735
2423.95313629698,0.0184239053059823
2420.22397762575,0.0182477314773961
2416.49481895452,0.0187078214506792
2412.7656602833,0.0190526186068132
2409.03650161207,0.0180492816132692
2405.30734294085,0.0165028318834578
2401.57818426962,0.0151903364677733
2397.84902559839,0.0144699610080297
2394.11986692717,0.014095007330338
2390.39070825594,0.0141008832996282
2386.66154958471,0.0156911340784394
2382.93239091349,0.0216550471789417
2379.20323224226,0.0336044968829747
2375.47407357104,0.049414053773004
2371.74491489981,0.0643114792910744
2368.01575622858,0.0740110460784993
2364.28659755736,0.0756248960351985
2360.55743888613,0.0667060951895835
2356.8282802149,0.0477879233483034
2353.09912154368,0.0336084445425055
2349.36996287245,0.0375463330926895
2345.64080420122,0.0490250816472009
2341.91164553,0.0527900600312661
2338.18248685877,0.0499353155458972
2334.45332818755,0.0439926342536185
2330.72416951632,0.0363518652343335
2326.99501084509,0.0287238824076606
2323.26585217387,0.0215594595520287
2319.53669350264,0.0154118070409126
2315.80753483141,0.0112334084386949
2312.07837616019,0.00899291588876155
2308.34921748896,0.00735225752205567
2304.62005881774,0.00595425116714041
2300.89090014651,0.00480204740200452
2297.16174147528,0.0044156866899793
2293.43258280406,0.00607935187385613
2289.70342413283,0.0106771306883348
2285.9742654616,0.0172578897945521
2282.24510679038,0.0233058769600042
2278.51594811915,0.0265301688506108
2274.78678944793,0.0270834185853845
2271.0576307767,0.0268234664260928
2267.32847210547,0.0264181809819694
2263.59931343425,0.0259279438799
2259.87015476302,0.0253706585000969
2256.14099609179,0.0248168842086169
2252.41183742057,0.0238493979705178
2248.68267874934,0.0236172852640912
2244.95352007812,0.0237705026506715
2241.22436140689,0.0250273479122956
2237.49520273566,0.0264830695177802
2233.76604406444,0.0279801830023626
2230.03688539321,0.0292029375210744
2226.30772672198,0.0310140842081706
2222.57856805076,0.0330821510266737
2218.84940937953,0.0361684827166301
2215.1202507083,0.039989561038755
2211.39109203708,0.0434234226492218
2207.66193336585,0.045127384883567
2203.93277469463,0.0464470477720795
2200.2036160234,0.0484724139749173
2196.47445735217,0.0515474263008688
2192.74529868095,0.0576225762430195
2189.01614000972,0.0665218220439443
2185.28698133849,0.0761448080952795
2181.55782266727,0.0826373834192036
2177.82866399604,0.086699540836936
2174.09950532482,0.0906608901070733
2170.37034665359,0.101913238766264
2166.64118798236,0.124522874331718
2162.91202931114,0.152590516109343
2159.18287063991,0.156585526123345
2155.45371196868,0.141961855426331
2151.72455329746,0.126621282324208
2147.99539462623,0.115561921023392
2144.26623595501,0.105036938239541
2140.53707728378,0.0963168958152206
2136.80791861255,0.0845428474133922
2133.07875994133,0.0696098084227484
2129.3496012701,0.0556282787779032
2125.62044259887,0.0454446111913657
2121.89128392765,0.0386959692088542
2118.16212525642,0.0343971393786526
2114.4329665852,0.0322870805656557
2110.70380791397,0.031185163284761
2106.97464924274,0.030620062668444
2103.24549057152,0.030007069213913
2099.51633190029,0.0296363887214434
2095.78717322906,0.0268368448826712
2092.05801455784,0.0223402043037256
2088.32885588661,0.0183966705940496
2084.59969721538,0.0162369181177426
2080.87053854416,0.014817868629988
2077.14137987293,0.0146689171302573
2073.41222120171,0.0149398190260898
2069.68306253048,0.0163391715269642
2065.95390385925,0.0178003355983864
2062.22474518803,0.0187146513686596
2058.4955865168,0.0186186582666262
2054.76642784557,0.0207178700936889
2051.03726917435,0.0261826870434506
2047.30811050312,0.0312632621565016
2043.5789518319,0.0325878791873365
2039.84979316067,0.035253899005443
2036.12063448944,0.0399463431502961
2032.39147581822,0.0414323042512422
2028.66231714699,0.0394277444899435
2024.93315847576,0.0364257069748102
2021.20399980454,0.0328620706788939
2017.47484113331,0.0290920822627695
2013.74568246209,0.0273283129139516
2010.01652379086,0.0256392686148052
2006.28736511963,0.0222769351170816
2002.55820644841,0.0177902266157633
1998.82904777718,0.0164444527001802
1995.09988910595,0.0178691642111407
1991.37073043473,0.0193596506638644
1987.6415717635,0.0193294538921488
1983.91241309228,0.0235068985371222
1980.18325442105,0.0301573674877626
1976.45409574982,0.0341507948451358
1972.7249370786,0.0328961324937705
1968.99577840737,0.0303732282427527
1965.26661973614,0.0265578107739991
1961.53746106492,0.0225670844484303
1957.80830239369,0.0175366576906802
1954.07914372246,0.0130205703488915
1950.34998505124,0.00978188134162986
1946.62082638001,0.00762895745147364
1942.89166770879,0.00473897481830378
1939.16250903756,0.00160485250711854
1935.43335036633,-0.000647013429701753
1931.70419169511,-0.00227273990655235
1927.97503302388,-0.0025552349758642
1924.24587435265,-0.00220853197346893
1920.51671568143,-0.00274296833144354
1916.7875570102,-0.00476422770874852
1913.05839833898,-0.00596001677618017
1909.32923966775,-0.00680544690853617
1905.60008099652,-0.00783720463082388
1901.8709223253,-0.00832540947341639
1898.14176365407,-0.00787150948616677
1894.41260498284,-0.00712348839330566
1890.68344631162,-0.00741653168196515
1886.95428764039,-0.0091616385792416
1883.22512896917,-0.0100858718802641
1879.49597029794,-0.0103128908292935
1875.76681162671,-0.00841717233517203
1872.03765295549,-0.00499492701538771
1868.30849428426,-0.00575434593490417
1864.57933561303,-0.00882869739437264
1860.85017694181,-0.00966544457669439
1857.12101827058,-0.00971139000249298
1853.39185959936,-0.00831110198775394
1849.66270092813,-0.00414070559989906
1845.9335422569,-0.00206500504019787
1842.20438358568,-0.00541538344170223
1838.47522491445,-0.00693136939230542
1834.74606624322,-0.00368498312788252
1831.016907572,-0.000461718649943338
1827.28774890077,-0.00145971820944318
1823.55859022954,-0.00400878825992889
1819.82943155832,-0.00429742405903253
1816.10027288709,-0.00321210909106819
1812.37111421587,-0.00262268701065853
1808.64195554464,-0.00308434366939402
1804.91279687341,-0.00159026045478226
1801.18363820219,-0.00012380755156942
1797.45447953096,0.0016912042373871
1793.72532085973,0.00210497141152996
1789.99616218851,-0.00131179976022928
1786.26700351728,-0.00275617334087677
1782.53784484606,-0.00216359376498185
1778.80868617483,0.000696120761777709
1775.0795275036,0.0060612807810146
1771.35036883238,0.00421544318475362
1767.62121016115,0.000299998607493151
1763.89205148992,0.00154851143728701
1760.1628928187,0.00388999490356016
1756.43373414747,0.00722905091596605
1752.70457547625,0.0117327636606686
1748.97541680502,0.0115460635733235
1745.24625813379,0.0119697298603896
1741.51709946257,0.0202714978631349
1737.78794079134,0.0377458887619211
1734.05878212011,0.0542882007512704
1730.32962344889,0.0533866979554473
1726.60046477766,0.0441932217705252
1722.87130610643,0.0362398063958525
1719.14214743521,0.0285185094907366
1715.41298876398,0.0126893342994434
1711.68383009276,0.00383513719006714
1707.95467142153,0.00645200368884628
1704.2255127503,0.0145273197006363
1700.49635407908,0.0157616397438987
1696.76719540785,0.00476610269501195
1693.03803673662,-0.00179365716327706
1689.3088780654,0.00389526239474491
1685.57971939417,0.00799204731887799
1681.85056072295,0.00135948029262459
1678.12140205172,0.00024838130348218
1674.39224338049,0.00277799192354695
1670.66308470927,4.63968553005224E-05
1666.93392603804,-0.00444339149871901
1663.20476736681,-0.00617804210611738
1659.47560869559,-0.00101970325165604
1655.74645002436,0.0115255385209411
1652.01729135314,0.0112941041757665
1648.28813268191,0.00259947335169248
1644.55897401068,-0.00395438202999713
1640.82981533946,-0.00131086620548829
1637.10065666823,0.00357456389239858
1633.371497997,-0.00129400378389858
1629.64233932578,0.000925312966145633
1625.91318065455,0.00751045271632877
1622.18402198333,0.0109589633929415
1618.4548633121,0.0109468150506046
1614.72570464087,0.00648120074375003
1610.99654596965,0.00469350618356304
1607.26738729842,0.00506148174298928
1603.53822862719,0.00426433301470579
1599.80906995597,0.00360251234892405
1596.07991128474,0.00197316533629453
1592.35075261351,-0.0021478972313848
1588.62159394229,-0.00631767054544426
1584.89243527106,-0.00722973832622155
1581.16327659984,-0.00317683098977467
1577.43411792861,0.000644562330419363
1573.70495925738,-0.000223033103597635
1569.97580058616,-0.00091214417896535
1566.24664191493,0.00249025874644053
1562.5174832437,0.0169408518668069
1558.78832457248,0.019537566545747
1555.05916590125,0.00567099017524274
1551.33000723003,0.0020051851753624
1547.6008485588,0.0102528837937141
1543.87168988757,0.0240411771660575
1540.14253121635,0.0208522876539617
1536.41337254512,0.0116413141742883
1532.68421387389,0.0100205491713546
1528.95505520267,0.0146381577853389
1525.22589653144,0.0238105337410453
1521.49673786022,0.0261906434482669
1517.76757918899,0.0222034671356306
1514.03842051776,0.0244840974613601
1510.30926184654,0.036111400415262
1506.58010317531,0.0356605138854022
1502.85094450408,0.0305534170259702
1499.12178583286,0.036098922819618
1495.39262716163,0.0419134974066865
1491.66346849041,0.0486637560014916
1487.93430981918,0.0515821937930672
1484.20515114795,0.054920770375915
1480.47599247673,0.0668521530084429
1476.7468338055,0.0844469565700759
1473.01767513427,0.102183567219235
1469.28851646305,0.125699300285281
1465.55935779182,0.162465179074746
1461.83019912059,0.187046457898573
1458.10104044937,0.178523511133716
1454.37188177814,0.154802533244081
1450.64272310692,0.140848481005075
1446.91356443569,0.11842397446105
1443.18440576446,0.0919298183003991
1439.45524709324,0.0741816043060766
1435.72608842201,0.0586058167260301
1431.99692975078,0.0458566489663726
1428.26777107956,0.0384093857285095
1424.53861240833,0.0355849108926086
1420.80945373711,0.0333654940989907
1417.08029506588,0.0240639119241117
1413.35113639465,0.0164040759694069
1409.62197772343,0.0138692442119755
1405.8928190522,0.0133395020516402
1402.16366038097,0.0141422095398282
1398.43450170975,0.0153312426503239
1394.70534303852,0.0133569619467083
1390.9761843673,0.0128131308545098
1387.24702569607,0.0142515183040887
1383.51786702484,0.0160709657171561
1379.78870835362,0.0240468372409694
1376.05954968239,0.0398525809491525
1372.33039101116,0.0636668416287727
1368.60123233994,0.0898001404930104
1364.87207366871,0.0933446254181736
1361.14291499749,0.0671354239062598
1357.41375632626,0.0437351147922402
1353.68459765503,0.0326661979504988
1349.95543898381,0.0277991680764741
1346.22628031258,0.0270064389527065
1342.49712164135,0.0305287488084685
1338.76796297013,0.0344364343377952
1335.0388042989,0.035261375388238
1331.30964562767,0.0336517659741241
1327.58048695645,0.031343876139665
1323.85132828522,0.0306246778964353
1320.122169614,0.0318702736478205
1316.39301094277,0.0347594464844628
1312.66385227154,0.038859987548963
1308.93469360032,0.0431619249409043
1305.20553492909,0.046859470174218
1301.47637625786,0.0529328912395946
1297.74721758664,0.0674007289487515
1294.01805891541,0.0969831281764874
1290.28890024419,0.146910257267069
1286.55974157296,0.214900167285271
1282.83058290173,0.248399584572741
1279.10142423051,0.211378132754199
1275.37226555928,0.170730953599258
1271.64310688805,0.146002337602357
1267.91394821683,0.120157680108045
1264.1847895456,0.10992289934046
1260.45563087438,0.117046103571092
1256.72647220315,0.131251312848449
1252.99731353192,0.14786719336693
1249.2681548607,0.16231594949489
1245.53899618947,0.169601662481846
1241.80983751824,0.168095804247058
1238.08067884702,0.160615357758411
1234.35152017579,0.151118659415402
1230.62236150457,0.14239996118788
1226.89320283334,0.135924014690155
1223.16404416211,0.132595928724374
1219.43488549089,0.131933372396918
1215.70572681966,0.134966094508498
1211.97656814843,0.143651794895824
1208.24740947721,0.153547771957048
1204.51825080598,0.156561130877076
1200.78909213475,0.159230413304004
1197.05993346353,0.168424348250356
1193.3307747923,0.183105440311104
1189.60161612108,0.205350526731078
1185.87245744985,0.231923514128213
1182.14329877862,0.244981727971196
1178.4141401074,0.236147417126905
1174.68498143617,0.21351547894975
1170.95582276494,0.185296211765237
1167.22666409372,0.158893440264551
1163.49750542249,0.14308946101214
1159.76834675127,0.142607290249329
1156.03918808004,0.153595698367496
1152.31002940881,0.167957441342564
1148.58087073759,0.193761136982806
1144.85171206636,0.227745158278216
1141.12255339513,0.231611004218752
1137.39339472391,0.200288142029497
1133.66423605268,0.166469339454596
1129.93507738146,0.141288289541475
1126.20591871023,0.122224023598569
1122.476760039,0.11127749217157
1118.74760136778,0.107738529539815
1115.01844269655,0.110200483671211
1111.28928402532,0.117933440262646
1107.5601253541,0.129631181864116
1103.83096668287,0.144943274276382
1100.10180801165,0.167155296764654
1096.37264934042,0.199190262249141
1092.64349066919,0.244909309716773
1088.91433199797,0.311998403873951
1085.18517332674,0.415482820512711
1081.45601465551,0.57971467219755
1077.72685598429,0.839281667013661
1073.99769731306,1.22373102119675
1070.26853864183,1.65985911341335
1066.53937997061,1.76116306742408
1062.81022129938,1.47024683481425
1059.08106262816,1.13332137076285
1055.35190395693,0.864488579918578
1051.6227452857,0.675173127512419
1047.89358661448,0.545028696864876
1044.16442794325,0.456546659905484
1040.43526927202,0.402719725648585
1036.7061106008,0.380924322766591
1032.97695192957,0.373220683185354
1029.24779325835,0.346464371575817
1025.51863458712,0.288702089617766
1021.78947591589,0.225557294858401
1018.06031724467,0.177058568866495
1014.33115857344,0.144580333024017
1010.60199990221,0.122781043861627
1006.87284123099,0.107569985983867
1003.14368255976,0.0964583991940689
999.414523888535,0.0885140827151945
995.685365217309,0.0831643564320377
991.956206546083,0.0801182445909834
988.227047874856,0.0788412100671877
984.49788920363,0.0791322209301353
980.768730532404,0.0807401491561649
977.039571861178,0.0837216399514999
973.310413189951,0.088469488864626
969.581254518725,0.0949596284848397
965.852095847499,0.103501471993783
962.122937176272,0.11490131818107
958.393778505046,0.129355329392768
954.66461983382,0.146098081196874
950.935461162594,0.165159032029614
947.206302491367,0.186978118050788
943.477143820141,0.212720223537039
939.747985148915,0.244081898145315
936.018826477688,0.285147003390181
932.289667806462,0.340606880960285
928.560509135236,0.416210613419134
924.83135046401,0.516805171426955
921.102191792783,0.646815604521729
917.373033121557,0.797692074992047
913.643874450331,0.935390667988603
909.914715779104,1.00669539838996
906.185557107878,0.991404303002076
902.456398436652,0.904880022856846
898.727239765426,0.783375479377794
894.998081094199,0.662064655392872
891.268922422973,0.562150152710985
887.539763751747,0.488845274838995
883.81060508052,0.436979254026576
880.081446409294,0.399471275102589
876.352287738068,0.36930677973986
872.623129066842,0.34351350377534
868.893970395615,0.319830149054998
865.164811724389,0.297712504144257
861.435653053163,0.276492516372173
857.706494381936,0.257368890151465
853.97733571071,0.242310220993859
850.248177039484,0.234697069810589
846.519018368258,0.22933068398561
842.789859697031,0.214653889663606
839.060701025805,0.193879589480986
835.331542354579,0.177184401265387
831.602383683352,0.163309692861215
827.873225012126,0.15019400988503
824.1440663409,0.136573391156213
820.414907669674,0.124151273457681
816.685748998447,0.113003812715734
812.956590327221,0.103072655464877
809.227431655995,0.0944535797478663
805.498272984768,0.0866341764356768
801.769114313542,0.0804426597167344
798.039955642316,0.0760303334766413
794.31079697109,0.0715688290192526
790.581638299863,0.0664103176898894
786.852479628637,0.061996954731685
783.123320957411,0.0598715352640177
779.394162286184,0.0624348204995459
775.665003614958,0.0701925870540333
771.935844943732,0.0691160643735103
768.206686272506,0.0542746695781521
764.477527601279,0.0439498963494739
760.748368930053,0.0398513154001948
757.019210258827,0.0374024819770308
753.2900515876,0.0360372540491759
749.560892916374,0.0357691866650153
745.831734245148,0.0350030165081258
742.102575573922,0.033763561736375
738.373416902695,0.035157558422925
734.644258231469,0.0379362106807794
730.915099560243,0.0371514258490493
727.185940889016,0.0355368646585791
723.45678221779,0.0359366202307106
719.727623546564,0.0379603646084056
715.998464875338,0.0406487464329957
712.269306204111,0.0449114384567987
708.540147532885,0.0575304726137046
704.810988861659,0.078455383500492
701.081830190432,0.0883363117012602
697.352671519206,0.0784756120268074
693.62351284798,0.0750878437205834
689.894354176754,0.0850839724645678
686.165195505527,0.122966951654095
682.436036834301,0.175034927231341
678.706878163075,0.19322807039729
674.977719491848,0.200690450428814
671.248560820622,0.215912637140427
667.519402149396,0.220939671097478
663.790243478169,0.220938088636678
660.061084806943,0.223537133683717
656.331926135717,0.229982982757031
652.602767464491,0.219273670596091
648.873608793276,0.205953953785525
